{"query": "pumpkin food", "response": {"page": 1, "per_page": 8, "videos": [{"id": 5848514, "width": 1080, "height": 1920, "duration": 9, "full_res": null, "tags": [], "url": "https://www.pexels.com/video/table-setting-setting-for-the-thanksgiving-dinner-5848514/", "image": "https://images.pexels.com/videos/5848514/pexels-photo-5848514.jpeg?auto=compress&cs=tinysrgb&fit=crop&h=1200&w=630", "avg_color": null, "user": {"id": 3149039, "name": "RDNE Stock project", "url": "https://www.pexels.com/@rdne"}, "video_files": [{"id": 9820303, "quality": "sd", "file_type": "video/mp4", "width": 240, "height": 426, "fps": 23.97599983215332, "link": "https://videos.pexels.com/video-files/5848514/5848514-sd_240_426_24fps.mp4", "size": 334942}, {"id": 9820382, "quality": "sd", "file_type": "video/mp4", "width": 360, "height": 640, "fps": 23.97599983215332, "link": "https://videos.pexels.com/video-files/5848514/5848514-sd_360_640_24fps.mp4", "size": 543718}, {"id": 9820402, "quality": "hd", "file_type": "video/mp4", "width": 720, "height": 1280, "fps": 23.97599983215332, "link": "https://videos.pexels.com/video-files/5848514/5848514-hd_720_1280_24fps.mp4", "size": 2814364}, {"id": 9820444, "quality": "hd", "file_type": "video/mp4", "width": 1080, "height": 1920, "fps": 23.97599983215332, "link": "https://videos.pexels.com/video-files/5848514/5848514-hd_1080_1920_24fps.mp4", "size": 5564201}, {"id": 9820503, "quality": "sd", "file_type": "video/mp4", "width": 540, "height": 960, "fps": 23.97599983215332, "link": "https://videos.pexels.com/video-files/5848514/5848514-sd_540_960_24fps.mp4", "size": 1609822}], "video_pictures": [{"id": 3460888, "nr": 0, "picture": "https://images.pexels.com/videos/5848514/pictures/preview-0.jpeg"}, {"id": 3460894, "nr": 1, "picture": "https://images.pexels.com/videos/5848514/pictures/preview-1.jpeg"}, {"id": 3460901, "nr": 2, "picture": "https://images.pexels.com/videos/5848514/pictures/preview-2.jpeg"}, {"id": 3460906, "nr": 3, "picture": "https://images.pexels.com/videos/5848514/pictures/preview-3.jpeg"}, {"id": 3460910, "nr": 4, "picture": "https://images.pexels.com/videos/5848514/pictures/preview-4.jpeg"}, {"id": 3460914, "nr": 5, "picture": "https://images.pexels.com/videos/5848514/pictures/preview-5.jpeg"}, {"id": 3460919, "nr": 6, "picture": "https://images.pexels.com/videos/5848514/pictures/preview-6.jpeg"}, {"id": 3460924, "nr": 7, "picture": "https://images.pexels.com/videos/5848514/pictures/preview-7.jpeg"}, {"id": 3460930, "nr": 8, "picture": "https://images.pexels.com/videos/5848514/pictures/preview-8.jpeg"}, {"id": 3460936, "nr": 9, "picture": "https://images.pexels.com/videos/5848514/pictures/preview-9.jpeg"}, {"id": 3460939, "nr": 10, "picture": "https://images.pexels.com/videos/5848514/pictures/preview-10.jpeg"}, {"id": 3460948, "nr": 11, "picture": "https://images.pexels.com/videos/5848514/pictures/preview-11.jpeg"}, {"id": 3460955, "nr": 12, "picture": "https://images.pexels.com/videos/5848514/pictures/preview-12.jpeg"}, {"id": 3460962, "nr": 13, "picture": "https://images.pexels.com/videos/5848514/pictures/preview-13.jpeg"}, {"id": 3460973, "nr": 14, "picture": "https://images.pexels.com/videos/5848514/pictures/preview-14.jpeg"}]}, {"id": 5644956, "width": 1080, "height": 1920, "duration": 24, "full_res": null, "tags": [], "url": "https://www.pexels.com/video/honey-pouring-with-wooden-drizzler-on-baked-pumpkins-5644956/", "image": "https://images.pexels.com/videos/5644956/pexels-photo-5644956.jpeg?auto=compress&cs=tinysrgb&fit=crop&h=1200&w=630", "avg_color": null, "user": {"id": 3511482, "name": "Polina Kovaleva", "url": "https://www.pexels.com/@polina-kovaleva"}, "video_files": [{"id": 9752582, "quality": "hd", "file_type": "video/mp4", "width": 1080, "height": 1920, "fps": 25.0, "link": "https://videos.pexels.com/video-files/5644956/5644956-hd_1080_1920_25fps.mp4", "size": 13905427}, {"id": 9752660, "quality": "sd", "file_type": "video/mp4", "width": 240, "height": 426, "fps": 25.0, "link": "https://videos.pexels.com/video-files/5644956/5644956-sd_240_426_25fps.mp4", "size": 861564}, {"id": 9752813, "quality": "hd", "file_type": "video/mp4", "width": 720, "height": 1280, "fps": 25.0, "link": "https://videos.pexels.com/video-files/5644956/5644956-hd_720_1280_25fps.mp4", "size": 6758463}, {"id": 9752952, "quality": "sd", "file_type": "video/mp4", "width": 540, "height": 960, "fps": 25.0, "link": "https://videos.pexels.com/video-files/5644956/5644956-sd_540_960_25fps.mp4", "size": 3576927}, {"id": 9753119, "quality": "sd", "file_type": "video/mp4", "width": 360, "height": 640, "fps": 25.0, "link": "https://videos.pexels.com/video-files/5644956/5644956-sd_360_640_25fps.mp4", "size": 1359299}], "video_pictures": [{"id": 3132627, "nr": 0, "picture": "https://images.pexels.com/videos/5644956/pictures/preview-0.jpeg"}, {"id": 3132629, "nr": 1, "picture": "https://images.pexels.com/videos/5644956/pictures/preview-1.jpeg"}, {"id": 3132631, "nr": 2, "picture": "https://images.pexels.com/videos/5644956/pictures/preview-2.jpeg"}, {"id": 3132632, "nr": 3, "picture": "https://images.pexels.com/videos/5644956/pictures/preview-3.jpeg"}, {"id": 3132634, "nr": 4, "picture": "https://images.pexels.com/videos/5644956/pictures/preview-4.jpeg"}, {"id": 3132636, "nr": 5, "picture": "https://images.pexels.com/videos/5644956/pictures/preview-5.jpeg"}, {"id": 3132638, "nr": 6, "picture": "https://images.pexels.com/videos/5644956/pictures/preview-6.jpeg"}, {"id": 3132640, "nr": 7, "picture": "https://images.pexels.com/videos/5644956/pictures/preview-7.jpeg"}, {"id": 3132642, "nr": 8, "picture": "https://images.pexels.com/videos/5644956/pictures/preview-8.jpeg"}, {"id": 3132644, "nr": 9, "picture": "https://images.pexels.com/videos/5644956/pictures/preview-9.jpeg"}, {"id": 3132646, "nr": 10, "picture": "https://images.pexels.com/videos/5644956/pictures/preview-10.jpeg"}, {"id": 3132648, "nr": 11, "picture": "https://images.pexels.com/videos/5644956/pictures/preview-11.jpeg"}, {"id": 3132651, "nr": 12, "picture": "https://images.pexels.com/videos/5644956/pictures/preview-12.jpeg"}, {"id": 3132652, "nr": 13, "picture": "https://images.pexels.com/videos/5644956/pictures/preview-13.jpeg"}, {"id": 3132654, "nr": 14, "picture": "https://images.pexels.com/videos/5644956/pictures/preview-14.jpeg"}]}, {"id": 5495174, "width": 2160, "height": 4096, "duration": 60, "full_res": null, "tags": [], "url": "https://www.pexels.com/video/cutting-a-pumpkin-into-cubes-5495174/", "image": "https://images.pexels.com/videos/5495174/pexels-photo-5495174.jpeg?auto=compress&cs=tinysrgb&fit=crop&h=1200&w=630", "avg_color": null, "user": {"id": 1437723, "name": "cottonbro studio", "url": "https://www.pexels.com/@cottonbro"}, "video_files": [{"id": 9715113, "quality": "sd", "file_type": "video/mp4", "width": 226, "height": 426, "fps": 25.0, "link": "https://videos.pexels.com/video-files/5495174/5495174-sd_226_426_25fps.mp4", "size": 2252547}, {"id": 9715163, "quality": "hd", "file_type": "video/mp4", "width": 720, "height": 1366, "fps": 25.0, "link": "https://videos.pexels.com/video-files/5495174/5495174-hd_720_1366_25fps.mp4", "size": 12918774}, {"id": 9715289, "quality": "hd", "file_type": "video/mp4", "width": 1080, "height": 2048, "fps": 25.0, "link": "https://videos.pexels.com/video-files/5495174/5495174-hd_1080_2048_25fps.mp4", "size": 26841131}, {"id": 9715456, "quality": "sd", "file_type": "video/mp4", "width": 338, "height": 640, "fps": 25.0, "link": "https://videos.pexels.com/video-files/5495174/5495174-sd_338_640_25fps.mp4", "size": 3627124}, {"id": 9715649, "quality": "sd", "file_type": "video/mp4", "width": 506, "height": 960, "fps": 25.0, "link": "https://videos.pexels.com/video-files/5495174/5495174-sd_506_960_25fps.mp4", "size": 7352508}, {"id": 9715740, "quality": "uhd", "file_type": "video/mp4", "width": 1440, "height": 2732, "fps": 25.0, "link": "https://videos.pexels.com/video-files/5495174/5495174-uhd_1440_2732_25fps.mp4", "size": 46710018}, {"id": 9716025, "quality": "uhd", "file_type": "video/mp4", "width": 2160, "height": 4096, "fps": 25.0, "link": "https://videos.pexels.com/video-files/5495174/5495174-uhd_2160_4096_25fps.mp4", "size": 121108168}], "video_pictures": [{"id": 2907430, "nr": 0, "picture": "https://images.pexels.com/videos/5495174/pictures/preview-0.jpeg"}, {"id": 2907434, "nr": 1, "picture": "https://images.pexels.com/videos/5495174/pictures/preview-1.jpeg"}, {"id": 2907438, "nr": 2, "picture": "https://images.pexels.com/videos/5495174/pictures/preview-2.jpeg"}, {"id": 2907443, "nr": 3, "picture": "https://images.pexels.com/videos/5495174/pictures/preview-3.jpeg"}, {"id": 2907445, "nr": 4, "picture": "https://images.pexels.com/videos/5495174/pictures/preview-4.jpeg"}, {"id": 2907448, "nr": 5, "picture": "https://images.pexels.com/videos/5495174/pictures/preview-5.jpeg"}, {"id": 2907452, "nr": 6, "picture": "https://images.pexels.com/videos/5495174/pictures/preview-6.jpeg"}, {"id": 2907456, "nr": 7, "picture": "https://images.pexels.com/videos/5495174/pictures/preview-7.jpeg"}, {"id": 2907461, "nr": 8, "picture": "https://images.pexels.com/videos/5495174/pictures/preview-8.jpeg"}, {"id": 2907465, "nr": 9, "picture": "https://images.pexels.com/videos/5495174/pictures/preview-9.jpeg"}, {"id": 2907470, "nr": 10, "picture": "https://images.pexels.com/videos/5495174/pictures/preview-10.jpeg"}, {"id": 2907472, "nr": 11, "picture": "https://images.pexels.com/videos/5495174/pictures/preview-11.jpeg"}, {"id": 2907483, "nr": 12, "picture": "https://images.pexels.com/videos/5495174/pictures/preview-12.jpeg"}, {"id": 2907489, "nr": 13, "picture": "https://images.pexels.com/videos/5495174/pictures/preview-13.jpeg"}, {"id": 2907492, "nr": 14, "picture": "https://images.pexels.com/videos/5495174/pictures/preview-14.jpeg"}]}, {"id": 9892797, "width": 2160, "height": 3840, "duration": 4, "full_res": null, "tags": [], "url": "https://www.pexels.com/video/a-person-putting-garnish-on-a-pumpkin-soup-9892797/", "image": "https://images.pexels.com/videos/9892797/4k-video-blooming-flowers-dark-blue-background-oriental-food-9892797.jpeg?auto=compress&cs=tinysrgb&fit=crop&h=1200&w=630", "avg_color": null, "user": {"id": 3525678, "name": "\u5b87\u822a \u94b1", "url": "https://www.pexels.com/@3525678"}, "video_files": [{"id": 11189166, "quality": "sd", "file_type": "video/mp4", "width": 360, "height": 640, "fps": 25.0, "link": "https://videos.pexels.com/video-files/9892797/9892797-sd_360_640_25fps.mp4", "size": 307949}, {"id": 11189271, "quality": "hd", "file_type": "video/mp4", "width": 1080, "height": 1920, "fps": 25.0, "link": "https://videos.pexels.com/video-files/9892797/9892797-hd_1080_1920_25fps.mp4", "size": 2625731}, {"id": 11189291, "quality": "sd", "file_type": "video/mp4", "width": 540, "height": 960, "fps": 25.0, "link": "https://videos.pexels.com/video-files/9892797/9892797-sd_540_960_25fps.mp4", "size": 872642}, {"id": 11189687, "quality": "uhd", "file_type": "video/mp4", "width": 1440, "height": 2560, "fps": 25.0, "link": "https://videos.pexels.com/video-files/9892797/9892797-uhd_1440_2560_25fps.mp4", "size": 6414488}, {"id": 11189715, "quality": "hd", "file_type": "video/mp4", "width": 720, "height": 1280, "fps": 25.0, "link": "https://videos.pexels.com/video-files/9892797/9892797-hd_720_1280_25fps.mp4", "size": 1362843}, {"id": 11189739, "quality": "uhd", "file_type": "video/mp4", "width": 2160, "height": 3840, "fps": 25.0, "link": "https://videos.pexels.com/video-files/9892797/9892797-uhd_2160_3840_25fps.mp4", "size": 11246435}], "video_pictures": [{"id": 10308500, "nr": 0, "picture": "https://images.pexels.com/videos/9892797/pictures/preview-0.jpeg"}, {"id": 10308509, "nr": 1, "picture": "https://images.pexels.com/videos/9892797/pictures/preview-1.jpeg"}, {"id": 10308520, "nr": 2, "picture": "https://images.pexels.com/videos/9892797/pictures/preview-2.jpeg"}, {"id": 10308532, "nr": 3, "picture": "https://images.pexels.com/videos/9892797/pictures/preview-3.jpeg"}, {"id": 10308546, "nr": 4, "picture": "https://images.pexels.com/videos/9892797/pictures/preview-4.jpeg"}, {"id": 10308562, "nr": 5, "picture": "https://images.pexels.com/videos/9892797/pictures/preview-5.jpeg"}, {"id": 10308575, "nr": 6, "picture": "https://images.pexels.com/videos/9892797/pictures/preview-6.jpeg"}, {"id": 10308591, "nr": 7, "picture": "https://images.pexels.com/videos/9892797/pictures/preview-7.jpeg"}, {"id": 10308601, "nr": 8, "picture": "https://images.pexels.com/videos/9892797/pictures/preview-8.jpeg"}, {"id": 10308608, "nr": 9, "picture": "https://images.pexels.com/videos/9892797/pictures/preview-9.jpeg"}, {"id": 10308620, "nr": 10, "picture": "https://images.pexels.com/videos/9892797/pictures/preview-10.jpeg"}, {"id": 10308631, "nr": 11, "picture": "https://images.pexels.com/videos/9892797/pictures/preview-11.jpeg"}, {"id": 10308641, "nr": 12, "picture": "https://images.pexels.com/videos/9892797/pictures/preview-12.jpeg"}, {"id": 10308655, "nr": 13, "picture": "https://images.pexels.com/videos/9892797/pictures/preview-13.jpeg"}, {"id": 10308664, "nr": 14, "picture": "https://images.pexels.com/videos/9892797/pictures/preview-14.jpeg"}]}, {"id": 5602523, "width": 2160, "height": 3840, "duration": 28, "full_res": null, "tags": [], "url": "https://www.pexels.com/video/video-of-pumpkins-on-a-wheelbarrow-5602523/", "image": "https://images.pexels.com/videos/5602523/african-american-child-african-child-asian-child-asian-children-5602523.jpeg?auto=compress&cs=tinysrgb&fit=crop&h=1200&w=630", "avg_color": null, "user": {"id": 649765, "name": "Yaroslav Shuraev", "url": "https://www.pexels.com/@yaroslav-shuraev"}, "video_files": [{"id": 9742913, "quality": "sd", "file_type": "video/mp4", "width": 540, "height": 960, "fps": 24.0, "link": "https://videos.pexels.com/video-files/5602523/5602523-sd_540_960_24fps.mp4", "size": 4493367}, {"id": 9742922, "quality": "hd", "file_type": "video/mp4", "width": 1080, "height": 1920, "fps": 24.0, "link": "https://videos.pexels.com/video-files/5602523/5602523-hd_1080_1920_24fps.mp4", "size": 16929229}, {"id": 9742936, "quality": "hd", "file_type": "video/mp4", "width": 720, "height": 1280, "fps": 24.0, "link": "https://videos.pexels.com/video-files/5602523/5602523-hd_720_1280_24fps.mp4", "size": 8796932}, {"id": 9742948, "quality": "sd", "file_type": "video/mp4", "width": 360, "height": 640, "fps": 24.0, "link": "https://videos.pexels.com/video-files/5602523/5602523-sd_360_640_24fps.mp4", "size": 1659098}, {"id": 9742959, "quality": "uhd", "file_type": "video/mp4", "width": 2160, "height": 3840, "fps": 24.0, "link": "https://videos.pexels.com/video-files/5602523/5602523-uhd_2160_3840_24fps.mp4", "size": 68443924}, {"id": 9742969, "quality": "sd", "file_type": "video/mp4", "width": 240, "height": 426, "fps": 24.0, "link": "https://videos.pexels.com/video-files/5602523/5602523-sd_240_426_24fps.mp4", "size": 1050848}, {"id": 9742981, "quality": "uhd", "file_type": "video/mp4", "width": 1440, "height": 2560, "fps": 24.0, "link": "https://videos.pexels.com/video-files/5602523/5602523-uhd_1440_2560_24fps.mp4", "size": 31914413}], "video_pictures": [{"id": 3073557, "nr": 0, "picture": "https://images.pexels.com/videos/5602523/pictures/preview-0.jpeg"}, {"id": 3073558, "nr": 1, "picture": "https://images.pexels.com/videos/5602523/pictures/preview-1.jpeg"}, {"id": 3073560, "nr": 2, "picture": "https://images.pexels.com/videos/5602523/pictures/preview-2.jpeg"}, {"id": 3073563, "nr": 3, "picture": "https://images.pexels.com/videos/5602523/pictures/preview-3.jpeg"}, {"id": 3073566, "nr": 4, "picture": "https://images.pexels.com/videos/5602523/pictures/preview-4.jpeg"}, {"id": 3073568, "nr": 5, "picture": "https://images.pexels.com/videos/5602523/pictures/preview-5.jpeg"}, {"id": 3073571, "nr": 6, "picture": "https://images.pexels.com/videos/5602523/pictures/preview-6.jpeg"}, {"id": 3073573, "nr": 7, "picture": "https://images.pexels.com/videos/5602523/pictures/preview-7.jpeg"}, {"id": 3073576, "nr": 8, "picture": "https://images.pexels.com/videos/5602523/pictures/preview-8.jpeg"}, {"id": 3073578, "nr": 9, "picture": "https://images.pexels.com/videos/5602523/pictures/preview-9.jpeg"}, {"id": 3073581, "nr": 10, "picture": "https://images.pexels.com/videos/5602523/pictures/preview-10.jpeg"}, {"id": 3073584, "nr": 11, "picture": "https://images.pexels.com/videos/5602523/pictures/preview-11.jpeg"}, {"id": 3073587, "nr": 12, "picture": "https://images.pexels.com/videos/5602523/pictures/preview-12.jpeg"}, {"id": 3073588, "nr": 13, "picture": "https://images.pexels.com/videos/5602523/pictures/preview-13.jpeg"}, {"id": 3073591, "nr": 14, "picture": "https://images.pexels.com/videos/5602523/pictures/preview-14.jpeg"}]}, {"id": 5726317, "width": 2160, "height": 4096, "duration": 28, "full_res": null, "tags": [], "url": "https://www.pexels.com/video/woman-drinking-rose-wine-in-a-dinner-5726317/", "image": "https://images.pexels.com/videos/5726317/thanksgiving-thanksgiving-day-thanksgiving-dinner-5726317.jpeg?auto=compress&cs=tinysrgb&fit=crop&h=1200&w=630", "avg_color": null, "user": {"id": 2332540, "name": "Photo By: Kaboompics.com", "url": "https://www.pexels.com/@karolina-grabowska"}, "video_files": [{"id": 9784511, "quality": "sd", "file_type": "video/mp4", "width": 506, "height": 960, "fps": 25.0, "link": "https://videos.pexels.com/video-files/5726317/5726317-sd_506_960_25fps.mp4", "size": 3252939}, {"id": 9784598, "quality": "hd", "file_type": "video/mp4", "width": 720, "height": 1366, "fps": 25.0, "link": "https://videos.pexels.com/video-files/5726317/5726317-hd_720_1366_25fps.mp4", "size": 6281814}, {"id": 9784730, "quality": "sd", "file_type": "video/mp4", "width": 338, "height": 640, "fps": 25.0, "link": "https://videos.pexels.com/video-files/5726317/5726317-sd_338_640_25fps.mp4", "size": 1552500}, {"id": 9784815, "quality": "sd", "file_type": "video/mp4", "width": 226, "height": 426, "fps": 25.0, "link": "https://videos.pexels.com/video-files/5726317/5726317-sd_226_426_25fps.mp4", "size": 927450}, {"id": 9784944, "quality": "hd", "file_type": "video/mp4", "width": 1080, "height": 2048, "fps": 25.0, "link": "https://videos.pexels.com/video-files/5726317/5726317-hd_1080_2048_25fps.mp4", "size": 13866900}, {"id": 9785000, "quality": "uhd", "file_type": "video/mp4", "width": 2160, "height": 4096, "fps": 25.0, "link": "https://videos.pexels.com/video-files/5726317/5726317-uhd_2160_4096_25fps.mp4", "size": 52813188}, {"id": 9785099, "quality": "uhd", "file_type": "video/mp4", "width": 1440, "height": 2732, "fps": 25.0, "link": "https://videos.pexels.com/video-files/5726317/5726317-uhd_1440_2732_25fps.mp4", "size": 24377483}], "video_pictures": [{"id": 3269161, "nr": 0, "picture": "https://images.pexels.com/videos/5726317/pictures/preview-0.jpeg"}, {"id": 3269174, "nr": 1, "picture": "https://images.pexels.com/videos/5726317/pictures/preview-1.jpeg"}, {"id": 3269182, "nr": 2, "picture": "https://images.pexels.com/videos/5726317/pictures/preview-2.jpeg"}, {"id": 3269186, "nr": 3, "picture": "https://images.pexels.com/videos/5726317/pictures/preview-3.jpeg"}, {"id": 3269194, "nr": 4, "picture": "https://images.pexels.com/videos/5726317/pictures/preview-4.jpeg"}, {"id": 3269202, "nr": 5, "picture": "https://images.pexels.com/videos/5726317/pictures/preview-5.jpeg"}, {"id": 3269207, "nr": 6, "picture": "https://images.pexels.com/videos/5726317/pictures/preview-6.jpeg"}, {"id": 3269210, "nr": 7, "picture": "https://images.pexels.com/videos/5726317/pictures/preview-7.jpeg"}, {"id": 3269223, "nr": 8, "picture": "https://images.pexels.com/videos/5726317/pictures/preview-8.jpeg"}, {"id": 3269230, "nr": 9, "picture": "https://images.pexels.com/videos/5726317/pictures/preview-9.jpeg"}, {"id": 3269238, "nr": 10, "picture": "https://images.pexels.com/videos/5726317/pictures/preview-10.jpeg"}, {"id": 3269244, "nr": 11, "picture": "https://images.pexels.com/videos/5726317/pictures/preview-11.jpeg"}, {"id": 3269249, "nr": 12, "picture": "https://images.pexels.com/videos/5726317/pictures/preview-12.jpeg"}, {"id": 3269253, "nr": 13, "picture": "https://images.pexels.com/videos/5726317/pictures/preview-13.jpeg"}, {"id": 3269258, "nr": 14, "picture": "https://images.pexels.com/videos/5726317/pictures/preview-14.jpeg"}]}, {"id": 5678841, "width": 2160, "height": 4096, "duration": 12, "full_res": null, "tags": [], "url": "https://www.pexels.com/video/halloween-cupcakes-with-spooky-decoration-5678841/", "image": "https://images.pexels.com/videos/5678841/pexels-photo-5678841.jpeg?auto=compress&cs=tinysrgb&fit=crop&h=1200&w=630", "avg_color": null, "user": {"id": 3372733, "name": "Monstera Production", "url": "https://www.pexels.com/@gabby-k"}, "video_files": [{"id": 9766305, "quality": "sd", "file_type": "video/mp4", "width": 506, "height": 960, "fps": 30.0, "link": "https://videos.pexels.com/video-files/5678841/5678841-sd_506_960_30fps.mp4", "size": 485006}, {"id": 9766319, "quality": "hd", "file_type": "video/mp4", "width": 1080, "height": 2048, "fps": 30.0, "link": "https://videos.pexels.com/video-files/5678841/5678841-hd_1080_2048_30fps.mp4", "size": 2553176}, {"id": 9766335, "quality": "uhd", "file_type": "video/mp4", "width": 2160, "height": 4096, "fps": 30.0, "link": "https://videos.pexels.com/video-files/5678841/5678841-uhd_2160_4096_30fps.mp4", "size": 17391604}, {"id": 9766348, "quality": "hd", "file_type": "video/mp4", "width": 720, "height": 1366, "fps": 30.0, "link": "https://videos.pexels.com/video-files/5678841/5678841-hd_720_1366_30fps.mp4", "size": 935632}, {"id": 9766365, "quality": "sd", "file_type": "video/mp4", "width": 226, "height": 426, "fps": 30.0, "link": "https://videos.pexels.com/video-files/5678841/5678841-sd_226_426_30fps.mp4", "size": 133477}, {"id": 9766393, "quality": "uhd", "file_type": "video/mp4", "width": 1440, "height": 2732, "fps": 30.0, "link": "https://videos.pexels.com/video-files/5678841/5678841-uhd_1440_2732_30fps.mp4", "size": 5093614}, {"id": 9766419, "quality": "sd", "file_type": "video/mp4", "width": 338, "height": 640, "fps": 30.0, "link": "https://videos.pexels.com/video-files/5678841/5678841-sd_338_640_30fps.mp4", "size": 256934}], "video_pictures": [{"id": 3185059, "nr": 0, "picture": "https://images.pexels.com/videos/5678841/pictures/preview-0.jpeg"}, {"id": 3185063, "nr": 1, "picture": "https://images.pexels.com/videos/5678841/pictures/preview-1.jpeg"}, {"id": 3185071, "nr": 2, "picture": "https://images.pexels.com/videos/5678841/pictures/preview-2.jpeg"}, {"id": 3185079, "nr": 3, "picture": "https://images.pexels.com/videos/5678841/pictures/preview-3.jpeg"}, {"id": 3185088, "nr": 4, "picture": "https://images.pexels.com/videos/5678841/pictures/preview-4.jpeg"}, {"id": 3185095, "nr": 5, "picture": "https://images.pexels.com/videos/5678841/pictures/preview-5.jpeg"}, {"id": 3185100, "nr": 6, "picture": "https://images.pexels.com/videos/5678841/pictures/preview-6.jpeg"}, {"id": 3185108, "nr": 7, "picture": "https://images.pexels.com/videos/5678841/pictures/preview-7.jpeg"}, {"id": 3185117, "nr": 8, "picture": "https://images.pexels.com/videos/5678841/pictures/preview-8.jpeg"}, {"id": 3185125, "nr": 9, "picture": "https://images.pexels.com/videos/5678841/pictures/preview-9.jpeg"}, {"id": 3185132, "nr": 10, "picture": "https://images.pexels.com/videos/5678841/pictures/preview-10.jpeg"}, {"id": 3185142, "nr": 11, "picture": "https://images.pexels.com/videos/5678841/pictures/preview-11.jpeg"}, {"id": 3185152, "nr": 12, "picture": "https://images.pexels.com/videos/5678841/pictures/preview-12.jpeg"}, {"id": 3185163, "nr": 13, "picture": "https://images.pexels.com/videos/5678841/pictures/preview-13.jpeg"}, {"id": 3185177, "nr": 14, "picture": "https://images.pexels.com/videos/5678841/pictures/preview-14.jpeg"}]}, {"id": 5678842, "width": 2160, "height": 4096, "duration": 4, "full_res": null, "tags": [], "url": "https://www.pexels.com/video/holding-a-tray-of-halloween-cupcakes-5678842/", "image": "https://images.pexels.com/videos/5678842/pexels-photo-5678842.jpeg?auto=compress&cs=tinysrgb&fit=crop&h=1200&w=630", "avg_color": null, "user": {"id": 3372733, "name": "Monstera Production", "url": "https://www.pexels.com/@gabby-k"}, "video_files": [{"id": 9766979, "quality": "sd", "file_type": "video/mp4", "width": 506, "height": 960, "fps": 30.0, "link": "https://videos.pexels.com/video-files/5678842/5678842-sd_506_960_30fps.mp4", "size": 730806}, {"id": 9767003, "quality": "uhd", "file_type": "video/mp4", "width": 1440, "height": 2732, "fps": 30.0, "link": "https://videos.pexels.com/video-files/5678842/5678842-uhd_1440_2732_30fps.mp4", "size": 6163778}, {"id": 9767014, "quality": "hd", "file_type": "video/mp4", "width": 720, "height": 1366, "fps": 30.0, "link": "https://videos.pexels.com/video-files/5678842/5678842-hd_720_1366_30fps.mp4", "size": 1253122}, {"id": 9767044, "quality": "uhd", "file_type": "video/mp4", "width": 2160, "height": 4096, "fps": 30.0, "link": "https://videos.pexels.com/video-files/5678842/5678842-uhd_2160_4096_30fps.mp4", "size": 12126969}, {"id": 9767074, "quality": "hd", "file_type": "video/mp4", "width": 1080, "height": 2048, "fps": 30.0, "link": "https://videos.pexels.com/video-files/5678842/5678842-hd_1080_2048_30fps.mp4", "size": 2494107}, {"id": 9767113, "quality": "sd", "file_type": "video/mp4", "width": 226, "height": 426, "fps": 30.0, "link": "https://videos.pexels.com/video-files/5678842/5678842-sd_226_426_30fps.mp4", "size": 150483}, {"id": 9767143, "quality": "sd", "file_type": "video/mp4", "width": 338, "height": 640, "fps": 30.0, "link": "https://videos.pexels.com/video-files/5678842/5678842-sd_338_640_30fps.mp4", "size": 245962}], "video_pictures": [{"id": 3185048, "nr": 0, "picture": "https://images.pexels.com/videos/5678842/pictures/preview-0.jpeg"}, {"id": 3185052, "nr": 1, "picture": "https://images.pexels.com/videos/5678842/pictures/preview-1.jpeg"}, {"id": 3185057, "nr": 2, "picture": "https://images.pexels.com/videos/5678842/pictures/preview-2.jpeg"}, {"id": 3185062, "nr": 3, "picture": "https://images.pexels.com/videos/5678842/pictures/preview-3.jpeg"}, {"id": 3185069, "nr": 4, "picture": "https://images.pexels.com/videos/5678842/pictures/preview-4.jpeg"}, {"id": 3185077, "nr": 5, "picture": "https://images.pexels.com/videos/5678842/pictures/preview-5.jpeg"}, {"id": 3185086, "nr": 6, "picture": "https://images.pexels.com/videos/5678842/pictures/preview-6.jpeg"}, {"id": 3185094, "nr": 7, "picture": "https://images.pexels.com/videos/5678842/pictures/preview-7.jpeg"}, {"id": 3185101, "nr": 8, "picture": "https://images.pexels.com/videos/5678842/pictures/preview-8.jpeg"}, {"id": 3185111, "nr": 9, "picture": "https://images.pexels.com/videos/5678842/pictures/preview-9.jpeg"}, {"id": 3185120, "nr": 10, "picture": "https://images.pexels.com/videos/5678842/pictures/preview-10.jpeg"}, {"id": 3185128, "nr": 11, "picture": "https://images.pexels.com/videos/5678842/pictures/preview-11.jpeg"}, {"id": 3185137, "nr": 12, "picture": "https://images.pexels.com/videos/5678842/pictures/preview-12.jpeg"}, {"id": 3185149, "nr": 13, "picture": "https://images.pexels.com/videos/5678842/pictures/preview-13.jpeg"}, {"id": 3185162, "nr": 14, "picture": "https://images.pexels.com/videos/5678842/pictures/preview-14.jpeg"}]}], "total_results": 8000, "next_page": "https://api.pexels.com/v1/videos/search/?orientation=portrait&page=2&per_page=8&query=pumpkin+food", "url": "https://api-server.pexels.com/search/videos/pumpkin%20food/"}, "timestamp": "2024-12-30T19:43:46.996985"}
