{"query": "folded leaves plant", "response": {"page": 1, "per_page": 8, "videos": [{"id": 6578138, "width": 2363, "height": 4096, "duration": 18, "full_res": null, "tags": [], "url": "https://www.pexels.com/video/blurry-video-of-the-sunset-6578138/", "image": "https://images.pexels.com/videos/6578138/pexels-photo-6578138.jpeg?auto=compress&cs=tinysrgb&fit=crop&h=1200&w=630", "avg_color": null, "user": {"id": 2678846, "name": "ROMAN ODINTSOV", "url": "https://www.pexels.com/@roman-odintsov"}, "video_files": [{"id": 10087301, "quality": "uhd", "file_type": "video/mp4", "width": 2160, "height": 3744, "fps": 29.969999313354492, "link": "https://videos.pexels.com/video-files/6578138/6578138-uhd_2160_3744_30fps.mp4", "size": 19719998}, {"id": 10087359, "quality": "hd", "file_type": "video/mp4", "width": 720, "height": 1248, "fps": 29.969999313354492, "link": "https://videos.pexels.com/video-files/6578138/6578138-hd_720_1248_30fps.mp4", "size": 2161221}, {"id": 10087397, "quality": "sd", "file_type": "video/mp4", "width": 540, "height": 936, "fps": 29.969999313354492, "link": "https://videos.pexels.com/video-files/6578138/6578138-sd_540_936_30fps.mp4", "size": 1640881}, {"id": 10087426, "quality": "hd", "file_type": "video/mp4", "width": 1080, "height": 1872, "fps": 29.969999313354492, "link": "https://videos.pexels.com/video-files/6578138/6578138-hd_1080_1872_30fps.mp4", "size": 4911137}, {"id": 10087460, "quality": "sd", "file_type": "video/mp4", "width": 360, "height": 624, "fps": 29.969999313354492, "link": "https://videos.pexels.com/video-files/6578138/6578138-sd_360_624_30fps.mp4", "size": 896236}, {"id": 10087487, "quality": "sd", "file_type": "video/mp4", "width": 240, "height": 416, "fps": 29.969999313354492, "link": "https://videos.pexels.com/video-files/6578138/6578138-sd_240_416_30fps.mp4", "size": 424025}, {"id": 10087521, "quality": "uhd", "file_type": "video/mp4", "width": 1440, "height": 2496, "fps": 29.969999313354492, "link": "https://videos.pexels.com/video-files/6578138/6578138-uhd_1440_2496_30fps.mp4", "size": 8262433}], "video_pictures": [{"id": 4695549, "nr": 0, "picture": "https://images.pexels.com/videos/6578138/pictures/preview-0.jpeg"}, {"id": 4695553, "nr": 1, "picture": "https://images.pexels.com/videos/6578138/pictures/preview-1.jpeg"}, {"id": 4695556, "nr": 2, "picture": "https://images.pexels.com/videos/6578138/pictures/preview-2.jpeg"}, {"id": 4695561, "nr": 3, "picture": "https://images.pexels.com/videos/6578138/pictures/preview-3.jpeg"}, {"id": 4695563, "nr": 4, "picture": "https://images.pexels.com/videos/6578138/pictures/preview-4.jpeg"}, {"id": 4695569, "nr": 5, "picture": "https://images.pexels.com/videos/6578138/pictures/preview-5.jpeg"}, {"id": 4695575, "nr": 6, "picture": "https://images.pexels.com/videos/6578138/pictures/preview-6.jpeg"}, {"id": 4695577, "nr": 7, "picture": "https://images.pexels.com/videos/6578138/pictures/preview-7.jpeg"}, {"id": 4695583, "nr": 8, "picture": "https://images.pexels.com/videos/6578138/pictures/preview-8.jpeg"}, {"id": 4695588, "nr": 9, "picture": "https://images.pexels.com/videos/6578138/pictures/preview-9.jpeg"}, {"id": 4695594, "nr": 10, "picture": "https://images.pexels.com/videos/6578138/pictures/preview-10.jpeg"}, {"id": 4695600, "nr": 11, "picture": "https://images.pexels.com/videos/6578138/pictures/preview-11.jpeg"}, {"id": 4695606, "nr": 12, "picture": "https://images.pexels.com/videos/6578138/pictures/preview-12.jpeg"}, {"id": 4695612, "nr": 13, "picture": "https://images.pexels.com/videos/6578138/pictures/preview-13.jpeg"}, {"id": 4695618, "nr": 14, "picture": "https://images.pexels.com/videos/6578138/pictures/preview-14.jpeg"}]}, {"id": 4536559, "width": 1080, "height": 1920, "duration": 30, "full_res": null, "tags": [], "url": "https://www.pexels.com/video/flowers-rain-motion-green-4536559/", "image": "https://images.pexels.com/videos/4536559/animated-background-beautiful-background-flowers-green-4536559.jpeg?auto=compress&cs=tinysrgb&fit=crop&h=1200&w=630", "avg_color": null, "user": {"id": 2297095, "name": "Pavel Danilyuk", "url": "https://www.pexels.com/@pavel-danilyuk"}, "video_files": [{"id": 9366368, "quality": "hd", "file_type": "video/mp4", "width": 1080, "height": 1920, "fps": 29.969999313354492, "link": "https://videos.pexels.com/video-files/4536559/4536559-hd_1080_1920_30fps.mp4", "size": 21403990}, {"id": 9366409, "quality": "sd", "file_type": "video/mp4", "width": 540, "height": 960, "fps": 29.969999313354492, "link": "https://videos.pexels.com/video-files/4536559/4536559-sd_540_960_30fps.mp4", "size": 5847214}, {"id": 9366504, "quality": "sd", "file_type": "video/mp4", "width": 240, "height": 426, "fps": 29.969999313354492, "link": "https://videos.pexels.com/video-files/4536559/4536559-sd_240_426_30fps.mp4", "size": 1251005}, {"id": 9366545, "quality": "hd", "file_type": "video/mp4", "width": 720, "height": 1280, "fps": 29.969999313354492, "link": "https://videos.pexels.com/video-files/4536559/4536559-hd_720_1280_30fps.mp4", "size": 10567870}, {"id": 9366577, "quality": "sd", "file_type": "video/mp4", "width": 360, "height": 640, "fps": 29.969999313354492, "link": "https://videos.pexels.com/video-files/4536559/4536559-sd_360_640_30fps.mp4", "size": 1988798}], "video_pictures": [{"id": 1638599, "nr": 0, "picture": "https://images.pexels.com/videos/4536559/pictures/preview-0.jpeg"}, {"id": 1638652, "nr": 1, "picture": "https://images.pexels.com/videos/4536559/pictures/preview-1.jpeg"}, {"id": 1638670, "nr": 2, "picture": "https://images.pexels.com/videos/4536559/pictures/preview-2.jpeg"}, {"id": 1638691, "nr": 3, "picture": "https://images.pexels.com/videos/4536559/pictures/preview-3.jpeg"}, {"id": 1638711, "nr": 4, "picture": "https://images.pexels.com/videos/4536559/pictures/preview-4.jpeg"}, {"id": 1638727, "nr": 5, "picture": "https://images.pexels.com/videos/4536559/pictures/preview-5.jpeg"}, {"id": 1638750, "nr": 6, "picture": "https://images.pexels.com/videos/4536559/pictures/preview-6.jpeg"}, {"id": 1638765, "nr": 7, "picture": "https://images.pexels.com/videos/4536559/pictures/preview-7.jpeg"}, {"id": 1638782, "nr": 8, "picture": "https://images.pexels.com/videos/4536559/pictures/preview-8.jpeg"}, {"id": 1638799, "nr": 9, "picture": "https://images.pexels.com/videos/4536559/pictures/preview-9.jpeg"}, {"id": 1638817, "nr": 10, "picture": "https://images.pexels.com/videos/4536559/pictures/preview-10.jpeg"}, {"id": 1638834, "nr": 11, "picture": "https://images.pexels.com/videos/4536559/pictures/preview-11.jpeg"}, {"id": 1638845, "nr": 12, "picture": "https://images.pexels.com/videos/4536559/pictures/preview-12.jpeg"}, {"id": 1638851, "nr": 13, "picture": "https://images.pexels.com/videos/4536559/pictures/preview-13.jpeg"}, {"id": 1638858, "nr": 14, "picture": "https://images.pexels.com/videos/4536559/pictures/preview-14.jpeg"}]}, {"id": 8516625, "width": 2160, "height": 3840, "duration": 11, "full_res": null, "tags": [], "url": "https://www.pexels.com/video/a-shadow-of-leaves-swaying-in-the-wind-8516625/", "image": "https://images.pexels.com/videos/8516625/abstract-art-backdrop-background-8516625.jpeg?auto=compress&cs=tinysrgb&fit=crop&h=1200&w=630", "avg_color": null, "user": {"id": 10955896, "name": "Anna Nekrashevich", "url": "https://www.pexels.com/@anna-nekrashevich"}, "video_files": [{"id": 10872538, "quality": "sd", "file_type": "video/mp4", "width": 240, "height": 426, "fps": 30.0, "link": "https://videos.pexels.com/video-files/8516625/8516625-sd_240_426_30fps.mp4", "size": 243355}, {"id": 10872543, "quality": "hd", "file_type": "video/mp4", "width": 720, "height": 1280, "fps": 30.0, "link": "https://videos.pexels.com/video-files/8516625/8516625-hd_720_1280_30fps.mp4", "size": 1377355}, {"id": 10872549, "quality": "uhd", "file_type": "video/mp4", "width": 2160, "height": 3840, "fps": 30.0, "link": "https://videos.pexels.com/video-files/8516625/8516625-uhd_2160_3840_30fps.mp4", "size": 11843187}, {"id": 10872558, "quality": "sd", "file_type": "video/mp4", "width": 540, "height": 960, "fps": 30.0, "link": "https://videos.pexels.com/video-files/8516625/8516625-sd_540_960_30fps.mp4", "size": 808973}, {"id": 10872571, "quality": "sd", "file_type": "video/mp4", "width": 360, "height": 640, "fps": 30.0, "link": "https://videos.pexels.com/video-files/8516625/8516625-sd_360_640_30fps.mp4", "size": 449229}, {"id": 10872587, "quality": "hd", "file_type": "video/mp4", "width": 1080, "height": 1920, "fps": 30.0, "link": "https://videos.pexels.com/video-files/8516625/8516625-hd_1080_1920_30fps.mp4", "size": 2978175}, {"id": 10872669, "quality": "uhd", "file_type": "video/mp4", "width": 1440, "height": 2560, "fps": 30.0, "link": "https://videos.pexels.com/video-files/8516625/8516625-uhd_1440_2560_30fps.mp4", "size": 5177661}], "video_pictures": [{"id": 8417010, "nr": 0, "picture": "https://images.pexels.com/videos/8516625/pictures/preview-0.jpeg"}, {"id": 8417026, "nr": 1, "picture": "https://images.pexels.com/videos/8516625/pictures/preview-1.jpeg"}, {"id": 8417039, "nr": 2, "picture": "https://images.pexels.com/videos/8516625/pictures/preview-2.jpeg"}, {"id": 8417061, "nr": 3, "picture": "https://images.pexels.com/videos/8516625/pictures/preview-3.jpeg"}, {"id": 8417080, "nr": 4, "picture": "https://images.pexels.com/videos/8516625/pictures/preview-4.jpeg"}, {"id": 8417107, "nr": 5, "picture": "https://images.pexels.com/videos/8516625/pictures/preview-5.jpeg"}, {"id": 8417134, "nr": 6, "picture": "https://images.pexels.com/videos/8516625/pictures/preview-6.jpeg"}, {"id": 8417168, "nr": 7, "picture": "https://images.pexels.com/videos/8516625/pictures/preview-7.jpeg"}, {"id": 8417198, "nr": 8, "picture": "https://images.pexels.com/videos/8516625/pictures/preview-8.jpeg"}, {"id": 8417225, "nr": 9, "picture": "https://images.pexels.com/videos/8516625/pictures/preview-9.jpeg"}, {"id": 8417254, "nr": 10, "picture": "https://images.pexels.com/videos/8516625/pictures/preview-10.jpeg"}, {"id": 8417275, "nr": 11, "picture": "https://images.pexels.com/videos/8516625/pictures/preview-11.jpeg"}, {"id": 8417302, "nr": 12, "picture": "https://images.pexels.com/videos/8516625/pictures/preview-12.jpeg"}, {"id": 8417330, "nr": 13, "picture": "https://images.pexels.com/videos/8516625/pictures/preview-13.jpeg"}, {"id": 8417352, "nr": 14, "picture": "https://images.pexels.com/videos/8516625/pictures/preview-14.jpeg"}]}, {"id": 2806063, "width": 1080, "height": 1920, "duration": 12, "full_res": null, "tags": [], "url": "https://www.pexels.com/video/rain-drops-on-leaves-of-the-plants-2806063/", "image": "https://images.pexels.com/videos/2806063/free-video-2806063.jpg?auto=compress&cs=tinysrgb&fit=crop&h=1200&w=630", "avg_color": null, "user": {"id": 1194823, "name": "Abhishek Kumar", "url": "https://www.pexels.com/@avshek"}, "video_files": [{"id": 9280571, "quality": "hd", "file_type": "video/mp4", "width": 1080, "height": 1920, "fps": 29.969999313354492, "link": "https://videos.pexels.com/video-files/2806063/2806063-hd_1080_1920_30fps.mp4", "size": 8206726}, {"id": 9280601, "quality": "sd", "file_type": "video/mp4", "width": 360, "height": 640, "fps": 29.969999313354492, "link": "https://videos.pexels.com/video-files/2806063/2806063-sd_360_640_30fps.mp4", "size": 874825}, {"id": 9280667, "quality": "sd", "file_type": "video/mp4", "width": 240, "height": 426, "fps": 29.969999313354492, "link": "https://videos.pexels.com/video-files/2806063/2806063-sd_240_426_30fps.mp4", "size": 529214}, {"id": 9280759, "quality": "hd", "file_type": "video/mp4", "width": 720, "height": 1280, "fps": 29.969999313354492, "link": "https://videos.pexels.com/video-files/2806063/2806063-hd_720_1280_30fps.mp4", "size": 4259385}, {"id": 9280796, "quality": "sd", "file_type": "video/mp4", "width": 540, "height": 960, "fps": 29.969999313354492, "link": "https://videos.pexels.com/video-files/2806063/2806063-sd_540_960_30fps.mp4", "size": 2313662}], "video_pictures": [{"id": 389510, "nr": 0, "picture": "https://images.pexels.com/videos/2806063/pictures/preview-0.jpeg"}, {"id": 389513, "nr": 1, "picture": "https://images.pexels.com/videos/2806063/pictures/preview-1.jpeg"}, {"id": 389515, "nr": 2, "picture": "https://images.pexels.com/videos/2806063/pictures/preview-2.jpeg"}, {"id": 389517, "nr": 3, "picture": "https://images.pexels.com/videos/2806063/pictures/preview-3.jpeg"}, {"id": 389520, "nr": 4, "picture": "https://images.pexels.com/videos/2806063/pictures/preview-4.jpeg"}, {"id": 389522, "nr": 5, "picture": "https://images.pexels.com/videos/2806063/pictures/preview-5.jpeg"}, {"id": 389524, "nr": 6, "picture": "https://images.pexels.com/videos/2806063/pictures/preview-6.jpeg"}, {"id": 389526, "nr": 7, "picture": "https://images.pexels.com/videos/2806063/pictures/preview-7.jpeg"}, {"id": 389529, "nr": 8, "picture": "https://images.pexels.com/videos/2806063/pictures/preview-8.jpeg"}, {"id": 389531, "nr": 9, "picture": "https://images.pexels.com/videos/2806063/pictures/preview-9.jpeg"}, {"id": 389533, "nr": 10, "picture": "https://images.pexels.com/videos/2806063/pictures/preview-10.jpeg"}, {"id": 389535, "nr": 11, "picture": "https://images.pexels.com/videos/2806063/pictures/preview-11.jpeg"}, {"id": 389536, "nr": 12, "picture": "https://images.pexels.com/videos/2806063/pictures/preview-12.jpeg"}, {"id": 389539, "nr": 13, "picture": "https://images.pexels.com/videos/2806063/pictures/preview-13.jpeg"}, {"id": 389541, "nr": 14, "picture": "https://images.pexels.com/videos/2806063/pictures/preview-14.jpeg"}]}, {"id": 8516672, "width": 2160, "height": 3840, "duration": 9, "full_res": null, "tags": [], "url": "https://www.pexels.com/video/a-shadow-of-a-palm-leaf-8516672/", "image": "https://images.pexels.com/videos/8516672/abstract-art-artistic-backdrop-8516672.jpeg?auto=compress&cs=tinysrgb&fit=crop&h=1200&w=630", "avg_color": null, "user": {"id": 10955896, "name": "Anna Nekrashevich", "url": "https://www.pexels.com/@anna-nekrashevich"}, "video_files": [{"id": 10872838, "quality": "uhd", "file_type": "video/mp4", "width": 2160, "height": 3840, "fps": 30.0, "link": "https://videos.pexels.com/video-files/8516672/8516672-uhd_2160_3840_30fps.mp4", "size": 26252607}, {"id": 10872922, "quality": "hd", "file_type": "video/mp4", "width": 1080, "height": 1920, "fps": 30.0, "link": "https://videos.pexels.com/video-files/8516672/8516672-hd_1080_1920_30fps.mp4", "size": 5985157}, {"id": 10872957, "quality": "sd", "file_type": "video/mp4", "width": 240, "height": 426, "fps": 30.0, "link": "https://videos.pexels.com/video-files/8516672/8516672-sd_240_426_30fps.mp4", "size": 230026}, {"id": 10873120, "quality": "sd", "file_type": "video/mp4", "width": 360, "height": 640, "fps": 30.0, "link": "https://videos.pexels.com/video-files/8516672/8516672-sd_360_640_30fps.mp4", "size": 571035}, {"id": 10873263, "quality": "uhd", "file_type": "video/mp4", "width": 1440, "height": 2560, "fps": 30.0, "link": "https://videos.pexels.com/video-files/8516672/8516672-uhd_1440_2560_30fps.mp4", "size": 14542836}, {"id": 10873411, "quality": "sd", "file_type": "video/mp4", "width": 540, "height": 960, "fps": 30.0, "link": "https://videos.pexels.com/video-files/8516672/8516672-sd_540_960_30fps.mp4", "size": 1737424}, {"id": 10873672, "quality": "hd", "file_type": "video/mp4", "width": 720, "height": 1280, "fps": 30.0, "link": "https://videos.pexels.com/video-files/8516672/8516672-hd_720_1280_30fps.mp4", "size": 3007595}], "video_pictures": [{"id": 8417598, "nr": 0, "picture": "https://images.pexels.com/videos/8516672/pictures/preview-0.jpeg"}, {"id": 8417614, "nr": 1, "picture": "https://images.pexels.com/videos/8516672/pictures/preview-1.jpeg"}, {"id": 8417630, "nr": 2, "picture": "https://images.pexels.com/videos/8516672/pictures/preview-2.jpeg"}, {"id": 8417646, "nr": 3, "picture": "https://images.pexels.com/videos/8516672/pictures/preview-3.jpeg"}, {"id": 8417660, "nr": 4, "picture": "https://images.pexels.com/videos/8516672/pictures/preview-4.jpeg"}, {"id": 8417679, "nr": 5, "picture": "https://images.pexels.com/videos/8516672/pictures/preview-5.jpeg"}, {"id": 8417698, "nr": 6, "picture": "https://images.pexels.com/videos/8516672/pictures/preview-6.jpeg"}, {"id": 8417709, "nr": 7, "picture": "https://images.pexels.com/videos/8516672/pictures/preview-7.jpeg"}, {"id": 8417723, "nr": 8, "picture": "https://images.pexels.com/videos/8516672/pictures/preview-8.jpeg"}, {"id": 8417737, "nr": 9, "picture": "https://images.pexels.com/videos/8516672/pictures/preview-9.jpeg"}, {"id": 8417751, "nr": 10, "picture": "https://images.pexels.com/videos/8516672/pictures/preview-10.jpeg"}, {"id": 8417767, "nr": 11, "picture": "https://images.pexels.com/videos/8516672/pictures/preview-11.jpeg"}, {"id": 8417781, "nr": 12, "picture": "https://images.pexels.com/videos/8516672/pictures/preview-12.jpeg"}, {"id": 8417788, "nr": 13, "picture": "https://images.pexels.com/videos/8516672/pictures/preview-13.jpeg"}, {"id": 8417795, "nr": 14, "picture": "https://images.pexels.com/videos/8516672/pictures/preview-14.jpeg"}]}, {"id": 25935023, "width": 2160, "height": 3840, "duration": 8, "full_res": null, "tags": [], "url": "https://www.pexels.com/video/an-artist-s-illustration-of-artificial-intelligence-ai-this-image-explores-how-ai-can-be-used-to-solve-fundamental-problems-unlocking-solutions-to-many-more-it-was-created-by-jesper-l-25935023/", "image": "https://images.pexels.com/videos/25935023/agi-ai-algorithms-artificial-intelligence-25935023.jpeg?auto=compress&cs=tinysrgb&fit=crop&h=1200&w=630", "avg_color": null, "user": {"id": 472736342, "name": "Google DeepMind", "url": "https://www.pexels.com/@googledeepmind"}, "video_files": [{"id": 11922054, "quality": null, "file_type": "video/mp4", "width": 360, "height": 640, "fps": 24.0, "link": "https://videos.pexels.com/video-files/25935023/11922054_360_640_24fps.mp4", "size": 1210725}, {"id": 11922055, "quality": null, "file_type": "video/mp4", "width": 540, "height": 960, "fps": 24.0, "link": "https://videos.pexels.com/video-files/25935023/11922055_540_960_24fps.mp4", "size": 2455007}, {"id": 11922057, "quality": null, "file_type": "video/mp4", "width": 720, "height": 1280, "fps": 24.0, "link": "https://videos.pexels.com/video-files/25935023/11922057_720_1280_24fps.mp4", "size": 4073191}, {"id": 11922059, "quality": null, "file_type": "video/mp4", "width": 1080, "height": 1920, "fps": 24.0, "link": "https://videos.pexels.com/video-files/25935023/11922059_1080_1920_24fps.mp4", "size": 8308013}, {"id": 11922060, "quality": null, "file_type": "video/mp4", "width": 1440, "height": 2560, "fps": 24.0, "link": "https://videos.pexels.com/video-files/25935023/11922060_1440_2560_24fps.mp4", "size": 14344482}, {"id": 11922063, "quality": null, "file_type": "video/mp4", "width": 2160, "height": 3840, "fps": 24.0, "link": "https://videos.pexels.com/video-files/25935023/11922063_2160_3840_24fps.mp4", "size": 47743765}], "video_pictures": [{"id": 21906490, "nr": 0, "picture": "https://images.pexels.com/videos/25935023/pictures/preview-0.jpg"}, {"id": 21906506, "nr": 1, "picture": "https://images.pexels.com/videos/25935023/pictures/preview-1.jpg"}, {"id": 21906507, "nr": 2, "picture": "https://images.pexels.com/videos/25935023/pictures/preview-2.jpg"}, {"id": 21906523, "nr": 3, "picture": "https://images.pexels.com/videos/25935023/pictures/preview-3.jpg"}, {"id": 21906524, "nr": 4, "picture": "https://images.pexels.com/videos/25935023/pictures/preview-4.jpg"}, {"id": 21906525, "nr": 5, "picture": "https://images.pexels.com/videos/25935023/pictures/preview-5.jpg"}, {"id": 21906526, "nr": 6, "picture": "https://images.pexels.com/videos/25935023/pictures/preview-6.jpg"}]}, {"id": 8516628, "width": 2160, "height": 3840, "duration": 10, "full_res": null, "tags": [], "url": "https://www.pexels.com/video/a-shadow-of-a-plant-swaying-in-the-wind-8516628/", "image": "https://images.pexels.com/videos/8516628/abstract-animal-art-backdrop-8516628.jpeg?auto=compress&cs=tinysrgb&fit=crop&h=1200&w=630", "avg_color": null, "user": {"id": 10955896, "name": "Anna Nekrashevich", "url": "https://www.pexels.com/@anna-nekrashevich"}, "video_files": [{"id": 10872693, "quality": "uhd", "file_type": "video/mp4", "width": 2160, "height": 3840, "fps": 30.0, "link": "https://videos.pexels.com/video-files/8516628/8516628-uhd_2160_3840_30fps.mp4", "size": 26744115}, {"id": 10872749, "quality": "sd", "file_type": "video/mp4", "width": 540, "height": 960, "fps": 30.0, "link": "https://videos.pexels.com/video-files/8516628/8516628-sd_540_960_30fps.mp4", "size": 1660692}, {"id": 10872806, "quality": "hd", "file_type": "video/mp4", "width": 1080, "height": 1920, "fps": 30.0, "link": "https://videos.pexels.com/video-files/8516628/8516628-hd_1080_1920_30fps.mp4", "size": 6009009}, {"id": 10872868, "quality": "uhd", "file_type": "video/mp4", "width": 1440, "height": 2560, "fps": 30.0, "link": "https://videos.pexels.com/video-files/8516628/8516628-uhd_1440_2560_30fps.mp4", "size": 14348463}, {"id": 10873005, "quality": "hd", "file_type": "video/mp4", "width": 720, "height": 1280, "fps": 30.0, "link": "https://videos.pexels.com/video-files/8516628/8516628-hd_720_1280_30fps.mp4", "size": 2997300}, {"id": 10873207, "quality": "sd", "file_type": "video/mp4", "width": 240, "height": 426, "fps": 30.0, "link": "https://videos.pexels.com/video-files/8516628/8516628-sd_240_426_30fps.mp4", "size": 126668}, {"id": 10873301, "quality": "sd", "file_type": "video/mp4", "width": 360, "height": 640, "fps": 30.0, "link": "https://videos.pexels.com/video-files/8516628/8516628-sd_360_640_30fps.mp4", "size": 548450}], "video_pictures": [{"id": 8417017, "nr": 0, "picture": "https://images.pexels.com/videos/8516628/pictures/preview-0.jpeg"}, {"id": 8417031, "nr": 1, "picture": "https://images.pexels.com/videos/8516628/pictures/preview-1.jpeg"}, {"id": 8417050, "nr": 2, "picture": "https://images.pexels.com/videos/8516628/pictures/preview-2.jpeg"}, {"id": 8417076, "nr": 3, "picture": "https://images.pexels.com/videos/8516628/pictures/preview-3.jpeg"}, {"id": 8417102, "nr": 4, "picture": "https://images.pexels.com/videos/8516628/pictures/preview-4.jpeg"}, {"id": 8417137, "nr": 5, "picture": "https://images.pexels.com/videos/8516628/pictures/preview-5.jpeg"}, {"id": 8417162, "nr": 6, "picture": "https://images.pexels.com/videos/8516628/pictures/preview-6.jpeg"}, {"id": 8417194, "nr": 7, "picture": "https://images.pexels.com/videos/8516628/pictures/preview-7.jpeg"}, {"id": 8417220, "nr": 8, "picture": "https://images.pexels.com/videos/8516628/pictures/preview-8.jpeg"}, {"id": 8417256, "nr": 9, "picture": "https://images.pexels.com/videos/8516628/pictures/preview-9.jpeg"}, {"id": 8417297, "nr": 10, "picture": "https://images.pexels.com/videos/8516628/pictures/preview-10.jpeg"}, {"id": 8417331, "nr": 11, "picture": "https://images.pexels.com/videos/8516628/pictures/preview-11.jpeg"}, {"id": 8417356, "nr": 12, "picture": "https://images.pexels.com/videos/8516628/pictures/preview-12.jpeg"}, {"id": 8417379, "nr": 13, "picture": "https://images.pexels.com/videos/8516628/pictures/preview-13.jpeg"}, {"id": 8417402, "nr": 14, "picture": "https://images.pexels.com/videos/8516628/pictures/preview-14.jpeg"}]}, {"id": 8195676, "width": 2160, "height": 4096, "duration": 10, "full_res": null, "tags": [], "url": "https://www.pexels.com/video/a-beautiful-yellow-rose-in-bloom-8195676/", "image": "https://images.pexels.com/videos/8195676/beautiful-blooming-bright-color-8195676.jpeg?auto=compress&cs=tinysrgb&fit=crop&h=1200&w=630", "avg_color": null, "user": {"id": 2678846, "name": "ROMAN ODINTSOV", "url": "https://www.pexels.com/@roman-odintsov"}, "video_files": [{"id": 10739575, "quality": "uhd", "file_type": "video/mp4", "width": 2160, "height": 4096, "fps": 29.969999313354492, "link": "https://videos.pexels.com/video-files/8195676/8195676-uhd_2160_4096_30fps.mp4", "size": 22137212}, {"id": 10739624, "quality": "sd", "file_type": "video/mp4", "width": 338, "height": 640, "fps": 29.969999313354492, "link": "https://videos.pexels.com/video-files/8195676/8195676-sd_338_640_30fps.mp4", "size": 652893}, {"id": 10739666, "quality": "hd", "file_type": "video/mp4", "width": 720, "height": 1366, "fps": 29.969999313354492, "link": "https://videos.pexels.com/video-files/8195676/8195676-hd_720_1366_30fps.mp4", "size": 3522954}, {"id": 10739724, "quality": "sd", "file_type": "video/mp4", "width": 226, "height": 426, "fps": 29.969999313354492, "link": "https://videos.pexels.com/video-files/8195676/8195676-sd_226_426_30fps.mp4", "size": 440936}, {"id": 10739821, "quality": "hd", "file_type": "video/mp4", "width": 1080, "height": 2048, "fps": 29.969999313354492, "link": "https://videos.pexels.com/video-files/8195676/8195676-hd_1080_2048_30fps.mp4", "size": 7159578}, {"id": 10739889, "quality": "uhd", "file_type": "video/mp4", "width": 1440, "height": 2732, "fps": 29.969999313354492, "link": "https://videos.pexels.com/video-files/8195676/8195676-uhd_1440_2732_30fps.mp4", "size": 14135459}, {"id": 10739965, "quality": "sd", "file_type": "video/mp4", "width": 506, "height": 960, "fps": 29.969999313354492, "link": "https://videos.pexels.com/video-files/8195676/8195676-sd_506_960_30fps.mp4", "size": 1821006}], "video_pictures": [{"id": 7802927, "nr": 0, "picture": "https://images.pexels.com/videos/8195676/pictures/preview-0.jpeg"}, {"id": 7802986, "nr": 1, "picture": "https://images.pexels.com/videos/8195676/pictures/preview-1.jpeg"}, {"id": 7803011, "nr": 2, "picture": "https://images.pexels.com/videos/8195676/pictures/preview-2.jpeg"}, {"id": 7803034, "nr": 3, "picture": "https://images.pexels.com/videos/8195676/pictures/preview-3.jpeg"}, {"id": 7803070, "nr": 4, "picture": "https://images.pexels.com/videos/8195676/pictures/preview-4.jpeg"}, {"id": 7803102, "nr": 5, "picture": "https://images.pexels.com/videos/8195676/pictures/preview-5.jpeg"}, {"id": 7803126, "nr": 6, "picture": "https://images.pexels.com/videos/8195676/pictures/preview-6.jpeg"}, {"id": 7803154, "nr": 7, "picture": "https://images.pexels.com/videos/8195676/pictures/preview-7.jpeg"}, {"id": 7803188, "nr": 8, "picture": "https://images.pexels.com/videos/8195676/pictures/preview-8.jpeg"}, {"id": 7803219, "nr": 9, "picture": "https://images.pexels.com/videos/8195676/pictures/preview-9.jpeg"}, {"id": 7803252, "nr": 10, "picture": "https://images.pexels.com/videos/8195676/pictures/preview-10.jpeg"}, {"id": 7803280, "nr": 11, "picture": "https://images.pexels.com/videos/8195676/pictures/preview-11.jpeg"}, {"id": 7803303, "nr": 12, "picture": "https://images.pexels.com/videos/8195676/pictures/preview-12.jpeg"}, {"id": 7803323, "nr": 13, "picture": "https://images.pexels.com/videos/8195676/pictures/preview-13.jpeg"}, {"id": 7803343, "nr": 14, "picture": "https://images.pexels.com/videos/8195676/pictures/preview-14.jpeg"}]}], "total_results": 8000, "next_page": "https://api.pexels.com/v1/videos/search/?orientation=portrait&page=2&per_page=8&query=folded+leaves+plant", "url": "https://api-server.pexels.com/search/videos/folded%20leaves%20plant/"}, "timestamp": "2024-12-28T22:18:10.798411"}
