{"query": "sunflowers moving", "response": {"page": 1, "per_page": 8, "videos": [{"id": 29926629, "width": 2160, "height": 3840, "duration": 9, "full_res": null, "tags": [], "url": "https://www.pexels.com/video/train-at-sunset-on-rural-railway-track-29926629/", "image": "https://images.pexels.com/videos/29926629/pexels-photo-29926629.jpeg?auto=compress&cs=tinysrgb&fit=crop&h=1200&w=630", "avg_color": null, "user": {"id": 1084752894, "name": "s\u01a1n Antimage", "url": "https://www.pexels.com/@s-n-antimage-1084752894"}, "video_files": [{"id": 12844081, "quality": null, "file_type": "video/mp4", "width": 360, "height": 640, "fps": 25.0, "link": "https://videos.pexels.com/video-files/29926629/12844081_360_640_25fps.mp4", "size": 1033211}, {"id": 12844082, "quality": null, "file_type": "video/mp4", "width": 540, "height": 960, "fps": 25.0, "link": "https://videos.pexels.com/video-files/29926629/12844082_540_960_25fps.mp4", "size": 2530328}, {"id": 12844083, "quality": null, "file_type": "video/mp4", "width": 720, "height": 1280, "fps": 25.0, "link": "https://videos.pexels.com/video-files/29926629/12844083_720_1280_25fps.mp4", "size": 4622296}, {"id": 12844084, "quality": null, "file_type": "video/mp4", "width": 1080, "height": 1920, "fps": 25.0, "link": "https://videos.pexels.com/video-files/29926629/12844084_1080_1920_25fps.mp4", "size": 10269171}, {"id": 12844085, "quality": null, "file_type": "video/mp4", "width": 1440, "height": 2560, "fps": 25.0, "link": "https://videos.pexels.com/video-files/29926629/12844085_1440_2560_25fps.mp4", "size": 17568619}, {"id": 12844086, "quality": null, "file_type": "video/mp4", "width": 2160, "height": 3840, "fps": 25.0, "link": "https://videos.pexels.com/video-files/29926629/12844086_2160_3840_25fps.mp4", "size": 33723804}], "video_pictures": [{"id": 24289234, "nr": 0, "picture": "https://images.pexels.com/videos/29926629/pictures/preview-0.jpg"}, {"id": 24289235, "nr": 1, "picture": "https://images.pexels.com/videos/29926629/pictures/preview-1.jpg"}, {"id": 24289236, "nr": 2, "picture": "https://images.pexels.com/videos/29926629/pictures/preview-2.jpg"}, {"id": 24289237, "nr": 3, "picture": "https://images.pexels.com/videos/29926629/pictures/preview-3.jpg"}, {"id": 24289238, "nr": 4, "picture": "https://images.pexels.com/videos/29926629/pictures/preview-4.jpg"}, {"id": 24289239, "nr": 5, "picture": "https://images.pexels.com/videos/29926629/pictures/preview-5.jpg"}, {"id": 24289240, "nr": 6, "picture": "https://images.pexels.com/videos/29926629/pictures/preview-6.jpg"}, {"id": 24289241, "nr": 7, "picture": "https://images.pexels.com/videos/29926629/pictures/preview-7.jpg"}]}, {"id": 8056102, "width": 2160, "height": 3840, "duration": 12, "full_res": null, "tags": [], "url": "https://www.pexels.com/video/a-woman-s-arm-in-the-sunlight-8056102/", "image": "https://images.pexels.com/videos/8056102/abstract-adult-analogue-architecture-8056102.jpeg?auto=compress&cs=tinysrgb&fit=crop&h=1200&w=630", "avg_color": null, "user": {"id": 10955896, "name": "Anna Nekrashevich", "url": "https://www.pexels.com/@anna-nekrashevich"}, "video_files": [{"id": 10670864, "quality": "uhd", "file_type": "video/mp4", "width": 1440, "height": 2560, "fps": 30.0, "link": "https://videos.pexels.com/video-files/8056102/8056102-uhd_1440_2560_30fps.mp4", "size": 19815241}, {"id": 10670898, "quality": "sd", "file_type": "video/mp4", "width": 360, "height": 640, "fps": 30.0, "link": "https://videos.pexels.com/video-files/8056102/8056102-sd_360_640_30fps.mp4", "size": 499435}, {"id": 10670925, "quality": "hd", "file_type": "video/mp4", "width": 1080, "height": 1920, "fps": 30.0, "link": "https://videos.pexels.com/video-files/8056102/8056102-hd_1080_1920_30fps.mp4", "size": 7434621}, {"id": 10670978, "quality": "sd", "file_type": "video/mp4", "width": 240, "height": 426, "fps": 30.0, "link": "https://videos.pexels.com/video-files/8056102/8056102-sd_240_426_30fps.mp4", "size": 223448}, {"id": 10671006, "quality": "sd", "file_type": "video/mp4", "width": 540, "height": 960, "fps": 30.0, "link": "https://videos.pexels.com/video-files/8056102/8056102-sd_540_960_30fps.mp4", "size": 1174466}, {"id": 10671028, "quality": "uhd", "file_type": "video/mp4", "width": 2160, "height": 3840, "fps": 30.0, "link": "https://videos.pexels.com/video-files/8056102/8056102-uhd_2160_3840_30fps.mp4", "size": 37528147}, {"id": 10671051, "quality": "hd", "file_type": "video/mp4", "width": 720, "height": 1280, "fps": 30.0, "link": "https://videos.pexels.com/video-files/8056102/8056102-hd_720_1280_30fps.mp4", "size": 2592883}], "video_pictures": [{"id": 7515358, "nr": 0, "picture": "https://images.pexels.com/videos/8056102/pictures/preview-0.jpeg"}, {"id": 7515375, "nr": 1, "picture": "https://images.pexels.com/videos/8056102/pictures/preview-1.jpeg"}, {"id": 7515394, "nr": 2, "picture": "https://images.pexels.com/videos/8056102/pictures/preview-2.jpeg"}, {"id": 7515409, "nr": 3, "picture": "https://images.pexels.com/videos/8056102/pictures/preview-3.jpeg"}, {"id": 7515430, "nr": 4, "picture": "https://images.pexels.com/videos/8056102/pictures/preview-4.jpeg"}, {"id": 7515447, "nr": 5, "picture": "https://images.pexels.com/videos/8056102/pictures/preview-5.jpeg"}, {"id": 7515463, "nr": 6, "picture": "https://images.pexels.com/videos/8056102/pictures/preview-6.jpeg"}, {"id": 7515480, "nr": 7, "picture": "https://images.pexels.com/videos/8056102/pictures/preview-7.jpeg"}, {"id": 7515501, "nr": 8, "picture": "https://images.pexels.com/videos/8056102/pictures/preview-8.jpeg"}, {"id": 7515521, "nr": 9, "picture": "https://images.pexels.com/videos/8056102/pictures/preview-9.jpeg"}, {"id": 7515533, "nr": 10, "picture": "https://images.pexels.com/videos/8056102/pictures/preview-10.jpeg"}, {"id": 7515543, "nr": 11, "picture": "https://images.pexels.com/videos/8056102/pictures/preview-11.jpeg"}, {"id": 7515555, "nr": 12, "picture": "https://images.pexels.com/videos/8056102/pictures/preview-12.jpeg"}, {"id": 7515564, "nr": 13, "picture": "https://images.pexels.com/videos/8056102/pictures/preview-13.jpeg"}, {"id": 7515573, "nr": 14, "picture": "https://images.pexels.com/videos/8056102/pictures/preview-14.jpeg"}]}, {"id": 8516625, "width": 2160, "height": 3840, "duration": 11, "full_res": null, "tags": [], "url": "https://www.pexels.com/video/a-shadow-of-leaves-swaying-in-the-wind-8516625/", "image": "https://images.pexels.com/videos/8516625/abstract-art-backdrop-background-8516625.jpeg?auto=compress&cs=tinysrgb&fit=crop&h=1200&w=630", "avg_color": null, "user": {"id": 10955896, "name": "Anna Nekrashevich", "url": "https://www.pexels.com/@anna-nekrashevich"}, "video_files": [{"id": 10872538, "quality": "sd", "file_type": "video/mp4", "width": 240, "height": 426, "fps": 30.0, "link": "https://videos.pexels.com/video-files/8516625/8516625-sd_240_426_30fps.mp4", "size": 243355}, {"id": 10872543, "quality": "hd", "file_type": "video/mp4", "width": 720, "height": 1280, "fps": 30.0, "link": "https://videos.pexels.com/video-files/8516625/8516625-hd_720_1280_30fps.mp4", "size": 1377355}, {"id": 10872549, "quality": "uhd", "file_type": "video/mp4", "width": 2160, "height": 3840, "fps": 30.0, "link": "https://videos.pexels.com/video-files/8516625/8516625-uhd_2160_3840_30fps.mp4", "size": 11843187}, {"id": 10872558, "quality": "sd", "file_type": "video/mp4", "width": 540, "height": 960, "fps": 30.0, "link": "https://videos.pexels.com/video-files/8516625/8516625-sd_540_960_30fps.mp4", "size": 808973}, {"id": 10872571, "quality": "sd", "file_type": "video/mp4", "width": 360, "height": 640, "fps": 30.0, "link": "https://videos.pexels.com/video-files/8516625/8516625-sd_360_640_30fps.mp4", "size": 449229}, {"id": 10872587, "quality": "hd", "file_type": "video/mp4", "width": 1080, "height": 1920, "fps": 30.0, "link": "https://videos.pexels.com/video-files/8516625/8516625-hd_1080_1920_30fps.mp4", "size": 2978175}, {"id": 10872669, "quality": "uhd", "file_type": "video/mp4", "width": 1440, "height": 2560, "fps": 30.0, "link": "https://videos.pexels.com/video-files/8516625/8516625-uhd_1440_2560_30fps.mp4", "size": 5177661}], "video_pictures": [{"id": 8417010, "nr": 0, "picture": "https://images.pexels.com/videos/8516625/pictures/preview-0.jpeg"}, {"id": 8417026, "nr": 1, "picture": "https://images.pexels.com/videos/8516625/pictures/preview-1.jpeg"}, {"id": 8417039, "nr": 2, "picture": "https://images.pexels.com/videos/8516625/pictures/preview-2.jpeg"}, {"id": 8417061, "nr": 3, "picture": "https://images.pexels.com/videos/8516625/pictures/preview-3.jpeg"}, {"id": 8417080, "nr": 4, "picture": "https://images.pexels.com/videos/8516625/pictures/preview-4.jpeg"}, {"id": 8417107, "nr": 5, "picture": "https://images.pexels.com/videos/8516625/pictures/preview-5.jpeg"}, {"id": 8417134, "nr": 6, "picture": "https://images.pexels.com/videos/8516625/pictures/preview-6.jpeg"}, {"id": 8417168, "nr": 7, "picture": "https://images.pexels.com/videos/8516625/pictures/preview-7.jpeg"}, {"id": 8417198, "nr": 8, "picture": "https://images.pexels.com/videos/8516625/pictures/preview-8.jpeg"}, {"id": 8417225, "nr": 9, "picture": "https://images.pexels.com/videos/8516625/pictures/preview-9.jpeg"}, {"id": 8417254, "nr": 10, "picture": "https://images.pexels.com/videos/8516625/pictures/preview-10.jpeg"}, {"id": 8417275, "nr": 11, "picture": "https://images.pexels.com/videos/8516625/pictures/preview-11.jpeg"}, {"id": 8417302, "nr": 12, "picture": "https://images.pexels.com/videos/8516625/pictures/preview-12.jpeg"}, {"id": 8417330, "nr": 13, "picture": "https://images.pexels.com/videos/8516625/pictures/preview-13.jpeg"}, {"id": 8417352, "nr": 14, "picture": "https://images.pexels.com/videos/8516625/pictures/preview-14.jpeg"}]}, {"id": 5501730, "width": 2160, "height": 3840, "duration": 5, "full_res": null, "tags": [], "url": "https://www.pexels.com/video/a-happy-family-dancing-with-their-white-dog-5501730/", "image": "https://images.pexels.com/videos/5501730/autumn-be-happy-boxes-brewing-coffee-5501730.jpeg?auto=compress&cs=tinysrgb&fit=crop&h=1200&w=630", "avg_color": null, "user": {"id": 2441340, "name": "Anastasia  Shuraeva", "url": "https://www.pexels.com/@anastasia-shuraeva"}, "video_files": [{"id": 9715481, "quality": "sd", "file_type": "video/mp4", "width": 240, "height": 426, "fps": 24.0, "link": "https://videos.pexels.com/video-files/5501730/5501730-sd_240_426_24fps.mp4", "size": 193340}, {"id": 9715626, "quality": "sd", "file_type": "video/mp4", "width": 360, "height": 640, "fps": 24.0, "link": "https://videos.pexels.com/video-files/5501730/5501730-sd_360_640_24fps.mp4", "size": 316216}, {"id": 9715702, "quality": "hd", "file_type": "video/mp4", "width": 1080, "height": 1920, "fps": 24.0, "link": "https://videos.pexels.com/video-files/5501730/5501730-hd_1080_1920_24fps.mp4", "size": 3082982}, {"id": 9716015, "quality": "uhd", "file_type": "video/mp4", "width": 1440, "height": 2560, "fps": 24.0, "link": "https://videos.pexels.com/video-files/5501730/5501730-uhd_1440_2560_24fps.mp4", "size": 8104196}, {"id": 9716208, "quality": "uhd", "file_type": "video/mp4", "width": 2160, "height": 3840, "fps": 24.0, "link": "https://videos.pexels.com/video-files/5501730/5501730-uhd_2160_3840_24fps.mp4", "size": 14355559}, {"id": 9716326, "quality": "hd", "file_type": "video/mp4", "width": 720, "height": 1280, "fps": 24.0, "link": "https://videos.pexels.com/video-files/5501730/5501730-hd_720_1280_24fps.mp4", "size": 1632683}, {"id": 9716453, "quality": "sd", "file_type": "video/mp4", "width": 540, "height": 960, "fps": 24.0, "link": "https://videos.pexels.com/video-files/5501730/5501730-sd_540_960_24fps.mp4", "size": 927187}], "video_pictures": [{"id": 2918708, "nr": 0, "picture": "https://images.pexels.com/videos/5501730/pictures/preview-0.jpeg"}, {"id": 2918711, "nr": 1, "picture": "https://images.pexels.com/videos/5501730/pictures/preview-1.jpeg"}, {"id": 2918716, "nr": 2, "picture": "https://images.pexels.com/videos/5501730/pictures/preview-2.jpeg"}, {"id": 2918717, "nr": 3, "picture": "https://images.pexels.com/videos/5501730/pictures/preview-3.jpeg"}, {"id": 2918723, "nr": 4, "picture": "https://images.pexels.com/videos/5501730/pictures/preview-4.jpeg"}, {"id": 2918729, "nr": 5, "picture": "https://images.pexels.com/videos/5501730/pictures/preview-5.jpeg"}, {"id": 2918736, "nr": 6, "picture": "https://images.pexels.com/videos/5501730/pictures/preview-6.jpeg"}, {"id": 2918743, "nr": 7, "picture": "https://images.pexels.com/videos/5501730/pictures/preview-7.jpeg"}, {"id": 2918748, "nr": 8, "picture": "https://images.pexels.com/videos/5501730/pictures/preview-8.jpeg"}, {"id": 2918763, "nr": 9, "picture": "https://images.pexels.com/videos/5501730/pictures/preview-9.jpeg"}, {"id": 2918773, "nr": 10, "picture": "https://images.pexels.com/videos/5501730/pictures/preview-10.jpeg"}, {"id": 2918783, "nr": 11, "picture": "https://images.pexels.com/videos/5501730/pictures/preview-11.jpeg"}, {"id": 2918797, "nr": 12, "picture": "https://images.pexels.com/videos/5501730/pictures/preview-12.jpeg"}, {"id": 2918805, "nr": 13, "picture": "https://images.pexels.com/videos/5501730/pictures/preview-13.jpeg"}, {"id": 2918810, "nr": 14, "picture": "https://images.pexels.com/videos/5501730/pictures/preview-14.jpeg"}]}, {"id": 8516672, "width": 2160, "height": 3840, "duration": 9, "full_res": null, "tags": [], "url": "https://www.pexels.com/video/a-shadow-of-a-palm-leaf-8516672/", "image": "https://images.pexels.com/videos/8516672/abstract-art-artistic-backdrop-8516672.jpeg?auto=compress&cs=tinysrgb&fit=crop&h=1200&w=630", "avg_color": null, "user": {"id": 10955896, "name": "Anna Nekrashevich", "url": "https://www.pexels.com/@anna-nekrashevich"}, "video_files": [{"id": 10872838, "quality": "uhd", "file_type": "video/mp4", "width": 2160, "height": 3840, "fps": 30.0, "link": "https://videos.pexels.com/video-files/8516672/8516672-uhd_2160_3840_30fps.mp4", "size": 26252607}, {"id": 10872922, "quality": "hd", "file_type": "video/mp4", "width": 1080, "height": 1920, "fps": 30.0, "link": "https://videos.pexels.com/video-files/8516672/8516672-hd_1080_1920_30fps.mp4", "size": 5985157}, {"id": 10872957, "quality": "sd", "file_type": "video/mp4", "width": 240, "height": 426, "fps": 30.0, "link": "https://videos.pexels.com/video-files/8516672/8516672-sd_240_426_30fps.mp4", "size": 230026}, {"id": 10873120, "quality": "sd", "file_type": "video/mp4", "width": 360, "height": 640, "fps": 30.0, "link": "https://videos.pexels.com/video-files/8516672/8516672-sd_360_640_30fps.mp4", "size": 571035}, {"id": 10873263, "quality": "uhd", "file_type": "video/mp4", "width": 1440, "height": 2560, "fps": 30.0, "link": "https://videos.pexels.com/video-files/8516672/8516672-uhd_1440_2560_30fps.mp4", "size": 14542836}, {"id": 10873411, "quality": "sd", "file_type": "video/mp4", "width": 540, "height": 960, "fps": 30.0, "link": "https://videos.pexels.com/video-files/8516672/8516672-sd_540_960_30fps.mp4", "size": 1737424}, {"id": 10873672, "quality": "hd", "file_type": "video/mp4", "width": 720, "height": 1280, "fps": 30.0, "link": "https://videos.pexels.com/video-files/8516672/8516672-hd_720_1280_30fps.mp4", "size": 3007595}], "video_pictures": [{"id": 8417598, "nr": 0, "picture": "https://images.pexels.com/videos/8516672/pictures/preview-0.jpeg"}, {"id": 8417614, "nr": 1, "picture": "https://images.pexels.com/videos/8516672/pictures/preview-1.jpeg"}, {"id": 8417630, "nr": 2, "picture": "https://images.pexels.com/videos/8516672/pictures/preview-2.jpeg"}, {"id": 8417646, "nr": 3, "picture": "https://images.pexels.com/videos/8516672/pictures/preview-3.jpeg"}, {"id": 8417660, "nr": 4, "picture": "https://images.pexels.com/videos/8516672/pictures/preview-4.jpeg"}, {"id": 8417679, "nr": 5, "picture": "https://images.pexels.com/videos/8516672/pictures/preview-5.jpeg"}, {"id": 8417698, "nr": 6, "picture": "https://images.pexels.com/videos/8516672/pictures/preview-6.jpeg"}, {"id": 8417709, "nr": 7, "picture": "https://images.pexels.com/videos/8516672/pictures/preview-7.jpeg"}, {"id": 8417723, "nr": 8, "picture": "https://images.pexels.com/videos/8516672/pictures/preview-8.jpeg"}, {"id": 8417737, "nr": 9, "picture": "https://images.pexels.com/videos/8516672/pictures/preview-9.jpeg"}, {"id": 8417751, "nr": 10, "picture": "https://images.pexels.com/videos/8516672/pictures/preview-10.jpeg"}, {"id": 8417767, "nr": 11, "picture": "https://images.pexels.com/videos/8516672/pictures/preview-11.jpeg"}, {"id": 8417781, "nr": 12, "picture": "https://images.pexels.com/videos/8516672/pictures/preview-12.jpeg"}, {"id": 8417788, "nr": 13, "picture": "https://images.pexels.com/videos/8516672/pictures/preview-13.jpeg"}, {"id": 8417795, "nr": 14, "picture": "https://images.pexels.com/videos/8516672/pictures/preview-14.jpeg"}]}, {"id": 4623748, "width": 1214, "height": 2160, "duration": 12, "full_res": null, "tags": [], "url": "https://www.pexels.com/video/white-fabric-blown-by-wind-4623748/", "image": "https://images.pexels.com/videos/4623748/pexels-photo-4623748.jpeg?auto=compress&cs=tinysrgb&fit=crop&h=1200&w=630", "avg_color": null, "user": {"id": 2951544, "name": "Artem Podrez", "url": "https://www.pexels.com/@artempodrez"}, "video_files": [{"id": 9387455, "quality": "sd", "file_type": "video/mp4", "width": 360, "height": 640, "fps": 24.0, "link": "https://videos.pexels.com/video-files/4623748/4623748-sd_360_640_24fps.mp4", "size": 774411}, {"id": 9387602, "quality": "hd", "file_type": "video/mp4", "width": 1080, "height": 1922, "fps": 24.0, "link": "https://videos.pexels.com/video-files/4623748/4623748-hd_1080_1922_24fps.mp4", "size": 6984718}, {"id": 9387766, "quality": "sd", "file_type": "video/mp4", "width": 240, "height": 426, "fps": 24.0, "link": "https://videos.pexels.com/video-files/4623748/4623748-sd_240_426_24fps.mp4", "size": 448525}, {"id": 9387894, "quality": "sd", "file_type": "video/mp4", "width": 540, "height": 960, "fps": 24.0, "link": "https://videos.pexels.com/video-files/4623748/4623748-sd_540_960_24fps.mp4", "size": 2129739}, {"id": 9387994, "quality": "hd", "file_type": "video/mp4", "width": 720, "height": 1282, "fps": 24.0, "link": "https://videos.pexels.com/video-files/4623748/4623748-hd_720_1282_24fps.mp4", "size": 3524852}], "video_pictures": [{"id": 1729864, "nr": 0, "picture": "https://images.pexels.com/videos/4623748/pictures/preview-0.jpeg"}, {"id": 1729865, "nr": 1, "picture": "https://images.pexels.com/videos/4623748/pictures/preview-1.jpeg"}, {"id": 1729866, "nr": 2, "picture": "https://images.pexels.com/videos/4623748/pictures/preview-2.jpeg"}, {"id": 1729867, "nr": 3, "picture": "https://images.pexels.com/videos/4623748/pictures/preview-3.jpeg"}, {"id": 1729868, "nr": 4, "picture": "https://images.pexels.com/videos/4623748/pictures/preview-4.jpeg"}, {"id": 1729869, "nr": 5, "picture": "https://images.pexels.com/videos/4623748/pictures/preview-5.jpeg"}, {"id": 1729870, "nr": 6, "picture": "https://images.pexels.com/videos/4623748/pictures/preview-6.jpeg"}, {"id": 1729871, "nr": 7, "picture": "https://images.pexels.com/videos/4623748/pictures/preview-7.jpeg"}, {"id": 1729872, "nr": 8, "picture": "https://images.pexels.com/videos/4623748/pictures/preview-8.jpeg"}, {"id": 1729873, "nr": 9, "picture": "https://images.pexels.com/videos/4623748/pictures/preview-9.jpeg"}, {"id": 1729874, "nr": 10, "picture": "https://images.pexels.com/videos/4623748/pictures/preview-10.jpeg"}, {"id": 1729875, "nr": 11, "picture": "https://images.pexels.com/videos/4623748/pictures/preview-11.jpeg"}, {"id": 1729876, "nr": 12, "picture": "https://images.pexels.com/videos/4623748/pictures/preview-12.jpeg"}, {"id": 1729877, "nr": 13, "picture": "https://images.pexels.com/videos/4623748/pictures/preview-13.jpeg"}, {"id": 1729878, "nr": 14, "picture": "https://images.pexels.com/videos/4623748/pictures/preview-14.jpeg"}]}, {"id": 8516628, "width": 2160, "height": 3840, "duration": 10, "full_res": null, "tags": [], "url": "https://www.pexels.com/video/a-shadow-of-a-plant-swaying-in-the-wind-8516628/", "image": "https://images.pexels.com/videos/8516628/abstract-animal-art-backdrop-8516628.jpeg?auto=compress&cs=tinysrgb&fit=crop&h=1200&w=630", "avg_color": null, "user": {"id": 10955896, "name": "Anna Nekrashevich", "url": "https://www.pexels.com/@anna-nekrashevich"}, "video_files": [{"id": 10872693, "quality": "uhd", "file_type": "video/mp4", "width": 2160, "height": 3840, "fps": 30.0, "link": "https://videos.pexels.com/video-files/8516628/8516628-uhd_2160_3840_30fps.mp4", "size": 26744115}, {"id": 10872749, "quality": "sd", "file_type": "video/mp4", "width": 540, "height": 960, "fps": 30.0, "link": "https://videos.pexels.com/video-files/8516628/8516628-sd_540_960_30fps.mp4", "size": 1660692}, {"id": 10872806, "quality": "hd", "file_type": "video/mp4", "width": 1080, "height": 1920, "fps": 30.0, "link": "https://videos.pexels.com/video-files/8516628/8516628-hd_1080_1920_30fps.mp4", "size": 6009009}, {"id": 10872868, "quality": "uhd", "file_type": "video/mp4", "width": 1440, "height": 2560, "fps": 30.0, "link": "https://videos.pexels.com/video-files/8516628/8516628-uhd_1440_2560_30fps.mp4", "size": 14348463}, {"id": 10873005, "quality": "hd", "file_type": "video/mp4", "width": 720, "height": 1280, "fps": 30.0, "link": "https://videos.pexels.com/video-files/8516628/8516628-hd_720_1280_30fps.mp4", "size": 2997300}, {"id": 10873207, "quality": "sd", "file_type": "video/mp4", "width": 240, "height": 426, "fps": 30.0, "link": "https://videos.pexels.com/video-files/8516628/8516628-sd_240_426_30fps.mp4", "size": 126668}, {"id": 10873301, "quality": "sd", "file_type": "video/mp4", "width": 360, "height": 640, "fps": 30.0, "link": "https://videos.pexels.com/video-files/8516628/8516628-sd_360_640_30fps.mp4", "size": 548450}], "video_pictures": [{"id": 8417017, "nr": 0, "picture": "https://images.pexels.com/videos/8516628/pictures/preview-0.jpeg"}, {"id": 8417031, "nr": 1, "picture": "https://images.pexels.com/videos/8516628/pictures/preview-1.jpeg"}, {"id": 8417050, "nr": 2, "picture": "https://images.pexels.com/videos/8516628/pictures/preview-2.jpeg"}, {"id": 8417076, "nr": 3, "picture": "https://images.pexels.com/videos/8516628/pictures/preview-3.jpeg"}, {"id": 8417102, "nr": 4, "picture": "https://images.pexels.com/videos/8516628/pictures/preview-4.jpeg"}, {"id": 8417137, "nr": 5, "picture": "https://images.pexels.com/videos/8516628/pictures/preview-5.jpeg"}, {"id": 8417162, "nr": 6, "picture": "https://images.pexels.com/videos/8516628/pictures/preview-6.jpeg"}, {"id": 8417194, "nr": 7, "picture": "https://images.pexels.com/videos/8516628/pictures/preview-7.jpeg"}, {"id": 8417220, "nr": 8, "picture": "https://images.pexels.com/videos/8516628/pictures/preview-8.jpeg"}, {"id": 8417256, "nr": 9, "picture": "https://images.pexels.com/videos/8516628/pictures/preview-9.jpeg"}, {"id": 8417297, "nr": 10, "picture": "https://images.pexels.com/videos/8516628/pictures/preview-10.jpeg"}, {"id": 8417331, "nr": 11, "picture": "https://images.pexels.com/videos/8516628/pictures/preview-11.jpeg"}, {"id": 8417356, "nr": 12, "picture": "https://images.pexels.com/videos/8516628/pictures/preview-12.jpeg"}, {"id": 8417379, "nr": 13, "picture": "https://images.pexels.com/videos/8516628/pictures/preview-13.jpeg"}, {"id": 8417402, "nr": 14, "picture": "https://images.pexels.com/videos/8516628/pictures/preview-14.jpeg"}]}, {"id": 5936863, "width": 1080, "height": 1920, "duration": 10, "full_res": null, "tags": [], "url": "https://www.pexels.com/video/aerial-footage-of-a-road-5936863/", "image": "https://images.pexels.com/videos/5936863/aerial-video-autumn-autumn-atmosphere-autumn-color-5936863.jpeg?auto=compress&cs=tinysrgb&fit=crop&h=1200&w=630", "avg_color": null, "user": {"id": 574687, "name": "Ruvim Miksanskiy", "url": "https://www.pexels.com/@digitech"}, "video_files": [{"id": 9881352, "quality": "hd", "file_type": "video/mp4", "width": 720, "height": 1280, "fps": 23.97599983215332, "link": "https://videos.pexels.com/video-files/5936863/5936863-hd_720_1280_24fps.mp4", "size": 3537392}, {"id": 9881374, "quality": "sd", "file_type": "video/mp4", "width": 240, "height": 426, "fps": 23.97599983215332, "link": "https://videos.pexels.com/video-files/5936863/5936863-sd_240_426_24fps.mp4", "size": 392616}, {"id": 9881406, "quality": "sd", "file_type": "video/mp4", "width": 540, "height": 960, "fps": 23.97599983215332, "link": "https://videos.pexels.com/video-files/5936863/5936863-sd_540_960_24fps.mp4", "size": 1786491}, {"id": 9881433, "quality": "sd", "file_type": "video/mp4", "width": 360, "height": 640, "fps": 23.97599983215332, "link": "https://videos.pexels.com/video-files/5936863/5936863-sd_360_640_24fps.mp4", "size": 614727}, {"id": 9881475, "quality": "hd", "file_type": "video/mp4", "width": 1080, "height": 1920, "fps": 23.97599983215332, "link": "https://videos.pexels.com/video-files/5936863/5936863-hd_1080_1920_24fps.mp4", "size": 6777397}], "video_pictures": [{"id": 3626885, "nr": 0, "picture": "https://images.pexels.com/videos/5936863/pictures/preview-0.jpeg"}, {"id": 3626886, "nr": 1, "picture": "https://images.pexels.com/videos/5936863/pictures/preview-1.jpeg"}, {"id": 3626887, "nr": 2, "picture": "https://images.pexels.com/videos/5936863/pictures/preview-2.jpeg"}, {"id": 3626888, "nr": 3, "picture": "https://images.pexels.com/videos/5936863/pictures/preview-3.jpeg"}, {"id": 3626889, "nr": 4, "picture": "https://images.pexels.com/videos/5936863/pictures/preview-4.jpeg"}, {"id": 3626890, "nr": 5, "picture": "https://images.pexels.com/videos/5936863/pictures/preview-5.jpeg"}, {"id": 3626891, "nr": 6, "picture": "https://images.pexels.com/videos/5936863/pictures/preview-6.jpeg"}, {"id": 3626892, "nr": 7, "picture": "https://images.pexels.com/videos/5936863/pictures/preview-7.jpeg"}, {"id": 3626893, "nr": 8, "picture": "https://images.pexels.com/videos/5936863/pictures/preview-8.jpeg"}, {"id": 3626894, "nr": 9, "picture": "https://images.pexels.com/videos/5936863/pictures/preview-9.jpeg"}, {"id": 3626895, "nr": 10, "picture": "https://images.pexels.com/videos/5936863/pictures/preview-10.jpeg"}, {"id": 3626897, "nr": 11, "picture": "https://images.pexels.com/videos/5936863/pictures/preview-11.jpeg"}, {"id": 3626899, "nr": 12, "picture": "https://images.pexels.com/videos/5936863/pictures/preview-12.jpeg"}, {"id": 3626901, "nr": 13, "picture": "https://images.pexels.com/videos/5936863/pictures/preview-13.jpeg"}, {"id": 3626903, "nr": 14, "picture": "https://images.pexels.com/videos/5936863/pictures/preview-14.jpeg"}]}], "total_results": 2206, "next_page": "https://api.pexels.com/v1/videos/search/?orientation=portrait&page=2&per_page=8&query=sunflowers+moving", "url": "https://api-server.pexels.com/search/videos/sunflowers%20moving/"}, "timestamp": "2024-12-28T23:03:41.906024"}
