{"query": "sacred fig tree", "response": {"page": 1, "per_page": 8, "videos": [{"id": 5825801, "width": 2160, "height": 3840, "duration": 14, "full_res": null, "tags": [], "url": "https://www.pexels.com/video/windows-of-a-castle-5825801/", "image": "https://images.pexels.com/videos/5825801/pexels-photo-5825801.jpeg?auto=compress&cs=tinysrgb&fit=crop&h=1200&w=630", "avg_color": null, "user": {"id": 3660475, "name": "Charles Parker", "url": "https://www.pexels.com/@charles-parker"}, "video_files": [{"id": 9813049, "quality": "sd", "file_type": "video/mp4", "width": 540, "height": 960, "fps": 23.97599983215332, "link": "https://videos.pexels.com/video-files/5825801/5825801-sd_540_960_24fps.mp4", "size": 3098791}, {"id": 9813110, "quality": "hd", "file_type": "video/mp4", "width": 1080, "height": 1920, "fps": 23.97599983215332, "link": "https://videos.pexels.com/video-files/5825801/5825801-hd_1080_1920_24fps.mp4", "size": 10110601}, {"id": 9813122, "quality": "sd", "file_type": "video/mp4", "width": 240, "height": 426, "fps": 23.97599983215332, "link": "https://videos.pexels.com/video-files/5825801/5825801-sd_240_426_24fps.mp4", "size": 698026}, {"id": 9813135, "quality": "hd", "file_type": "video/mp4", "width": 720, "height": 1280, "fps": 23.97599983215332, "link": "https://videos.pexels.com/video-files/5825801/5825801-hd_720_1280_24fps.mp4", "size": 5451805}, {"id": 9813150, "quality": "uhd", "file_type": "video/mp4", "width": 1440, "height": 2560, "fps": 23.97599983215332, "link": "https://videos.pexels.com/video-files/5825801/5825801-uhd_1440_2560_24fps.mp4", "size": 23582193}, {"id": 9813431, "quality": "sd", "file_type": "video/mp4", "width": 360, "height": 640, "fps": 23.97599983215332, "link": "https://videos.pexels.com/video-files/5825801/5825801-sd_360_640_24fps.mp4", "size": 1131616}, {"id": 9813592, "quality": "uhd", "file_type": "video/mp4", "width": 2160, "height": 3840, "fps": 23.97599983215332, "link": "https://videos.pexels.com/video-files/5825801/5825801-uhd_2160_3840_24fps.mp4", "size": 42633656}], "video_pictures": [{"id": 3426544, "nr": 0, "picture": "https://images.pexels.com/videos/5825801/pictures/preview-0.jpeg"}, {"id": 3426545, "nr": 1, "picture": "https://images.pexels.com/videos/5825801/pictures/preview-1.jpeg"}, {"id": 3426546, "nr": 2, "picture": "https://images.pexels.com/videos/5825801/pictures/preview-2.jpeg"}, {"id": 3426547, "nr": 3, "picture": "https://images.pexels.com/videos/5825801/pictures/preview-3.jpeg"}, {"id": 3426550, "nr": 4, "picture": "https://images.pexels.com/videos/5825801/pictures/preview-4.jpeg"}, {"id": 3426553, "nr": 5, "picture": "https://images.pexels.com/videos/5825801/pictures/preview-5.jpeg"}, {"id": 3426556, "nr": 6, "picture": "https://images.pexels.com/videos/5825801/pictures/preview-6.jpeg"}, {"id": 3426560, "nr": 7, "picture": "https://images.pexels.com/videos/5825801/pictures/preview-7.jpeg"}, {"id": 3426563, "nr": 8, "picture": "https://images.pexels.com/videos/5825801/pictures/preview-8.jpeg"}, {"id": 3426565, "nr": 9, "picture": "https://images.pexels.com/videos/5825801/pictures/preview-9.jpeg"}, {"id": 3426569, "nr": 10, "picture": "https://images.pexels.com/videos/5825801/pictures/preview-10.jpeg"}, {"id": 3426570, "nr": 11, "picture": "https://images.pexels.com/videos/5825801/pictures/preview-11.jpeg"}, {"id": 3426571, "nr": 12, "picture": "https://images.pexels.com/videos/5825801/pictures/preview-12.jpeg"}, {"id": 3426572, "nr": 13, "picture": "https://images.pexels.com/videos/5825801/pictures/preview-13.jpeg"}, {"id": 3426573, "nr": 14, "picture": "https://images.pexels.com/videos/5825801/pictures/preview-14.jpeg"}]}, {"id": 5386410, "width": 2160, "height": 4096, "duration": 10, "full_res": null, "tags": [], "url": "https://www.pexels.com/video/a-monk-meditating-on-a-tree-5386410/", "image": "https://images.pexels.com/videos/5386410/pexels-photo-5386410.jpeg?auto=compress&cs=tinysrgb&fit=crop&h=1200&w=630", "avg_color": null, "user": {"id": 1437723, "name": "cottonbro studio", "url": "https://www.pexels.com/@cottonbro"}, "video_files": [{"id": 9686388, "quality": "uhd", "file_type": "video/mp4", "width": 1440, "height": 2732, "fps": 25.0, "link": "https://videos.pexels.com/video-files/5386410/5386410-uhd_1440_2732_25fps.mp4", "size": 14639217}, {"id": 9686454, "quality": "uhd", "file_type": "video/mp4", "width": 2160, "height": 4096, "fps": 25.0, "link": "https://videos.pexels.com/video-files/5386410/5386410-uhd_2160_4096_25fps.mp4", "size": 27062067}, {"id": 9686527, "quality": "sd", "file_type": "video/mp4", "width": 338, "height": 640, "fps": 25.0, "link": "https://videos.pexels.com/video-files/5386410/5386410-sd_338_640_25fps.mp4", "size": 611371}, {"id": 9686588, "quality": "hd", "file_type": "video/mp4", "width": 720, "height": 1366, "fps": 25.0, "link": "https://videos.pexels.com/video-files/5386410/5386410-hd_720_1366_25fps.mp4", "size": 2988754}, {"id": 9686693, "quality": "sd", "file_type": "video/mp4", "width": 226, "height": 426, "fps": 25.0, "link": "https://videos.pexels.com/video-files/5386410/5386410-sd_226_426_25fps.mp4", "size": 367840}, {"id": 9686772, "quality": "sd", "file_type": "video/mp4", "width": 506, "height": 960, "fps": 25.0, "link": "https://videos.pexels.com/video-files/5386410/5386410-sd_506_960_25fps.mp4", "size": 1811062}, {"id": 9686855, "quality": "hd", "file_type": "video/mp4", "width": 1080, "height": 2048, "fps": 25.0, "link": "https://videos.pexels.com/video-files/5386410/5386410-hd_1080_2048_25fps.mp4", "size": 6001170}], "video_pictures": [{"id": 2747964, "nr": 0, "picture": "https://images.pexels.com/videos/5386410/pictures/preview-0.jpeg"}, {"id": 2747969, "nr": 1, "picture": "https://images.pexels.com/videos/5386410/pictures/preview-1.jpeg"}, {"id": 2747975, "nr": 2, "picture": "https://images.pexels.com/videos/5386410/pictures/preview-2.jpeg"}, {"id": 2747981, "nr": 3, "picture": "https://images.pexels.com/videos/5386410/pictures/preview-3.jpeg"}, {"id": 2747986, "nr": 4, "picture": "https://images.pexels.com/videos/5386410/pictures/preview-4.jpeg"}, {"id": 2747995, "nr": 5, "picture": "https://images.pexels.com/videos/5386410/pictures/preview-5.jpeg"}, {"id": 2748000, "nr": 6, "picture": "https://images.pexels.com/videos/5386410/pictures/preview-6.jpeg"}, {"id": 2748005, "nr": 7, "picture": "https://images.pexels.com/videos/5386410/pictures/preview-7.jpeg"}, {"id": 2748014, "nr": 8, "picture": "https://images.pexels.com/videos/5386410/pictures/preview-8.jpeg"}, {"id": 2748021, "nr": 9, "picture": "https://images.pexels.com/videos/5386410/pictures/preview-9.jpeg"}, {"id": 2748031, "nr": 10, "picture": "https://images.pexels.com/videos/5386410/pictures/preview-10.jpeg"}, {"id": 2748042, "nr": 11, "picture": "https://images.pexels.com/videos/5386410/pictures/preview-11.jpeg"}, {"id": 2748052, "nr": 12, "picture": "https://images.pexels.com/videos/5386410/pictures/preview-12.jpeg"}, {"id": 2748061, "nr": 13, "picture": "https://images.pexels.com/videos/5386410/pictures/preview-13.jpeg"}, {"id": 2748067, "nr": 14, "picture": "https://images.pexels.com/videos/5386410/pictures/preview-14.jpeg"}]}, {"id": 5386411, "width": 2160, "height": 4096, "duration": 15, "full_res": null, "tags": [], "url": "https://www.pexels.com/video/a-monk-meditating-on-a-tree-5386411/", "image": "https://images.pexels.com/videos/5386411/pexels-photo-5386411.jpeg?auto=compress&cs=tinysrgb&fit=crop&h=1200&w=630", "avg_color": null, "user": {"id": 1437723, "name": "cottonbro studio", "url": "https://www.pexels.com/@cottonbro"}, "video_files": [{"id": 9686353, "quality": "sd", "file_type": "video/mp4", "width": 226, "height": 426, "fps": 25.0, "link": "https://videos.pexels.com/video-files/5386411/5386411-sd_226_426_25fps.mp4", "size": 550863}, {"id": 9686395, "quality": "uhd", "file_type": "video/mp4", "width": 1440, "height": 2732, "fps": 25.0, "link": "https://videos.pexels.com/video-files/5386411/5386411-uhd_1440_2732_25fps.mp4", "size": 22201616}, {"id": 9686495, "quality": "hd", "file_type": "video/mp4", "width": 720, "height": 1366, "fps": 25.0, "link": "https://videos.pexels.com/video-files/5386411/5386411-hd_720_1366_25fps.mp4", "size": 4627760}, {"id": 9686545, "quality": "sd", "file_type": "video/mp4", "width": 338, "height": 640, "fps": 25.0, "link": "https://videos.pexels.com/video-files/5386411/5386411-sd_338_640_25fps.mp4", "size": 854156}, {"id": 9686594, "quality": "uhd", "file_type": "video/mp4", "width": 2160, "height": 4096, "fps": 25.0, "link": "https://videos.pexels.com/video-files/5386411/5386411-uhd_2160_4096_25fps.mp4", "size": 41359169}, {"id": 9686663, "quality": "sd", "file_type": "video/mp4", "width": 506, "height": 960, "fps": 25.0, "link": "https://videos.pexels.com/video-files/5386411/5386411-sd_506_960_25fps.mp4", "size": 2383979}, {"id": 9686707, "quality": "hd", "file_type": "video/mp4", "width": 1080, "height": 2048, "fps": 25.0, "link": "https://videos.pexels.com/video-files/5386411/5386411-hd_1080_2048_25fps.mp4", "size": 9030224}], "video_pictures": [{"id": 2747973, "nr": 0, "picture": "https://images.pexels.com/videos/5386411/pictures/preview-0.jpeg"}, {"id": 2747978, "nr": 1, "picture": "https://images.pexels.com/videos/5386411/pictures/preview-1.jpeg"}, {"id": 2747983, "nr": 2, "picture": "https://images.pexels.com/videos/5386411/pictures/preview-2.jpeg"}, {"id": 2747990, "nr": 3, "picture": "https://images.pexels.com/videos/5386411/pictures/preview-3.jpeg"}, {"id": 2747997, "nr": 4, "picture": "https://images.pexels.com/videos/5386411/pictures/preview-4.jpeg"}, {"id": 2748004, "nr": 5, "picture": "https://images.pexels.com/videos/5386411/pictures/preview-5.jpeg"}, {"id": 2748009, "nr": 6, "picture": "https://images.pexels.com/videos/5386411/pictures/preview-6.jpeg"}, {"id": 2748020, "nr": 7, "picture": "https://images.pexels.com/videos/5386411/pictures/preview-7.jpeg"}, {"id": 2748026, "nr": 8, "picture": "https://images.pexels.com/videos/5386411/pictures/preview-8.jpeg"}, {"id": 2748039, "nr": 9, "picture": "https://images.pexels.com/videos/5386411/pictures/preview-9.jpeg"}, {"id": 2748050, "nr": 10, "picture": "https://images.pexels.com/videos/5386411/pictures/preview-10.jpeg"}, {"id": 2748060, "nr": 11, "picture": "https://images.pexels.com/videos/5386411/pictures/preview-11.jpeg"}, {"id": 2748066, "nr": 12, "picture": "https://images.pexels.com/videos/5386411/pictures/preview-12.jpeg"}, {"id": 2748076, "nr": 13, "picture": "https://images.pexels.com/videos/5386411/pictures/preview-13.jpeg"}, {"id": 2748087, "nr": 14, "picture": "https://images.pexels.com/videos/5386411/pictures/preview-14.jpeg"}]}, {"id": 5385959, "width": 2160, "height": 4096, "duration": 18, "full_res": null, "tags": [], "url": "https://www.pexels.com/video/a-monk-meditating-near-a-waterfall-5385959/", "image": "https://images.pexels.com/videos/5385959/pexels-photo-5385959.jpeg?auto=compress&cs=tinysrgb&fit=crop&h=1200&w=630", "avg_color": null, "user": {"id": 1437723, "name": "cottonbro studio", "url": "https://www.pexels.com/@cottonbro"}, "video_files": [{"id": 9685891, "quality": "uhd", "file_type": "video/mp4", "width": 1440, "height": 2732, "fps": 25.0, "link": "https://videos.pexels.com/video-files/5385959/5385959-uhd_1440_2732_25fps.mp4", "size": 29566668}, {"id": 9685983, "quality": "uhd", "file_type": "video/mp4", "width": 2160, "height": 4096, "fps": 25.0, "link": "https://videos.pexels.com/video-files/5385959/5385959-uhd_2160_4096_25fps.mp4", "size": 55077534}, {"id": 9686151, "quality": "hd", "file_type": "video/mp4", "width": 1080, "height": 2048, "fps": 25.0, "link": "https://videos.pexels.com/video-files/5385959/5385959-hd_1080_2048_25fps.mp4", "size": 12188194}, {"id": 9686191, "quality": "hd", "file_type": "video/mp4", "width": 720, "height": 1366, "fps": 25.0, "link": "https://videos.pexels.com/video-files/5385959/5385959-hd_720_1366_25fps.mp4", "size": 6269904}, {"id": 9686233, "quality": "sd", "file_type": "video/mp4", "width": 506, "height": 960, "fps": 25.0, "link": "https://videos.pexels.com/video-files/5385959/5385959-sd_506_960_25fps.mp4", "size": 3305752}, {"id": 9686264, "quality": "sd", "file_type": "video/mp4", "width": 338, "height": 640, "fps": 25.0, "link": "https://videos.pexels.com/video-files/5385959/5385959-sd_338_640_25fps.mp4", "size": 1131106}, {"id": 9686401, "quality": "sd", "file_type": "video/mp4", "width": 226, "height": 426, "fps": 25.0, "link": "https://videos.pexels.com/video-files/5385959/5385959-sd_226_426_25fps.mp4", "size": 697626}], "video_pictures": [{"id": 2746523, "nr": 0, "picture": "https://images.pexels.com/videos/5385959/pictures/preview-0.jpeg"}, {"id": 2746525, "nr": 1, "picture": "https://images.pexels.com/videos/5385959/pictures/preview-1.jpeg"}, {"id": 2746527, "nr": 2, "picture": "https://images.pexels.com/videos/5385959/pictures/preview-2.jpeg"}, {"id": 2746532, "nr": 3, "picture": "https://images.pexels.com/videos/5385959/pictures/preview-3.jpeg"}, {"id": 2746538, "nr": 4, "picture": "https://images.pexels.com/videos/5385959/pictures/preview-4.jpeg"}, {"id": 2746553, "nr": 5, "picture": "https://images.pexels.com/videos/5385959/pictures/preview-5.jpeg"}, {"id": 2746569, "nr": 6, "picture": "https://images.pexels.com/videos/5385959/pictures/preview-6.jpeg"}, {"id": 2746584, "nr": 7, "picture": "https://images.pexels.com/videos/5385959/pictures/preview-7.jpeg"}, {"id": 2746602, "nr": 8, "picture": "https://images.pexels.com/videos/5385959/pictures/preview-8.jpeg"}, {"id": 2746619, "nr": 9, "picture": "https://images.pexels.com/videos/5385959/pictures/preview-9.jpeg"}, {"id": 2746643, "nr": 10, "picture": "https://images.pexels.com/videos/5385959/pictures/preview-10.jpeg"}, {"id": 2746672, "nr": 11, "picture": "https://images.pexels.com/videos/5385959/pictures/preview-11.jpeg"}, {"id": 2746695, "nr": 12, "picture": "https://images.pexels.com/videos/5385959/pictures/preview-12.jpeg"}, {"id": 2746718, "nr": 13, "picture": "https://images.pexels.com/videos/5385959/pictures/preview-13.jpeg"}, {"id": 2746738, "nr": 14, "picture": "https://images.pexels.com/videos/5385959/pictures/preview-14.jpeg"}]}, {"id": 5386412, "width": 2160, "height": 4096, "duration": 48, "full_res": null, "tags": [], "url": "https://www.pexels.com/video/a-monk-meditating-on-a-tree-5386412/", "image": "https://images.pexels.com/videos/5386412/pexels-photo-5386412.jpeg?auto=compress&cs=tinysrgb&fit=crop&h=1200&w=630", "avg_color": null, "user": {"id": 1437723, "name": "cottonbro studio", "url": "https://www.pexels.com/@cottonbro"}, "video_files": [{"id": 9686708, "quality": "hd", "file_type": "video/mp4", "width": 720, "height": 1366, "fps": 25.0, "link": "https://videos.pexels.com/video-files/5386412/5386412-hd_720_1366_25fps.mp4", "size": 15535333}, {"id": 9686791, "quality": "hd", "file_type": "video/mp4", "width": 1080, "height": 2048, "fps": 25.0, "link": "https://videos.pexels.com/video-files/5386412/5386412-hd_1080_2048_25fps.mp4", "size": 30904286}, {"id": 9686873, "quality": "sd", "file_type": "video/mp4", "width": 338, "height": 640, "fps": 25.0, "link": "https://videos.pexels.com/video-files/5386412/5386412-sd_338_640_25fps.mp4", "size": 2815572}, {"id": 9686937, "quality": "uhd", "file_type": "video/mp4", "width": 1440, "height": 2732, "fps": 25.0, "link": "https://videos.pexels.com/video-files/5386412/5386412-uhd_1440_2732_25fps.mp4", "size": 72057585}, {"id": 9687007, "quality": "sd", "file_type": "video/mp4", "width": 506, "height": 960, "fps": 25.0, "link": "https://videos.pexels.com/video-files/5386412/5386412-sd_506_960_25fps.mp4", "size": 8009618}, {"id": 9687146, "quality": "sd", "file_type": "video/mp4", "width": 226, "height": 426, "fps": 25.0, "link": "https://videos.pexels.com/video-files/5386412/5386412-sd_226_426_25fps.mp4", "size": 1736752}, {"id": 9687255, "quality": "uhd", "file_type": "video/mp4", "width": 2160, "height": 4096, "fps": 25.0, "link": "https://videos.pexels.com/video-files/5386412/5386412-uhd_2160_4096_25fps.mp4", "size": 138835627}], "video_pictures": [{"id": 2748012, "nr": 0, "picture": "https://images.pexels.com/videos/5386412/pictures/preview-0.jpeg"}, {"id": 2748019, "nr": 1, "picture": "https://images.pexels.com/videos/5386412/pictures/preview-1.jpeg"}, {"id": 2748025, "nr": 2, "picture": "https://images.pexels.com/videos/5386412/pictures/preview-2.jpeg"}, {"id": 2748032, "nr": 3, "picture": "https://images.pexels.com/videos/5386412/pictures/preview-3.jpeg"}, {"id": 2748041, "nr": 4, "picture": "https://images.pexels.com/videos/5386412/pictures/preview-4.jpeg"}, {"id": 2748051, "nr": 5, "picture": "https://images.pexels.com/videos/5386412/pictures/preview-5.jpeg"}, {"id": 2748062, "nr": 6, "picture": "https://images.pexels.com/videos/5386412/pictures/preview-6.jpeg"}, {"id": 2748068, "nr": 7, "picture": "https://images.pexels.com/videos/5386412/pictures/preview-7.jpeg"}, {"id": 2748075, "nr": 8, "picture": "https://images.pexels.com/videos/5386412/pictures/preview-8.jpeg"}, {"id": 2748085, "nr": 9, "picture": "https://images.pexels.com/videos/5386412/pictures/preview-9.jpeg"}, {"id": 2748093, "nr": 10, "picture": "https://images.pexels.com/videos/5386412/pictures/preview-10.jpeg"}, {"id": 2748099, "nr": 11, "picture": "https://images.pexels.com/videos/5386412/pictures/preview-11.jpeg"}, {"id": 2748106, "nr": 12, "picture": "https://images.pexels.com/videos/5386412/pictures/preview-12.jpeg"}, {"id": 2748112, "nr": 13, "picture": "https://images.pexels.com/videos/5386412/pictures/preview-13.jpeg"}, {"id": 2748117, "nr": 14, "picture": "https://images.pexels.com/videos/5386412/pictures/preview-14.jpeg"}]}, {"id": 5875616, "width": 2160, "height": 3840, "duration": 9, "full_res": null, "tags": [], "url": "https://www.pexels.com/video/a-man-reading-a-bible-5875616/", "image": "https://images.pexels.com/videos/5875616/amen-apostolic-apostolic-fashion-atheism-5875616.jpeg?auto=compress&cs=tinysrgb&fit=crop&h=1200&w=630", "avg_color": null, "user": {"id": 3149039, "name": "RDNE Stock project", "url": "https://www.pexels.com/@rdne"}, "video_files": [{"id": 9834586, "quality": "uhd", "file_type": "video/mp4", "width": 2160, "height": 3840, "fps": 23.97599983215332, "link": "https://videos.pexels.com/video-files/5875616/5875616-uhd_2160_3840_24fps.mp4", "size": 25789137}, {"id": 9834608, "quality": "hd", "file_type": "video/mp4", "width": 1080, "height": 1920, "fps": 23.97599983215332, "link": "https://videos.pexels.com/video-files/5875616/5875616-hd_1080_1920_24fps.mp4", "size": 5743819}, {"id": 9834630, "quality": "sd", "file_type": "video/mp4", "width": 240, "height": 426, "fps": 23.97599983215332, "link": "https://videos.pexels.com/video-files/5875616/5875616-sd_240_426_24fps.mp4", "size": 336702}, {"id": 9834649, "quality": "hd", "file_type": "video/mp4", "width": 720, "height": 1280, "fps": 23.97599983215332, "link": "https://videos.pexels.com/video-files/5875616/5875616-hd_720_1280_24fps.mp4", "size": 2747029}, {"id": 9834672, "quality": "sd", "file_type": "video/mp4", "width": 540, "height": 960, "fps": 23.97599983215332, "link": "https://videos.pexels.com/video-files/5875616/5875616-sd_540_960_24fps.mp4", "size": 1625969}, {"id": 9834684, "quality": "sd", "file_type": "video/mp4", "width": 360, "height": 640, "fps": 23.97599983215332, "link": "https://videos.pexels.com/video-files/5875616/5875616-sd_360_640_24fps.mp4", "size": 551404}, {"id": 9834706, "quality": "uhd", "file_type": "video/mp4", "width": 1440, "height": 2560, "fps": 23.97599983215332, "link": "https://videos.pexels.com/video-files/5875616/5875616-uhd_1440_2560_24fps.mp4", "size": 14232368}], "video_pictures": [{"id": 3504694, "nr": 0, "picture": "https://images.pexels.com/videos/5875616/pictures/preview-0.jpeg"}, {"id": 3504706, "nr": 1, "picture": "https://images.pexels.com/videos/5875616/pictures/preview-1.jpeg"}, {"id": 3504718, "nr": 2, "picture": "https://images.pexels.com/videos/5875616/pictures/preview-2.jpeg"}, {"id": 3504732, "nr": 3, "picture": "https://images.pexels.com/videos/5875616/pictures/preview-3.jpeg"}, {"id": 3504747, "nr": 4, "picture": "https://images.pexels.com/videos/5875616/pictures/preview-4.jpeg"}, {"id": 3504765, "nr": 5, "picture": "https://images.pexels.com/videos/5875616/pictures/preview-5.jpeg"}, {"id": 3504780, "nr": 6, "picture": "https://images.pexels.com/videos/5875616/pictures/preview-6.jpeg"}, {"id": 3504789, "nr": 7, "picture": "https://images.pexels.com/videos/5875616/pictures/preview-7.jpeg"}, {"id": 3504798, "nr": 8, "picture": "https://images.pexels.com/videos/5875616/pictures/preview-8.jpeg"}, {"id": 3504809, "nr": 9, "picture": "https://images.pexels.com/videos/5875616/pictures/preview-9.jpeg"}, {"id": 3504817, "nr": 10, "picture": "https://images.pexels.com/videos/5875616/pictures/preview-10.jpeg"}, {"id": 3504824, "nr": 11, "picture": "https://images.pexels.com/videos/5875616/pictures/preview-11.jpeg"}, {"id": 3504829, "nr": 12, "picture": "https://images.pexels.com/videos/5875616/pictures/preview-12.jpeg"}, {"id": 3504834, "nr": 13, "picture": "https://images.pexels.com/videos/5875616/pictures/preview-13.jpeg"}, {"id": 3504837, "nr": 14, "picture": "https://images.pexels.com/videos/5875616/pictures/preview-14.jpeg"}]}, {"id": 5416143, "width": 2160, "height": 4096, "duration": 43, "full_res": null, "tags": [], "url": "https://www.pexels.com/video/a-monk-tying-a-prayer-flag-on-a-tree-5416143/", "image": "https://images.pexels.com/videos/5416143/pexels-photo-5416143.jpeg?auto=compress&cs=tinysrgb&fit=crop&h=1200&w=630", "avg_color": null, "user": {"id": 1437723, "name": "cottonbro studio", "url": "https://www.pexels.com/@cottonbro"}, "video_files": [{"id": 9693230, "quality": "hd", "file_type": "video/mp4", "width": 720, "height": 1366, "fps": 25.0, "link": "https://videos.pexels.com/video-files/5416143/5416143-hd_720_1366_25fps.mp4", "size": 12598084}, {"id": 9693376, "quality": "sd", "file_type": "video/mp4", "width": 226, "height": 426, "fps": 25.0, "link": "https://videos.pexels.com/video-files/5416143/5416143-sd_226_426_25fps.mp4", "size": 1470009}, {"id": 9693506, "quality": "uhd", "file_type": "video/mp4", "width": 1440, "height": 2732, "fps": 25.0, "link": "https://videos.pexels.com/video-files/5416143/5416143-uhd_1440_2732_25fps.mp4", "size": 44345220}, {"id": 9693771, "quality": "sd", "file_type": "video/mp4", "width": 506, "height": 960, "fps": 25.0, "link": "https://videos.pexels.com/video-files/5416143/5416143-sd_506_960_25fps.mp4", "size": 6439729}, {"id": 9693916, "quality": "sd", "file_type": "video/mp4", "width": 338, "height": 640, "fps": 25.0, "link": "https://videos.pexels.com/video-files/5416143/5416143-sd_338_640_25fps.mp4", "size": 2352026}, {"id": 9694068, "quality": "uhd", "file_type": "video/mp4", "width": 2160, "height": 4096, "fps": 25.0, "link": "https://videos.pexels.com/video-files/5416143/5416143-uhd_2160_4096_25fps.mp4", "size": 98542060}, {"id": 9694219, "quality": "hd", "file_type": "video/mp4", "width": 1080, "height": 2048, "fps": 25.0, "link": "https://videos.pexels.com/video-files/5416143/5416143-hd_1080_2048_25fps.mp4", "size": 24870718}], "video_pictures": [{"id": 2793452, "nr": 0, "picture": "https://images.pexels.com/videos/5416143/pictures/preview-0.jpeg"}, {"id": 2793453, "nr": 1, "picture": "https://images.pexels.com/videos/5416143/pictures/preview-1.jpeg"}, {"id": 2793454, "nr": 2, "picture": "https://images.pexels.com/videos/5416143/pictures/preview-2.jpeg"}, {"id": 2793455, "nr": 3, "picture": "https://images.pexels.com/videos/5416143/pictures/preview-3.jpeg"}, {"id": 2793456, "nr": 4, "picture": "https://images.pexels.com/videos/5416143/pictures/preview-4.jpeg"}, {"id": 2793457, "nr": 5, "picture": "https://images.pexels.com/videos/5416143/pictures/preview-5.jpeg"}, {"id": 2793458, "nr": 6, "picture": "https://images.pexels.com/videos/5416143/pictures/preview-6.jpeg"}, {"id": 2793459, "nr": 7, "picture": "https://images.pexels.com/videos/5416143/pictures/preview-7.jpeg"}, {"id": 2793461, "nr": 8, "picture": "https://images.pexels.com/videos/5416143/pictures/preview-8.jpeg"}, {"id": 2793463, "nr": 9, "picture": "https://images.pexels.com/videos/5416143/pictures/preview-9.jpeg"}, {"id": 2793465, "nr": 10, "picture": "https://images.pexels.com/videos/5416143/pictures/preview-10.jpeg"}, {"id": 2793467, "nr": 11, "picture": "https://images.pexels.com/videos/5416143/pictures/preview-11.jpeg"}, {"id": 2793469, "nr": 12, "picture": "https://images.pexels.com/videos/5416143/pictures/preview-12.jpeg"}, {"id": 2793470, "nr": 13, "picture": "https://images.pexels.com/videos/5416143/pictures/preview-13.jpeg"}, {"id": 2793472, "nr": 14, "picture": "https://images.pexels.com/videos/5416143/pictures/preview-14.jpeg"}]}, {"id": 10231611, "width": 1080, "height": 1920, "duration": 12, "full_res": null, "tags": [], "url": "https://www.pexels.com/video/low-angle-view-on-biserica-studentilor-10231611/", "image": "https://images.pexels.com/videos/10231611/biserica-studen-ilor-church-church-building-golden-church-10231611.jpeg?auto=compress&cs=tinysrgb&fit=crop&h=1200&w=630", "avg_color": null, "user": {"id": 115342707, "name": "\u015eahin Durmaz", "url": "https://www.pexels.com/@sahin-durmaz-115342707"}, "video_files": [{"id": 4550384, "quality": "sd", "file_type": "video/mp4", "width": 540, "height": 960, "fps": 29.969999313354492, "link": "https://videos.pexels.com/video-files/10231611/10231611-sd_540_960_30fps.mp4", "size": 2182299}, {"id": 4550385, "quality": "hd", "file_type": "video/mp4", "width": 1080, "height": 1920, "fps": 29.969999313354492, "link": "https://videos.pexels.com/video-files/10231611/10231611-hd_1080_1920_30fps.mp4", "size": 7888319}, {"id": 4550386, "quality": "hd", "file_type": "video/mp4", "width": 720, "height": 1280, "fps": 29.969999313354492, "link": "https://videos.pexels.com/video-files/10231611/10231611-hd_720_1280_30fps.mp4", "size": 4420313}, {"id": 4550387, "quality": "sd", "file_type": "video/mp4", "width": 360, "height": 640, "fps": 29.969999313354492, "link": "https://videos.pexels.com/video-files/10231611/10231611-sd_360_640_30fps.mp4", "size": 874907}], "video_pictures": [{"id": 10750635, "nr": 0, "picture": "https://images.pexels.com/videos/10231611/pictures/preview-0.jpeg"}, {"id": 10750642, "nr": 1, "picture": "https://images.pexels.com/videos/10231611/pictures/preview-1.jpeg"}, {"id": 10750654, "nr": 2, "picture": "https://images.pexels.com/videos/10231611/pictures/preview-2.jpeg"}, {"id": 10750661, "nr": 3, "picture": "https://images.pexels.com/videos/10231611/pictures/preview-3.jpeg"}, {"id": 10750671, "nr": 4, "picture": "https://images.pexels.com/videos/10231611/pictures/preview-4.jpeg"}, {"id": 10750678, "nr": 5, "picture": "https://images.pexels.com/videos/10231611/pictures/preview-5.jpeg"}, {"id": 10750685, "nr": 6, "picture": "https://images.pexels.com/videos/10231611/pictures/preview-6.jpeg"}, {"id": 10750691, "nr": 7, "picture": "https://images.pexels.com/videos/10231611/pictures/preview-7.jpeg"}, {"id": 10750699, "nr": 8, "picture": "https://images.pexels.com/videos/10231611/pictures/preview-8.jpeg"}, {"id": 10750705, "nr": 9, "picture": "https://images.pexels.com/videos/10231611/pictures/preview-9.jpeg"}, {"id": 10750712, "nr": 10, "picture": "https://images.pexels.com/videos/10231611/pictures/preview-10.jpeg"}, {"id": 10750719, "nr": 11, "picture": "https://images.pexels.com/videos/10231611/pictures/preview-11.jpeg"}, {"id": 10750725, "nr": 12, "picture": "https://images.pexels.com/videos/10231611/pictures/preview-12.jpeg"}, {"id": 10750731, "nr": 13, "picture": "https://images.pexels.com/videos/10231611/pictures/preview-13.jpeg"}, {"id": 10750733, "nr": 14, "picture": "https://images.pexels.com/videos/10231611/pictures/preview-14.jpeg"}]}], "total_results": 8000, "next_page": "https://api.pexels.com/v1/videos/search/?orientation=portrait&page=2&per_page=8&query=sacred+fig+tree", "url": "https://api-server.pexels.com/search/videos/sacred%20fig%20tree/"}, "timestamp": "2024-12-28T22:42:47.852603"}
