{"query": "air toxins", "response": {"page": 1, "per_page": 8, "videos": [{"id": 29946498, "width": 2160, "height": 3840, "duration": 16, "full_res": null, "tags": [], "url": "https://www.pexels.com/video/aerial-view-of-clouds-over-mountain-range-29946498/", "image": "https://images.pexels.com/videos/29946498/pexels-photo-29946498.jpeg?auto=compress&cs=tinysrgb&fit=crop&h=1200&w=630", "avg_color": null, "user": {"id": 83453, "name": "Salih X", "url": "https://www.pexels.com/@fromsalih"}, "video_files": [{"id": 12852045, "quality": null, "file_type": "video/mp4", "width": 360, "height": 640, "fps": 60.0, "link": "https://videos.pexels.com/video-files/29946498/12852045_360_640_60fps.mp4", "size": 1868121}, {"id": 12852046, "quality": null, "file_type": "video/mp4", "width": 540, "height": 960, "fps": 60.0, "link": "https://videos.pexels.com/video-files/29946498/12852046_540_960_60fps.mp4", "size": 3899693}, {"id": 12852047, "quality": null, "file_type": "video/mp4", "width": 720, "height": 1280, "fps": 60.0, "link": "https://videos.pexels.com/video-files/29946498/12852047_720_1280_60fps.mp4", "size": 6892004}, {"id": 12852048, "quality": null, "file_type": "video/mp4", "width": 1080, "height": 1920, "fps": 60.0, "link": "https://videos.pexels.com/video-files/29946498/12852048_1080_1920_60fps.mp4", "size": 15950543}, {"id": 12852049, "quality": null, "file_type": "video/mp4", "width": 1440, "height": 2560, "fps": 60.0, "link": "https://videos.pexels.com/video-files/29946498/12852049_1440_2560_60fps.mp4", "size": 28461773}, {"id": 12852050, "quality": null, "file_type": "video/mp4", "width": 2160, "height": 3840, "fps": 60.0, "link": "https://videos.pexels.com/video-files/29946498/12852050_2160_3840_60fps.mp4", "size": 69055975}], "video_pictures": [{"id": 24307774, "nr": 0, "picture": "https://images.pexels.com/videos/29946498/pictures/preview-0.jpg"}, {"id": 24307775, "nr": 1, "picture": "https://images.pexels.com/videos/29946498/pictures/preview-1.jpg"}, {"id": 24307776, "nr": 2, "picture": "https://images.pexels.com/videos/29946498/pictures/preview-2.jpg"}, {"id": 24307777, "nr": 3, "picture": "https://images.pexels.com/videos/29946498/pictures/preview-3.jpg"}, {"id": 24307778, "nr": 4, "picture": "https://images.pexels.com/videos/29946498/pictures/preview-4.jpg"}, {"id": 24307779, "nr": 5, "picture": "https://images.pexels.com/videos/29946498/pictures/preview-5.jpg"}, {"id": 24307780, "nr": 6, "picture": "https://images.pexels.com/videos/29946498/pictures/preview-6.jpg"}, {"id": 24307781, "nr": 7, "picture": "https://images.pexels.com/videos/29946498/pictures/preview-7.jpg"}, {"id": 24307782, "nr": 8, "picture": "https://images.pexels.com/videos/29946498/pictures/preview-8.jpg"}, {"id": 24307783, "nr": 9, "picture": "https://images.pexels.com/videos/29946498/pictures/preview-9.jpg"}, {"id": 24307784, "nr": 10, "picture": "https://images.pexels.com/videos/29946498/pictures/preview-10.jpg"}, {"id": 24307785, "nr": 11, "picture": "https://images.pexels.com/videos/29946498/pictures/preview-11.jpg"}, {"id": 24307786, "nr": 12, "picture": "https://images.pexels.com/videos/29946498/pictures/preview-12.jpg"}, {"id": 24307787, "nr": 13, "picture": "https://images.pexels.com/videos/29946498/pictures/preview-13.jpg"}, {"id": 24307788, "nr": 14, "picture": "https://images.pexels.com/videos/29946498/pictures/preview-14.jpg"}]}, {"id": 4812205, "width": 1080, "height": 1920, "duration": 17, "full_res": null, "tags": [], "url": "https://www.pexels.com/video/selective-focus-of-red-poppy-flowers-while-swaying-4812205/", "image": "https://images.pexels.com/videos/4812205/air-child-dad-dress-4812205.jpeg?auto=compress&cs=tinysrgb&fit=crop&h=1200&w=630", "avg_color": null, "user": {"id": 2297095, "name": "Pavel Danilyuk", "url": "https://www.pexels.com/@pavel-danilyuk"}, "video_files": [{"id": 9403714, "quality": "sd", "file_type": "video/mp4", "width": 240, "height": 426, "fps": 29.969999313354492, "link": "https://videos.pexels.com/video-files/4812205/4812205-sd_240_426_30fps.mp4", "size": 696478}, {"id": 9403750, "quality": "sd", "file_type": "video/mp4", "width": 540, "height": 960, "fps": 29.969999313354492, "link": "https://videos.pexels.com/video-files/4812205/4812205-sd_540_960_30fps.mp4", "size": 3378284}, {"id": 9403826, "quality": "hd", "file_type": "video/mp4", "width": 720, "height": 1280, "fps": 29.969999313354492, "link": "https://videos.pexels.com/video-files/4812205/4812205-hd_720_1280_30fps.mp4", "size": 6147854}, {"id": 9403907, "quality": "hd", "file_type": "video/mp4", "width": 1080, "height": 1920, "fps": 29.969999313354492, "link": "https://videos.pexels.com/video-files/4812205/4812205-hd_1080_1920_30fps.mp4", "size": 12303430}, {"id": 9404009, "quality": "sd", "file_type": "video/mp4", "width": 360, "height": 640, "fps": 29.969999313354492, "link": "https://videos.pexels.com/video-files/4812205/4812205-sd_360_640_30fps.mp4", "size": 1135214}], "video_pictures": [{"id": 1958449, "nr": 0, "picture": "https://images.pexels.com/videos/4812205/pictures/preview-0.jpeg"}, {"id": 1958450, "nr": 1, "picture": "https://images.pexels.com/videos/4812205/pictures/preview-1.jpeg"}, {"id": 1958451, "nr": 2, "picture": "https://images.pexels.com/videos/4812205/pictures/preview-2.jpeg"}, {"id": 1958452, "nr": 3, "picture": "https://images.pexels.com/videos/4812205/pictures/preview-3.jpeg"}, {"id": 1958453, "nr": 4, "picture": "https://images.pexels.com/videos/4812205/pictures/preview-4.jpeg"}, {"id": 1958454, "nr": 5, "picture": "https://images.pexels.com/videos/4812205/pictures/preview-5.jpeg"}, {"id": 1958455, "nr": 6, "picture": "https://images.pexels.com/videos/4812205/pictures/preview-6.jpeg"}, {"id": 1958456, "nr": 7, "picture": "https://images.pexels.com/videos/4812205/pictures/preview-7.jpeg"}, {"id": 1958457, "nr": 8, "picture": "https://images.pexels.com/videos/4812205/pictures/preview-8.jpeg"}, {"id": 1958458, "nr": 9, "picture": "https://images.pexels.com/videos/4812205/pictures/preview-9.jpeg"}, {"id": 1958459, "nr": 10, "picture": "https://images.pexels.com/videos/4812205/pictures/preview-10.jpeg"}, {"id": 1958460, "nr": 11, "picture": "https://images.pexels.com/videos/4812205/pictures/preview-11.jpeg"}, {"id": 1958461, "nr": 12, "picture": "https://images.pexels.com/videos/4812205/pictures/preview-12.jpeg"}, {"id": 1958462, "nr": 13, "picture": "https://images.pexels.com/videos/4812205/pictures/preview-13.jpeg"}, {"id": 1958463, "nr": 14, "picture": "https://images.pexels.com/videos/4812205/pictures/preview-14.jpeg"}]}, {"id": 8516625, "width": 2160, "height": 3840, "duration": 11, "full_res": null, "tags": [], "url": "https://www.pexels.com/video/a-shadow-of-leaves-swaying-in-the-wind-8516625/", "image": "https://images.pexels.com/videos/8516625/abstract-art-backdrop-background-8516625.jpeg?auto=compress&cs=tinysrgb&fit=crop&h=1200&w=630", "avg_color": null, "user": {"id": 10955896, "name": "Anna Nekrashevich", "url": "https://www.pexels.com/@anna-nekrashevich"}, "video_files": [{"id": 10872538, "quality": "sd", "file_type": "video/mp4", "width": 240, "height": 426, "fps": 30.0, "link": "https://videos.pexels.com/video-files/8516625/8516625-sd_240_426_30fps.mp4", "size": 243355}, {"id": 10872543, "quality": "hd", "file_type": "video/mp4", "width": 720, "height": 1280, "fps": 30.0, "link": "https://videos.pexels.com/video-files/8516625/8516625-hd_720_1280_30fps.mp4", "size": 1377355}, {"id": 10872549, "quality": "uhd", "file_type": "video/mp4", "width": 2160, "height": 3840, "fps": 30.0, "link": "https://videos.pexels.com/video-files/8516625/8516625-uhd_2160_3840_30fps.mp4", "size": 11843187}, {"id": 10872558, "quality": "sd", "file_type": "video/mp4", "width": 540, "height": 960, "fps": 30.0, "link": "https://videos.pexels.com/video-files/8516625/8516625-sd_540_960_30fps.mp4", "size": 808973}, {"id": 10872571, "quality": "sd", "file_type": "video/mp4", "width": 360, "height": 640, "fps": 30.0, "link": "https://videos.pexels.com/video-files/8516625/8516625-sd_360_640_30fps.mp4", "size": 449229}, {"id": 10872587, "quality": "hd", "file_type": "video/mp4", "width": 1080, "height": 1920, "fps": 30.0, "link": "https://videos.pexels.com/video-files/8516625/8516625-hd_1080_1920_30fps.mp4", "size": 2978175}, {"id": 10872669, "quality": "uhd", "file_type": "video/mp4", "width": 1440, "height": 2560, "fps": 30.0, "link": "https://videos.pexels.com/video-files/8516625/8516625-uhd_1440_2560_30fps.mp4", "size": 5177661}], "video_pictures": [{"id": 8417010, "nr": 0, "picture": "https://images.pexels.com/videos/8516625/pictures/preview-0.jpeg"}, {"id": 8417026, "nr": 1, "picture": "https://images.pexels.com/videos/8516625/pictures/preview-1.jpeg"}, {"id": 8417039, "nr": 2, "picture": "https://images.pexels.com/videos/8516625/pictures/preview-2.jpeg"}, {"id": 8417061, "nr": 3, "picture": "https://images.pexels.com/videos/8516625/pictures/preview-3.jpeg"}, {"id": 8417080, "nr": 4, "picture": "https://images.pexels.com/videos/8516625/pictures/preview-4.jpeg"}, {"id": 8417107, "nr": 5, "picture": "https://images.pexels.com/videos/8516625/pictures/preview-5.jpeg"}, {"id": 8417134, "nr": 6, "picture": "https://images.pexels.com/videos/8516625/pictures/preview-6.jpeg"}, {"id": 8417168, "nr": 7, "picture": "https://images.pexels.com/videos/8516625/pictures/preview-7.jpeg"}, {"id": 8417198, "nr": 8, "picture": "https://images.pexels.com/videos/8516625/pictures/preview-8.jpeg"}, {"id": 8417225, "nr": 9, "picture": "https://images.pexels.com/videos/8516625/pictures/preview-9.jpeg"}, {"id": 8417254, "nr": 10, "picture": "https://images.pexels.com/videos/8516625/pictures/preview-10.jpeg"}, {"id": 8417275, "nr": 11, "picture": "https://images.pexels.com/videos/8516625/pictures/preview-11.jpeg"}, {"id": 8417302, "nr": 12, "picture": "https://images.pexels.com/videos/8516625/pictures/preview-12.jpeg"}, {"id": 8417330, "nr": 13, "picture": "https://images.pexels.com/videos/8516625/pictures/preview-13.jpeg"}, {"id": 8417352, "nr": 14, "picture": "https://images.pexels.com/videos/8516625/pictures/preview-14.jpeg"}]}, {"id": 8516628, "width": 2160, "height": 3840, "duration": 10, "full_res": null, "tags": [], "url": "https://www.pexels.com/video/a-shadow-of-a-plant-swaying-in-the-wind-8516628/", "image": "https://images.pexels.com/videos/8516628/abstract-animal-art-backdrop-8516628.jpeg?auto=compress&cs=tinysrgb&fit=crop&h=1200&w=630", "avg_color": null, "user": {"id": 10955896, "name": "Anna Nekrashevich", "url": "https://www.pexels.com/@anna-nekrashevich"}, "video_files": [{"id": 10872693, "quality": "uhd", "file_type": "video/mp4", "width": 2160, "height": 3840, "fps": 30.0, "link": "https://videos.pexels.com/video-files/8516628/8516628-uhd_2160_3840_30fps.mp4", "size": 26744115}, {"id": 10872749, "quality": "sd", "file_type": "video/mp4", "width": 540, "height": 960, "fps": 30.0, "link": "https://videos.pexels.com/video-files/8516628/8516628-sd_540_960_30fps.mp4", "size": 1660692}, {"id": 10872806, "quality": "hd", "file_type": "video/mp4", "width": 1080, "height": 1920, "fps": 30.0, "link": "https://videos.pexels.com/video-files/8516628/8516628-hd_1080_1920_30fps.mp4", "size": 6009009}, {"id": 10872868, "quality": "uhd", "file_type": "video/mp4", "width": 1440, "height": 2560, "fps": 30.0, "link": "https://videos.pexels.com/video-files/8516628/8516628-uhd_1440_2560_30fps.mp4", "size": 14348463}, {"id": 10873005, "quality": "hd", "file_type": "video/mp4", "width": 720, "height": 1280, "fps": 30.0, "link": "https://videos.pexels.com/video-files/8516628/8516628-hd_720_1280_30fps.mp4", "size": 2997300}, {"id": 10873207, "quality": "sd", "file_type": "video/mp4", "width": 240, "height": 426, "fps": 30.0, "link": "https://videos.pexels.com/video-files/8516628/8516628-sd_240_426_30fps.mp4", "size": 126668}, {"id": 10873301, "quality": "sd", "file_type": "video/mp4", "width": 360, "height": 640, "fps": 30.0, "link": "https://videos.pexels.com/video-files/8516628/8516628-sd_360_640_30fps.mp4", "size": 548450}], "video_pictures": [{"id": 8417017, "nr": 0, "picture": "https://images.pexels.com/videos/8516628/pictures/preview-0.jpeg"}, {"id": 8417031, "nr": 1, "picture": "https://images.pexels.com/videos/8516628/pictures/preview-1.jpeg"}, {"id": 8417050, "nr": 2, "picture": "https://images.pexels.com/videos/8516628/pictures/preview-2.jpeg"}, {"id": 8417076, "nr": 3, "picture": "https://images.pexels.com/videos/8516628/pictures/preview-3.jpeg"}, {"id": 8417102, "nr": 4, "picture": "https://images.pexels.com/videos/8516628/pictures/preview-4.jpeg"}, {"id": 8417137, "nr": 5, "picture": "https://images.pexels.com/videos/8516628/pictures/preview-5.jpeg"}, {"id": 8417162, "nr": 6, "picture": "https://images.pexels.com/videos/8516628/pictures/preview-6.jpeg"}, {"id": 8417194, "nr": 7, "picture": "https://images.pexels.com/videos/8516628/pictures/preview-7.jpeg"}, {"id": 8417220, "nr": 8, "picture": "https://images.pexels.com/videos/8516628/pictures/preview-8.jpeg"}, {"id": 8417256, "nr": 9, "picture": "https://images.pexels.com/videos/8516628/pictures/preview-9.jpeg"}, {"id": 8417297, "nr": 10, "picture": "https://images.pexels.com/videos/8516628/pictures/preview-10.jpeg"}, {"id": 8417331, "nr": 11, "picture": "https://images.pexels.com/videos/8516628/pictures/preview-11.jpeg"}, {"id": 8417356, "nr": 12, "picture": "https://images.pexels.com/videos/8516628/pictures/preview-12.jpeg"}, {"id": 8417379, "nr": 13, "picture": "https://images.pexels.com/videos/8516628/pictures/preview-13.jpeg"}, {"id": 8417402, "nr": 14, "picture": "https://images.pexels.com/videos/8516628/pictures/preview-14.jpeg"}]}, {"id": 4686173, "width": 2160, "height": 3840, "duration": 51, "full_res": null, "tags": [], "url": "https://www.pexels.com/video/an-airplane-taking-off-from-the-runway-4686173/", "image": "https://images.pexels.com/videos/4686173/pexels-photo-4686173.jpeg?auto=compress&cs=tinysrgb&fit=crop&h=1200&w=630", "avg_color": null, "user": {"id": 2978804, "name": "Atul Saini", "url": "https://www.pexels.com/@insideoutdog"}, "video_files": [{"id": 9441679, "quality": "uhd", "file_type": "video/mp4", "width": 1440, "height": 2560, "fps": 30.0, "link": "https://videos.pexels.com/video-files/4686173/4686173-uhd_1440_2560_30fps.mp4", "size": 42002261}, {"id": 9441752, "quality": "hd", "file_type": "video/mp4", "width": 720, "height": 1280, "fps": 60.0, "link": "https://videos.pexels.com/video-files/4686173/4686173-hd_720_1280_60fps.mp4", "size": 11744515}, {"id": 9441814, "quality": "sd", "file_type": "video/mp4", "width": 540, "height": 960, "fps": 30.0, "link": "https://videos.pexels.com/video-files/4686173/4686173-sd_540_960_30fps.mp4", "size": 7124173}, {"id": 9441906, "quality": "sd", "file_type": "video/mp4", "width": 240, "height": 426, "fps": 30.0, "link": "https://videos.pexels.com/video-files/4686173/4686173-sd_240_426_30fps.mp4", "size": 1785884}, {"id": 9441969, "quality": "sd", "file_type": "video/mp4", "width": 360, "height": 640, "fps": 30.0, "link": "https://videos.pexels.com/video-files/4686173/4686173-sd_360_640_30fps.mp4", "size": 3601485}, {"id": 9442040, "quality": "uhd", "file_type": "video/mp4", "width": 2160, "height": 3840, "fps": 30.0, "link": "https://videos.pexels.com/video-files/4686173/4686173-uhd_2160_3840_30fps.mp4", "size": 109944474}, {"id": 9442112, "quality": "hd", "file_type": "video/mp4", "width": 1080, "height": 1920, "fps": 30.0, "link": "https://videos.pexels.com/video-files/4686173/4686173-hd_1080_1920_30fps.mp4", "size": 24413741}], "video_pictures": [{"id": 1804024, "nr": 0, "picture": "https://images.pexels.com/videos/4686173/pictures/preview-0.jpeg"}, {"id": 1804025, "nr": 1, "picture": "https://images.pexels.com/videos/4686173/pictures/preview-1.jpeg"}, {"id": 1804026, "nr": 2, "picture": "https://images.pexels.com/videos/4686173/pictures/preview-2.jpeg"}, {"id": 1804027, "nr": 3, "picture": "https://images.pexels.com/videos/4686173/pictures/preview-3.jpeg"}, {"id": 1804028, "nr": 4, "picture": "https://images.pexels.com/videos/4686173/pictures/preview-4.jpeg"}, {"id": 1804029, "nr": 5, "picture": "https://images.pexels.com/videos/4686173/pictures/preview-5.jpeg"}, {"id": 1804030, "nr": 6, "picture": "https://images.pexels.com/videos/4686173/pictures/preview-6.jpeg"}, {"id": 1804031, "nr": 7, "picture": "https://images.pexels.com/videos/4686173/pictures/preview-7.jpeg"}, {"id": 1804032, "nr": 8, "picture": "https://images.pexels.com/videos/4686173/pictures/preview-8.jpeg"}, {"id": 1804033, "nr": 9, "picture": "https://images.pexels.com/videos/4686173/pictures/preview-9.jpeg"}, {"id": 1804034, "nr": 10, "picture": "https://images.pexels.com/videos/4686173/pictures/preview-10.jpeg"}, {"id": 1804035, "nr": 11, "picture": "https://images.pexels.com/videos/4686173/pictures/preview-11.jpeg"}, {"id": 1804036, "nr": 12, "picture": "https://images.pexels.com/videos/4686173/pictures/preview-12.jpeg"}, {"id": 1804037, "nr": 13, "picture": "https://images.pexels.com/videos/4686173/pictures/preview-13.jpeg"}, {"id": 1804038, "nr": 14, "picture": "https://images.pexels.com/videos/4686173/pictures/preview-14.jpeg"}]}, {"id": 7438482, "width": 2363, "height": 4096, "duration": 9, "full_res": null, "tags": [], "url": "https://www.pexels.com/video/close-up-video-of-a-flowers-7438482/", "image": "https://images.pexels.com/videos/7438482/pexels-photo-7438482.jpeg?auto=compress&cs=tinysrgb&fit=crop&h=1200&w=630", "avg_color": null, "user": {"id": 2678846, "name": "ROMAN ODINTSOV", "url": "https://www.pexels.com/@roman-odintsov"}, "video_files": [{"id": 10434220, "quality": "sd", "file_type": "video/mp4", "width": 360, "height": 624, "fps": 29.969999313354492, "link": "https://videos.pexels.com/video-files/7438482/7438482-sd_360_624_30fps.mp4", "size": 639568}, {"id": 10434264, "quality": "uhd", "file_type": "video/mp4", "width": 2160, "height": 3744, "fps": 29.969999313354492, "link": "https://videos.pexels.com/video-files/7438482/uhd_30fps.mp4", "size": 24681382}, {"id": 10434303, "quality": "sd", "file_type": "video/mp4", "width": 540, "height": 936, "fps": 29.969999313354492, "link": "https://videos.pexels.com/video-files/7438482/7438482-sd_540_936_30fps.mp4", "size": 1811068}, {"id": 10434337, "quality": "hd", "file_type": "video/mp4", "width": 1080, "height": 1872, "fps": 29.969999313354492, "link": "https://videos.pexels.com/video-files/7438482/7438482-hd_1080_1872_30fps.mp4", "size": 5675937}, {"id": 10434385, "quality": "uhd", "file_type": "video/mp4", "width": 1440, "height": 2496, "fps": 29.969999313354492, "link": "https://videos.pexels.com/video-files/7438482/uhd_30fps.mp4", "size": 13699980}, {"id": 10434420, "quality": "hd", "file_type": "video/mp4", "width": 720, "height": 1248, "fps": 29.969999313354492, "link": "https://videos.pexels.com/video-files/7438482/7438482-hd_720_1248_30fps.mp4", "size": 2972846}], "video_pictures": [{"id": 6402991, "nr": 0, "picture": "https://images.pexels.com/videos/7438482/pictures/preview-0.jpeg"}, {"id": 6402995, "nr": 1, "picture": "https://images.pexels.com/videos/7438482/pictures/preview-1.jpeg"}, {"id": 6403000, "nr": 2, "picture": "https://images.pexels.com/videos/7438482/pictures/preview-2.jpeg"}, {"id": 6403006, "nr": 3, "picture": "https://images.pexels.com/videos/7438482/pictures/preview-3.jpeg"}, {"id": 6403013, "nr": 4, "picture": "https://images.pexels.com/videos/7438482/pictures/preview-4.jpeg"}, {"id": 6403022, "nr": 5, "picture": "https://images.pexels.com/videos/7438482/pictures/preview-5.jpeg"}, {"id": 6403027, "nr": 6, "picture": "https://images.pexels.com/videos/7438482/pictures/preview-6.jpeg"}, {"id": 6403030, "nr": 7, "picture": "https://images.pexels.com/videos/7438482/pictures/preview-7.jpeg"}, {"id": 6403034, "nr": 8, "picture": "https://images.pexels.com/videos/7438482/pictures/preview-8.jpeg"}, {"id": 6403037, "nr": 9, "picture": "https://images.pexels.com/videos/7438482/pictures/preview-9.jpeg"}, {"id": 6403041, "nr": 10, "picture": "https://images.pexels.com/videos/7438482/pictures/preview-10.jpeg"}, {"id": 6403047, "nr": 11, "picture": "https://images.pexels.com/videos/7438482/pictures/preview-11.jpeg"}, {"id": 6403052, "nr": 12, "picture": "https://images.pexels.com/videos/7438482/pictures/preview-12.jpeg"}, {"id": 6403056, "nr": 13, "picture": "https://images.pexels.com/videos/7438482/pictures/preview-13.jpeg"}, {"id": 6403060, "nr": 14, "picture": "https://images.pexels.com/videos/7438482/pictures/preview-14.jpeg"}]}, {"id": 6092617, "width": 2160, "height": 3840, "duration": 36, "full_res": null, "tags": [], "url": "https://www.pexels.com/video/video-of-a-floating-hot-air-balloon-6092617/", "image": "https://images.pexels.com/videos/6092617/pexels-photo-6092617.jpeg?auto=compress&cs=tinysrgb&fit=crop&h=1200&w=630", "avg_color": null, "user": {"id": 1984515, "name": "Anna Shvets", "url": "https://www.pexels.com/@shvetsa"}, "video_files": [{"id": 9914469, "quality": "sd", "file_type": "video/mp4", "width": 360, "height": 640, "fps": 29.969999313354492, "link": "https://videos.pexels.com/video-files/6092617/6092617-sd_360_640_30fps.mp4", "size": 2122504}, {"id": 9914605, "quality": "hd", "file_type": "video/mp4", "width": 1080, "height": 1920, "fps": 29.969999313354492, "link": "https://videos.pexels.com/video-files/6092617/6092617-hd_1080_1920_30fps.mp4", "size": 23956672}, {"id": 9914680, "quality": "hd", "file_type": "video/mp4", "width": 720, "height": 1280, "fps": 59.940101623535156, "link": "https://videos.pexels.com/video-files/6092617/6092617-hd_720_1280_60fps.mp4", "size": 12256735}, {"id": 9914811, "quality": "sd", "file_type": "video/mp4", "width": 240, "height": 426, "fps": 29.969999313354492, "link": "https://videos.pexels.com/video-files/6092617/6092617-sd_240_426_30fps.mp4", "size": 1181295}, {"id": 9914875, "quality": "uhd", "file_type": "video/mp4", "width": 1440, "height": 2560, "fps": 29.969999313354492, "link": "https://videos.pexels.com/video-files/6092617/6092617-uhd_1440_2560_30fps.mp4", "size": 53223547}, {"id": 9914941, "quality": "sd", "file_type": "video/mp4", "width": 540, "height": 960, "fps": 29.969999313354492, "link": "https://videos.pexels.com/video-files/6092617/6092617-sd_540_960_30fps.mp4", "size": 5553739}, {"id": 9915015, "quality": "uhd", "file_type": "video/mp4", "width": 2160, "height": 3840, "fps": 29.969999313354492, "link": "https://videos.pexels.com/video-files/6092617/6092617-uhd_2160_3840_30fps.mp4", "size": 107372659}], "video_pictures": [{"id": 3878560, "nr": 0, "picture": "https://images.pexels.com/videos/6092617/pictures/preview-0.jpeg"}, {"id": 3878590, "nr": 1, "picture": "https://images.pexels.com/videos/6092617/pictures/preview-1.jpeg"}, {"id": 3878607, "nr": 2, "picture": "https://images.pexels.com/videos/6092617/pictures/preview-2.jpeg"}, {"id": 3878628, "nr": 3, "picture": "https://images.pexels.com/videos/6092617/pictures/preview-3.jpeg"}, {"id": 3878645, "nr": 4, "picture": "https://images.pexels.com/videos/6092617/pictures/preview-4.jpeg"}, {"id": 3878657, "nr": 5, "picture": "https://images.pexels.com/videos/6092617/pictures/preview-5.jpeg"}, {"id": 3878673, "nr": 6, "picture": "https://images.pexels.com/videos/6092617/pictures/preview-6.jpeg"}, {"id": 3878687, "nr": 7, "picture": "https://images.pexels.com/videos/6092617/pictures/preview-7.jpeg"}, {"id": 3878704, "nr": 8, "picture": "https://images.pexels.com/videos/6092617/pictures/preview-8.jpeg"}, {"id": 3878721, "nr": 9, "picture": "https://images.pexels.com/videos/6092617/pictures/preview-9.jpeg"}, {"id": 3878744, "nr": 10, "picture": "https://images.pexels.com/videos/6092617/pictures/preview-10.jpeg"}, {"id": 3878764, "nr": 11, "picture": "https://images.pexels.com/videos/6092617/pictures/preview-11.jpeg"}, {"id": 3878784, "nr": 12, "picture": "https://images.pexels.com/videos/6092617/pictures/preview-12.jpeg"}, {"id": 3878791, "nr": 13, "picture": "https://images.pexels.com/videos/6092617/pictures/preview-13.jpeg"}, {"id": 3878796, "nr": 14, "picture": "https://images.pexels.com/videos/6092617/pictures/preview-14.jpeg"}]}, {"id": 6800628, "width": 1080, "height": 1920, "duration": 6, "full_res": null, "tags": [], "url": "https://www.pexels.com/video/peaceful-picnic-mockup-6800628/", "image": "https://images.pexels.com/videos/6800628/aesthetic-book-leisure-picnic-6800628.jpeg?auto=compress&cs=tinysrgb&fit=crop&h=1200&w=630", "avg_color": null, "user": {"id": 2946790, "name": "Leeloo The First", "url": "https://www.pexels.com/@leeloothefirst"}, "video_files": [{"id": 10182897, "quality": "hd", "file_type": "video/mp4", "width": 720, "height": 1280, "fps": 29.969999313354492, "link": "https://videos.pexels.com/video-files/6800628/6800628-hd_720_1280_30fps.mp4", "size": 2287971}, {"id": 10182907, "quality": "sd", "file_type": "video/mp4", "width": 360, "height": 640, "fps": 29.969999313354492, "link": "https://videos.pexels.com/video-files/6800628/6800628-sd_360_640_30fps.mp4", "size": 495737}, {"id": 10182919, "quality": "sd", "file_type": "video/mp4", "width": 240, "height": 426, "fps": 29.969999313354492, "link": "https://videos.pexels.com/video-files/6800628/6800628-sd_240_426_30fps.mp4", "size": 293255}, {"id": 10182928, "quality": "sd", "file_type": "video/mp4", "width": 540, "height": 960, "fps": 29.969999313354492, "link": "https://videos.pexels.com/video-files/6800628/6800628-sd_540_960_30fps.mp4", "size": 1373022}, {"id": 10182952, "quality": "hd", "file_type": "video/mp4", "width": 1080, "height": 1920, "fps": 29.969999313354492, "link": "https://videos.pexels.com/video-files/6800628/6800628-hd_1080_1920_30fps.mp4", "size": 4360798}], "video_pictures": [{"id": 5142388, "nr": 0, "picture": "https://images.pexels.com/videos/6800628/pictures/preview-0.jpeg"}, {"id": 5142420, "nr": 1, "picture": "https://images.pexels.com/videos/6800628/pictures/preview-1.jpeg"}, {"id": 5142429, "nr": 2, "picture": "https://images.pexels.com/videos/6800628/pictures/preview-2.jpeg"}, {"id": 5142435, "nr": 3, "picture": "https://images.pexels.com/videos/6800628/pictures/preview-3.jpeg"}, {"id": 5142455, "nr": 4, "picture": "https://images.pexels.com/videos/6800628/pictures/preview-4.jpeg"}, {"id": 5142460, "nr": 5, "picture": "https://images.pexels.com/videos/6800628/pictures/preview-5.jpeg"}, {"id": 5142467, "nr": 6, "picture": "https://images.pexels.com/videos/6800628/pictures/preview-6.jpeg"}, {"id": 5142472, "nr": 7, "picture": "https://images.pexels.com/videos/6800628/pictures/preview-7.jpeg"}, {"id": 5142484, "nr": 8, "picture": "https://images.pexels.com/videos/6800628/pictures/preview-8.jpeg"}, {"id": 5142486, "nr": 9, "picture": "https://images.pexels.com/videos/6800628/pictures/preview-9.jpeg"}, {"id": 5142494, "nr": 10, "picture": "https://images.pexels.com/videos/6800628/pictures/preview-10.jpeg"}, {"id": 5142501, "nr": 11, "picture": "https://images.pexels.com/videos/6800628/pictures/preview-11.jpeg"}, {"id": 5142503, "nr": 12, "picture": "https://images.pexels.com/videos/6800628/pictures/preview-12.jpeg"}, {"id": 5142508, "nr": 13, "picture": "https://images.pexels.com/videos/6800628/pictures/preview-13.jpeg"}, {"id": 5142514, "nr": 14, "picture": "https://images.pexels.com/videos/6800628/pictures/preview-14.jpeg"}]}], "total_results": 4408, "next_page": "https://api.pexels.com/v1/videos/search/?orientation=portrait&page=2&per_page=8&query=air+toxins", "url": "https://api-server.pexels.com/search/videos/air%20toxins/"}, "timestamp": "2024-12-28T22:42:06.821448"}
