{"query": "cactus bloom once", "response": {"page": 1, "per_page": 8, "videos": [{"id": 11760097, "width": 2160, "height": 4096, "duration": 26, "full_res": null, "tags": [], "url": "https://www.pexels.com/video/close-up-of-a-withered-pitaya-flower-11760097/", "image": "https://images.pexels.com/videos/11760097/abstract-art-beautiful-blooming-11760097.jpeg?auto=compress&cs=tinysrgb&fit=crop&h=1200&w=630", "avg_color": null, "user": {"id": 2678846, "name": "ROMAN ODINTSOV", "url": "https://www.pexels.com/@roman-odintsov"}, "video_files": [{"id": 5107523, "quality": "sd", "file_type": "video/mp4", "width": 506, "height": 960, "fps": 29.969999313354492, "link": "https://videos.pexels.com/video-files/11760097/11760097-sd_506_960_30fps.mp4", "size": 2540874}, {"id": 5107524, "quality": "uhd", "file_type": "video/mp4", "width": 1440, "height": 2732, "fps": 29.969999313354492, "link": "https://videos.pexels.com/video-files/11760097/11760097-uhd_1440_2732_30fps.mp4", "size": 8678567}, {"id": 5107525, "quality": "hd", "file_type": "video/mp4", "width": 720, "height": 1366, "fps": 29.969999313354492, "link": "https://videos.pexels.com/video-files/11760097/11760097-hd_720_1366_30fps.mp4", "size": 3545392}, {"id": 5107526, "quality": "uhd", "file_type": "video/mp4", "width": 2160, "height": 4096, "fps": 29.969999313354492, "link": "https://videos.pexels.com/video-files/11760097/11760097-uhd_2160_4096_30fps.mp4", "size": 19611456}, {"id": 5107527, "quality": "sd", "file_type": "video/mp4", "width": 338, "height": 640, "fps": 29.969999313354492, "link": "https://videos.pexels.com/video-files/11760097/11760097-sd_338_640_30fps.mp4", "size": 1460731}, {"id": 5107528, "quality": "hd", "file_type": "video/mp4", "width": 1080, "height": 2048, "fps": 29.969999313354492, "link": "https://videos.pexels.com/video-files/11760097/11760097-hd_1080_2048_30fps.mp4", "size": 5844957}, {"id": 5107529, "quality": "sd", "file_type": "video/mp4", "width": 226, "height": 426, "fps": 29.969999313354492, "link": "https://videos.pexels.com/video-files/11760097/11760097-sd_226_426_30fps.mp4", "size": 1340443}], "video_pictures": [{"id": 12474241, "nr": 0, "picture": "https://images.pexels.com/videos/11760097/pictures/preview-0.jpeg"}, {"id": 12474261, "nr": 1, "picture": "https://images.pexels.com/videos/11760097/pictures/preview-1.jpeg"}, {"id": 12474278, "nr": 2, "picture": "https://images.pexels.com/videos/11760097/pictures/preview-2.jpeg"}, {"id": 12474299, "nr": 3, "picture": "https://images.pexels.com/videos/11760097/pictures/preview-3.jpeg"}, {"id": 12474319, "nr": 4, "picture": "https://images.pexels.com/videos/11760097/pictures/preview-4.jpeg"}, {"id": 12474341, "nr": 5, "picture": "https://images.pexels.com/videos/11760097/pictures/preview-5.jpeg"}, {"id": 12474366, "nr": 6, "picture": "https://images.pexels.com/videos/11760097/pictures/preview-6.jpeg"}, {"id": 12474390, "nr": 7, "picture": "https://images.pexels.com/videos/11760097/pictures/preview-7.jpeg"}, {"id": 12474413, "nr": 8, "picture": "https://images.pexels.com/videos/11760097/pictures/preview-8.jpeg"}, {"id": 12474441, "nr": 9, "picture": "https://images.pexels.com/videos/11760097/pictures/preview-9.jpeg"}, {"id": 12474489, "nr": 10, "picture": "https://images.pexels.com/videos/11760097/pictures/preview-10.jpeg"}, {"id": 12474517, "nr": 11, "picture": "https://images.pexels.com/videos/11760097/pictures/preview-11.jpeg"}, {"id": 12474539, "nr": 12, "picture": "https://images.pexels.com/videos/11760097/pictures/preview-12.jpeg"}, {"id": 12474576, "nr": 13, "picture": "https://images.pexels.com/videos/11760097/pictures/preview-13.jpeg"}, {"id": 12474603, "nr": 14, "picture": "https://images.pexels.com/videos/11760097/pictures/preview-14.jpeg"}]}, {"id": 8045112, "width": 1080, "height": 1920, "duration": 12, "full_res": null, "tags": [], "url": "https://www.pexels.com/video/flowering-plants-and-cactus-in-the-garden-8045112/", "image": "https://images.pexels.com/videos/8045112/pexels-photo-8045112.jpeg?auto=compress&cs=tinysrgb&fit=crop&h=1200&w=630", "avg_color": null, "user": {"id": 2278756, "name": "Vlada Karpovich", "url": "https://www.pexels.com/@vlada-karpovich"}, "video_files": [{"id": 10664334, "quality": "sd", "file_type": "video/mp4", "width": 360, "height": 640, "fps": 25.0, "link": "https://videos.pexels.com/video-files/8045112/8045112-sd_360_640_25fps.mp4", "size": 707528}, {"id": 10664362, "quality": "sd", "file_type": "video/mp4", "width": 540, "height": 960, "fps": 25.0, "link": "https://videos.pexels.com/video-files/8045112/8045112-sd_540_960_25fps.mp4", "size": 1994059}, {"id": 10664373, "quality": "hd", "file_type": "video/mp4", "width": 720, "height": 1280, "fps": 50.0, "link": "https://videos.pexels.com/video-files/8045112/8045112-hd_720_1280_50fps.mp4", "size": 3553855}, {"id": 10664391, "quality": "sd", "file_type": "video/mp4", "width": 240, "height": 426, "fps": 25.0, "link": "https://videos.pexels.com/video-files/8045112/8045112-sd_240_426_25fps.mp4", "size": 493416}, {"id": 10664413, "quality": "hd", "file_type": "video/mp4", "width": 1080, "height": 1920, "fps": 25.0, "link": "https://videos.pexels.com/video-files/8045112/8045112-hd_1080_1920_25fps.mp4", "size": 5805837}], "video_pictures": [{"id": 7484157, "nr": 0, "picture": "https://images.pexels.com/videos/8045112/pictures/preview-0.jpeg"}, {"id": 7484171, "nr": 1, "picture": "https://images.pexels.com/videos/8045112/pictures/preview-1.jpeg"}, {"id": 7484184, "nr": 2, "picture": "https://images.pexels.com/videos/8045112/pictures/preview-2.jpeg"}, {"id": 7484199, "nr": 3, "picture": "https://images.pexels.com/videos/8045112/pictures/preview-3.jpeg"}, {"id": 7484214, "nr": 4, "picture": "https://images.pexels.com/videos/8045112/pictures/preview-4.jpeg"}, {"id": 7484227, "nr": 5, "picture": "https://images.pexels.com/videos/8045112/pictures/preview-5.jpeg"}, {"id": 7484239, "nr": 6, "picture": "https://images.pexels.com/videos/8045112/pictures/preview-6.jpeg"}, {"id": 7484250, "nr": 7, "picture": "https://images.pexels.com/videos/8045112/pictures/preview-7.jpeg"}, {"id": 7484263, "nr": 8, "picture": "https://images.pexels.com/videos/8045112/pictures/preview-8.jpeg"}, {"id": 7484272, "nr": 9, "picture": "https://images.pexels.com/videos/8045112/pictures/preview-9.jpeg"}, {"id": 7484281, "nr": 10, "picture": "https://images.pexels.com/videos/8045112/pictures/preview-10.jpeg"}, {"id": 7484288, "nr": 11, "picture": "https://images.pexels.com/videos/8045112/pictures/preview-11.jpeg"}, {"id": 7484299, "nr": 12, "picture": "https://images.pexels.com/videos/8045112/pictures/preview-12.jpeg"}, {"id": 7484309, "nr": 13, "picture": "https://images.pexels.com/videos/8045112/pictures/preview-13.jpeg"}, {"id": 7484320, "nr": 14, "picture": "https://images.pexels.com/videos/8045112/pictures/preview-14.jpeg"}]}, {"id": 18353161, "width": 1080, "height": 1920, "duration": 40, "full_res": null, "tags": [], "url": "https://www.pexels.com/video/a-person-holding-a-pink-flower-in-their-hand-18353161/", "image": "https://images.pexels.com/videos/18353161/pexels-photo-18353161.jpeg?auto=compress&cs=tinysrgb&fit=crop&h=1200&w=630", "avg_color": null, "user": {"id": 725740283, "name": "leidyveiga Leidy", "url": "https://www.pexels.com/@leidyveiga-leidy-725740283"}, "video_files": [{"id": 7766279, "quality": "sd", "file_type": "video/mp4", "width": 240, "height": 426, "fps": 29.969999313354492, "link": "https://videos.pexels.com/video-files/18353161/18353161-sd_240_426_30fps.mp4", "size": 2651456}, {"id": 7766280, "quality": "hd", "file_type": "video/mp4", "width": 1080, "height": 1920, "fps": 29.969999313354492, "link": "https://videos.pexels.com/video-files/18353161/18353161-hd_1080_1920_30fps.mp4", "size": 29125641}, {"id": 7766281, "quality": "sd", "file_type": "video/mp4", "width": 360, "height": 640, "fps": 29.969999313354492, "link": "https://videos.pexels.com/video-files/18353161/18353161-sd_360_640_30fps.mp4", "size": 4863675}, {"id": 7766282, "quality": "sd", "file_type": "video/mp4", "width": 540, "height": 960, "fps": 29.969999313354492, "link": "https://videos.pexels.com/video-files/18353161/18353161-sd_540_960_30fps.mp4", "size": 9262747}, {"id": 7766283, "quality": "hd", "file_type": "video/mp4", "width": 720, "height": 1280, "fps": 29.969999313354492, "link": "https://videos.pexels.com/video-files/18353161/18353161-hd_720_1280_30fps.mp4", "size": 15028475}], "video_pictures": [{"id": 19167410, "nr": 0, "picture": "https://images.pexels.com/videos/18353161/pictures/preview-0.jpeg"}, {"id": 19167411, "nr": 1, "picture": "https://images.pexels.com/videos/18353161/pictures/preview-1.jpeg"}, {"id": 19167412, "nr": 2, "picture": "https://images.pexels.com/videos/18353161/pictures/preview-2.jpeg"}, {"id": 19167413, "nr": 3, "picture": "https://images.pexels.com/videos/18353161/pictures/preview-3.jpeg"}, {"id": 19167414, "nr": 4, "picture": "https://images.pexels.com/videos/18353161/pictures/preview-4.jpeg"}, {"id": 19167415, "nr": 5, "picture": "https://images.pexels.com/videos/18353161/pictures/preview-5.jpeg"}, {"id": 19167416, "nr": 6, "picture": "https://images.pexels.com/videos/18353161/pictures/preview-6.jpeg"}, {"id": 19167417, "nr": 7, "picture": "https://images.pexels.com/videos/18353161/pictures/preview-7.jpeg"}, {"id": 19167418, "nr": 8, "picture": "https://images.pexels.com/videos/18353161/pictures/preview-8.jpeg"}, {"id": 19167419, "nr": 9, "picture": "https://images.pexels.com/videos/18353161/pictures/preview-9.jpeg"}, {"id": 19167420, "nr": 10, "picture": "https://images.pexels.com/videos/18353161/pictures/preview-10.jpeg"}, {"id": 19167422, "nr": 11, "picture": "https://images.pexels.com/videos/18353161/pictures/preview-11.jpeg"}, {"id": 19167424, "nr": 12, "picture": "https://images.pexels.com/videos/18353161/pictures/preview-12.jpeg"}, {"id": 19167425, "nr": 13, "picture": "https://images.pexels.com/videos/18353161/pictures/preview-13.jpeg"}, {"id": 19167427, "nr": 14, "picture": "https://images.pexels.com/videos/18353161/pictures/preview-14.jpeg"}]}, {"id": 4812205, "width": 1080, "height": 1920, "duration": 17, "full_res": null, "tags": [], "url": "https://www.pexels.com/video/selective-focus-of-red-poppy-flowers-while-swaying-4812205/", "image": "https://images.pexels.com/videos/4812205/air-child-dad-dress-4812205.jpeg?auto=compress&cs=tinysrgb&fit=crop&h=1200&w=630", "avg_color": null, "user": {"id": 2297095, "name": "Pavel Danilyuk", "url": "https://www.pexels.com/@pavel-danilyuk"}, "video_files": [{"id": 9403714, "quality": "sd", "file_type": "video/mp4", "width": 240, "height": 426, "fps": 29.969999313354492, "link": "https://videos.pexels.com/video-files/4812205/4812205-sd_240_426_30fps.mp4", "size": 696478}, {"id": 9403750, "quality": "sd", "file_type": "video/mp4", "width": 540, "height": 960, "fps": 29.969999313354492, "link": "https://videos.pexels.com/video-files/4812205/4812205-sd_540_960_30fps.mp4", "size": 3378284}, {"id": 9403826, "quality": "hd", "file_type": "video/mp4", "width": 720, "height": 1280, "fps": 29.969999313354492, "link": "https://videos.pexels.com/video-files/4812205/4812205-hd_720_1280_30fps.mp4", "size": 6147854}, {"id": 9403907, "quality": "hd", "file_type": "video/mp4", "width": 1080, "height": 1920, "fps": 29.969999313354492, "link": "https://videos.pexels.com/video-files/4812205/4812205-hd_1080_1920_30fps.mp4", "size": 12303430}, {"id": 9404009, "quality": "sd", "file_type": "video/mp4", "width": 360, "height": 640, "fps": 29.969999313354492, "link": "https://videos.pexels.com/video-files/4812205/4812205-sd_360_640_30fps.mp4", "size": 1135214}], "video_pictures": [{"id": 1958449, "nr": 0, "picture": "https://images.pexels.com/videos/4812205/pictures/preview-0.jpeg"}, {"id": 1958450, "nr": 1, "picture": "https://images.pexels.com/videos/4812205/pictures/preview-1.jpeg"}, {"id": 1958451, "nr": 2, "picture": "https://images.pexels.com/videos/4812205/pictures/preview-2.jpeg"}, {"id": 1958452, "nr": 3, "picture": "https://images.pexels.com/videos/4812205/pictures/preview-3.jpeg"}, {"id": 1958453, "nr": 4, "picture": "https://images.pexels.com/videos/4812205/pictures/preview-4.jpeg"}, {"id": 1958454, "nr": 5, "picture": "https://images.pexels.com/videos/4812205/pictures/preview-5.jpeg"}, {"id": 1958455, "nr": 6, "picture": "https://images.pexels.com/videos/4812205/pictures/preview-6.jpeg"}, {"id": 1958456, "nr": 7, "picture": "https://images.pexels.com/videos/4812205/pictures/preview-7.jpeg"}, {"id": 1958457, "nr": 8, "picture": "https://images.pexels.com/videos/4812205/pictures/preview-8.jpeg"}, {"id": 1958458, "nr": 9, "picture": "https://images.pexels.com/videos/4812205/pictures/preview-9.jpeg"}, {"id": 1958459, "nr": 10, "picture": "https://images.pexels.com/videos/4812205/pictures/preview-10.jpeg"}, {"id": 1958460, "nr": 11, "picture": "https://images.pexels.com/videos/4812205/pictures/preview-11.jpeg"}, {"id": 1958461, "nr": 12, "picture": "https://images.pexels.com/videos/4812205/pictures/preview-12.jpeg"}, {"id": 1958462, "nr": 13, "picture": "https://images.pexels.com/videos/4812205/pictures/preview-13.jpeg"}, {"id": 1958463, "nr": 14, "picture": "https://images.pexels.com/videos/4812205/pictures/preview-14.jpeg"}]}, {"id": 6800638, "width": 1080, "height": 1920, "duration": 8, "full_res": null, "tags": [], "url": "https://www.pexels.com/video/a-book-and-a-flower-on-a-picnic-blanket-6800638/", "image": "https://images.pexels.com/videos/6800638/aesthetic-book-leisure-picnic-6800638.jpeg?auto=compress&cs=tinysrgb&fit=crop&h=1200&w=630", "avg_color": null, "user": {"id": 2946790, "name": "Leeloo The First", "url": "https://www.pexels.com/@leeloothefirst"}, "video_files": [{"id": 10182629, "quality": "sd", "file_type": "video/mp4", "width": 360, "height": 640, "fps": 29.969999313354492, "link": "https://videos.pexels.com/video-files/6800638/6800638-sd_360_640_30fps.mp4", "size": 569174}, {"id": 10182635, "quality": "hd", "file_type": "video/mp4", "width": 720, "height": 1280, "fps": 29.969999313354492, "link": "https://videos.pexels.com/video-files/6800638/6800638-hd_720_1280_30fps.mp4", "size": 2495985}, {"id": 10182646, "quality": "sd", "file_type": "video/mp4", "width": 240, "height": 426, "fps": 29.969999313354492, "link": "https://videos.pexels.com/video-files/6800638/6800638-sd_240_426_30fps.mp4", "size": 333742}, {"id": 10182655, "quality": "hd", "file_type": "video/mp4", "width": 1080, "height": 1920, "fps": 29.969999313354492, "link": "https://videos.pexels.com/video-files/6800638/6800638-hd_1080_1920_30fps.mp4", "size": 4807067}, {"id": 10182666, "quality": "sd", "file_type": "video/mp4", "width": 540, "height": 960, "fps": 29.969999313354492, "link": "https://videos.pexels.com/video-files/6800638/6800638-sd_540_960_30fps.mp4", "size": 1599121}], "video_pictures": [{"id": 5145661, "nr": 0, "picture": "https://images.pexels.com/videos/6800638/pictures/preview-0.jpeg"}, {"id": 5145662, "nr": 1, "picture": "https://images.pexels.com/videos/6800638/pictures/preview-1.jpeg"}, {"id": 5145663, "nr": 2, "picture": "https://images.pexels.com/videos/6800638/pictures/preview-2.jpeg"}, {"id": 5145664, "nr": 3, "picture": "https://images.pexels.com/videos/6800638/pictures/preview-3.jpeg"}, {"id": 5145666, "nr": 4, "picture": "https://images.pexels.com/videos/6800638/pictures/preview-4.jpeg"}, {"id": 5145667, "nr": 5, "picture": "https://images.pexels.com/videos/6800638/pictures/preview-5.jpeg"}, {"id": 5145668, "nr": 6, "picture": "https://images.pexels.com/videos/6800638/pictures/preview-6.jpeg"}, {"id": 5145671, "nr": 7, "picture": "https://images.pexels.com/videos/6800638/pictures/preview-7.jpeg"}, {"id": 5145672, "nr": 8, "picture": "https://images.pexels.com/videos/6800638/pictures/preview-8.jpeg"}, {"id": 5145674, "nr": 9, "picture": "https://images.pexels.com/videos/6800638/pictures/preview-9.jpeg"}, {"id": 5145675, "nr": 10, "picture": "https://images.pexels.com/videos/6800638/pictures/preview-10.jpeg"}, {"id": 5145677, "nr": 11, "picture": "https://images.pexels.com/videos/6800638/pictures/preview-11.jpeg"}, {"id": 5145678, "nr": 12, "picture": "https://images.pexels.com/videos/6800638/pictures/preview-12.jpeg"}, {"id": 5145680, "nr": 13, "picture": "https://images.pexels.com/videos/6800638/pictures/preview-13.jpeg"}, {"id": 5145681, "nr": 14, "picture": "https://images.pexels.com/videos/6800638/pictures/preview-14.jpeg"}]}, {"id": 7814674, "width": 2160, "height": 3840, "duration": 10, "full_res": null, "tags": [], "url": "https://www.pexels.com/video/roses-in-a-vase-7814674/", "image": "https://images.pexels.com/videos/7814674/pexels-photo-7814674.jpeg?auto=compress&cs=tinysrgb&fit=crop&h=1200&w=630", "avg_color": null, "user": {"id": 10955896, "name": "Anna Nekrashevich", "url": "https://www.pexels.com/@anna-nekrashevich"}, "video_files": [{"id": 10585631, "quality": "hd", "file_type": "video/mp4", "width": 1080, "height": 1920, "fps": 30.0, "link": "https://videos.pexels.com/video-files/7814674/7814674-hd_1080_1920_30fps.mp4", "size": 6110977}, {"id": 10585720, "quality": "sd", "file_type": "video/mp4", "width": 360, "height": 640, "fps": 30.0, "link": "https://videos.pexels.com/video-files/7814674/7814674-sd_360_640_30fps.mp4", "size": 574819}, {"id": 10585817, "quality": "hd", "file_type": "video/mp4", "width": 720, "height": 1280, "fps": 30.0, "link": "https://videos.pexels.com/video-files/7814674/7814674-hd_720_1280_30fps.mp4", "size": 2974951}, {"id": 10585908, "quality": "uhd", "file_type": "video/mp4", "width": 2160, "height": 3840, "fps": 30.0, "link": "https://videos.pexels.com/video-files/7814674/7814674-uhd_2160_3840_30fps.mp4", "size": 28197246}, {"id": 10586096, "quality": "sd", "file_type": "video/mp4", "width": 540, "height": 960, "fps": 30.0, "link": "https://videos.pexels.com/video-files/7814674/7814674-sd_540_960_30fps.mp4", "size": 1675171}, {"id": 10586252, "quality": "sd", "file_type": "video/mp4", "width": 240, "height": 426, "fps": 30.0, "link": "https://videos.pexels.com/video-files/7814674/7814674-sd_240_426_30fps.mp4", "size": 119858}, {"id": 10586329, "quality": "uhd", "file_type": "video/mp4", "width": 1440, "height": 2560, "fps": 30.0, "link": "https://videos.pexels.com/video-files/7814674/7814674-uhd_1440_2560_30fps.mp4", "size": 15107034}], "video_pictures": [{"id": 7098888, "nr": 0, "picture": "https://images.pexels.com/videos/7814674/pictures/preview-0.jpeg"}, {"id": 7098902, "nr": 1, "picture": "https://images.pexels.com/videos/7814674/pictures/preview-1.jpeg"}, {"id": 7098923, "nr": 2, "picture": "https://images.pexels.com/videos/7814674/pictures/preview-2.jpeg"}, {"id": 7098944, "nr": 3, "picture": "https://images.pexels.com/videos/7814674/pictures/preview-3.jpeg"}, {"id": 7098969, "nr": 4, "picture": "https://images.pexels.com/videos/7814674/pictures/preview-4.jpeg"}, {"id": 7098991, "nr": 5, "picture": "https://images.pexels.com/videos/7814674/pictures/preview-5.jpeg"}, {"id": 7099008, "nr": 6, "picture": "https://images.pexels.com/videos/7814674/pictures/preview-6.jpeg"}, {"id": 7099025, "nr": 7, "picture": "https://images.pexels.com/videos/7814674/pictures/preview-7.jpeg"}, {"id": 7099042, "nr": 8, "picture": "https://images.pexels.com/videos/7814674/pictures/preview-8.jpeg"}, {"id": 7099061, "nr": 9, "picture": "https://images.pexels.com/videos/7814674/pictures/preview-9.jpeg"}, {"id": 7099083, "nr": 10, "picture": "https://images.pexels.com/videos/7814674/pictures/preview-10.jpeg"}, {"id": 7099099, "nr": 11, "picture": "https://images.pexels.com/videos/7814674/pictures/preview-11.jpeg"}, {"id": 7099109, "nr": 12, "picture": "https://images.pexels.com/videos/7814674/pictures/preview-12.jpeg"}, {"id": 7099118, "nr": 13, "picture": "https://images.pexels.com/videos/7814674/pictures/preview-13.jpeg"}, {"id": 7099124, "nr": 14, "picture": "https://images.pexels.com/videos/7814674/pictures/preview-14.jpeg"}]}, {"id": 8538237, "width": 1620, "height": 2802, "duration": 3, "full_res": null, "tags": [], "url": "https://www.pexels.com/video/a-moon-in-the-sky-and-blooming-flowers-8538237/", "image": "https://images.pexels.com/videos/8538237/apple-apricot-blooming-blue-sky-8538237.jpeg?auto=compress&cs=tinysrgb&fit=crop&h=1200&w=630", "avg_color": null, "user": {"id": 3838865, "name": "Mariam Antadze", "url": "https://www.pexels.com/@sunsetoned"}, "video_files": [{"id": 10885357, "quality": "hd", "file_type": "video/mp4", "width": 720, "height": 1246, "fps": 60.0, "link": "https://videos.pexels.com/video-files/8538237/8538237-hd_720_1246_60fps.mp4", "size": 1032982}, {"id": 10885360, "quality": "sd", "file_type": "video/mp4", "width": 240, "height": 416, "fps": 30.0, "link": "https://videos.pexels.com/video-files/8538237/8538237-sd_240_416_30fps.mp4", "size": 137353}, {"id": 10885363, "quality": "sd", "file_type": "video/mp4", "width": 540, "height": 934, "fps": 30.0, "link": "https://videos.pexels.com/video-files/8538237/8538237-sd_540_934_30fps.mp4", "size": 548237}, {"id": 10885366, "quality": "uhd", "file_type": "video/mp4", "width": 1440, "height": 2492, "fps": 30.0, "link": "https://videos.pexels.com/video-files/8538237/8538237-uhd_1440_2492_30fps.mp4", "size": 5279483}, {"id": 10885370, "quality": "hd", "file_type": "video/mp4", "width": 1080, "height": 1868, "fps": 30.0, "link": "https://videos.pexels.com/video-files/8538237/8538237-hd_1080_1868_30fps.mp4", "size": 2160535}, {"id": 10885372, "quality": "sd", "file_type": "video/mp4", "width": 360, "height": 624, "fps": 30.0, "link": "https://videos.pexels.com/video-files/8538237/8538237-sd_360_624_30fps.mp4", "size": 184151}], "video_pictures": [{"id": 8464922, "nr": 0, "picture": "https://images.pexels.com/videos/8538237/pictures/preview-0.jpeg"}, {"id": 8464934, "nr": 1, "picture": "https://images.pexels.com/videos/8538237/pictures/preview-1.jpeg"}, {"id": 8464943, "nr": 2, "picture": "https://images.pexels.com/videos/8538237/pictures/preview-2.jpeg"}, {"id": 8464951, "nr": 3, "picture": "https://images.pexels.com/videos/8538237/pictures/preview-3.jpeg"}, {"id": 8464958, "nr": 4, "picture": "https://images.pexels.com/videos/8538237/pictures/preview-4.jpeg"}, {"id": 8464968, "nr": 5, "picture": "https://images.pexels.com/videos/8538237/pictures/preview-5.jpeg"}, {"id": 8464973, "nr": 6, "picture": "https://images.pexels.com/videos/8538237/pictures/preview-6.jpeg"}, {"id": 8464981, "nr": 7, "picture": "https://images.pexels.com/videos/8538237/pictures/preview-7.jpeg"}, {"id": 8464991, "nr": 8, "picture": "https://images.pexels.com/videos/8538237/pictures/preview-8.jpeg"}, {"id": 8465000, "nr": 9, "picture": "https://images.pexels.com/videos/8538237/pictures/preview-9.jpeg"}, {"id": 8465012, "nr": 10, "picture": "https://images.pexels.com/videos/8538237/pictures/preview-10.jpeg"}, {"id": 8465020, "nr": 11, "picture": "https://images.pexels.com/videos/8538237/pictures/preview-11.jpeg"}, {"id": 8465030, "nr": 12, "picture": "https://images.pexels.com/videos/8538237/pictures/preview-12.jpeg"}, {"id": 8465042, "nr": 13, "picture": "https://images.pexels.com/videos/8538237/pictures/preview-13.jpeg"}, {"id": 8465058, "nr": 14, "picture": "https://images.pexels.com/videos/8538237/pictures/preview-14.jpeg"}]}, {"id": 4040354, "width": 2160, "height": 3840, "duration": 28, "full_res": null, "tags": [], "url": "https://www.pexels.com/video/cherry-flowers-blooming-during-spring-season-4040354/", "image": "https://images.pexels.com/videos/4040354/pexels-photo-4040354.jpeg?auto=compress&cs=tinysrgb&fit=crop&h=1200&w=630", "avg_color": null, "user": {"id": 2321025, "name": "Jackie Fang", "url": "https://www.pexels.com/@jackie-fang-2321025"}, "video_files": [{"id": 9358304, "quality": "sd", "file_type": "video/mp4", "width": 540, "height": 960, "fps": 29.969999313354492, "link": "https://videos.pexels.com/video-files/4040354/4040354-sd_540_960_30fps.mp4", "size": 5174423}, {"id": 9358306, "quality": "uhd", "file_type": "video/mp4", "width": 1440, "height": 2560, "fps": 29.969999313354492, "link": "https://videos.pexels.com/video-files/4040354/4040354-uhd_1440_2560_30fps.mp4", "size": 27949818}, {"id": 9358309, "quality": "uhd", "file_type": "video/mp4", "width": 2160, "height": 3840, "fps": 29.969999313354492, "link": "https://videos.pexels.com/video-files/4040354/4040354-uhd_2160_3840_30fps.mp4", "size": 49044495}, {"id": 9358312, "quality": "hd", "file_type": "video/mp4", "width": 720, "height": 1280, "fps": 59.940101623535156, "link": "https://videos.pexels.com/video-files/4040354/4040354-hd_720_1280_60fps.mp4", "size": 10250013}, {"id": 9358318, "quality": "sd", "file_type": "video/mp4", "width": 360, "height": 640, "fps": 29.969999313354492, "link": "https://videos.pexels.com/video-files/4040354/4040354-sd_360_640_30fps.mp4", "size": 2092024}, {"id": 9358326, "quality": "sd", "file_type": "video/mp4", "width": 240, "height": 426, "fps": 29.969999313354492, "link": "https://videos.pexels.com/video-files/4040354/4040354-sd_240_426_30fps.mp4", "size": 1237219}, {"id": 9358331, "quality": "hd", "file_type": "video/mp4", "width": 1080, "height": 1920, "fps": 29.969999313354492, "link": "https://videos.pexels.com/video-files/4040354/4040354-hd_1080_1920_30fps.mp4", "size": 16978218}], "video_pictures": [{"id": 1088810, "nr": 0, "picture": "https://images.pexels.com/videos/4040354/pictures/preview-0.jpeg"}, {"id": 1088811, "nr": 1, "picture": "https://images.pexels.com/videos/4040354/pictures/preview-1.jpeg"}, {"id": 1088812, "nr": 2, "picture": "https://images.pexels.com/videos/4040354/pictures/preview-2.jpeg"}, {"id": 1088813, "nr": 3, "picture": "https://images.pexels.com/videos/4040354/pictures/preview-3.jpeg"}, {"id": 1088814, "nr": 4, "picture": "https://images.pexels.com/videos/4040354/pictures/preview-4.jpeg"}, {"id": 1088815, "nr": 5, "picture": "https://images.pexels.com/videos/4040354/pictures/preview-5.jpeg"}, {"id": 1088816, "nr": 6, "picture": "https://images.pexels.com/videos/4040354/pictures/preview-6.jpeg"}, {"id": 1088817, "nr": 7, "picture": "https://images.pexels.com/videos/4040354/pictures/preview-7.jpeg"}, {"id": 1088818, "nr": 8, "picture": "https://images.pexels.com/videos/4040354/pictures/preview-8.jpeg"}, {"id": 1088829, "nr": 9, "picture": "https://images.pexels.com/videos/4040354/pictures/preview-9.jpeg"}, {"id": 1088832, "nr": 10, "picture": "https://images.pexels.com/videos/4040354/pictures/preview-10.jpeg"}, {"id": 1088836, "nr": 11, "picture": "https://images.pexels.com/videos/4040354/pictures/preview-11.jpeg"}, {"id": 1088837, "nr": 12, "picture": "https://images.pexels.com/videos/4040354/pictures/preview-12.jpeg"}, {"id": 1088838, "nr": 13, "picture": "https://images.pexels.com/videos/4040354/pictures/preview-13.jpeg"}, {"id": 1088839, "nr": 14, "picture": "https://images.pexels.com/videos/4040354/pictures/preview-14.jpeg"}]}], "total_results": 2321, "next_page": "https://api.pexels.com/v1/videos/search/?orientation=portrait&page=2&per_page=8&query=cactus+bloom+once", "url": "https://api-server.pexels.com/search/videos/cactus%20bloom%20once/"}, "timestamp": "2024-12-28T23:03:44.849286"}
