{"query": "vegetable garden", "response": {"page": 1, "per_page": 8, "videos": [{"id": 9001888, "width": 1080, "height": 1920, "duration": 10, "full_res": null, "tags": [], "url": "https://www.pexels.com/video/woman-smelling-fresh-vegetables-9001888/", "image": "https://images.pexels.com/videos/9001888/adult-beautiful-bride-broccoli-9001888.jpeg?auto=compress&cs=tinysrgb&fit=crop&h=1200&w=630", "avg_color": null, "user": {"id": 2638647, "name": "olia danilevich", "url": "https://www.pexels.com/@olia-danilevich"}, "video_files": [{"id": 11040610, "quality": "sd", "file_type": "video/mp4", "width": 540, "height": 960, "fps": 25.0, "link": "https://videos.pexels.com/video-files/9001888/9001888-sd_540_960_25fps.mp4", "size": 1629160}, {"id": 11040686, "quality": "hd", "file_type": "video/mp4", "width": 720, "height": 1280, "fps": 25.0, "link": "https://videos.pexels.com/video-files/9001888/9001888-hd_720_1280_25fps.mp4", "size": 2707775}, {"id": 11040719, "quality": "hd", "file_type": "video/mp4", "width": 1080, "height": 1920, "fps": 25.0, "link": "https://videos.pexels.com/video-files/9001888/9001888-hd_1080_1920_25fps.mp4", "size": 5689174}, {"id": 11040798, "quality": "sd", "file_type": "video/mp4", "width": 360, "height": 640, "fps": 25.0, "link": "https://videos.pexels.com/video-files/9001888/9001888-sd_360_640_25fps.mp4", "size": 731594}], "video_pictures": [{"id": 9197854, "nr": 0, "picture": "https://images.pexels.com/videos/9001888/pictures/preview-0.jpeg"}, {"id": 9197857, "nr": 1, "picture": "https://images.pexels.com/videos/9001888/pictures/preview-1.jpeg"}, {"id": 9197862, "nr": 2, "picture": "https://images.pexels.com/videos/9001888/pictures/preview-2.jpeg"}, {"id": 9197866, "nr": 3, "picture": "https://images.pexels.com/videos/9001888/pictures/preview-3.jpeg"}, {"id": 9197874, "nr": 4, "picture": "https://images.pexels.com/videos/9001888/pictures/preview-4.jpeg"}, {"id": 9197881, "nr": 5, "picture": "https://images.pexels.com/videos/9001888/pictures/preview-5.jpeg"}, {"id": 9197889, "nr": 6, "picture": "https://images.pexels.com/videos/9001888/pictures/preview-6.jpeg"}, {"id": 9197896, "nr": 7, "picture": "https://images.pexels.com/videos/9001888/pictures/preview-7.jpeg"}, {"id": 9197907, "nr": 8, "picture": "https://images.pexels.com/videos/9001888/pictures/preview-8.jpeg"}, {"id": 9197919, "nr": 9, "picture": "https://images.pexels.com/videos/9001888/pictures/preview-9.jpeg"}, {"id": 9197932, "nr": 10, "picture": "https://images.pexels.com/videos/9001888/pictures/preview-10.jpeg"}, {"id": 9197945, "nr": 11, "picture": "https://images.pexels.com/videos/9001888/pictures/preview-11.jpeg"}, {"id": 9197956, "nr": 12, "picture": "https://images.pexels.com/videos/9001888/pictures/preview-12.jpeg"}, {"id": 9197972, "nr": 13, "picture": "https://images.pexels.com/videos/9001888/pictures/preview-13.jpeg"}, {"id": 9197985, "nr": 0, "picture": "https://images.pexels.com/videos/9001888/pictures/preview-0.jpeg"}, {"id": 9197986, "nr": 14, "picture": "https://images.pexels.com/videos/9001888/pictures/preview-14.jpeg"}, {"id": 9198002, "nr": 1, "picture": "https://images.pexels.com/videos/9001888/pictures/preview-1.jpeg"}, {"id": 9198018, "nr": 2, "picture": "https://images.pexels.com/videos/9001888/pictures/preview-2.jpeg"}, {"id": 9198034, "nr": 3, "picture": "https://images.pexels.com/videos/9001888/pictures/preview-3.jpeg"}, {"id": 9198050, "nr": 4, "picture": "https://images.pexels.com/videos/9001888/pictures/preview-4.jpeg"}, {"id": 9198063, "nr": 5, "picture": "https://images.pexels.com/videos/9001888/pictures/preview-5.jpeg"}, {"id": 9198074, "nr": 6, "picture": "https://images.pexels.com/videos/9001888/pictures/preview-6.jpeg"}, {"id": 9198085, "nr": 7, "picture": "https://images.pexels.com/videos/9001888/pictures/preview-7.jpeg"}, {"id": 9198096, "nr": 8, "picture": "https://images.pexels.com/videos/9001888/pictures/preview-8.jpeg"}, {"id": 9198106, "nr": 9, "picture": "https://images.pexels.com/videos/9001888/pictures/preview-9.jpeg"}, {"id": 9198114, "nr": 10, "picture": "https://images.pexels.com/videos/9001888/pictures/preview-10.jpeg"}, {"id": 9198122, "nr": 11, "picture": "https://images.pexels.com/videos/9001888/pictures/preview-11.jpeg"}, {"id": 9198126, "nr": 12, "picture": "https://images.pexels.com/videos/9001888/pictures/preview-12.jpeg"}, {"id": 9198130, "nr": 13, "picture": "https://images.pexels.com/videos/9001888/pictures/preview-13.jpeg"}, {"id": 9198132, "nr": 14, "picture": "https://images.pexels.com/videos/9001888/pictures/preview-14.jpeg"}]}, {"id": 6289343, "width": 1080, "height": 1920, "duration": 8, "full_res": null, "tags": [], "url": "https://www.pexels.com/video/leaves-being-placed-on-veggies-basket-6289343/", "image": "https://images.pexels.com/videos/6289343/pexels-photo-6289343.jpeg?auto=compress&cs=tinysrgb&fit=crop&h=1200&w=630", "avg_color": null, "user": {"id": 6928139, "name": "Klaus Nielsen", "url": "https://www.pexels.com/@klaus-nielsen"}, "video_files": [{"id": 9995150, "quality": "sd", "file_type": "video/mp4", "width": 540, "height": 960, "fps": 25.0, "link": "https://videos.pexels.com/video-files/6289343/6289343-sd_540_960_25fps.mp4", "size": 1662520}, {"id": 9995162, "quality": "sd", "file_type": "video/mp4", "width": 360, "height": 640, "fps": 25.0, "link": "https://videos.pexels.com/video-files/6289343/6289343-sd_360_640_25fps.mp4", "size": 596427}, {"id": 9995173, "quality": "hd", "file_type": "video/mp4", "width": 720, "height": 1280, "fps": 50.0, "link": "https://videos.pexels.com/video-files/6289343/6289343-hd_720_1280_50fps.mp4", "size": 2658938}, {"id": 9995189, "quality": "hd", "file_type": "video/mp4", "width": 1080, "height": 1920, "fps": 25.0, "link": "https://videos.pexels.com/video-files/6289343/6289343-hd_1080_1920_25fps.mp4", "size": 4968179}, {"id": 9995205, "quality": "sd", "file_type": "video/mp4", "width": 240, "height": 426, "fps": 25.0, "link": "https://videos.pexels.com/video-files/6289343/6289343-sd_240_426_25fps.mp4", "size": 356949}], "video_pictures": [{"id": 4234067, "nr": 0, "picture": "https://images.pexels.com/videos/6289343/pictures/preview-0.jpeg"}, {"id": 4234100, "nr": 1, "picture": "https://images.pexels.com/videos/6289343/pictures/preview-1.jpeg"}, {"id": 4234125, "nr": 2, "picture": "https://images.pexels.com/videos/6289343/pictures/preview-2.jpeg"}, {"id": 4234156, "nr": 3, "picture": "https://images.pexels.com/videos/6289343/pictures/preview-3.jpeg"}, {"id": 4234187, "nr": 4, "picture": "https://images.pexels.com/videos/6289343/pictures/preview-4.jpeg"}, {"id": 4234220, "nr": 5, "picture": "https://images.pexels.com/videos/6289343/pictures/preview-5.jpeg"}, {"id": 4234255, "nr": 6, "picture": "https://images.pexels.com/videos/6289343/pictures/preview-6.jpeg"}, {"id": 4234299, "nr": 7, "picture": "https://images.pexels.com/videos/6289343/pictures/preview-7.jpeg"}, {"id": 4234328, "nr": 8, "picture": "https://images.pexels.com/videos/6289343/pictures/preview-8.jpeg"}, {"id": 4234356, "nr": 9, "picture": "https://images.pexels.com/videos/6289343/pictures/preview-9.jpeg"}, {"id": 4234392, "nr": 10, "picture": "https://images.pexels.com/videos/6289343/pictures/preview-10.jpeg"}, {"id": 4234437, "nr": 11, "picture": "https://images.pexels.com/videos/6289343/pictures/preview-11.jpeg"}, {"id": 4234464, "nr": 12, "picture": "https://images.pexels.com/videos/6289343/pictures/preview-12.jpeg"}, {"id": 4234489, "nr": 13, "picture": "https://images.pexels.com/videos/6289343/pictures/preview-13.jpeg"}, {"id": 4234500, "nr": 14, "picture": "https://images.pexels.com/videos/6289343/pictures/preview-14.jpeg"}]}, {"id": 8889740, "width": 2160, "height": 4096, "duration": 13, "full_res": null, "tags": [], "url": "https://www.pexels.com/video/a-woman-taking-a-pitchfork-from-a-shed-8889740/", "image": "https://images.pexels.com/videos/8889740/pexels-photo-8889740.jpeg?auto=compress&cs=tinysrgb&fit=crop&h=1200&w=630", "avg_color": null, "user": {"id": 649765, "name": "Yaroslav Shuraev", "url": "https://www.pexels.com/@yaroslav-shuraev"}, "video_files": [{"id": 10988029, "quality": "hd", "file_type": "video/mp4", "width": 1080, "height": 2048, "fps": 24.0, "link": "https://videos.pexels.com/video-files/8889740/8889740-hd_1080_2048_24fps.mp4", "size": 7552609}, {"id": 10988111, "quality": "uhd", "file_type": "video/mp4", "width": 1440, "height": 2732, "fps": 24.0, "link": "https://videos.pexels.com/video-files/8889740/8889740-uhd_1440_2732_24fps.mp4", "size": 16713961}, {"id": 10988179, "quality": "sd", "file_type": "video/mp4", "width": 506, "height": 960, "fps": 24.0, "link": "https://videos.pexels.com/video-files/8889740/8889740-sd_506_960_24fps.mp4", "size": 2136153}, {"id": 10988259, "quality": "sd", "file_type": "video/mp4", "width": 338, "height": 640, "fps": 24.0, "link": "https://videos.pexels.com/video-files/8889740/8889740-sd_338_640_24fps.mp4", "size": 777444}, {"id": 10988322, "quality": "hd", "file_type": "video/mp4", "width": 720, "height": 1366, "fps": 24.0, "link": "https://videos.pexels.com/video-files/8889740/8889740-hd_720_1366_24fps.mp4", "size": 4112453}, {"id": 10988412, "quality": "sd", "file_type": "video/mp4", "width": 226, "height": 426, "fps": 24.0, "link": "https://videos.pexels.com/video-files/8889740/8889740-sd_226_426_24fps.mp4", "size": 540196}, {"id": 10988506, "quality": "uhd", "file_type": "video/mp4", "width": 2160, "height": 4096, "fps": 24.0, "link": "https://videos.pexels.com/video-files/8889740/8889740-uhd_2160_4096_24fps.mp4", "size": 38514775}], "video_pictures": [{"id": 8991243, "nr": 0, "picture": "https://images.pexels.com/videos/8889740/pictures/preview-0.jpeg"}, {"id": 8991247, "nr": 1, "picture": "https://images.pexels.com/videos/8889740/pictures/preview-1.jpeg"}, {"id": 8991254, "nr": 2, "picture": "https://images.pexels.com/videos/8889740/pictures/preview-2.jpeg"}, {"id": 8991260, "nr": 3, "picture": "https://images.pexels.com/videos/8889740/pictures/preview-3.jpeg"}, {"id": 8991267, "nr": 4, "picture": "https://images.pexels.com/videos/8889740/pictures/preview-4.jpeg"}, {"id": 8991271, "nr": 5, "picture": "https://images.pexels.com/videos/8889740/pictures/preview-5.jpeg"}, {"id": 8991278, "nr": 6, "picture": "https://images.pexels.com/videos/8889740/pictures/preview-6.jpeg"}, {"id": 8991286, "nr": 7, "picture": "https://images.pexels.com/videos/8889740/pictures/preview-7.jpeg"}, {"id": 8991294, "nr": 8, "picture": "https://images.pexels.com/videos/8889740/pictures/preview-8.jpeg"}, {"id": 8991302, "nr": 9, "picture": "https://images.pexels.com/videos/8889740/pictures/preview-9.jpeg"}, {"id": 8991312, "nr": 10, "picture": "https://images.pexels.com/videos/8889740/pictures/preview-10.jpeg"}, {"id": 8991323, "nr": 11, "picture": "https://images.pexels.com/videos/8889740/pictures/preview-11.jpeg"}, {"id": 8991335, "nr": 12, "picture": "https://images.pexels.com/videos/8889740/pictures/preview-12.jpeg"}, {"id": 8991347, "nr": 13, "picture": "https://images.pexels.com/videos/8889740/pictures/preview-13.jpeg"}, {"id": 8991360, "nr": 14, "picture": "https://images.pexels.com/videos/8889740/pictures/preview-14.jpeg"}]}, {"id": 7781717, "width": 1080, "height": 1920, "duration": 9, "full_res": null, "tags": [], "url": "https://www.pexels.com/video/woman-sitting-on-hay-feeding-chickens-7781717/", "image": "https://images.pexels.com/videos/7781717/pexels-photo-7781717.jpeg?auto=compress&cs=tinysrgb&fit=crop&h=1200&w=630", "avg_color": null, "user": {"id": 3149039, "name": "RDNE Stock project", "url": "https://www.pexels.com/@rdne"}, "video_files": [{"id": 10576074, "quality": "sd", "file_type": "video/mp4", "width": 540, "height": 960, "fps": 30.0, "link": "https://videos.pexels.com/video-files/7781717/7781717-sd_540_960_30fps.mp4", "size": 1702170}, {"id": 10576123, "quality": "hd", "file_type": "video/mp4", "width": 1080, "height": 1920, "fps": 30.0, "link": "https://videos.pexels.com/video-files/7781717/7781717-hd_1080_1920_30fps.mp4", "size": 5722055}, {"id": 10576196, "quality": "sd", "file_type": "video/mp4", "width": 360, "height": 640, "fps": 30.0, "link": "https://videos.pexels.com/video-files/7781717/7781717-sd_360_640_30fps.mp4", "size": 574105}, {"id": 10576238, "quality": "sd", "file_type": "video/mp4", "width": 240, "height": 426, "fps": 30.0, "link": "https://videos.pexels.com/video-files/7781717/7781717-sd_240_426_30fps.mp4", "size": 406006}, {"id": 10576299, "quality": "hd", "file_type": "video/mp4", "width": 720, "height": 1280, "fps": 30.0, "link": "https://videos.pexels.com/video-files/7781717/7781717-hd_720_1280_30fps.mp4", "size": 2877801}], "video_pictures": [{"id": 7047014, "nr": 0, "picture": "https://images.pexels.com/videos/7781717/pictures/preview-0.jpeg"}, {"id": 7047021, "nr": 1, "picture": "https://images.pexels.com/videos/7781717/pictures/preview-1.jpeg"}, {"id": 7047028, "nr": 2, "picture": "https://images.pexels.com/videos/7781717/pictures/preview-2.jpeg"}, {"id": 7047034, "nr": 3, "picture": "https://images.pexels.com/videos/7781717/pictures/preview-3.jpeg"}, {"id": 7047046, "nr": 4, "picture": "https://images.pexels.com/videos/7781717/pictures/preview-4.jpeg"}, {"id": 7047053, "nr": 5, "picture": "https://images.pexels.com/videos/7781717/pictures/preview-5.jpeg"}, {"id": 7047062, "nr": 6, "picture": "https://images.pexels.com/videos/7781717/pictures/preview-6.jpeg"}, {"id": 7047067, "nr": 7, "picture": "https://images.pexels.com/videos/7781717/pictures/preview-7.jpeg"}, {"id": 7047074, "nr": 8, "picture": "https://images.pexels.com/videos/7781717/pictures/preview-8.jpeg"}, {"id": 7047083, "nr": 9, "picture": "https://images.pexels.com/videos/7781717/pictures/preview-9.jpeg"}, {"id": 7047096, "nr": 10, "picture": "https://images.pexels.com/videos/7781717/pictures/preview-10.jpeg"}, {"id": 7047108, "nr": 11, "picture": "https://images.pexels.com/videos/7781717/pictures/preview-11.jpeg"}, {"id": 7047120, "nr": 12, "picture": "https://images.pexels.com/videos/7781717/pictures/preview-12.jpeg"}, {"id": 7047129, "nr": 13, "picture": "https://images.pexels.com/videos/7781717/pictures/preview-13.jpeg"}, {"id": 7047135, "nr": 14, "picture": "https://images.pexels.com/videos/7781717/pictures/preview-14.jpeg"}]}, {"id": 7332187, "width": 1080, "height": 1920, "duration": 10, "full_res": null, "tags": [], "url": "https://www.pexels.com/video/woman-checking-plants-in-the-greenhouse-7332187/", "image": "https://images.pexels.com/videos/7332187/pexels-photo-7332187.jpeg?auto=compress&cs=tinysrgb&fit=crop&h=1200&w=630", "avg_color": null, "user": {"id": 2871253, "name": "Anna Tarazevich", "url": "https://www.pexels.com/@anntarazevich"}, "video_files": [{"id": 10401588, "quality": "hd", "file_type": "video/mp4", "width": 1080, "height": 1920, "fps": 25.0, "link": "https://videos.pexels.com/video-files/7332187/7332187-hd_1080_1920_25fps.mp4", "size": 7523553}, {"id": 10401608, "quality": "hd", "file_type": "video/mp4", "width": 720, "height": 1280, "fps": 25.0, "link": "https://videos.pexels.com/video-files/7332187/7332187-hd_720_1280_25fps.mp4", "size": 3928459}, {"id": 10401621, "quality": "sd", "file_type": "video/mp4", "width": 360, "height": 640, "fps": 25.0, "link": "https://videos.pexels.com/video-files/7332187/7332187-sd_360_640_25fps.mp4", "size": 784488}, {"id": 10401640, "quality": "sd", "file_type": "video/mp4", "width": 540, "height": 960, "fps": 25.0, "link": "https://videos.pexels.com/video-files/7332187/7332187-sd_540_960_25fps.mp4", "size": 2095341}], "video_pictures": [{"id": 6221949, "nr": 0, "picture": "https://images.pexels.com/videos/7332187/pictures/preview-0.jpeg"}, {"id": 6221960, "nr": 1, "picture": "https://images.pexels.com/videos/7332187/pictures/preview-1.jpeg"}, {"id": 6221967, "nr": 2, "picture": "https://images.pexels.com/videos/7332187/pictures/preview-2.jpeg"}, {"id": 6221979, "nr": 3, "picture": "https://images.pexels.com/videos/7332187/pictures/preview-3.jpeg"}, {"id": 6221992, "nr": 4, "picture": "https://images.pexels.com/videos/7332187/pictures/preview-4.jpeg"}, {"id": 6222003, "nr": 5, "picture": "https://images.pexels.com/videos/7332187/pictures/preview-5.jpeg"}, {"id": 6222016, "nr": 6, "picture": "https://images.pexels.com/videos/7332187/pictures/preview-6.jpeg"}, {"id": 6222034, "nr": 7, "picture": "https://images.pexels.com/videos/7332187/pictures/preview-7.jpeg"}, {"id": 6222049, "nr": 8, "picture": "https://images.pexels.com/videos/7332187/pictures/preview-8.jpeg"}, {"id": 6222063, "nr": 9, "picture": "https://images.pexels.com/videos/7332187/pictures/preview-9.jpeg"}, {"id": 6222082, "nr": 10, "picture": "https://images.pexels.com/videos/7332187/pictures/preview-10.jpeg"}, {"id": 6222096, "nr": 11, "picture": "https://images.pexels.com/videos/7332187/pictures/preview-11.jpeg"}, {"id": 6222109, "nr": 12, "picture": "https://images.pexels.com/videos/7332187/pictures/preview-12.jpeg"}, {"id": 6222120, "nr": 13, "picture": "https://images.pexels.com/videos/7332187/pictures/preview-13.jpeg"}, {"id": 6222134, "nr": 14, "picture": "https://images.pexels.com/videos/7332187/pictures/preview-14.jpeg"}]}, {"id": 7782514, "width": 1080, "height": 1920, "duration": 9, "full_res": null, "tags": [], "url": "https://www.pexels.com/video/woman-wearing-gardening-gloves-looking-at-camera-7782514/", "image": "https://images.pexels.com/videos/7782514/adult-agriculture-countryside-cowboy-7782514.jpeg?auto=compress&cs=tinysrgb&fit=crop&h=1200&w=630", "avg_color": null, "user": {"id": 3149039, "name": "RDNE Stock project", "url": "https://www.pexels.com/@rdne"}, "video_files": [{"id": 10576866, "quality": "hd", "file_type": "video/mp4", "width": 720, "height": 1280, "fps": 30.0, "link": "https://videos.pexels.com/video-files/7782514/7782514-hd_720_1280_30fps.mp4", "size": 2669492}, {"id": 10576964, "quality": "sd", "file_type": "video/mp4", "width": 360, "height": 640, "fps": 30.0, "link": "https://videos.pexels.com/video-files/7782514/7782514-sd_360_640_30fps.mp4", "size": 517084}, {"id": 10577039, "quality": "hd", "file_type": "video/mp4", "width": 1080, "height": 1920, "fps": 30.0, "link": "https://videos.pexels.com/video-files/7782514/7782514-hd_1080_1920_30fps.mp4", "size": 5380088}, {"id": 10577096, "quality": "sd", "file_type": "video/mp4", "width": 240, "height": 426, "fps": 30.0, "link": "https://videos.pexels.com/video-files/7782514/7782514-sd_240_426_30fps.mp4", "size": 376476}, {"id": 10577198, "quality": "sd", "file_type": "video/mp4", "width": 540, "height": 960, "fps": 30.0, "link": "https://videos.pexels.com/video-files/7782514/7782514-sd_540_960_30fps.mp4", "size": 1537522}], "video_pictures": [{"id": 7048538, "nr": 0, "picture": "https://images.pexels.com/videos/7782514/pictures/preview-0.jpeg"}, {"id": 7048540, "nr": 1, "picture": "https://images.pexels.com/videos/7782514/pictures/preview-1.jpeg"}, {"id": 7048545, "nr": 2, "picture": "https://images.pexels.com/videos/7782514/pictures/preview-2.jpeg"}, {"id": 7048552, "nr": 3, "picture": "https://images.pexels.com/videos/7782514/pictures/preview-3.jpeg"}, {"id": 7048560, "nr": 4, "picture": "https://images.pexels.com/videos/7782514/pictures/preview-4.jpeg"}, {"id": 7048567, "nr": 5, "picture": "https://images.pexels.com/videos/7782514/pictures/preview-5.jpeg"}, {"id": 7048576, "nr": 6, "picture": "https://images.pexels.com/videos/7782514/pictures/preview-6.jpeg"}, {"id": 7048587, "nr": 7, "picture": "https://images.pexels.com/videos/7782514/pictures/preview-7.jpeg"}, {"id": 7048598, "nr": 8, "picture": "https://images.pexels.com/videos/7782514/pictures/preview-8.jpeg"}, {"id": 7048608, "nr": 9, "picture": "https://images.pexels.com/videos/7782514/pictures/preview-9.jpeg"}, {"id": 7048621, "nr": 10, "picture": "https://images.pexels.com/videos/7782514/pictures/preview-10.jpeg"}, {"id": 7048636, "nr": 11, "picture": "https://images.pexels.com/videos/7782514/pictures/preview-11.jpeg"}, {"id": 7048649, "nr": 12, "picture": "https://images.pexels.com/videos/7782514/pictures/preview-12.jpeg"}, {"id": 7048666, "nr": 13, "picture": "https://images.pexels.com/videos/7782514/pictures/preview-13.jpeg"}, {"id": 7048682, "nr": 14, "picture": "https://images.pexels.com/videos/7782514/pictures/preview-14.jpeg"}]}, {"id": 8543962, "width": 1080, "height": 1920, "duration": 9, "full_res": null, "tags": [], "url": "https://www.pexels.com/video/two-people-holding-a-sprout-8543962/", "image": "https://images.pexels.com/videos/8543962/pexels-photo-8543962.jpeg?auto=compress&cs=tinysrgb&fit=crop&h=1200&w=630", "avg_color": null, "user": {"id": 11437196, "name": "Mikhail Nilov", "url": "https://www.pexels.com/@mikhail-nilov"}, "video_files": [{"id": 10888548, "quality": "sd", "file_type": "video/mp4", "width": 240, "height": 426, "fps": 25.0, "link": "https://videos.pexels.com/video-files/8543962/8543962-sd_240_426_25fps.mp4", "size": 380375}, {"id": 10888586, "quality": "sd", "file_type": "video/mp4", "width": 540, "height": 960, "fps": 25.0, "link": "https://videos.pexels.com/video-files/8543962/8543962-sd_540_960_25fps.mp4", "size": 1554436}, {"id": 10888640, "quality": "hd", "file_type": "video/mp4", "width": 720, "height": 1280, "fps": 25.0, "link": "https://videos.pexels.com/video-files/8543962/8543962-hd_720_1280_25fps.mp4", "size": 2705860}, {"id": 10888675, "quality": "sd", "file_type": "video/mp4", "width": 360, "height": 640, "fps": 25.0, "link": "https://videos.pexels.com/video-files/8543962/8543962-sd_360_640_25fps.mp4", "size": 515934}, {"id": 10888767, "quality": "hd", "file_type": "video/mp4", "width": 1080, "height": 1920, "fps": 25.0, "link": "https://videos.pexels.com/video-files/8543962/8543962-hd_1080_1920_25fps.mp4", "size": 5430438}], "video_pictures": [{"id": 8475593, "nr": 0, "picture": "https://images.pexels.com/videos/8543962/pictures/preview-0.jpeg"}, {"id": 8475597, "nr": 1, "picture": "https://images.pexels.com/videos/8543962/pictures/preview-1.jpeg"}, {"id": 8475601, "nr": 2, "picture": "https://images.pexels.com/videos/8543962/pictures/preview-2.jpeg"}, {"id": 8475607, "nr": 3, "picture": "https://images.pexels.com/videos/8543962/pictures/preview-3.jpeg"}, {"id": 8475612, "nr": 4, "picture": "https://images.pexels.com/videos/8543962/pictures/preview-4.jpeg"}, {"id": 8475619, "nr": 5, "picture": "https://images.pexels.com/videos/8543962/pictures/preview-5.jpeg"}, {"id": 8475625, "nr": 6, "picture": "https://images.pexels.com/videos/8543962/pictures/preview-6.jpeg"}, {"id": 8475629, "nr": 7, "picture": "https://images.pexels.com/videos/8543962/pictures/preview-7.jpeg"}, {"id": 8475634, "nr": 8, "picture": "https://images.pexels.com/videos/8543962/pictures/preview-8.jpeg"}, {"id": 8475640, "nr": 9, "picture": "https://images.pexels.com/videos/8543962/pictures/preview-9.jpeg"}, {"id": 8475645, "nr": 10, "picture": "https://images.pexels.com/videos/8543962/pictures/preview-10.jpeg"}, {"id": 8475650, "nr": 11, "picture": "https://images.pexels.com/videos/8543962/pictures/preview-11.jpeg"}, {"id": 8475658, "nr": 12, "picture": "https://images.pexels.com/videos/8543962/pictures/preview-12.jpeg"}, {"id": 8475666, "nr": 13, "picture": "https://images.pexels.com/videos/8543962/pictures/preview-13.jpeg"}, {"id": 8475676, "nr": 14, "picture": "https://images.pexels.com/videos/8543962/pictures/preview-14.jpeg"}]}, {"id": 7889638, "width": 2160, "height": 4096, "duration": 18, "full_res": null, "tags": [], "url": "https://www.pexels.com/video/purple-vegetables-on-table-surface-7889638/", "image": "https://images.pexels.com/videos/7889638/food-health-healthy-healthy-diet-7889638.jpeg?auto=compress&cs=tinysrgb&fit=crop&h=1200&w=630", "avg_color": null, "user": {"id": 30039676, "name": "MART  PRODUCTION", "url": "https://www.pexels.com/@mart-production"}, "video_files": [{"id": 10610043, "quality": "sd", "file_type": "video/mp4", "width": 226, "height": 426, "fps": 25.0, "link": "https://videos.pexels.com/video-files/7889638/7889638-sd_226_426_25fps.mp4", "size": 345002}, {"id": 10610087, "quality": "hd", "file_type": "video/mp4", "width": 1080, "height": 2048, "fps": 25.0, "link": "https://videos.pexels.com/video-files/7889638/7889638-hd_1080_2048_25fps.mp4", "size": 3605834}, {"id": 10610119, "quality": "uhd", "file_type": "video/mp4", "width": 1440, "height": 2732, "fps": 25.0, "link": "https://videos.pexels.com/video-files/7889638/7889638-uhd_1440_2732_25fps.mp4", "size": 6214275}, {"id": 10610138, "quality": "sd", "file_type": "video/mp4", "width": 506, "height": 960, "fps": 25.0, "link": "https://videos.pexels.com/video-files/7889638/7889638-sd_506_960_25fps.mp4", "size": 1050546}, {"id": 10610160, "quality": "uhd", "file_type": "video/mp4", "width": 2160, "height": 4096, "fps": 25.0, "link": "https://videos.pexels.com/video-files/7889638/7889638-uhd_2160_4096_25fps.mp4", "size": 16133571}, {"id": 10610179, "quality": "sd", "file_type": "video/mp4", "width": 338, "height": 640, "fps": 25.0, "link": "https://videos.pexels.com/video-files/7889638/7889638-sd_338_640_25fps.mp4", "size": 605805}, {"id": 10610201, "quality": "hd", "file_type": "video/mp4", "width": 720, "height": 1366, "fps": 25.0, "link": "https://videos.pexels.com/video-files/7889638/7889638-hd_720_1366_25fps.mp4", "size": 1719688}], "video_pictures": [{"id": 7226998, "nr": 0, "picture": "https://images.pexels.com/videos/7889638/pictures/preview-0.jpeg"}, {"id": 7227027, "nr": 1, "picture": "https://images.pexels.com/videos/7889638/pictures/preview-1.jpeg"}, {"id": 7227036, "nr": 2, "picture": "https://images.pexels.com/videos/7889638/pictures/preview-2.jpeg"}, {"id": 7227051, "nr": 3, "picture": "https://images.pexels.com/videos/7889638/pictures/preview-3.jpeg"}, {"id": 7227060, "nr": 4, "picture": "https://images.pexels.com/videos/7889638/pictures/preview-4.jpeg"}, {"id": 7227076, "nr": 5, "picture": "https://images.pexels.com/videos/7889638/pictures/preview-5.jpeg"}, {"id": 7227088, "nr": 6, "picture": "https://images.pexels.com/videos/7889638/pictures/preview-6.jpeg"}, {"id": 7227099, "nr": 7, "picture": "https://images.pexels.com/videos/7889638/pictures/preview-7.jpeg"}, {"id": 7227119, "nr": 8, "picture": "https://images.pexels.com/videos/7889638/pictures/preview-8.jpeg"}, {"id": 7227135, "nr": 9, "picture": "https://images.pexels.com/videos/7889638/pictures/preview-9.jpeg"}, {"id": 7227149, "nr": 10, "picture": "https://images.pexels.com/videos/7889638/pictures/preview-10.jpeg"}, {"id": 7227160, "nr": 11, "picture": "https://images.pexels.com/videos/7889638/pictures/preview-11.jpeg"}, {"id": 7227180, "nr": 12, "picture": "https://images.pexels.com/videos/7889638/pictures/preview-12.jpeg"}, {"id": 7227194, "nr": 13, "picture": "https://images.pexels.com/videos/7889638/pictures/preview-13.jpeg"}, {"id": 7227211, "nr": 14, "picture": "https://images.pexels.com/videos/7889638/pictures/preview-14.jpeg"}]}], "total_results": 8000, "next_page": "https://api.pexels.com/v1/videos/search/?orientation=portrait&page=2&per_page=8&query=vegetable+garden", "url": "https://api-server.pexels.com/search/videos/vegetable%20garden/"}, "timestamp": "2024-12-28T22:41:55.774439"}
