{"query": "24 hour growth spurt", "response": {"page": 1, "per_page": 8, "videos": [{"id": 8544299, "width": 1080, "height": 1920, "duration": 16, "full_res": null, "tags": [], "url": "https://www.pexels.com/video/video-of-a-clock-and-globe-8544299/", "image": "https://images.pexels.com/videos/8544299/adult-alarm-clock-arrow-ball-shaped-8544299.jpeg?auto=compress&cs=tinysrgb&fit=crop&h=1200&w=630", "avg_color": null, "user": {"id": 11437196, "name": "Mikhail Nilov", "url": "https://www.pexels.com/@mikhail-nilov"}, "video_files": [{"id": 10889337, "quality": "sd", "file_type": "video/mp4", "width": 360, "height": 640, "fps": 25.0, "link": "https://videos.pexels.com/video-files/8544299/8544299-sd_360_640_25fps.mp4", "size": 579509}, {"id": 10889395, "quality": "sd", "file_type": "video/mp4", "width": 540, "height": 960, "fps": 25.0, "link": "https://videos.pexels.com/video-files/8544299/8544299-sd_540_960_25fps.mp4", "size": 1099423}, {"id": 10889470, "quality": "sd", "file_type": "video/mp4", "width": 240, "height": 426, "fps": 25.0, "link": "https://videos.pexels.com/video-files/8544299/8544299-sd_240_426_25fps.mp4", "size": 296878}, {"id": 10889534, "quality": "hd", "file_type": "video/mp4", "width": 1080, "height": 1920, "fps": 25.0, "link": "https://videos.pexels.com/video-files/8544299/8544299-hd_1080_1920_25fps.mp4", "size": 5203872}, {"id": 10889601, "quality": "hd", "file_type": "video/mp4", "width": 720, "height": 1280, "fps": 25.0, "link": "https://videos.pexels.com/video-files/8544299/8544299-hd_720_1280_25fps.mp4", "size": 1703041}], "video_pictures": [{"id": 8476755, "nr": 0, "picture": "https://images.pexels.com/videos/8544299/pictures/preview-0.jpeg"}, {"id": 8476758, "nr": 1, "picture": "https://images.pexels.com/videos/8544299/pictures/preview-1.jpeg"}, {"id": 8476761, "nr": 2, "picture": "https://images.pexels.com/videos/8544299/pictures/preview-2.jpeg"}, {"id": 8476764, "nr": 3, "picture": "https://images.pexels.com/videos/8544299/pictures/preview-3.jpeg"}, {"id": 8476766, "nr": 4, "picture": "https://images.pexels.com/videos/8544299/pictures/preview-4.jpeg"}, {"id": 8476769, "nr": 5, "picture": "https://images.pexels.com/videos/8544299/pictures/preview-5.jpeg"}, {"id": 8476773, "nr": 6, "picture": "https://images.pexels.com/videos/8544299/pictures/preview-6.jpeg"}, {"id": 8476777, "nr": 7, "picture": "https://images.pexels.com/videos/8544299/pictures/preview-7.jpeg"}, {"id": 8476782, "nr": 8, "picture": "https://images.pexels.com/videos/8544299/pictures/preview-8.jpeg"}, {"id": 8476786, "nr": 9, "picture": "https://images.pexels.com/videos/8544299/pictures/preview-9.jpeg"}, {"id": 8476789, "nr": 10, "picture": "https://images.pexels.com/videos/8544299/pictures/preview-10.jpeg"}, {"id": 8476793, "nr": 11, "picture": "https://images.pexels.com/videos/8544299/pictures/preview-11.jpeg"}, {"id": 8476796, "nr": 12, "picture": "https://images.pexels.com/videos/8544299/pictures/preview-12.jpeg"}, {"id": 8476799, "nr": 13, "picture": "https://images.pexels.com/videos/8544299/pictures/preview-13.jpeg"}, {"id": 8476801, "nr": 14, "picture": "https://images.pexels.com/videos/8544299/pictures/preview-14.jpeg"}]}, {"id": 5076790, "width": 1080, "height": 1920, "duration": 9, "full_res": null, "tags": [], "url": "https://www.pexels.com/video/close-up-view-of-purple-flowers-5076790/", "image": "https://images.pexels.com/videos/5076790/pexels-photo-5076790.jpeg?auto=compress&cs=tinysrgb&fit=crop&h=1200&w=630", "avg_color": null, "user": {"id": 2921043, "name": "Anna Medvedeva", "url": "https://www.pexels.com/@anna-medvedeva-2921043"}, "video_files": [{"id": 9613042, "quality": "sd", "file_type": "video/mp4", "width": 360, "height": 640, "fps": 29.969999313354492, "link": "https://videos.pexels.com/video-files/5076790/5076790-sd_360_640_30fps.mp4", "size": 564173}, {"id": 9613225, "quality": "hd", "file_type": "video/mp4", "width": 1080, "height": 1920, "fps": 29.969999313354492, "link": "https://videos.pexels.com/video-files/5076790/5076790-hd_1080_1920_30fps.mp4", "size": 5577430}, {"id": 9613289, "quality": "sd", "file_type": "video/mp4", "width": 540, "height": 960, "fps": 29.969999313354492, "link": "https://videos.pexels.com/video-files/5076790/5076790-sd_540_960_30fps.mp4", "size": 1684799}, {"id": 9613378, "quality": "hd", "file_type": "video/mp4", "width": 720, "height": 1280, "fps": 29.969999313354492, "link": "https://videos.pexels.com/video-files/5076790/5076790-hd_720_1280_30fps.mp4", "size": 2785242}, {"id": 9613444, "quality": "sd", "file_type": "video/mp4", "width": 240, "height": 426, "fps": 29.969999313354492, "link": "https://videos.pexels.com/video-files/5076790/5076790-sd_240_426_30fps.mp4", "size": 345585}], "video_pictures": [{"id": 2322071, "nr": 0, "picture": "https://images.pexels.com/videos/5076790/pictures/preview-0.jpeg"}, {"id": 2322081, "nr": 1, "picture": "https://images.pexels.com/videos/5076790/pictures/preview-1.jpeg"}, {"id": 2322090, "nr": 2, "picture": "https://images.pexels.com/videos/5076790/pictures/preview-2.jpeg"}, {"id": 2322100, "nr": 3, "picture": "https://images.pexels.com/videos/5076790/pictures/preview-3.jpeg"}, {"id": 2322109, "nr": 4, "picture": "https://images.pexels.com/videos/5076790/pictures/preview-4.jpeg"}, {"id": 2322123, "nr": 5, "picture": "https://images.pexels.com/videos/5076790/pictures/preview-5.jpeg"}, {"id": 2322130, "nr": 6, "picture": "https://images.pexels.com/videos/5076790/pictures/preview-6.jpeg"}, {"id": 2322138, "nr": 7, "picture": "https://images.pexels.com/videos/5076790/pictures/preview-7.jpeg"}, {"id": 2322147, "nr": 8, "picture": "https://images.pexels.com/videos/5076790/pictures/preview-8.jpeg"}, {"id": 2322163, "nr": 9, "picture": "https://images.pexels.com/videos/5076790/pictures/preview-9.jpeg"}, {"id": 2322170, "nr": 10, "picture": "https://images.pexels.com/videos/5076790/pictures/preview-10.jpeg"}, {"id": 2322177, "nr": 11, "picture": "https://images.pexels.com/videos/5076790/pictures/preview-11.jpeg"}, {"id": 2322182, "nr": 12, "picture": "https://images.pexels.com/videos/5076790/pictures/preview-12.jpeg"}, {"id": 2322186, "nr": 13, "picture": "https://images.pexels.com/videos/5076790/pictures/preview-13.jpeg"}, {"id": 2322190, "nr": 14, "picture": "https://images.pexels.com/videos/5076790/pictures/preview-14.jpeg"}]}, {"id": 4816957, "width": 1080, "height": 1920, "duration": 8, "full_res": null, "tags": [], "url": "https://www.pexels.com/video/shallow-focus-of-red-poppy-flowers-4816957/", "image": "https://images.pexels.com/videos/4816957/blooming-flower-field-poppy-woman-4816957.jpeg?auto=compress&cs=tinysrgb&fit=crop&h=1200&w=630", "avg_color": null, "user": {"id": 2278756, "name": "Vlada Karpovich", "url": "https://www.pexels.com/@vlada-karpovich"}, "video_files": [{"id": 9405714, "quality": "hd", "file_type": "video/mp4", "width": 1080, "height": 1920, "fps": 25.0, "link": "https://videos.pexels.com/video-files/4816957/4816957-hd_1080_1920_25fps.mp4", "size": 5278551}, {"id": 9405753, "quality": "sd", "file_type": "video/mp4", "width": 360, "height": 640, "fps": 25.0, "link": "https://videos.pexels.com/video-files/4816957/4816957-sd_360_640_25fps.mp4", "size": 490726}, {"id": 9405824, "quality": "sd", "file_type": "video/mp4", "width": 540, "height": 960, "fps": 25.0, "link": "https://videos.pexels.com/video-files/4816957/4816957-sd_540_960_25fps.mp4", "size": 1538255}, {"id": 9405915, "quality": "hd", "file_type": "video/mp4", "width": 720, "height": 1280, "fps": 50.0, "link": "https://videos.pexels.com/video-files/4816957/4816957-hd_720_1280_50fps.mp4", "size": 2649153}, {"id": 9406002, "quality": "sd", "file_type": "video/mp4", "width": 240, "height": 426, "fps": 25.0, "link": "https://videos.pexels.com/video-files/4816957/4816957-sd_240_426_25fps.mp4", "size": 309732}], "video_pictures": [{"id": 1977626, "nr": 0, "picture": "https://images.pexels.com/videos/4816957/pictures/preview-0.jpeg"}, {"id": 1977634, "nr": 1, "picture": "https://images.pexels.com/videos/4816957/pictures/preview-1.jpeg"}, {"id": 1977637, "nr": 2, "picture": "https://images.pexels.com/videos/4816957/pictures/preview-2.jpeg"}, {"id": 1977640, "nr": 3, "picture": "https://images.pexels.com/videos/4816957/pictures/preview-3.jpeg"}, {"id": 1977643, "nr": 4, "picture": "https://images.pexels.com/videos/4816957/pictures/preview-4.jpeg"}, {"id": 1977647, "nr": 5, "picture": "https://images.pexels.com/videos/4816957/pictures/preview-5.jpeg"}, {"id": 1977651, "nr": 6, "picture": "https://images.pexels.com/videos/4816957/pictures/preview-6.jpeg"}, {"id": 1977654, "nr": 7, "picture": "https://images.pexels.com/videos/4816957/pictures/preview-7.jpeg"}, {"id": 1977657, "nr": 8, "picture": "https://images.pexels.com/videos/4816957/pictures/preview-8.jpeg"}, {"id": 1977658, "nr": 9, "picture": "https://images.pexels.com/videos/4816957/pictures/preview-9.jpeg"}, {"id": 1977659, "nr": 10, "picture": "https://images.pexels.com/videos/4816957/pictures/preview-10.jpeg"}, {"id": 1977660, "nr": 11, "picture": "https://images.pexels.com/videos/4816957/pictures/preview-11.jpeg"}, {"id": 1977661, "nr": 12, "picture": "https://images.pexels.com/videos/4816957/pictures/preview-12.jpeg"}, {"id": 1977662, "nr": 13, "picture": "https://images.pexels.com/videos/4816957/pictures/preview-13.jpeg"}, {"id": 1977664, "nr": 14, "picture": "https://images.pexels.com/videos/4816957/pictures/preview-14.jpeg"}]}, {"id": 4812201, "width": 1080, "height": 1920, "duration": 9, "full_res": null, "tags": [], "url": "https://www.pexels.com/video/girl-walking-in-wheat-field-4812201/", "image": "https://images.pexels.com/videos/4812201/pexels-photo-4812201.jpeg?auto=compress&cs=tinysrgb&fit=crop&h=1200&w=630", "avg_color": null, "user": {"id": 2297095, "name": "Pavel Danilyuk", "url": "https://www.pexels.com/@pavel-danilyuk"}, "video_files": [{"id": 9404354, "quality": "hd", "file_type": "video/mp4", "width": 1080, "height": 1920, "fps": 29.969999313354492, "link": "https://videos.pexels.com/video-files/4812201/4812201-hd_1080_1920_30fps.mp4", "size": 5328000}, {"id": 9404424, "quality": "sd", "file_type": "video/mp4", "width": 240, "height": 426, "fps": 29.969999313354492, "link": "https://videos.pexels.com/video-files/4812201/4812201-sd_240_426_30fps.mp4", "size": 323890}, {"id": 9404587, "quality": "sd", "file_type": "video/mp4", "width": 540, "height": 960, "fps": 29.969999313354492, "link": "https://videos.pexels.com/video-files/4812201/4812201-sd_540_960_30fps.mp4", "size": 1564088}, {"id": 9404685, "quality": "hd", "file_type": "video/mp4", "width": 720, "height": 1280, "fps": 29.969999313354492, "link": "https://videos.pexels.com/video-files/4812201/4812201-hd_720_1280_30fps.mp4", "size": 2659964}, {"id": 9404754, "quality": "sd", "file_type": "video/mp4", "width": 360, "height": 640, "fps": 29.969999313354492, "link": "https://videos.pexels.com/video-files/4812201/4812201-sd_360_640_30fps.mp4", "size": 516730}], "video_pictures": [{"id": 1958389, "nr": 0, "picture": "https://images.pexels.com/videos/4812201/pictures/preview-0.jpeg"}, {"id": 1958390, "nr": 1, "picture": "https://images.pexels.com/videos/4812201/pictures/preview-1.jpeg"}, {"id": 1958391, "nr": 2, "picture": "https://images.pexels.com/videos/4812201/pictures/preview-2.jpeg"}, {"id": 1958392, "nr": 3, "picture": "https://images.pexels.com/videos/4812201/pictures/preview-3.jpeg"}, {"id": 1958393, "nr": 4, "picture": "https://images.pexels.com/videos/4812201/pictures/preview-4.jpeg"}, {"id": 1958394, "nr": 5, "picture": "https://images.pexels.com/videos/4812201/pictures/preview-5.jpeg"}, {"id": 1958395, "nr": 6, "picture": "https://images.pexels.com/videos/4812201/pictures/preview-6.jpeg"}, {"id": 1958396, "nr": 7, "picture": "https://images.pexels.com/videos/4812201/pictures/preview-7.jpeg"}, {"id": 1958397, "nr": 8, "picture": "https://images.pexels.com/videos/4812201/pictures/preview-8.jpeg"}, {"id": 1958398, "nr": 9, "picture": "https://images.pexels.com/videos/4812201/pictures/preview-9.jpeg"}, {"id": 1958399, "nr": 10, "picture": "https://images.pexels.com/videos/4812201/pictures/preview-10.jpeg"}, {"id": 1958400, "nr": 11, "picture": "https://images.pexels.com/videos/4812201/pictures/preview-11.jpeg"}, {"id": 1958401, "nr": 12, "picture": "https://images.pexels.com/videos/4812201/pictures/preview-12.jpeg"}, {"id": 1958402, "nr": 13, "picture": "https://images.pexels.com/videos/4812201/pictures/preview-13.jpeg"}, {"id": 1958403, "nr": 14, "picture": "https://images.pexels.com/videos/4812201/pictures/preview-14.jpeg"}]}, {"id": 6813908, "width": 2363, "height": 4096, "duration": 12, "full_res": null, "tags": [], "url": "https://www.pexels.com/video/sunlight-through-leaves-6813908/", "image": "https://images.pexels.com/videos/6813908/pexels-photo-6813908.jpeg?auto=compress&cs=tinysrgb&fit=crop&h=1200&w=630", "avg_color": null, "user": {"id": 2678846, "name": "ROMAN ODINTSOV", "url": "https://www.pexels.com/@roman-odintsov"}, "video_files": [{"id": 10189349, "quality": "hd", "file_type": "video/mp4", "width": 1080, "height": 1872, "fps": 29.969999313354492, "link": "https://videos.pexels.com/video-files/6813908/6813908-hd_1080_1872_30fps.mp4", "size": 7929065}, {"id": 10189378, "quality": "hd", "file_type": "video/mp4", "width": 720, "height": 1248, "fps": 29.969999313354492, "link": "https://videos.pexels.com/video-files/6813908/6813908-hd_720_1248_30fps.mp4", "size": 4287025}, {"id": 10189424, "quality": "sd", "file_type": "video/mp4", "width": 360, "height": 624, "fps": 29.969999313354492, "link": "https://videos.pexels.com/video-files/6813908/6813908-sd_360_624_30fps.mp4", "size": 922114}, {"id": 10189468, "quality": "uhd", "file_type": "video/mp4", "width": 1440, "height": 2496, "fps": 29.969999313354492, "link": "https://videos.pexels.com/video-files/6813908/6813908-uhd_1440_2496_30fps.mp4", "size": 15915629}, {"id": 10189507, "quality": "uhd", "file_type": "video/mp4", "width": 2160, "height": 3744, "fps": 29.969999313354492, "link": "https://videos.pexels.com/video-files/6813908/6813908-uhd_2160_3744_30fps.mp4", "size": 29177481}, {"id": 10189585, "quality": "sd", "file_type": "video/mp4", "width": 540, "height": 936, "fps": 29.969999313354492, "link": "https://videos.pexels.com/video-files/6813908/6813908-sd_540_936_30fps.mp4", "size": 2373263}], "video_pictures": [{"id": 5170818, "nr": 0, "picture": "https://images.pexels.com/videos/6813908/pictures/preview-0.jpeg"}, {"id": 5170827, "nr": 1, "picture": "https://images.pexels.com/videos/6813908/pictures/preview-1.jpeg"}, {"id": 5170835, "nr": 2, "picture": "https://images.pexels.com/videos/6813908/pictures/preview-2.jpeg"}, {"id": 5170842, "nr": 3, "picture": "https://images.pexels.com/videos/6813908/pictures/preview-3.jpeg"}, {"id": 5170850, "nr": 4, "picture": "https://images.pexels.com/videos/6813908/pictures/preview-4.jpeg"}, {"id": 5170857, "nr": 5, "picture": "https://images.pexels.com/videos/6813908/pictures/preview-5.jpeg"}, {"id": 5170861, "nr": 6, "picture": "https://images.pexels.com/videos/6813908/pictures/preview-6.jpeg"}, {"id": 5170867, "nr": 7, "picture": "https://images.pexels.com/videos/6813908/pictures/preview-7.jpeg"}, {"id": 5170882, "nr": 8, "picture": "https://images.pexels.com/videos/6813908/pictures/preview-8.jpeg"}, {"id": 5170891, "nr": 9, "picture": "https://images.pexels.com/videos/6813908/pictures/preview-9.jpeg"}, {"id": 5170899, "nr": 10, "picture": "https://images.pexels.com/videos/6813908/pictures/preview-10.jpeg"}, {"id": 5170907, "nr": 11, "picture": "https://images.pexels.com/videos/6813908/pictures/preview-11.jpeg"}, {"id": 5170911, "nr": 12, "picture": "https://images.pexels.com/videos/6813908/pictures/preview-12.jpeg"}, {"id": 5170917, "nr": 13, "picture": "https://images.pexels.com/videos/6813908/pictures/preview-13.jpeg"}, {"id": 5170920, "nr": 14, "picture": "https://images.pexels.com/videos/6813908/pictures/preview-14.jpeg"}]}, {"id": 5129086, "width": 2160, "height": 4096, "duration": 23, "full_res": null, "tags": [], "url": "https://www.pexels.com/video/girl-holding-a-basket-of-lavender-flowers-5129086/", "image": "https://images.pexels.com/videos/5129086/child-childhood-cling-dog-5129086.jpeg?auto=compress&cs=tinysrgb&fit=crop&h=1200&w=630", "avg_color": null, "user": {"id": 2441340, "name": "Anastasia  Shuraeva", "url": "https://www.pexels.com/@anastasia-shuraeva"}, "video_files": [{"id": 9629726, "quality": "sd", "file_type": "video/mp4", "width": 226, "height": 426, "fps": 24.0, "link": "https://videos.pexels.com/video-files/5129086/5129086-sd_226_426_24fps.mp4", "size": 868432}, {"id": 9629745, "quality": "uhd", "file_type": "video/mp4", "width": 1440, "height": 2732, "fps": 24.0, "link": "https://videos.pexels.com/video-files/5129086/5129086-uhd_1440_2732_24fps.mp4", "size": 33401518}, {"id": 9629761, "quality": "sd", "file_type": "video/mp4", "width": 338, "height": 640, "fps": 24.0, "link": "https://videos.pexels.com/video-files/5129086/5129086-sd_338_640_24fps.mp4", "size": 1379863}, {"id": 9629778, "quality": "hd", "file_type": "video/mp4", "width": 720, "height": 1366, "fps": 24.0, "link": "https://videos.pexels.com/video-files/5129086/5129086-hd_720_1366_24fps.mp4", "size": 7738081}, {"id": 9629793, "quality": "sd", "file_type": "video/mp4", "width": 506, "height": 960, "fps": 24.0, "link": "https://videos.pexels.com/video-files/5129086/5129086-sd_506_960_24fps.mp4", "size": 4051412}, {"id": 9629813, "quality": "uhd", "file_type": "video/mp4", "width": 2160, "height": 4096, "fps": 24.0, "link": "https://videos.pexels.com/video-files/5129086/5129086-uhd_2160_4096_24fps.mp4", "size": 67001371}, {"id": 9629829, "quality": "hd", "file_type": "video/mp4", "width": 1080, "height": 2048, "fps": 24.0, "link": "https://videos.pexels.com/video-files/5129086/5129086-hd_1080_2048_24fps.mp4", "size": 15127922}], "video_pictures": [{"id": 2403722, "nr": 0, "picture": "https://images.pexels.com/videos/5129086/pictures/preview-0.jpeg"}, {"id": 2403725, "nr": 1, "picture": "https://images.pexels.com/videos/5129086/pictures/preview-1.jpeg"}, {"id": 2403731, "nr": 2, "picture": "https://images.pexels.com/videos/5129086/pictures/preview-2.jpeg"}, {"id": 2403735, "nr": 3, "picture": "https://images.pexels.com/videos/5129086/pictures/preview-3.jpeg"}, {"id": 2403738, "nr": 4, "picture": "https://images.pexels.com/videos/5129086/pictures/preview-4.jpeg"}, {"id": 2403742, "nr": 5, "picture": "https://images.pexels.com/videos/5129086/pictures/preview-5.jpeg"}, {"id": 2403746, "nr": 6, "picture": "https://images.pexels.com/videos/5129086/pictures/preview-6.jpeg"}, {"id": 2403751, "nr": 7, "picture": "https://images.pexels.com/videos/5129086/pictures/preview-7.jpeg"}, {"id": 2403755, "nr": 8, "picture": "https://images.pexels.com/videos/5129086/pictures/preview-8.jpeg"}, {"id": 2403759, "nr": 9, "picture": "https://images.pexels.com/videos/5129086/pictures/preview-9.jpeg"}, {"id": 2403762, "nr": 10, "picture": "https://images.pexels.com/videos/5129086/pictures/preview-10.jpeg"}, {"id": 2403766, "nr": 11, "picture": "https://images.pexels.com/videos/5129086/pictures/preview-11.jpeg"}, {"id": 2403769, "nr": 12, "picture": "https://images.pexels.com/videos/5129086/pictures/preview-12.jpeg"}, {"id": 2403772, "nr": 13, "picture": "https://images.pexels.com/videos/5129086/pictures/preview-13.jpeg"}, {"id": 2403774, "nr": 14, "picture": "https://images.pexels.com/videos/5129086/pictures/preview-14.jpeg"}]}, {"id": 8544271, "width": 1080, "height": 1920, "duration": 14, "full_res": null, "tags": [], "url": "https://www.pexels.com/video/video-of-a-clock-and-plants-8544271/", "image": "https://images.pexels.com/videos/8544271/abstract-agriculture-alarm-clock-analogue-8544271.jpeg?auto=compress&cs=tinysrgb&fit=crop&h=1200&w=630", "avg_color": null, "user": {"id": 11437196, "name": "Mikhail Nilov", "url": "https://www.pexels.com/@mikhail-nilov"}, "video_files": [{"id": 10888389, "quality": "sd", "file_type": "video/mp4", "width": 540, "height": 960, "fps": 25.0, "link": "https://videos.pexels.com/video-files/8544271/8544271-sd_540_960_25fps.mp4", "size": 1770696}, {"id": 10888408, "quality": "sd", "file_type": "video/mp4", "width": 360, "height": 640, "fps": 25.0, "link": "https://videos.pexels.com/video-files/8544271/8544271-sd_360_640_25fps.mp4", "size": 788640}, {"id": 10888494, "quality": "sd", "file_type": "video/mp4", "width": 240, "height": 426, "fps": 25.0, "link": "https://videos.pexels.com/video-files/8544271/8544271-sd_240_426_25fps.mp4", "size": 515040}, {"id": 10888530, "quality": "hd", "file_type": "video/mp4", "width": 1080, "height": 1920, "fps": 25.0, "link": "https://videos.pexels.com/video-files/8544271/8544271-hd_1080_1920_25fps.mp4", "size": 6773323}, {"id": 10888627, "quality": "hd", "file_type": "video/mp4", "width": 720, "height": 1280, "fps": 25.0, "link": "https://videos.pexels.com/video-files/8544271/8544271-hd_720_1280_25fps.mp4", "size": 3222338}], "video_pictures": [{"id": 8476745, "nr": 0, "picture": "https://images.pexels.com/videos/8544271/pictures/preview-0.jpeg"}, {"id": 8476746, "nr": 1, "picture": "https://images.pexels.com/videos/8544271/pictures/preview-1.jpeg"}, {"id": 8476748, "nr": 2, "picture": "https://images.pexels.com/videos/8544271/pictures/preview-2.jpeg"}, {"id": 8476750, "nr": 3, "picture": "https://images.pexels.com/videos/8544271/pictures/preview-3.jpeg"}, {"id": 8476752, "nr": 4, "picture": "https://images.pexels.com/videos/8544271/pictures/preview-4.jpeg"}, {"id": 8476754, "nr": 5, "picture": "https://images.pexels.com/videos/8544271/pictures/preview-5.jpeg"}, {"id": 8476757, "nr": 6, "picture": "https://images.pexels.com/videos/8544271/pictures/preview-6.jpeg"}, {"id": 8476759, "nr": 7, "picture": "https://images.pexels.com/videos/8544271/pictures/preview-7.jpeg"}, {"id": 8476762, "nr": 8, "picture": "https://images.pexels.com/videos/8544271/pictures/preview-8.jpeg"}, {"id": 8476765, "nr": 9, "picture": "https://images.pexels.com/videos/8544271/pictures/preview-9.jpeg"}, {"id": 8476768, "nr": 10, "picture": "https://images.pexels.com/videos/8544271/pictures/preview-10.jpeg"}, {"id": 8476771, "nr": 11, "picture": "https://images.pexels.com/videos/8544271/pictures/preview-11.jpeg"}, {"id": 8476774, "nr": 12, "picture": "https://images.pexels.com/videos/8544271/pictures/preview-12.jpeg"}, {"id": 8476779, "nr": 13, "picture": "https://images.pexels.com/videos/8544271/pictures/preview-13.jpeg"}, {"id": 8476783, "nr": 14, "picture": "https://images.pexels.com/videos/8544271/pictures/preview-14.jpeg"}]}, {"id": 6813967, "width": 2363, "height": 4096, "duration": 15, "full_res": null, "tags": [], "url": "https://www.pexels.com/video/flowers-and-leaves-of-a-tree-swaying-in-the-wind-6813967/", "image": "https://images.pexels.com/videos/6813967/pexels-photo-6813967.jpeg?auto=compress&cs=tinysrgb&fit=crop&h=1200&w=630", "avg_color": null, "user": {"id": 2678846, "name": "ROMAN ODINTSOV", "url": "https://www.pexels.com/@roman-odintsov"}, "video_files": [{"id": 10191042, "quality": "sd", "file_type": "video/mp4", "width": 540, "height": 936, "fps": 29.969999313354492, "link": "https://videos.pexels.com/video-files/6813967/6813967-sd_540_936_30fps.mp4", "size": 2981145}, {"id": 10191283, "quality": "sd", "file_type": "video/mp4", "width": 360, "height": 624, "fps": 29.969999313354492, "link": "https://videos.pexels.com/video-files/6813967/6813967-sd_360_624_30fps.mp4", "size": 1149236}, {"id": 10191510, "quality": "uhd", "file_type": "video/mp4", "width": 2160, "height": 3744, "fps": 29.969999313354492, "link": "https://videos.pexels.com/video-files/6813967/6813967-uhd_2160_3744_30fps.mp4", "size": 30965516}, {"id": 10191803, "quality": "hd", "file_type": "video/mp4", "width": 1080, "height": 1872, "fps": 29.969999313354492, "link": "https://videos.pexels.com/video-files/6813967/6813967-hd_1080_1872_30fps.mp4", "size": 9655293}, {"id": 10191983, "quality": "hd", "file_type": "video/mp4", "width": 720, "height": 1248, "fps": 29.969999313354492, "link": "https://videos.pexels.com/video-files/6813967/6813967-hd_720_1248_30fps.mp4", "size": 5365546}, {"id": 10192305, "quality": "uhd", "file_type": "video/mp4", "width": 1440, "height": 2496, "fps": 29.969999313354492, "link": "https://videos.pexels.com/video-files/6813967/6813967-uhd_1440_2496_30fps.mp4", "size": 17211852}], "video_pictures": [{"id": 5171149, "nr": 0, "picture": "https://images.pexels.com/videos/6813967/pictures/preview-0.jpeg"}, {"id": 5171152, "nr": 1, "picture": "https://images.pexels.com/videos/6813967/pictures/preview-1.jpeg"}, {"id": 5171156, "nr": 2, "picture": "https://images.pexels.com/videos/6813967/pictures/preview-2.jpeg"}, {"id": 5171161, "nr": 3, "picture": "https://images.pexels.com/videos/6813967/pictures/preview-3.jpeg"}, {"id": 5171164, "nr": 4, "picture": "https://images.pexels.com/videos/6813967/pictures/preview-4.jpeg"}, {"id": 5171170, "nr": 5, "picture": "https://images.pexels.com/videos/6813967/pictures/preview-5.jpeg"}, {"id": 5171176, "nr": 6, "picture": "https://images.pexels.com/videos/6813967/pictures/preview-6.jpeg"}, {"id": 5171182, "nr": 7, "picture": "https://images.pexels.com/videos/6813967/pictures/preview-7.jpeg"}, {"id": 5171186, "nr": 8, "picture": "https://images.pexels.com/videos/6813967/pictures/preview-8.jpeg"}, {"id": 5171192, "nr": 9, "picture": "https://images.pexels.com/videos/6813967/pictures/preview-9.jpeg"}, {"id": 5171197, "nr": 10, "picture": "https://images.pexels.com/videos/6813967/pictures/preview-10.jpeg"}, {"id": 5171202, "nr": 11, "picture": "https://images.pexels.com/videos/6813967/pictures/preview-11.jpeg"}, {"id": 5171208, "nr": 12, "picture": "https://images.pexels.com/videos/6813967/pictures/preview-12.jpeg"}, {"id": 5171212, "nr": 13, "picture": "https://images.pexels.com/videos/6813967/pictures/preview-13.jpeg"}, {"id": 5171215, "nr": 14, "picture": "https://images.pexels.com/videos/6813967/pictures/preview-14.jpeg"}]}], "total_results": 6938, "next_page": "https://api.pexels.com/v1/videos/search/?orientation=portrait&page=2&per_page=8&query=24+hour+growth+spurt", "url": "https://api-server.pexels.com/search/videos/24%20hour%20growth%20spurt/"}, "timestamp": "2024-12-28T22:18:13.291680"}
