{"query": "garden tips", "response": {"page": 1, "per_page": 8, "videos": [{"id": 6204977, "width": 2160, "height": 3840, "duration": 15, "full_res": null, "tags": [], "url": "https://www.pexels.com/video/a-woman-watering-plants-6204977/", "image": "https://images.pexels.com/videos/6204977/pexels-photo-6204977.jpeg?auto=compress&cs=tinysrgb&fit=crop&h=1200&w=630", "avg_color": null, "user": {"id": 6928007, "name": "Tim Douglas", "url": "https://www.pexels.com/@tim-douglas"}, "video_files": [{"id": 9958548, "quality": "uhd", "file_type": "video/mp4", "width": 1440, "height": 2560, "fps": 24.0, "link": "https://videos.pexels.com/video-files/6204977/6204977-uhd_1440_2560_24fps.mp4", "size": 9706282}, {"id": 9958569, "quality": "hd", "file_type": "video/mp4", "width": 1080, "height": 1920, "fps": 24.0, "link": "https://videos.pexels.com/video-files/6204977/6204977-hd_1080_1920_24fps.mp4", "size": 5923049}, {"id": 9958652, "quality": "sd", "file_type": "video/mp4", "width": 360, "height": 640, "fps": 24.0, "link": "https://videos.pexels.com/video-files/6204977/6204977-sd_360_640_24fps.mp4", "size": 726140}, {"id": 9958726, "quality": "uhd", "file_type": "video/mp4", "width": 2160, "height": 3840, "fps": 24.0, "link": "https://videos.pexels.com/video-files/6204977/6204977-uhd_2160_3840_24fps.mp4", "size": 20103400}, {"id": 9958820, "quality": "hd", "file_type": "video/mp4", "width": 720, "height": 1280, "fps": 24.0, "link": "https://videos.pexels.com/video-files/6204977/6204977-hd_720_1280_24fps.mp4", "size": 2914552}, {"id": 9958942, "quality": "sd", "file_type": "video/mp4", "width": 540, "height": 960, "fps": 24.0, "link": "https://videos.pexels.com/video-files/6204977/6204977-sd_540_960_24fps.mp4", "size": 1635150}, {"id": 9959022, "quality": "sd", "file_type": "video/mp4", "width": 240, "height": 426, "fps": 24.0, "link": "https://videos.pexels.com/video-files/6204977/6204977-sd_240_426_24fps.mp4", "size": 411980}], "video_pictures": [{"id": 4073520, "nr": 0, "picture": "https://images.pexels.com/videos/6204977/pictures/preview-0.jpeg"}, {"id": 4073522, "nr": 1, "picture": "https://images.pexels.com/videos/6204977/pictures/preview-1.jpeg"}, {"id": 4073525, "nr": 2, "picture": "https://images.pexels.com/videos/6204977/pictures/preview-2.jpeg"}, {"id": 4073528, "nr": 3, "picture": "https://images.pexels.com/videos/6204977/pictures/preview-3.jpeg"}, {"id": 4073531, "nr": 4, "picture": "https://images.pexels.com/videos/6204977/pictures/preview-4.jpeg"}, {"id": 4073534, "nr": 5, "picture": "https://images.pexels.com/videos/6204977/pictures/preview-5.jpeg"}, {"id": 4073538, "nr": 6, "picture": "https://images.pexels.com/videos/6204977/pictures/preview-6.jpeg"}, {"id": 4073542, "nr": 7, "picture": "https://images.pexels.com/videos/6204977/pictures/preview-7.jpeg"}, {"id": 4073545, "nr": 8, "picture": "https://images.pexels.com/videos/6204977/pictures/preview-8.jpeg"}, {"id": 4073547, "nr": 9, "picture": "https://images.pexels.com/videos/6204977/pictures/preview-9.jpeg"}, {"id": 4073550, "nr": 10, "picture": "https://images.pexels.com/videos/6204977/pictures/preview-10.jpeg"}, {"id": 4073553, "nr": 11, "picture": "https://images.pexels.com/videos/6204977/pictures/preview-11.jpeg"}, {"id": 4073554, "nr": 12, "picture": "https://images.pexels.com/videos/6204977/pictures/preview-12.jpeg"}, {"id": 4073556, "nr": 13, "picture": "https://images.pexels.com/videos/6204977/pictures/preview-13.jpeg"}, {"id": 4073558, "nr": 14, "picture": "https://images.pexels.com/videos/6204977/pictures/preview-14.jpeg"}]}, {"id": 6509251, "width": 2160, "height": 3840, "duration": 23, "full_res": null, "tags": [], "url": "https://www.pexels.com/video/panning-shot-of-plants-on-the-greenhouse-6509251/", "image": "https://images.pexels.com/videos/6509251/pexels-photo-6509251.jpeg?auto=compress&cs=tinysrgb&fit=crop&h=1200&w=630", "avg_color": null, "user": {"id": 3088726, "name": "Tima Miroshnichenko", "url": "https://www.pexels.com/@tima-miroshnichenko"}, "video_files": [{"id": 10060784, "quality": "hd", "file_type": "video/mp4", "width": 1080, "height": 1920, "fps": 24.0, "link": "https://videos.pexels.com/video-files/6509251/6509251-hd_1080_1920_24fps.mp4", "size": 7963741}, {"id": 10060829, "quality": "uhd", "file_type": "video/mp4", "width": 2160, "height": 3840, "fps": 24.0, "link": "https://videos.pexels.com/video-files/6509251/6509251-uhd_2160_3840_24fps.mp4", "size": 26788470}, {"id": 10060936, "quality": "hd", "file_type": "video/mp4", "width": 720, "height": 1280, "fps": 24.0, "link": "https://videos.pexels.com/video-files/6509251/6509251-hd_720_1280_24fps.mp4", "size": 3923537}, {"id": 10061089, "quality": "uhd", "file_type": "video/mp4", "width": 1440, "height": 2560, "fps": 24.0, "link": "https://videos.pexels.com/video-files/6509251/6509251-uhd_1440_2560_24fps.mp4", "size": 12420758}, {"id": 10061177, "quality": "sd", "file_type": "video/mp4", "width": 360, "height": 640, "fps": 24.0, "link": "https://videos.pexels.com/video-files/6509251/6509251-sd_360_640_24fps.mp4", "size": 1136747}, {"id": 10061336, "quality": "sd", "file_type": "video/mp4", "width": 240, "height": 426, "fps": 24.0, "link": "https://videos.pexels.com/video-files/6509251/6509251-sd_240_426_24fps.mp4", "size": 628815}, {"id": 10061474, "quality": "sd", "file_type": "video/mp4", "width": 540, "height": 960, "fps": 24.0, "link": "https://videos.pexels.com/video-files/6509251/6509251-sd_540_960_24fps.mp4", "size": 2386423}], "video_pictures": [{"id": 4551588, "nr": 0, "picture": "https://images.pexels.com/videos/6509251/pictures/preview-0.jpeg"}, {"id": 4551591, "nr": 1, "picture": "https://images.pexels.com/videos/6509251/pictures/preview-1.jpeg"}, {"id": 4551594, "nr": 2, "picture": "https://images.pexels.com/videos/6509251/pictures/preview-2.jpeg"}, {"id": 4551597, "nr": 3, "picture": "https://images.pexels.com/videos/6509251/pictures/preview-3.jpeg"}, {"id": 4551600, "nr": 4, "picture": "https://images.pexels.com/videos/6509251/pictures/preview-4.jpeg"}, {"id": 4551603, "nr": 5, "picture": "https://images.pexels.com/videos/6509251/pictures/preview-5.jpeg"}, {"id": 4551605, "nr": 6, "picture": "https://images.pexels.com/videos/6509251/pictures/preview-6.jpeg"}, {"id": 4551609, "nr": 7, "picture": "https://images.pexels.com/videos/6509251/pictures/preview-7.jpeg"}, {"id": 4551613, "nr": 8, "picture": "https://images.pexels.com/videos/6509251/pictures/preview-8.jpeg"}, {"id": 4551616, "nr": 9, "picture": "https://images.pexels.com/videos/6509251/pictures/preview-9.jpeg"}, {"id": 4551619, "nr": 10, "picture": "https://images.pexels.com/videos/6509251/pictures/preview-10.jpeg"}, {"id": 4551623, "nr": 11, "picture": "https://images.pexels.com/videos/6509251/pictures/preview-11.jpeg"}, {"id": 4551627, "nr": 12, "picture": "https://images.pexels.com/videos/6509251/pictures/preview-12.jpeg"}, {"id": 4551631, "nr": 13, "picture": "https://images.pexels.com/videos/6509251/pictures/preview-13.jpeg"}, {"id": 4551638, "nr": 14, "picture": "https://images.pexels.com/videos/6509251/pictures/preview-14.jpeg"}]}, {"id": 7713883, "width": 2160, "height": 3840, "duration": 10, "full_res": null, "tags": [], "url": "https://www.pexels.com/video/an-elderly-man-using-a-trowel-7713883/", "image": "https://images.pexels.com/videos/7713883/pexels-photo-7713883.jpeg?auto=compress&cs=tinysrgb&fit=crop&h=1200&w=630", "avg_color": null, "user": {"id": 48519361, "name": "Greta Hoffman", "url": "https://www.pexels.com/@greta-hoffman"}, "video_files": [{"id": 10558630, "quality": "uhd", "file_type": "video/mp4", "width": 2160, "height": 3840, "fps": 23.97599983215332, "link": "https://videos.pexels.com/video-files/7713883/uhd_24fps.mp4", "size": 31275914}, {"id": 10558673, "quality": "hd", "file_type": "video/mp4", "width": 720, "height": 1280, "fps": 23.97599983215332, "link": "https://videos.pexels.com/video-files/7713883/7713883-hd_720_1280_24fps.mp4", "size": 3561775}, {"id": 10558735, "quality": "sd", "file_type": "video/mp4", "width": 240, "height": 426, "fps": 23.97599983215332, "link": "https://videos.pexels.com/video-files/7713883/7713883-sd_240_426_24fps.mp4", "size": 428748}, {"id": 10558786, "quality": "sd", "file_type": "video/mp4", "width": 540, "height": 960, "fps": 23.97599983215332, "link": "https://videos.pexels.com/video-files/7713883/7713883-sd_540_960_24fps.mp4", "size": 1848591}, {"id": 10558825, "quality": "hd", "file_type": "video/mp4", "width": 1080, "height": 1920, "fps": 23.97599983215332, "link": "https://videos.pexels.com/video-files/7713883/7713883-hd_1080_1920_24fps.mp4", "size": 6961416}, {"id": 10558861, "quality": "sd", "file_type": "video/mp4", "width": 360, "height": 640, "fps": 23.97599983215332, "link": "https://videos.pexels.com/video-files/7713883/7713883-sd_360_640_24fps.mp4", "size": 645193}, {"id": 10558887, "quality": "uhd", "file_type": "video/mp4", "width": 1440, "height": 2560, "fps": 23.97599983215332, "link": "https://videos.pexels.com/video-files/7713883/uhd_24fps.mp4", "size": 17035766}], "video_pictures": [{"id": 6955344, "nr": 0, "picture": "https://images.pexels.com/videos/7713883/pictures/preview-0.jpeg"}, {"id": 6955353, "nr": 1, "picture": "https://images.pexels.com/videos/7713883/pictures/preview-1.jpeg"}, {"id": 6955363, "nr": 2, "picture": "https://images.pexels.com/videos/7713883/pictures/preview-2.jpeg"}, {"id": 6955374, "nr": 3, "picture": "https://images.pexels.com/videos/7713883/pictures/preview-3.jpeg"}, {"id": 6955389, "nr": 4, "picture": "https://images.pexels.com/videos/7713883/pictures/preview-4.jpeg"}, {"id": 6955409, "nr": 5, "picture": "https://images.pexels.com/videos/7713883/pictures/preview-5.jpeg"}, {"id": 6955423, "nr": 6, "picture": "https://images.pexels.com/videos/7713883/pictures/preview-6.jpeg"}, {"id": 6955435, "nr": 7, "picture": "https://images.pexels.com/videos/7713883/pictures/preview-7.jpeg"}, {"id": 6955452, "nr": 8, "picture": "https://images.pexels.com/videos/7713883/pictures/preview-8.jpeg"}, {"id": 6955465, "nr": 9, "picture": "https://images.pexels.com/videos/7713883/pictures/preview-9.jpeg"}, {"id": 6955480, "nr": 10, "picture": "https://images.pexels.com/videos/7713883/pictures/preview-10.jpeg"}, {"id": 6955491, "nr": 11, "picture": "https://images.pexels.com/videos/7713883/pictures/preview-11.jpeg"}, {"id": 6955503, "nr": 12, "picture": "https://images.pexels.com/videos/7713883/pictures/preview-12.jpeg"}, {"id": 6955515, "nr": 13, "picture": "https://images.pexels.com/videos/7713883/pictures/preview-13.jpeg"}, {"id": 6955525, "nr": 14, "picture": "https://images.pexels.com/videos/7713883/pictures/preview-14.jpeg"}]}, {"id": 29958254, "width": 1080, "height": 1920, "duration": 16, "full_res": null, "tags": [], "url": "https://www.pexels.com/video/two-cats-relaxing-by-a-tranquil-pool-29958254/", "image": "https://images.pexels.com/videos/29958254/biskuviler-su-iciyor-29958254.jpeg?auto=compress&cs=tinysrgb&fit=crop&h=1200&w=630", "avg_color": null, "user": {"id": 85164826, "name": "K\u00fcbra \u015eahin", "url": "https://www.pexels.com/@kubiko"}, "video_files": [{"id": 12856269, "quality": null, "file_type": "video/mp4", "width": 360, "height": 640, "fps": 29.969999313354492, "link": "https://videos.pexels.com/video-files/29958254/12856269_360_640_30fps.mp4", "size": 5871164}, {"id": 12856271, "quality": null, "file_type": "video/mp4", "width": 540, "height": 960, "fps": 29.969999313354492, "link": "https://videos.pexels.com/video-files/29958254/12856271_540_960_30fps.mp4", "size": 11189362}, {"id": 12856273, "quality": null, "file_type": "video/mp4", "width": 720, "height": 1280, "fps": 29.969999313354492, "link": "https://videos.pexels.com/video-files/29958254/12856273_720_1280_30fps.mp4", "size": 17556266}, {"id": 12856275, "quality": null, "file_type": "video/mp4", "width": 1080, "height": 1920, "fps": 29.969999313354492, "link": "https://videos.pexels.com/video-files/29958254/12856275_1080_1920_30fps.mp4", "size": 30474255}], "video_pictures": [{"id": 24318163, "nr": 0, "picture": "https://images.pexels.com/videos/29958254/pictures/preview-0.jpg"}, {"id": 24318164, "nr": 1, "picture": "https://images.pexels.com/videos/29958254/pictures/preview-1.jpg"}, {"id": 24318165, "nr": 2, "picture": "https://images.pexels.com/videos/29958254/pictures/preview-2.jpg"}, {"id": 24318166, "nr": 3, "picture": "https://images.pexels.com/videos/29958254/pictures/preview-3.jpg"}, {"id": 24318167, "nr": 4, "picture": "https://images.pexels.com/videos/29958254/pictures/preview-4.jpg"}, {"id": 24318168, "nr": 5, "picture": "https://images.pexels.com/videos/29958254/pictures/preview-5.jpg"}, {"id": 24318169, "nr": 6, "picture": "https://images.pexels.com/videos/29958254/pictures/preview-6.jpg"}, {"id": 24318170, "nr": 7, "picture": "https://images.pexels.com/videos/29958254/pictures/preview-7.jpg"}, {"id": 24318171, "nr": 8, "picture": "https://images.pexels.com/videos/29958254/pictures/preview-8.jpg"}, {"id": 24318172, "nr": 9, "picture": "https://images.pexels.com/videos/29958254/pictures/preview-9.jpg"}, {"id": 24318173, "nr": 10, "picture": "https://images.pexels.com/videos/29958254/pictures/preview-10.jpg"}, {"id": 24318174, "nr": 11, "picture": "https://images.pexels.com/videos/29958254/pictures/preview-11.jpg"}, {"id": 24318175, "nr": 12, "picture": "https://images.pexels.com/videos/29958254/pictures/preview-12.jpg"}, {"id": 24318176, "nr": 13, "picture": "https://images.pexels.com/videos/29958254/pictures/preview-13.jpg"}, {"id": 24318177, "nr": 14, "picture": "https://images.pexels.com/videos/29958254/pictures/preview-14.jpg"}]}, {"id": 29911827, "width": 2160, "height": 3840, "duration": 14, "full_res": null, "tags": [], "url": "https://www.pexels.com/video/scenic-aerial-view-of-lush-green-landscape-29911827/", "image": "https://images.pexels.com/videos/29911827/pexels-photo-29911827.jpeg?auto=compress&cs=tinysrgb&fit=crop&h=1200&w=630", "avg_color": null, "user": {"id": 748453803, "name": "Alexander Mass", "url": "https://www.pexels.com/@alexander-mass-748453803"}, "video_files": [{"id": 12839024, "quality": null, "file_type": "video/mp4", "width": 360, "height": 640, "fps": 30.0, "link": "https://videos.pexels.com/video-files/29911827/12839024_360_640_30fps.mp4", "size": 3820376}, {"id": 12839025, "quality": null, "file_type": "video/mp4", "width": 540, "height": 960, "fps": 30.0, "link": "https://videos.pexels.com/video-files/29911827/12839025_540_960_30fps.mp4", "size": 8579464}, {"id": 12839026, "quality": null, "file_type": "video/mp4", "width": 720, "height": 1280, "fps": 30.0, "link": "https://videos.pexels.com/video-files/29911827/12839026_720_1280_30fps.mp4", "size": 14201855}, {"id": 12839027, "quality": null, "file_type": "video/mp4", "width": 1080, "height": 1920, "fps": 30.0, "link": "https://videos.pexels.com/video-files/29911827/12839027_1080_1920_30fps.mp4", "size": 28879477}, {"id": 12839028, "quality": null, "file_type": "video/mp4", "width": 1440, "height": 2560, "fps": 30.0, "link": "https://videos.pexels.com/video-files/29911827/12839028_1440_2560_30fps.mp4", "size": 47548964}, {"id": 12839029, "quality": null, "file_type": "video/mp4", "width": 2160, "height": 3840, "fps": 30.0, "link": "https://videos.pexels.com/video-files/29911827/12839029_2160_3840_30fps.mp4", "size": 92180011}], "video_pictures": [{"id": 24275511, "nr": 0, "picture": "https://images.pexels.com/videos/29911827/pictures/preview-0.jpg"}, {"id": 24275512, "nr": 1, "picture": "https://images.pexels.com/videos/29911827/pictures/preview-1.jpg"}, {"id": 24275513, "nr": 2, "picture": "https://images.pexels.com/videos/29911827/pictures/preview-2.jpg"}, {"id": 24275514, "nr": 3, "picture": "https://images.pexels.com/videos/29911827/pictures/preview-3.jpg"}, {"id": 24275515, "nr": 4, "picture": "https://images.pexels.com/videos/29911827/pictures/preview-4.jpg"}, {"id": 24275516, "nr": 5, "picture": "https://images.pexels.com/videos/29911827/pictures/preview-5.jpg"}, {"id": 24275517, "nr": 6, "picture": "https://images.pexels.com/videos/29911827/pictures/preview-6.jpg"}, {"id": 24275518, "nr": 7, "picture": "https://images.pexels.com/videos/29911827/pictures/preview-7.jpg"}, {"id": 24275519, "nr": 8, "picture": "https://images.pexels.com/videos/29911827/pictures/preview-8.jpg"}, {"id": 24275520, "nr": 9, "picture": "https://images.pexels.com/videos/29911827/pictures/preview-9.jpg"}, {"id": 24275521, "nr": 10, "picture": "https://images.pexels.com/videos/29911827/pictures/preview-10.jpg"}, {"id": 24275522, "nr": 11, "picture": "https://images.pexels.com/videos/29911827/pictures/preview-11.jpg"}, {"id": 24275523, "nr": 12, "picture": "https://images.pexels.com/videos/29911827/pictures/preview-12.jpg"}]}, {"id": 29911824, "width": 2160, "height": 3840, "duration": 17, "full_res": null, "tags": [], "url": "https://www.pexels.com/video/aerial-view-of-serene-lakeside-garden-29911824/", "image": "https://images.pexels.com/videos/29911824/pexels-photo-29911824.jpeg?auto=compress&cs=tinysrgb&fit=crop&h=1200&w=630", "avg_color": null, "user": {"id": 748453803, "name": "Alexander Mass", "url": "https://www.pexels.com/@alexander-mass-748453803"}, "video_files": [{"id": 12839018, "quality": null, "file_type": "video/mp4", "width": 360, "height": 640, "fps": 30.0, "link": "https://videos.pexels.com/video-files/29911824/12839018_360_640_30fps.mp4", "size": 4358879}, {"id": 12839019, "quality": null, "file_type": "video/mp4", "width": 540, "height": 960, "fps": 30.0, "link": "https://videos.pexels.com/video-files/29911824/12839019_540_960_30fps.mp4", "size": 10091863}, {"id": 12839020, "quality": null, "file_type": "video/mp4", "width": 720, "height": 1280, "fps": 30.0, "link": "https://videos.pexels.com/video-files/29911824/12839020_720_1280_30fps.mp4", "size": 17017433}, {"id": 12839021, "quality": null, "file_type": "video/mp4", "width": 1080, "height": 1920, "fps": 30.0, "link": "https://videos.pexels.com/video-files/29911824/12839021_1080_1920_30fps.mp4", "size": 34890857}, {"id": 12839022, "quality": null, "file_type": "video/mp4", "width": 1440, "height": 2560, "fps": 30.0, "link": "https://videos.pexels.com/video-files/29911824/12839022_1440_2560_30fps.mp4", "size": 57042113}, {"id": 12839023, "quality": null, "file_type": "video/mp4", "width": 2160, "height": 3840, "fps": 30.0, "link": "https://videos.pexels.com/video-files/29911824/12839023_2160_3840_30fps.mp4", "size": 107907340}], "video_pictures": [{"id": 24275551, "nr": 0, "picture": "https://images.pexels.com/videos/29911824/pictures/preview-0.jpg"}, {"id": 24275552, "nr": 1, "picture": "https://images.pexels.com/videos/29911824/pictures/preview-1.jpg"}, {"id": 24275553, "nr": 2, "picture": "https://images.pexels.com/videos/29911824/pictures/preview-2.jpg"}, {"id": 24275554, "nr": 3, "picture": "https://images.pexels.com/videos/29911824/pictures/preview-3.jpg"}, {"id": 24275555, "nr": 4, "picture": "https://images.pexels.com/videos/29911824/pictures/preview-4.jpg"}, {"id": 24275556, "nr": 5, "picture": "https://images.pexels.com/videos/29911824/pictures/preview-5.jpg"}, {"id": 24275557, "nr": 6, "picture": "https://images.pexels.com/videos/29911824/pictures/preview-6.jpg"}, {"id": 24275558, "nr": 7, "picture": "https://images.pexels.com/videos/29911824/pictures/preview-7.jpg"}, {"id": 24275559, "nr": 8, "picture": "https://images.pexels.com/videos/29911824/pictures/preview-8.jpg"}, {"id": 24275560, "nr": 9, "picture": "https://images.pexels.com/videos/29911824/pictures/preview-9.jpg"}, {"id": 24275561, "nr": 10, "picture": "https://images.pexels.com/videos/29911824/pictures/preview-10.jpg"}, {"id": 24275562, "nr": 11, "picture": "https://images.pexels.com/videos/29911824/pictures/preview-11.jpg"}, {"id": 24275563, "nr": 12, "picture": "https://images.pexels.com/videos/29911824/pictures/preview-12.jpg"}, {"id": 24275564, "nr": 13, "picture": "https://images.pexels.com/videos/29911824/pictures/preview-13.jpg"}, {"id": 24275565, "nr": 14, "picture": "https://images.pexels.com/videos/29911824/pictures/preview-14.jpg"}]}, {"id": 29911823, "width": 2160, "height": 3840, "duration": 29, "full_res": null, "tags": [], "url": "https://www.pexels.com/video/aerial-view-of-serene-forest-lake-house-29911823/", "image": "https://images.pexels.com/videos/29911823/pexels-photo-29911823.jpeg?auto=compress&cs=tinysrgb&fit=crop&h=1200&w=630", "avg_color": null, "user": {"id": 748453803, "name": "Alexander Mass", "url": "https://www.pexels.com/@alexander-mass-748453803"}, "video_files": [{"id": 12839036, "quality": null, "file_type": "video/mp4", "width": 360, "height": 640, "fps": 30.0, "link": "https://videos.pexels.com/video-files/29911823/12839036_360_640_30fps.mp4", "size": 7359798}, {"id": 12839037, "quality": null, "file_type": "video/mp4", "width": 540, "height": 960, "fps": 30.0, "link": "https://videos.pexels.com/video-files/29911823/12839037_540_960_30fps.mp4", "size": 14060400}, {"id": 12839038, "quality": null, "file_type": "video/mp4", "width": 720, "height": 1280, "fps": 30.0, "link": "https://videos.pexels.com/video-files/29911823/12839038_720_1280_30fps.mp4", "size": 22817877}, {"id": 12839039, "quality": null, "file_type": "video/mp4", "width": 1080, "height": 1920, "fps": 30.0, "link": "https://videos.pexels.com/video-files/29911823/12839039_1080_1920_30fps.mp4", "size": 45453553}, {"id": 12839040, "quality": null, "file_type": "video/mp4", "width": 1440, "height": 2560, "fps": 30.0, "link": "https://videos.pexels.com/video-files/29911823/12839040_1440_2560_30fps.mp4", "size": 77114659}, {"id": 12839041, "quality": null, "file_type": "video/mp4", "width": 2160, "height": 3840, "fps": 30.0, "link": "https://videos.pexels.com/video-files/29911823/12839041_2160_3840_30fps.mp4", "size": 151995725}], "video_pictures": [{"id": 24275536, "nr": 0, "picture": "https://images.pexels.com/videos/29911823/pictures/preview-0.jpg"}, {"id": 24275537, "nr": 1, "picture": "https://images.pexels.com/videos/29911823/pictures/preview-1.jpg"}, {"id": 24275538, "nr": 2, "picture": "https://images.pexels.com/videos/29911823/pictures/preview-2.jpg"}, {"id": 24275539, "nr": 3, "picture": "https://images.pexels.com/videos/29911823/pictures/preview-3.jpg"}, {"id": 24275540, "nr": 4, "picture": "https://images.pexels.com/videos/29911823/pictures/preview-4.jpg"}, {"id": 24275541, "nr": 5, "picture": "https://images.pexels.com/videos/29911823/pictures/preview-5.jpg"}, {"id": 24275542, "nr": 6, "picture": "https://images.pexels.com/videos/29911823/pictures/preview-6.jpg"}, {"id": 24275543, "nr": 7, "picture": "https://images.pexels.com/videos/29911823/pictures/preview-7.jpg"}, {"id": 24275544, "nr": 8, "picture": "https://images.pexels.com/videos/29911823/pictures/preview-8.jpg"}, {"id": 24275545, "nr": 9, "picture": "https://images.pexels.com/videos/29911823/pictures/preview-9.jpg"}, {"id": 24275546, "nr": 10, "picture": "https://images.pexels.com/videos/29911823/pictures/preview-10.jpg"}, {"id": 24275547, "nr": 11, "picture": "https://images.pexels.com/videos/29911823/pictures/preview-11.jpg"}, {"id": 24275548, "nr": 12, "picture": "https://images.pexels.com/videos/29911823/pictures/preview-12.jpg"}, {"id": 24275549, "nr": 13, "picture": "https://images.pexels.com/videos/29911823/pictures/preview-13.jpg"}, {"id": 24275550, "nr": 14, "picture": "https://images.pexels.com/videos/29911823/pictures/preview-14.jpg"}]}, {"id": 29905483, "width": 1080, "height": 1920, "duration": 23, "full_res": null, "tags": [], "url": "https://www.pexels.com/video/a-frame-cabin-in-scenic-landscape-at-sunset-29905483/", "image": "https://images.pexels.com/videos/29905483/pexels-photo-29905483.jpeg?auto=compress&cs=tinysrgb&fit=crop&h=1200&w=630", "avg_color": null, "user": {"id": 2782849, "name": "aksinfo7 universe", "url": "https://www.pexels.com/@aksinfo7"}, "video_files": [{"id": 12836590, "quality": null, "file_type": "video/mp4", "width": 360, "height": 640, "fps": 59.939998626708984, "link": "https://videos.pexels.com/video-files/29905483/12836590_360_640_60fps.mp4", "size": 5927598}, {"id": 12836591, "quality": null, "file_type": "video/mp4", "width": 540, "height": 960, "fps": 59.939998626708984, "link": "https://videos.pexels.com/video-files/29905483/12836591_540_960_60fps.mp4", "size": 13986510}, {"id": 12836592, "quality": null, "file_type": "video/mp4", "width": 720, "height": 1280, "fps": 59.939998626708984, "link": "https://videos.pexels.com/video-files/29905483/12836592_720_1280_60fps.mp4", "size": 23680123}, {"id": 12836593, "quality": null, "file_type": "video/mp4", "width": 1080, "height": 1920, "fps": 59.939998626708984, "link": "https://videos.pexels.com/video-files/29905483/12836593_1080_1920_60fps.mp4", "size": 43476660}], "video_pictures": [{"id": 24269701, "nr": 0, "picture": "https://images.pexels.com/videos/29905483/pictures/preview-0.jpg"}, {"id": 24269702, "nr": 1, "picture": "https://images.pexels.com/videos/29905483/pictures/preview-1.jpg"}, {"id": 24269703, "nr": 2, "picture": "https://images.pexels.com/videos/29905483/pictures/preview-2.jpg"}, {"id": 24269704, "nr": 3, "picture": "https://images.pexels.com/videos/29905483/pictures/preview-3.jpg"}, {"id": 24269705, "nr": 4, "picture": "https://images.pexels.com/videos/29905483/pictures/preview-4.jpg"}, {"id": 24269706, "nr": 5, "picture": "https://images.pexels.com/videos/29905483/pictures/preview-5.jpg"}, {"id": 24269707, "nr": 6, "picture": "https://images.pexels.com/videos/29905483/pictures/preview-6.jpg"}, {"id": 24269708, "nr": 7, "picture": "https://images.pexels.com/videos/29905483/pictures/preview-7.jpg"}, {"id": 24269709, "nr": 8, "picture": "https://images.pexels.com/videos/29905483/pictures/preview-8.jpg"}, {"id": 24269710, "nr": 9, "picture": "https://images.pexels.com/videos/29905483/pictures/preview-9.jpg"}, {"id": 24269711, "nr": 10, "picture": "https://images.pexels.com/videos/29905483/pictures/preview-10.jpg"}, {"id": 24269712, "nr": 11, "picture": "https://images.pexels.com/videos/29905483/pictures/preview-11.jpg"}, {"id": 24269713, "nr": 12, "picture": "https://images.pexels.com/videos/29905483/pictures/preview-12.jpg"}, {"id": 24269714, "nr": 13, "picture": "https://images.pexels.com/videos/29905483/pictures/preview-13.jpg"}, {"id": 24269715, "nr": 14, "picture": "https://images.pexels.com/videos/29905483/pictures/preview-14.jpg"}]}], "total_results": 5702, "next_page": "https://api.pexels.com/v1/videos/search/?orientation=portrait&page=2&per_page=8&query=garden+tips", "url": "https://api-server.pexels.com/search/videos/garden%20tips/"}, "timestamp": "2024-12-28T22:41:53.911319"}
