{"query": "272 pounds", "response": {"page": 1, "per_page": 8, "videos": [{"id": 6547792, "width": 2160, "height": 3840, "duration": 10, "full_res": null, "tags": [], "url": "https://www.pexels.com/video/crop-person-weighing-on-scale-6547792/", "image": "https://images.pexels.com/videos/6547792/pexels-photo-6547792.jpeg?auto=compress&cs=tinysrgb&fit=crop&h=1200&w=630", "avg_color": null, "user": {"id": 19162559, "name": "Andres  Ayrton", "url": "https://www.pexels.com/@andres-ayrton"}, "video_files": [{"id": 10075468, "quality": "uhd", "file_type": "video/mp4", "width": 1440, "height": 2560, "fps": 23.97599983215332, "link": "https://videos.pexels.com/video-files/6547792/6547792-uhd_1440_2560_24fps.mp4", "size": 9744706}, {"id": 10075545, "quality": "hd", "file_type": "video/mp4", "width": 1080, "height": 1920, "fps": 23.97599983215332, "link": "https://videos.pexels.com/video-files/6547792/6547792-hd_1080_1920_24fps.mp4", "size": 4840790}, {"id": 10075579, "quality": "sd", "file_type": "video/mp4", "width": 540, "height": 960, "fps": 23.97599983215332, "link": "https://videos.pexels.com/video-files/6547792/6547792-sd_540_960_24fps.mp4", "size": 1120416}, {"id": 10075632, "quality": "sd", "file_type": "video/mp4", "width": 360, "height": 640, "fps": 23.97599983215332, "link": "https://videos.pexels.com/video-files/6547792/6547792-sd_360_640_24fps.mp4", "size": 482253}, {"id": 10075707, "quality": "uhd", "file_type": "video/mp4", "width": 2160, "height": 3840, "fps": 23.97599983215332, "link": "https://videos.pexels.com/video-files/6547792/6547792-uhd_2160_3840_24fps.mp4", "size": 20913039}, {"id": 10075719, "quality": "hd", "file_type": "video/mp4", "width": 720, "height": 1280, "fps": 23.97599983215332, "link": "https://videos.pexels.com/video-files/6547792/6547792-hd_720_1280_24fps.mp4", "size": 2254498}, {"id": 10075780, "quality": "sd", "file_type": "video/mp4", "width": 240, "height": 426, "fps": 23.97599983215332, "link": "https://videos.pexels.com/video-files/6547792/6547792-sd_240_426_24fps.mp4", "size": 247784}], "video_pictures": [{"id": 4627931, "nr": 0, "picture": "https://images.pexels.com/videos/6547792/pictures/preview-0.jpeg"}, {"id": 4627933, "nr": 1, "picture": "https://images.pexels.com/videos/6547792/pictures/preview-1.jpeg"}, {"id": 4627935, "nr": 2, "picture": "https://images.pexels.com/videos/6547792/pictures/preview-2.jpeg"}, {"id": 4627937, "nr": 3, "picture": "https://images.pexels.com/videos/6547792/pictures/preview-3.jpeg"}, {"id": 4627940, "nr": 4, "picture": "https://images.pexels.com/videos/6547792/pictures/preview-4.jpeg"}, {"id": 4627945, "nr": 5, "picture": "https://images.pexels.com/videos/6547792/pictures/preview-5.jpeg"}, {"id": 4627947, "nr": 6, "picture": "https://images.pexels.com/videos/6547792/pictures/preview-6.jpeg"}, {"id": 4627952, "nr": 7, "picture": "https://images.pexels.com/videos/6547792/pictures/preview-7.jpeg"}, {"id": 4627959, "nr": 8, "picture": "https://images.pexels.com/videos/6547792/pictures/preview-8.jpeg"}, {"id": 4627964, "nr": 9, "picture": "https://images.pexels.com/videos/6547792/pictures/preview-9.jpeg"}, {"id": 4627971, "nr": 10, "picture": "https://images.pexels.com/videos/6547792/pictures/preview-10.jpeg"}, {"id": 4627976, "nr": 11, "picture": "https://images.pexels.com/videos/6547792/pictures/preview-11.jpeg"}, {"id": 4627980, "nr": 12, "picture": "https://images.pexels.com/videos/6547792/pictures/preview-12.jpeg"}, {"id": 4627984, "nr": 13, "picture": "https://images.pexels.com/videos/6547792/pictures/preview-13.jpeg"}, {"id": 4627987, "nr": 14, "picture": "https://images.pexels.com/videos/6547792/pictures/preview-14.jpeg"}]}, {"id": 7802051, "width": 2160, "height": 4225, "duration": 15, "full_res": null, "tags": [], "url": "https://www.pexels.com/video/a-person-measuring-weight-on-scale-7802051/", "image": "https://images.pexels.com/videos/7802051/adult-apple-ballet-barefoot-7802051.jpeg?auto=compress&cs=tinysrgb&fit=crop&h=1200&w=630", "avg_color": null, "user": {"id": 2297095, "name": "Pavel Danilyuk", "url": "https://www.pexels.com/@pavel-danilyuk"}, "video_files": [{"id": 10580904, "quality": "hd", "file_type": "video/mp4", "width": 698, "height": 1366, "fps": 25.0, "link": "https://videos.pexels.com/video-files/7802051/7802051-hd_698_1366_25fps.mp4", "size": 1763456}, {"id": 10580928, "quality": "sd", "file_type": "video/mp4", "width": 328, "height": 640, "fps": 25.0, "link": "https://videos.pexels.com/video-files/7802051/7802051-sd_328_640_25fps.mp4", "size": 474208}, {"id": 10580944, "quality": "uhd", "file_type": "video/mp4", "width": 2094, "height": 4096, "fps": 25.0, "link": "https://videos.pexels.com/video-files/7802051/7802051-uhd_2094_4096_25fps.mp4", "size": 25139274}, {"id": 10580968, "quality": "sd", "file_type": "video/mp4", "width": 492, "height": 960, "fps": 25.0, "link": "https://videos.pexels.com/video-files/7802051/7802051-sd_492_960_25fps.mp4", "size": 914195}, {"id": 10580981, "quality": "sd", "file_type": "video/mp4", "width": 218, "height": 426, "fps": 25.0, "link": "https://videos.pexels.com/video-files/7802051/7802051-sd_218_426_25fps.mp4", "size": 249340}, {"id": 10580996, "quality": "uhd", "file_type": "video/mp4", "width": 1398, "height": 2732, "fps": 25.0, "link": "https://videos.pexels.com/video-files/7802051/7802051-uhd_1398_2732_25fps.mp4", "size": 8921516}, {"id": 10581009, "quality": "hd", "file_type": "video/mp4", "width": 1048, "height": 2048, "fps": 25.0, "link": "https://videos.pexels.com/video-files/7802051/7802051-hd_1048_2048_25fps.mp4", "size": 4358476}], "video_pictures": [{"id": 7077825, "nr": 0, "picture": "https://images.pexels.com/videos/7802051/pictures/preview-0.jpeg"}, {"id": 7077837, "nr": 1, "picture": "https://images.pexels.com/videos/7802051/pictures/preview-1.jpeg"}, {"id": 7077848, "nr": 2, "picture": "https://images.pexels.com/videos/7802051/pictures/preview-2.jpeg"}, {"id": 7077859, "nr": 3, "picture": "https://images.pexels.com/videos/7802051/pictures/preview-3.jpeg"}, {"id": 7077868, "nr": 4, "picture": "https://images.pexels.com/videos/7802051/pictures/preview-4.jpeg"}, {"id": 7077875, "nr": 5, "picture": "https://images.pexels.com/videos/7802051/pictures/preview-5.jpeg"}, {"id": 7077883, "nr": 6, "picture": "https://images.pexels.com/videos/7802051/pictures/preview-6.jpeg"}, {"id": 7077890, "nr": 7, "picture": "https://images.pexels.com/videos/7802051/pictures/preview-7.jpeg"}, {"id": 7077895, "nr": 8, "picture": "https://images.pexels.com/videos/7802051/pictures/preview-8.jpeg"}, {"id": 7077901, "nr": 9, "picture": "https://images.pexels.com/videos/7802051/pictures/preview-9.jpeg"}, {"id": 7077906, "nr": 10, "picture": "https://images.pexels.com/videos/7802051/pictures/preview-10.jpeg"}, {"id": 7077911, "nr": 11, "picture": "https://images.pexels.com/videos/7802051/pictures/preview-11.jpeg"}, {"id": 7077916, "nr": 12, "picture": "https://images.pexels.com/videos/7802051/pictures/preview-12.jpeg"}, {"id": 7077921, "nr": 13, "picture": "https://images.pexels.com/videos/7802051/pictures/preview-13.jpeg"}, {"id": 7077924, "nr": 14, "picture": "https://images.pexels.com/videos/7802051/pictures/preview-14.jpeg"}]}, {"id": 6193865, "width": 1080, "height": 1920, "duration": 22, "full_res": null, "tags": [], "url": "https://www.pexels.com/video/santa-claus-throwing-away-his-money-6193865/", "image": "https://images.pexels.com/videos/6193865/pexels-photo-6193865.jpeg?auto=compress&cs=tinysrgb&fit=crop&h=1200&w=630", "avg_color": null, "user": {"id": 3798027, "name": "KoolShooters", "url": "https://www.pexels.com/@koolshooters"}, "video_files": [{"id": 9953503, "quality": "hd", "file_type": "video/mp4", "width": 720, "height": 1280, "fps": 29.969999313354492, "link": "https://videos.pexels.com/video-files/6193865/6193865-hd_720_1280_30fps.mp4", "size": 6717491}, {"id": 9953549, "quality": "hd", "file_type": "video/mp4", "width": 1080, "height": 1920, "fps": 29.969999313354492, "link": "https://videos.pexels.com/video-files/6193865/6193865-hd_1080_1920_30fps.mp4", "size": 14234165}, {"id": 9953602, "quality": "sd", "file_type": "video/mp4", "width": 240, "height": 426, "fps": 29.969999313354492, "link": "https://videos.pexels.com/video-files/6193865/6193865-sd_240_426_30fps.mp4", "size": 861424}, {"id": 9953617, "quality": "sd", "file_type": "video/mp4", "width": 540, "height": 960, "fps": 29.969999313354492, "link": "https://videos.pexels.com/video-files/6193865/6193865-sd_540_960_30fps.mp4", "size": 3648903}, {"id": 9953659, "quality": "sd", "file_type": "video/mp4", "width": 360, "height": 640, "fps": 29.969999313354492, "link": "https://videos.pexels.com/video-files/6193865/6193865-sd_360_640_30fps.mp4", "size": 1373361}], "video_pictures": [{"id": 4052645, "nr": 0, "picture": "https://images.pexels.com/videos/6193865/pictures/preview-0.jpeg"}, {"id": 4052649, "nr": 1, "picture": "https://images.pexels.com/videos/6193865/pictures/preview-1.jpeg"}, {"id": 4052651, "nr": 2, "picture": "https://images.pexels.com/videos/6193865/pictures/preview-2.jpeg"}, {"id": 4052654, "nr": 3, "picture": "https://images.pexels.com/videos/6193865/pictures/preview-3.jpeg"}, {"id": 4052657, "nr": 4, "picture": "https://images.pexels.com/videos/6193865/pictures/preview-4.jpeg"}, {"id": 4052661, "nr": 5, "picture": "https://images.pexels.com/videos/6193865/pictures/preview-5.jpeg"}, {"id": 4052663, "nr": 6, "picture": "https://images.pexels.com/videos/6193865/pictures/preview-6.jpeg"}, {"id": 4052669, "nr": 7, "picture": "https://images.pexels.com/videos/6193865/pictures/preview-7.jpeg"}, {"id": 4052671, "nr": 8, "picture": "https://images.pexels.com/videos/6193865/pictures/preview-8.jpeg"}, {"id": 4052675, "nr": 9, "picture": "https://images.pexels.com/videos/6193865/pictures/preview-9.jpeg"}, {"id": 4052684, "nr": 10, "picture": "https://images.pexels.com/videos/6193865/pictures/preview-10.jpeg"}, {"id": 4052707, "nr": 11, "picture": "https://images.pexels.com/videos/6193865/pictures/preview-11.jpeg"}, {"id": 4052714, "nr": 12, "picture": "https://images.pexels.com/videos/6193865/pictures/preview-12.jpeg"}, {"id": 4052724, "nr": 13, "picture": "https://images.pexels.com/videos/6193865/pictures/preview-13.jpeg"}, {"id": 4052731, "nr": 14, "picture": "https://images.pexels.com/videos/6193865/pictures/preview-14.jpeg"}]}, {"id": 6193862, "width": 1080, "height": 1920, "duration": 33, "full_res": null, "tags": [], "url": "https://www.pexels.com/video/santa-claus-swiping-away-his-money-6193862/", "image": "https://images.pexels.com/videos/6193862/pexels-photo-6193862.jpeg?auto=compress&cs=tinysrgb&fit=crop&h=1200&w=630", "avg_color": null, "user": {"id": 3798027, "name": "KoolShooters", "url": "https://www.pexels.com/@koolshooters"}, "video_files": [{"id": 9953419, "quality": "sd", "file_type": "video/mp4", "width": 540, "height": 960, "fps": 29.969999313354492, "link": "https://videos.pexels.com/video-files/6193862/6193862-sd_540_960_30fps.mp4", "size": 5474041}, {"id": 9953432, "quality": "hd", "file_type": "video/mp4", "width": 1080, "height": 1920, "fps": 29.969999313354492, "link": "https://videos.pexels.com/video-files/6193862/6193862-hd_1080_1920_30fps.mp4", "size": 22053537}, {"id": 9953454, "quality": "sd", "file_type": "video/mp4", "width": 360, "height": 640, "fps": 29.969999313354492, "link": "https://videos.pexels.com/video-files/6193862/6193862-sd_360_640_30fps.mp4", "size": 1989469}, {"id": 9953468, "quality": "hd", "file_type": "video/mp4", "width": 720, "height": 1280, "fps": 29.969999313354492, "link": "https://videos.pexels.com/video-files/6193862/6193862-hd_720_1280_30fps.mp4", "size": 10255798}, {"id": 9953483, "quality": "sd", "file_type": "video/mp4", "width": 240, "height": 426, "fps": 29.969999313354492, "link": "https://videos.pexels.com/video-files/6193862/6193862-sd_240_426_30fps.mp4", "size": 1246942}], "video_pictures": [{"id": 4052800, "nr": 0, "picture": "https://images.pexels.com/videos/6193862/pictures/preview-0.jpeg"}, {"id": 4052804, "nr": 1, "picture": "https://images.pexels.com/videos/6193862/pictures/preview-1.jpeg"}, {"id": 4052814, "nr": 2, "picture": "https://images.pexels.com/videos/6193862/pictures/preview-2.jpeg"}, {"id": 4052819, "nr": 3, "picture": "https://images.pexels.com/videos/6193862/pictures/preview-3.jpeg"}, {"id": 4052822, "nr": 4, "picture": "https://images.pexels.com/videos/6193862/pictures/preview-4.jpeg"}, {"id": 4052830, "nr": 5, "picture": "https://images.pexels.com/videos/6193862/pictures/preview-5.jpeg"}, {"id": 4052834, "nr": 6, "picture": "https://images.pexels.com/videos/6193862/pictures/preview-6.jpeg"}, {"id": 4052838, "nr": 7, "picture": "https://images.pexels.com/videos/6193862/pictures/preview-7.jpeg"}, {"id": 4052845, "nr": 8, "picture": "https://images.pexels.com/videos/6193862/pictures/preview-8.jpeg"}, {"id": 4052849, "nr": 9, "picture": "https://images.pexels.com/videos/6193862/pictures/preview-9.jpeg"}, {"id": 4052854, "nr": 10, "picture": "https://images.pexels.com/videos/6193862/pictures/preview-10.jpeg"}, {"id": 4052861, "nr": 11, "picture": "https://images.pexels.com/videos/6193862/pictures/preview-11.jpeg"}, {"id": 4052865, "nr": 12, "picture": "https://images.pexels.com/videos/6193862/pictures/preview-12.jpeg"}, {"id": 4052869, "nr": 13, "picture": "https://images.pexels.com/videos/6193862/pictures/preview-13.jpeg"}, {"id": 4052873, "nr": 14, "picture": "https://images.pexels.com/videos/6193862/pictures/preview-14.jpeg"}]}, {"id": 6193870, "width": 1080, "height": 1920, "duration": 10, "full_res": null, "tags": [], "url": "https://www.pexels.com/video/santa-claus-with-cash-money-on-hand-6193870/", "image": "https://images.pexels.com/videos/6193870/pexels-photo-6193870.jpeg?auto=compress&cs=tinysrgb&fit=crop&h=1200&w=630", "avg_color": null, "user": {"id": 3798027, "name": "KoolShooters", "url": "https://www.pexels.com/@koolshooters"}, "video_files": [{"id": 9953695, "quality": "hd", "file_type": "video/mp4", "width": 720, "height": 1280, "fps": 29.969999313354492, "link": "https://videos.pexels.com/video-files/6193870/6193870-hd_720_1280_30fps.mp4", "size": 3082432}, {"id": 9953754, "quality": "sd", "file_type": "video/mp4", "width": 540, "height": 960, "fps": 29.969999313354492, "link": "https://videos.pexels.com/video-files/6193870/6193870-sd_540_960_30fps.mp4", "size": 1735971}, {"id": 9953777, "quality": "hd", "file_type": "video/mp4", "width": 1080, "height": 1920, "fps": 29.969999313354492, "link": "https://videos.pexels.com/video-files/6193870/6193870-hd_1080_1920_30fps.mp4", "size": 6644734}, {"id": 9953809, "quality": "sd", "file_type": "video/mp4", "width": 240, "height": 426, "fps": 29.969999313354492, "link": "https://videos.pexels.com/video-files/6193870/6193870-sd_240_426_30fps.mp4", "size": 421951}, {"id": 9953829, "quality": "sd", "file_type": "video/mp4", "width": 360, "height": 640, "fps": 29.969999313354492, "link": "https://videos.pexels.com/video-files/6193870/6193870-sd_360_640_30fps.mp4", "size": 642408}], "video_pictures": [{"id": 4053373, "nr": 0, "picture": "https://images.pexels.com/videos/6193870/pictures/preview-0.jpeg"}, {"id": 4053378, "nr": 1, "picture": "https://images.pexels.com/videos/6193870/pictures/preview-1.jpeg"}, {"id": 4053384, "nr": 2, "picture": "https://images.pexels.com/videos/6193870/pictures/preview-2.jpeg"}, {"id": 4053390, "nr": 3, "picture": "https://images.pexels.com/videos/6193870/pictures/preview-3.jpeg"}, {"id": 4053394, "nr": 4, "picture": "https://images.pexels.com/videos/6193870/pictures/preview-4.jpeg"}, {"id": 4053398, "nr": 5, "picture": "https://images.pexels.com/videos/6193870/pictures/preview-5.jpeg"}, {"id": 4053401, "nr": 6, "picture": "https://images.pexels.com/videos/6193870/pictures/preview-6.jpeg"}, {"id": 4053404, "nr": 7, "picture": "https://images.pexels.com/videos/6193870/pictures/preview-7.jpeg"}, {"id": 4053420, "nr": 8, "picture": "https://images.pexels.com/videos/6193870/pictures/preview-8.jpeg"}, {"id": 4053428, "nr": 9, "picture": "https://images.pexels.com/videos/6193870/pictures/preview-9.jpeg"}, {"id": 4053436, "nr": 10, "picture": "https://images.pexels.com/videos/6193870/pictures/preview-10.jpeg"}, {"id": 4053442, "nr": 11, "picture": "https://images.pexels.com/videos/6193870/pictures/preview-11.jpeg"}, {"id": 4053448, "nr": 12, "picture": "https://images.pexels.com/videos/6193870/pictures/preview-12.jpeg"}, {"id": 4053452, "nr": 13, "picture": "https://images.pexels.com/videos/6193870/pictures/preview-13.jpeg"}, {"id": 4053457, "nr": 14, "picture": "https://images.pexels.com/videos/6193870/pictures/preview-14.jpeg"}]}, {"id": 6193859, "width": 1080, "height": 1920, "duration": 16, "full_res": null, "tags": [], "url": "https://www.pexels.com/video/santa-claus-is-counting-his-money-6193859/", "image": "https://images.pexels.com/videos/6193859/pexels-photo-6193859.jpeg?auto=compress&cs=tinysrgb&fit=crop&h=1200&w=630", "avg_color": null, "user": {"id": 3798027, "name": "KoolShooters", "url": "https://www.pexels.com/@koolshooters"}, "video_files": [{"id": 9953879, "quality": "sd", "file_type": "video/mp4", "width": 240, "height": 426, "fps": 29.969999313354492, "link": "https://videos.pexels.com/video-files/6193859/6193859-sd_240_426_30fps.mp4", "size": 625652}, {"id": 9953900, "quality": "hd", "file_type": "video/mp4", "width": 720, "height": 1280, "fps": 29.969999313354492, "link": "https://videos.pexels.com/video-files/6193859/6193859-hd_720_1280_30fps.mp4", "size": 4476546}, {"id": 9953924, "quality": "sd", "file_type": "video/mp4", "width": 360, "height": 640, "fps": 29.969999313354492, "link": "https://videos.pexels.com/video-files/6193859/6193859-sd_360_640_30fps.mp4", "size": 976853}, {"id": 9953937, "quality": "sd", "file_type": "video/mp4", "width": 540, "height": 960, "fps": 29.969999313354492, "link": "https://videos.pexels.com/video-files/6193859/6193859-sd_540_960_30fps.mp4", "size": 2673076}, {"id": 9953957, "quality": "hd", "file_type": "video/mp4", "width": 1080, "height": 1920, "fps": 29.969999313354492, "link": "https://videos.pexels.com/video-files/6193859/6193859-hd_1080_1920_30fps.mp4", "size": 10131159}], "video_pictures": [{"id": 4052660, "nr": 0, "picture": "https://images.pexels.com/videos/6193859/pictures/preview-0.jpeg"}, {"id": 4052662, "nr": 1, "picture": "https://images.pexels.com/videos/6193859/pictures/preview-1.jpeg"}, {"id": 4052666, "nr": 2, "picture": "https://images.pexels.com/videos/6193859/pictures/preview-2.jpeg"}, {"id": 4052676, "nr": 3, "picture": "https://images.pexels.com/videos/6193859/pictures/preview-3.jpeg"}, {"id": 4052681, "nr": 4, "picture": "https://images.pexels.com/videos/6193859/pictures/preview-4.jpeg"}, {"id": 4052688, "nr": 5, "picture": "https://images.pexels.com/videos/6193859/pictures/preview-5.jpeg"}, {"id": 4052700, "nr": 6, "picture": "https://images.pexels.com/videos/6193859/pictures/preview-6.jpeg"}, {"id": 4052706, "nr": 7, "picture": "https://images.pexels.com/videos/6193859/pictures/preview-7.jpeg"}, {"id": 4052712, "nr": 8, "picture": "https://images.pexels.com/videos/6193859/pictures/preview-8.jpeg"}, {"id": 4052722, "nr": 9, "picture": "https://images.pexels.com/videos/6193859/pictures/preview-9.jpeg"}, {"id": 4052730, "nr": 10, "picture": "https://images.pexels.com/videos/6193859/pictures/preview-10.jpeg"}, {"id": 4052738, "nr": 11, "picture": "https://images.pexels.com/videos/6193859/pictures/preview-11.jpeg"}, {"id": 4052745, "nr": 12, "picture": "https://images.pexels.com/videos/6193859/pictures/preview-12.jpeg"}, {"id": 4052752, "nr": 13, "picture": "https://images.pexels.com/videos/6193859/pictures/preview-13.jpeg"}, {"id": 4052775, "nr": 14, "picture": "https://images.pexels.com/videos/6193859/pictures/preview-14.jpeg"}]}, {"id": 6193868, "width": 1080, "height": 1920, "duration": 13, "full_res": null, "tags": [], "url": "https://www.pexels.com/video/santa-claus-with-cash-money-on-hand-6193868/", "image": "https://images.pexels.com/videos/6193868/pexels-photo-6193868.jpeg?auto=compress&cs=tinysrgb&fit=crop&h=1200&w=630", "avg_color": null, "user": {"id": 3798027, "name": "KoolShooters", "url": "https://www.pexels.com/@koolshooters"}, "video_files": [{"id": 9953656, "quality": "hd", "file_type": "video/mp4", "width": 720, "height": 1280, "fps": 29.969999313354492, "link": "https://videos.pexels.com/video-files/6193868/6193868-hd_720_1280_30fps.mp4", "size": 2940401}, {"id": 9953683, "quality": "sd", "file_type": "video/mp4", "width": 540, "height": 960, "fps": 29.969999313354492, "link": "https://videos.pexels.com/video-files/6193868/6193868-sd_540_960_30fps.mp4", "size": 1783969}, {"id": 9953699, "quality": "hd", "file_type": "video/mp4", "width": 1080, "height": 1920, "fps": 29.969999313354492, "link": "https://videos.pexels.com/video-files/6193868/6193868-hd_1080_1920_30fps.mp4", "size": 7186040}, {"id": 9953719, "quality": "sd", "file_type": "video/mp4", "width": 240, "height": 426, "fps": 29.969999313354492, "link": "https://videos.pexels.com/video-files/6193868/6193868-sd_240_426_30fps.mp4", "size": 459316}, {"id": 9953738, "quality": "sd", "file_type": "video/mp4", "width": 360, "height": 640, "fps": 29.969999313354492, "link": "https://videos.pexels.com/video-files/6193868/6193868-sd_360_640_30fps.mp4", "size": 707306}], "video_pictures": [{"id": 4052606, "nr": 0, "picture": "https://images.pexels.com/videos/6193868/pictures/preview-0.jpeg"}, {"id": 4052608, "nr": 1, "picture": "https://images.pexels.com/videos/6193868/pictures/preview-1.jpeg"}, {"id": 4052610, "nr": 2, "picture": "https://images.pexels.com/videos/6193868/pictures/preview-2.jpeg"}, {"id": 4052612, "nr": 3, "picture": "https://images.pexels.com/videos/6193868/pictures/preview-3.jpeg"}, {"id": 4052615, "nr": 4, "picture": "https://images.pexels.com/videos/6193868/pictures/preview-4.jpeg"}, {"id": 4052616, "nr": 5, "picture": "https://images.pexels.com/videos/6193868/pictures/preview-5.jpeg"}, {"id": 4052620, "nr": 6, "picture": "https://images.pexels.com/videos/6193868/pictures/preview-6.jpeg"}, {"id": 4052623, "nr": 7, "picture": "https://images.pexels.com/videos/6193868/pictures/preview-7.jpeg"}, {"id": 4052626, "nr": 8, "picture": "https://images.pexels.com/videos/6193868/pictures/preview-8.jpeg"}, {"id": 4052630, "nr": 9, "picture": "https://images.pexels.com/videos/6193868/pictures/preview-9.jpeg"}, {"id": 4052633, "nr": 10, "picture": "https://images.pexels.com/videos/6193868/pictures/preview-10.jpeg"}, {"id": 4052637, "nr": 11, "picture": "https://images.pexels.com/videos/6193868/pictures/preview-11.jpeg"}, {"id": 4052639, "nr": 12, "picture": "https://images.pexels.com/videos/6193868/pictures/preview-12.jpeg"}, {"id": 4052640, "nr": 13, "picture": "https://images.pexels.com/videos/6193868/pictures/preview-13.jpeg"}, {"id": 4052642, "nr": 14, "picture": "https://images.pexels.com/videos/6193868/pictures/preview-14.jpeg"}]}, {"id": 7055178, "width": 2160, "height": 3840, "duration": 10, "full_res": null, "tags": [], "url": "https://www.pexels.com/video/coins-and-wallet-stop-motion-7055178/", "image": "https://images.pexels.com/videos/7055178/pexels-photo-7055178.jpeg?auto=compress&cs=tinysrgb&fit=crop&h=1200&w=630", "avg_color": null, "user": {"id": 10715715, "name": "Kindel Media", "url": "https://www.pexels.com/@kindelmedia"}, "video_files": [{"id": 10290104, "quality": "sd", "file_type": "video/mp4", "width": 360, "height": 640, "fps": 24.0, "link": "https://videos.pexels.com/video-files/7055178/7055178-sd_360_640_24fps.mp4", "size": 566798}, {"id": 10290212, "quality": "uhd", "file_type": "video/mp4", "width": 2160, "height": 3840, "fps": 24.0, "link": "https://videos.pexels.com/video-files/7055178/7055178-uhd_2160_3840_24fps.mp4", "size": 21664248}, {"id": 10290341, "quality": "hd", "file_type": "video/mp4", "width": 1080, "height": 1920, "fps": 24.0, "link": "https://videos.pexels.com/video-files/7055178/7055178-hd_1080_1920_24fps.mp4", "size": 4620199}, {"id": 10290379, "quality": "hd", "file_type": "video/mp4", "width": 720, "height": 1280, "fps": 24.0, "link": "https://videos.pexels.com/video-files/7055178/7055178-hd_720_1280_24fps.mp4", "size": 2147945}, {"id": 10290427, "quality": "sd", "file_type": "video/mp4", "width": 240, "height": 426, "fps": 24.0, "link": "https://videos.pexels.com/video-files/7055178/7055178-sd_240_426_24fps.mp4", "size": 293158}, {"id": 10290481, "quality": "sd", "file_type": "video/mp4", "width": 540, "height": 960, "fps": 24.0, "link": "https://videos.pexels.com/video-files/7055178/7055178-sd_540_960_24fps.mp4", "size": 1256581}, {"id": 10290576, "quality": "uhd", "file_type": "video/mp4", "width": 1440, "height": 2560, "fps": 24.0, "link": "https://videos.pexels.com/video-files/7055178/7055178-uhd_1440_2560_24fps.mp4", "size": 9661645}], "video_pictures": [{"id": 5661210, "nr": 0, "picture": "https://images.pexels.com/videos/7055178/pictures/preview-0.jpeg"}, {"id": 5661218, "nr": 1, "picture": "https://images.pexels.com/videos/7055178/pictures/preview-1.jpeg"}, {"id": 5661223, "nr": 2, "picture": "https://images.pexels.com/videos/7055178/pictures/preview-2.jpeg"}, {"id": 5661229, "nr": 3, "picture": "https://images.pexels.com/videos/7055178/pictures/preview-3.jpeg"}, {"id": 5661238, "nr": 4, "picture": "https://images.pexels.com/videos/7055178/pictures/preview-4.jpeg"}, {"id": 5661246, "nr": 5, "picture": "https://images.pexels.com/videos/7055178/pictures/preview-5.jpeg"}, {"id": 5661250, "nr": 6, "picture": "https://images.pexels.com/videos/7055178/pictures/preview-6.jpeg"}, {"id": 5661256, "nr": 7, "picture": "https://images.pexels.com/videos/7055178/pictures/preview-7.jpeg"}, {"id": 5661264, "nr": 8, "picture": "https://images.pexels.com/videos/7055178/pictures/preview-8.jpeg"}, {"id": 5661270, "nr": 9, "picture": "https://images.pexels.com/videos/7055178/pictures/preview-9.jpeg"}, {"id": 5661277, "nr": 10, "picture": "https://images.pexels.com/videos/7055178/pictures/preview-10.jpeg"}, {"id": 5661285, "nr": 11, "picture": "https://images.pexels.com/videos/7055178/pictures/preview-11.jpeg"}, {"id": 5661290, "nr": 12, "picture": "https://images.pexels.com/videos/7055178/pictures/preview-12.jpeg"}, {"id": 5661298, "nr": 13, "picture": "https://images.pexels.com/videos/7055178/pictures/preview-13.jpeg"}, {"id": 5661309, "nr": 14, "picture": "https://images.pexels.com/videos/7055178/pictures/preview-14.jpeg"}]}], "total_results": 19, "next_page": "https://api.pexels.com/v1/videos/search/?orientation=portrait&page=2&per_page=8&query=272+pounds", "url": "https://api-server.pexels.com/search/videos/272%20pounds/"}, "timestamp": "2024-12-30T19:43:44.842273"}
