{"query": "talking trees real", "response": {"page": 1, "per_page": 8, "videos": [{"id": 12893522, "width": 2160, "height": 3840, "duration": 10, "full_res": null, "tags": [], "url": "https://www.pexels.com/video/couple-talking-on-a-park-bench-12893522/", "image": "https://images.pexels.com/videos/12893522/pexels-photo-12893522.jpeg?auto=compress&cs=tinysrgb&fit=crop&h=1200&w=630", "avg_color": null, "user": {"id": 264153375, "name": "Mizuno K", "url": "https://www.pexels.com/@mizunokozuki"}, "video_files": [{"id": 5661492, "quality": "hd", "file_type": "video/mp4", "width": 1080, "height": 1920, "fps": 23.97599983215332, "link": "https://videos.pexels.com/video-files/12893522/12893522-hd_1080_1920_24fps.mp4", "size": 7554168}, {"id": 5661493, "quality": "sd", "file_type": "video/mp4", "width": 360, "height": 640, "fps": 23.97599983215332, "link": "https://videos.pexels.com/video-files/12893522/12893522-sd_360_640_24fps.mp4", "size": 815298}, {"id": 5661494, "quality": "uhd", "file_type": "video/mp4", "width": 1440, "height": 2560, "fps": 23.97599983215332, "link": "https://videos.pexels.com/video-files/12893522/12893522-uhd_1440_2560_24fps.mp4", "size": 15634351}, {"id": 5661495, "quality": "sd", "file_type": "video/mp4", "width": 540, "height": 960, "fps": 23.97599983215332, "link": "https://videos.pexels.com/video-files/12893522/12893522-sd_540_960_24fps.mp4", "size": 2097207}, {"id": 5661496, "quality": "hd", "file_type": "video/mp4", "width": 720, "height": 1280, "fps": 23.97599983215332, "link": "https://videos.pexels.com/video-files/12893522/12893522-hd_720_1280_24fps.mp4", "size": 3763907}, {"id": 5661497, "quality": "sd", "file_type": "video/mp4", "width": 240, "height": 426, "fps": 23.97599983215332, "link": "https://videos.pexels.com/video-files/12893522/12893522-sd_240_426_24fps.mp4", "size": 427102}, {"id": 5661498, "quality": "uhd", "file_type": "video/mp4", "width": 2160, "height": 3840, "fps": 23.97599983215332, "link": "https://videos.pexels.com/video-files/12893522/12893522-uhd_2160_3840_24fps.mp4", "size": 33072629}], "video_pictures": [{"id": 14089327, "nr": 0, "picture": "https://images.pexels.com/videos/12893522/pictures/preview-0.jpeg"}, {"id": 14089352, "nr": 1, "picture": "https://images.pexels.com/videos/12893522/pictures/preview-1.jpeg"}, {"id": 14089391, "nr": 2, "picture": "https://images.pexels.com/videos/12893522/pictures/preview-2.jpeg"}, {"id": 14089424, "nr": 3, "picture": "https://images.pexels.com/videos/12893522/pictures/preview-3.jpeg"}, {"id": 14089464, "nr": 4, "picture": "https://images.pexels.com/videos/12893522/pictures/preview-4.jpeg"}, {"id": 14089504, "nr": 5, "picture": "https://images.pexels.com/videos/12893522/pictures/preview-5.jpeg"}, {"id": 14089547, "nr": 6, "picture": "https://images.pexels.com/videos/12893522/pictures/preview-6.jpeg"}, {"id": 14089575, "nr": 7, "picture": "https://images.pexels.com/videos/12893522/pictures/preview-7.jpeg"}, {"id": 14089609, "nr": 8, "picture": "https://images.pexels.com/videos/12893522/pictures/preview-8.jpeg"}, {"id": 14089647, "nr": 9, "picture": "https://images.pexels.com/videos/12893522/pictures/preview-9.jpeg"}, {"id": 14089683, "nr": 10, "picture": "https://images.pexels.com/videos/12893522/pictures/preview-10.jpeg"}, {"id": 14089733, "nr": 11, "picture": "https://images.pexels.com/videos/12893522/pictures/preview-11.jpeg"}, {"id": 14089765, "nr": 12, "picture": "https://images.pexels.com/videos/12893522/pictures/preview-12.jpeg"}, {"id": 14089797, "nr": 13, "picture": "https://images.pexels.com/videos/12893522/pictures/preview-13.jpeg"}, {"id": 14089823, "nr": 14, "picture": "https://images.pexels.com/videos/12893522/pictures/preview-14.jpeg"}]}, {"id": 6454254, "width": 2160, "height": 3840, "duration": 10, "full_res": null, "tags": [], "url": "https://www.pexels.com/video/two-people-talking-together-6454254/", "image": "https://images.pexels.com/videos/6454254/pexels-photo-6454254.jpeg?auto=compress&cs=tinysrgb&fit=crop&h=1200&w=630", "avg_color": null, "user": {"id": 6927817, "name": "Julia Larson", "url": "https://www.pexels.com/@julia-larson"}, "video_files": [{"id": 10043944, "quality": "sd", "file_type": "video/mp4", "width": 360, "height": 640, "fps": 23.97599983215332, "link": "https://videos.pexels.com/video-files/6454254/6454254-sd_360_640_24fps.mp4", "size": 641354}, {"id": 10044317, "quality": "uhd", "file_type": "video/mp4", "width": 1440, "height": 2560, "fps": 23.97599983215332, "link": "https://videos.pexels.com/video-files/6454254/6454254-uhd_1440_2560_24fps.mp4", "size": 12823668}, {"id": 10044362, "quality": "hd", "file_type": "video/mp4", "width": 720, "height": 1280, "fps": 23.97599983215332, "link": "https://videos.pexels.com/video-files/6454254/6454254-hd_720_1280_24fps.mp4", "size": 3383673}, {"id": 10044433, "quality": "hd", "file_type": "video/mp4", "width": 1080, "height": 1920, "fps": 23.97599983215332, "link": "https://videos.pexels.com/video-files/6454254/6454254-hd_1080_1920_24fps.mp4", "size": 6349858}, {"id": 10044547, "quality": "sd", "file_type": "video/mp4", "width": 540, "height": 960, "fps": 23.97599983215332, "link": "https://videos.pexels.com/video-files/6454254/6454254-sd_540_960_24fps.mp4", "size": 1744495}, {"id": 10044652, "quality": "sd", "file_type": "video/mp4", "width": 240, "height": 426, "fps": 23.97599983215332, "link": "https://videos.pexels.com/video-files/6454254/6454254-sd_240_426_24fps.mp4", "size": 404977}, {"id": 10044768, "quality": "uhd", "file_type": "video/mp4", "width": 2160, "height": 3840, "fps": 23.97599983215332, "link": "https://videos.pexels.com/video-files/6454254/6454254-uhd_2160_3840_24fps.mp4", "size": 26705608}], "video_pictures": [{"id": 4469238, "nr": 0, "picture": "https://images.pexels.com/videos/6454254/pictures/preview-0.jpeg"}, {"id": 4469252, "nr": 1, "picture": "https://images.pexels.com/videos/6454254/pictures/preview-1.jpeg"}, {"id": 4469273, "nr": 2, "picture": "https://images.pexels.com/videos/6454254/pictures/preview-2.jpeg"}, {"id": 4469292, "nr": 3, "picture": "https://images.pexels.com/videos/6454254/pictures/preview-3.jpeg"}, {"id": 4469315, "nr": 4, "picture": "https://images.pexels.com/videos/6454254/pictures/preview-4.jpeg"}, {"id": 4469336, "nr": 5, "picture": "https://images.pexels.com/videos/6454254/pictures/preview-5.jpeg"}, {"id": 4469360, "nr": 6, "picture": "https://images.pexels.com/videos/6454254/pictures/preview-6.jpeg"}, {"id": 4469390, "nr": 7, "picture": "https://images.pexels.com/videos/6454254/pictures/preview-7.jpeg"}, {"id": 4469423, "nr": 8, "picture": "https://images.pexels.com/videos/6454254/pictures/preview-8.jpeg"}, {"id": 4469455, "nr": 9, "picture": "https://images.pexels.com/videos/6454254/pictures/preview-9.jpeg"}, {"id": 4469493, "nr": 10, "picture": "https://images.pexels.com/videos/6454254/pictures/preview-10.jpeg"}, {"id": 4469524, "nr": 11, "picture": "https://images.pexels.com/videos/6454254/pictures/preview-11.jpeg"}, {"id": 4469561, "nr": 12, "picture": "https://images.pexels.com/videos/6454254/pictures/preview-12.jpeg"}, {"id": 4469587, "nr": 13, "picture": "https://images.pexels.com/videos/6454254/pictures/preview-13.jpeg"}, {"id": 4469623, "nr": 14, "picture": "https://images.pexels.com/videos/6454254/pictures/preview-14.jpeg"}]}, {"id": 6279518, "width": 2160, "height": 3840, "duration": 10, "full_res": null, "tags": [], "url": "https://www.pexels.com/video/a-woman-talking-on-the-cellphone-6279518/", "image": "https://images.pexels.com/videos/6279518/pexels-photo-6279518.jpeg?auto=compress&cs=tinysrgb&fit=crop&h=1200&w=630", "avg_color": null, "user": {"id": 6928101, "name": "Uriel Mont", "url": "https://www.pexels.com/@uriel-mont"}, "video_files": [{"id": 9989592, "quality": "hd", "file_type": "video/mp4", "width": 720, "height": 1280, "fps": 23.97599983215332, "link": "https://videos.pexels.com/video-files/6279518/6279518-hd_720_1280_24fps.mp4", "size": 3519112}, {"id": 9989634, "quality": "uhd", "file_type": "video/mp4", "width": 1440, "height": 2560, "fps": 23.97599983215332, "link": "https://videos.pexels.com/video-files/6279518/6279518-uhd_1440_2560_24fps.mp4", "size": 17052733}, {"id": 9989676, "quality": "sd", "file_type": "video/mp4", "width": 540, "height": 960, "fps": 23.97599983215332, "link": "https://videos.pexels.com/video-files/6279518/6279518-sd_540_960_24fps.mp4", "size": 1706251}, {"id": 9989757, "quality": "uhd", "file_type": "video/mp4", "width": 2160, "height": 3840, "fps": 23.97599983215332, "link": "https://videos.pexels.com/video-files/6279518/6279518-uhd_2160_3840_24fps.mp4", "size": 26789339}, {"id": 9989819, "quality": "sd", "file_type": "video/mp4", "width": 240, "height": 426, "fps": 23.97599983215332, "link": "https://videos.pexels.com/video-files/6279518/6279518-sd_240_426_24fps.mp4", "size": 382876}, {"id": 9989894, "quality": "sd", "file_type": "video/mp4", "width": 360, "height": 640, "fps": 23.97599983215332, "link": "https://videos.pexels.com/video-files/6279518/6279518-sd_360_640_24fps.mp4", "size": 597293}, {"id": 9989952, "quality": "hd", "file_type": "video/mp4", "width": 1080, "height": 1920, "fps": 23.97599983215332, "link": "https://videos.pexels.com/video-files/6279518/6279518-hd_1080_1920_24fps.mp4", "size": 6730435}], "video_pictures": [{"id": 4215527, "nr": 0, "picture": "https://images.pexels.com/videos/6279518/pictures/preview-0.jpeg"}, {"id": 4215546, "nr": 1, "picture": "https://images.pexels.com/videos/6279518/pictures/preview-1.jpeg"}, {"id": 4215563, "nr": 2, "picture": "https://images.pexels.com/videos/6279518/pictures/preview-2.jpeg"}, {"id": 4215577, "nr": 3, "picture": "https://images.pexels.com/videos/6279518/pictures/preview-3.jpeg"}, {"id": 4215603, "nr": 4, "picture": "https://images.pexels.com/videos/6279518/pictures/preview-4.jpeg"}, {"id": 4215627, "nr": 5, "picture": "https://images.pexels.com/videos/6279518/pictures/preview-5.jpeg"}, {"id": 4215642, "nr": 6, "picture": "https://images.pexels.com/videos/6279518/pictures/preview-6.jpeg"}, {"id": 4215659, "nr": 7, "picture": "https://images.pexels.com/videos/6279518/pictures/preview-7.jpeg"}, {"id": 4215677, "nr": 8, "picture": "https://images.pexels.com/videos/6279518/pictures/preview-8.jpeg"}, {"id": 4215702, "nr": 9, "picture": "https://images.pexels.com/videos/6279518/pictures/preview-9.jpeg"}, {"id": 4215724, "nr": 10, "picture": "https://images.pexels.com/videos/6279518/pictures/preview-10.jpeg"}, {"id": 4215744, "nr": 11, "picture": "https://images.pexels.com/videos/6279518/pictures/preview-11.jpeg"}, {"id": 4215761, "nr": 12, "picture": "https://images.pexels.com/videos/6279518/pictures/preview-12.jpeg"}, {"id": 4215769, "nr": 13, "picture": "https://images.pexels.com/videos/6279518/pictures/preview-13.jpeg"}, {"id": 4215771, "nr": 14, "picture": "https://images.pexels.com/videos/6279518/pictures/preview-14.jpeg"}]}, {"id": 5081755, "width": 2160, "height": 4096, "duration": 30, "full_res": null, "tags": [], "url": "https://www.pexels.com/video/couple-having-a-conversation-5081755/", "image": "https://images.pexels.com/videos/5081755/pexels-photo-5081755.jpeg?auto=compress&cs=tinysrgb&fit=crop&h=1200&w=630", "avg_color": null, "user": {"id": 1437723, "name": "cottonbro studio", "url": "https://www.pexels.com/@cottonbro"}, "video_files": [{"id": 9615509, "quality": "uhd", "file_type": "video/mp4", "width": 1440, "height": 2732, "fps": 25.0, "link": "https://videos.pexels.com/video-files/5081755/5081755-uhd_1440_2732_25fps.mp4", "size": 38139358}, {"id": 9615648, "quality": "hd", "file_type": "video/mp4", "width": 1080, "height": 2048, "fps": 25.0, "link": "https://videos.pexels.com/video-files/5081755/5081755-hd_1080_2048_25fps.mp4", "size": 18381079}, {"id": 9615765, "quality": "hd", "file_type": "video/mp4", "width": 720, "height": 1366, "fps": 25.0, "link": "https://videos.pexels.com/video-files/5081755/5081755-hd_720_1366_25fps.mp4", "size": 9267113}, {"id": 9615853, "quality": "sd", "file_type": "video/mp4", "width": 506, "height": 960, "fps": 25.0, "link": "https://videos.pexels.com/video-files/5081755/5081755-sd_506_960_25fps.mp4", "size": 4799946}, {"id": 9615923, "quality": "sd", "file_type": "video/mp4", "width": 338, "height": 640, "fps": 25.0, "link": "https://videos.pexels.com/video-files/5081755/5081755-sd_338_640_25fps.mp4", "size": 1778335}, {"id": 9616027, "quality": "uhd", "file_type": "video/mp4", "width": 2160, "height": 4096, "fps": 25.0, "link": "https://videos.pexels.com/video-files/5081755/5081755-uhd_2160_4096_25fps.mp4", "size": 82113008}, {"id": 9616088, "quality": "sd", "file_type": "video/mp4", "width": 226, "height": 426, "fps": 25.0, "link": "https://videos.pexels.com/video-files/5081755/5081755-sd_226_426_25fps.mp4", "size": 1096645}], "video_pictures": [{"id": 2330966, "nr": 0, "picture": "https://images.pexels.com/videos/5081755/pictures/preview-0.jpeg"}, {"id": 2330979, "nr": 1, "picture": "https://images.pexels.com/videos/5081755/pictures/preview-1.jpeg"}, {"id": 2330987, "nr": 2, "picture": "https://images.pexels.com/videos/5081755/pictures/preview-2.jpeg"}, {"id": 2330994, "nr": 3, "picture": "https://images.pexels.com/videos/5081755/pictures/preview-3.jpeg"}, {"id": 2330998, "nr": 4, "picture": "https://images.pexels.com/videos/5081755/pictures/preview-4.jpeg"}, {"id": 2331004, "nr": 5, "picture": "https://images.pexels.com/videos/5081755/pictures/preview-5.jpeg"}, {"id": 2331008, "nr": 6, "picture": "https://images.pexels.com/videos/5081755/pictures/preview-6.jpeg"}, {"id": 2331018, "nr": 7, "picture": "https://images.pexels.com/videos/5081755/pictures/preview-7.jpeg"}, {"id": 2331024, "nr": 8, "picture": "https://images.pexels.com/videos/5081755/pictures/preview-8.jpeg"}, {"id": 2331031, "nr": 9, "picture": "https://images.pexels.com/videos/5081755/pictures/preview-9.jpeg"}, {"id": 2331041, "nr": 10, "picture": "https://images.pexels.com/videos/5081755/pictures/preview-10.jpeg"}, {"id": 2331050, "nr": 11, "picture": "https://images.pexels.com/videos/5081755/pictures/preview-11.jpeg"}, {"id": 2331053, "nr": 12, "picture": "https://images.pexels.com/videos/5081755/pictures/preview-12.jpeg"}, {"id": 2331056, "nr": 13, "picture": "https://images.pexels.com/videos/5081755/pictures/preview-13.jpeg"}, {"id": 2331058, "nr": 14, "picture": "https://images.pexels.com/videos/5081755/pictures/preview-14.jpeg"}]}, {"id": 6522543, "width": 2160, "height": 3840, "duration": 10, "full_res": null, "tags": [], "url": "https://www.pexels.com/video/men-with-rose-talking-to-a-woman-6522543/", "image": "https://images.pexels.com/videos/6522543/pexels-photo-6522543.jpeg?auto=compress&cs=tinysrgb&fit=crop&h=1200&w=630", "avg_color": null, "user": {"id": 3441112, "name": "Budgeron Bach", "url": "https://www.pexels.com/@budgeron-bach"}, "video_files": [{"id": 10064824, "quality": "sd", "file_type": "video/mp4", "width": 540, "height": 960, "fps": 23.97599983215332, "link": "https://videos.pexels.com/video-files/6522543/6522543-sd_540_960_24fps.mp4", "size": 1749183}, {"id": 10064884, "quality": "hd", "file_type": "video/mp4", "width": 720, "height": 1280, "fps": 23.97599983215332, "link": "https://videos.pexels.com/video-files/6522543/6522543-hd_720_1280_24fps.mp4", "size": 3463185}, {"id": 10064928, "quality": "sd", "file_type": "video/mp4", "width": 240, "height": 426, "fps": 23.97599983215332, "link": "https://videos.pexels.com/video-files/6522543/6522543-sd_240_426_24fps.mp4", "size": 407053}, {"id": 10064959, "quality": "uhd", "file_type": "video/mp4", "width": 1440, "height": 2560, "fps": 23.97599983215332, "link": "https://videos.pexels.com/video-files/6522543/6522543-uhd_1440_2560_24fps.mp4", "size": 15730643}, {"id": 10064997, "quality": "sd", "file_type": "video/mp4", "width": 360, "height": 640, "fps": 23.97599983215332, "link": "https://videos.pexels.com/video-files/6522543/6522543-sd_360_640_24fps.mp4", "size": 647504}, {"id": 10065033, "quality": "hd", "file_type": "video/mp4", "width": 1080, "height": 1920, "fps": 23.97599983215332, "link": "https://videos.pexels.com/video-files/6522543/6522543-hd_1080_1920_24fps.mp4", "size": 6707980}, {"id": 10065049, "quality": "uhd", "file_type": "video/mp4", "width": 2160, "height": 3840, "fps": 23.97599983215332, "link": "https://videos.pexels.com/video-files/6522543/6522543-uhd_2160_3840_24fps.mp4", "size": 31275965}], "video_pictures": [{"id": 4577470, "nr": 0, "picture": "https://images.pexels.com/videos/6522543/pictures/preview-0.jpeg"}, {"id": 4577489, "nr": 1, "picture": "https://images.pexels.com/videos/6522543/pictures/preview-1.jpeg"}, {"id": 4577512, "nr": 2, "picture": "https://images.pexels.com/videos/6522543/pictures/preview-2.jpeg"}, {"id": 4577537, "nr": 3, "picture": "https://images.pexels.com/videos/6522543/pictures/preview-3.jpeg"}, {"id": 4577570, "nr": 4, "picture": "https://images.pexels.com/videos/6522543/pictures/preview-4.jpeg"}, {"id": 4577607, "nr": 5, "picture": "https://images.pexels.com/videos/6522543/pictures/preview-5.jpeg"}, {"id": 4577641, "nr": 6, "picture": "https://images.pexels.com/videos/6522543/pictures/preview-6.jpeg"}, {"id": 4577676, "nr": 7, "picture": "https://images.pexels.com/videos/6522543/pictures/preview-7.jpeg"}, {"id": 4577714, "nr": 8, "picture": "https://images.pexels.com/videos/6522543/pictures/preview-8.jpeg"}, {"id": 4577755, "nr": 9, "picture": "https://images.pexels.com/videos/6522543/pictures/preview-9.jpeg"}, {"id": 4577807, "nr": 10, "picture": "https://images.pexels.com/videos/6522543/pictures/preview-10.jpeg"}, {"id": 4577849, "nr": 11, "picture": "https://images.pexels.com/videos/6522543/pictures/preview-11.jpeg"}, {"id": 4577880, "nr": 12, "picture": "https://images.pexels.com/videos/6522543/pictures/preview-12.jpeg"}, {"id": 4577911, "nr": 13, "picture": "https://images.pexels.com/videos/6522543/pictures/preview-13.jpeg"}, {"id": 4577942, "nr": 14, "picture": "https://images.pexels.com/videos/6522543/pictures/preview-14.jpeg"}]}, {"id": 7263149, "width": 2160, "height": 3840, "duration": 10, "full_res": null, "tags": [], "url": "https://www.pexels.com/video/couple-holding-each-other-s-hands-while-walking-7263149/", "image": "https://images.pexels.com/videos/7263149/pexels-photo-7263149.jpeg?auto=compress&cs=tinysrgb&fit=crop&h=1200&w=630", "avg_color": null, "user": {"id": 33201683, "name": "Sarah  Chai", "url": "https://www.pexels.com/@sarah-chai"}, "video_files": [{"id": 10369912, "quality": "sd", "file_type": "video/mp4", "width": 360, "height": 640, "fps": 23.97599983215332, "link": "https://videos.pexels.com/video-files/7263149/7263149-sd_360_640_24fps.mp4", "size": 572168}, {"id": 10369954, "quality": "uhd", "file_type": "video/mp4", "width": 1440, "height": 2560, "fps": 23.97599983215332, "link": "https://videos.pexels.com/video-files/7263149/7263149-uhd_1440_2560_24fps.mp4", "size": 14092019}, {"id": 10370006, "quality": "sd", "file_type": "video/mp4", "width": 540, "height": 960, "fps": 23.97599983215332, "link": "https://videos.pexels.com/video-files/7263149/7263149-sd_540_960_24fps.mp4", "size": 1538839}, {"id": 10370072, "quality": "hd", "file_type": "video/mp4", "width": 720, "height": 1280, "fps": 23.97599983215332, "link": "https://videos.pexels.com/video-files/7263149/7263149-hd_720_1280_24fps.mp4", "size": 3031082}, {"id": 10370186, "quality": "uhd", "file_type": "video/mp4", "width": 2160, "height": 3840, "fps": 23.97599983215332, "link": "https://videos.pexels.com/video-files/7263149/7263149-uhd_2160_3840_24fps.mp4", "size": 25674412}, {"id": 10370293, "quality": "sd", "file_type": "video/mp4", "width": 240, "height": 426, "fps": 23.97599983215332, "link": "https://videos.pexels.com/video-files/7263149/7263149-sd_240_426_24fps.mp4", "size": 413649}, {"id": 10370414, "quality": "hd", "file_type": "video/mp4", "width": 1080, "height": 1920, "fps": 23.97599983215332, "link": "https://videos.pexels.com/video-files/7263149/7263149-hd_1080_1920_24fps.mp4", "size": 5734783}], "video_pictures": [{"id": 6076616, "nr": 0, "picture": "https://images.pexels.com/videos/7263149/pictures/preview-0.jpeg"}, {"id": 6076621, "nr": 1, "picture": "https://images.pexels.com/videos/7263149/pictures/preview-1.jpeg"}, {"id": 6076626, "nr": 2, "picture": "https://images.pexels.com/videos/7263149/pictures/preview-2.jpeg"}, {"id": 6076632, "nr": 3, "picture": "https://images.pexels.com/videos/7263149/pictures/preview-3.jpeg"}, {"id": 6076639, "nr": 4, "picture": "https://images.pexels.com/videos/7263149/pictures/preview-4.jpeg"}, {"id": 6076646, "nr": 5, "picture": "https://images.pexels.com/videos/7263149/pictures/preview-5.jpeg"}, {"id": 6076649, "nr": 6, "picture": "https://images.pexels.com/videos/7263149/pictures/preview-6.jpeg"}, {"id": 6076655, "nr": 7, "picture": "https://images.pexels.com/videos/7263149/pictures/preview-7.jpeg"}, {"id": 6076662, "nr": 8, "picture": "https://images.pexels.com/videos/7263149/pictures/preview-8.jpeg"}, {"id": 6076667, "nr": 9, "picture": "https://images.pexels.com/videos/7263149/pictures/preview-9.jpeg"}, {"id": 6076672, "nr": 10, "picture": "https://images.pexels.com/videos/7263149/pictures/preview-10.jpeg"}, {"id": 6076676, "nr": 11, "picture": "https://images.pexels.com/videos/7263149/pictures/preview-11.jpeg"}, {"id": 6076679, "nr": 12, "picture": "https://images.pexels.com/videos/7263149/pictures/preview-12.jpeg"}, {"id": 6076681, "nr": 13, "picture": "https://images.pexels.com/videos/7263149/pictures/preview-13.jpeg"}, {"id": 6076684, "nr": 14, "picture": "https://images.pexels.com/videos/7263149/pictures/preview-14.jpeg"}]}, {"id": 8794895, "width": 2160, "height": 4096, "duration": 16, "full_res": null, "tags": [], "url": "https://www.pexels.com/video/an-elderly-couple-enjoying-life-8794895/", "image": "https://images.pexels.com/videos/8794895/health-health-care-healthcare-life-after-covid-8794895.jpeg?auto=compress&cs=tinysrgb&fit=crop&h=1200&w=630", "avg_color": null, "user": {"id": 2441340, "name": "Anastasia  Shuraeva", "url": "https://www.pexels.com/@anastasia-shuraeva"}, "video_files": [{"id": 10954866, "quality": "sd", "file_type": "video/mp4", "width": 226, "height": 426, "fps": 24.0, "link": "https://videos.pexels.com/video-files/8794895/8794895-sd_226_426_24fps.mp4", "size": 680561}, {"id": 10954947, "quality": "uhd", "file_type": "video/mp4", "width": 2160, "height": 4096, "fps": 24.0, "link": "https://videos.pexels.com/video-files/8794895/8794895-uhd_2160_4096_24fps.mp4", "size": 46800636}, {"id": 10955025, "quality": "hd", "file_type": "video/mp4", "width": 720, "height": 1366, "fps": 24.0, "link": "https://videos.pexels.com/video-files/8794895/8794895-hd_720_1366_24fps.mp4", "size": 5271658}, {"id": 10955124, "quality": "sd", "file_type": "video/mp4", "width": 506, "height": 960, "fps": 24.0, "link": "https://videos.pexels.com/video-files/8794895/8794895-sd_506_960_24fps.mp4", "size": 2713009}, {"id": 10955243, "quality": "hd", "file_type": "video/mp4", "width": 1080, "height": 2048, "fps": 24.0, "link": "https://videos.pexels.com/video-files/8794895/8794895-hd_1080_2048_24fps.mp4", "size": 10149561}, {"id": 10955268, "quality": "uhd", "file_type": "video/mp4", "width": 1440, "height": 2732, "fps": 24.0, "link": "https://videos.pexels.com/video-files/8794895/8794895-uhd_1440_2732_24fps.mp4", "size": 22998371}, {"id": 10955295, "quality": "sd", "file_type": "video/mp4", "width": 338, "height": 640, "fps": 24.0, "link": "https://videos.pexels.com/video-files/8794895/8794895-sd_338_640_24fps.mp4", "size": 943198}], "video_pictures": [{"id": 8831914, "nr": 0, "picture": "https://images.pexels.com/videos/8794895/pictures/preview-0.jpeg"}, {"id": 8831926, "nr": 1, "picture": "https://images.pexels.com/videos/8794895/pictures/preview-1.jpeg"}, {"id": 8831936, "nr": 2, "picture": "https://images.pexels.com/videos/8794895/pictures/preview-2.jpeg"}, {"id": 8831951, "nr": 3, "picture": "https://images.pexels.com/videos/8794895/pictures/preview-3.jpeg"}, {"id": 8831961, "nr": 4, "picture": "https://images.pexels.com/videos/8794895/pictures/preview-4.jpeg"}, {"id": 8831969, "nr": 5, "picture": "https://images.pexels.com/videos/8794895/pictures/preview-5.jpeg"}, {"id": 8831983, "nr": 6, "picture": "https://images.pexels.com/videos/8794895/pictures/preview-6.jpeg"}, {"id": 8831994, "nr": 7, "picture": "https://images.pexels.com/videos/8794895/pictures/preview-7.jpeg"}, {"id": 8832005, "nr": 8, "picture": "https://images.pexels.com/videos/8794895/pictures/preview-8.jpeg"}, {"id": 8832017, "nr": 9, "picture": "https://images.pexels.com/videos/8794895/pictures/preview-9.jpeg"}, {"id": 8832029, "nr": 10, "picture": "https://images.pexels.com/videos/8794895/pictures/preview-10.jpeg"}, {"id": 8832041, "nr": 11, "picture": "https://images.pexels.com/videos/8794895/pictures/preview-11.jpeg"}, {"id": 8832054, "nr": 12, "picture": "https://images.pexels.com/videos/8794895/pictures/preview-12.jpeg"}, {"id": 8832067, "nr": 13, "picture": "https://images.pexels.com/videos/8794895/pictures/preview-13.jpeg"}, {"id": 8832078, "nr": 14, "picture": "https://images.pexels.com/videos/8794895/pictures/preview-14.jpeg"}]}, {"id": 6670760, "width": 1080, "height": 1920, "duration": 11, "full_res": null, "tags": [], "url": "https://www.pexels.com/video/couple-talking-together-6670760/", "image": "https://images.pexels.com/videos/6670760/blended-family-breakup-breakups-broken-6670760.jpeg?auto=compress&cs=tinysrgb&fit=crop&h=1200&w=630", "avg_color": null, "user": {"id": 3149039, "name": "RDNE Stock project", "url": "https://www.pexels.com/@rdne"}, "video_files": [{"id": 10135126, "quality": "sd", "file_type": "video/mp4", "width": 240, "height": 426, "fps": 29.969999313354492, "link": "https://videos.pexels.com/video-files/6670760/6670760-sd_240_426_30fps.mp4", "size": 383381}, {"id": 10135174, "quality": "sd", "file_type": "video/mp4", "width": 360, "height": 640, "fps": 29.969999313354492, "link": "https://videos.pexels.com/video-files/6670760/6670760-sd_360_640_30fps.mp4", "size": 595772}, {"id": 10135252, "quality": "sd", "file_type": "video/mp4", "width": 540, "height": 960, "fps": 29.969999313354492, "link": "https://videos.pexels.com/video-files/6670760/6670760-sd_540_960_30fps.mp4", "size": 1397317}, {"id": 10135295, "quality": "hd", "file_type": "video/mp4", "width": 1080, "height": 1920, "fps": 29.969999313354492, "link": "https://videos.pexels.com/video-files/6670760/6670760-hd_1080_1920_30fps.mp4", "size": 5046614}, {"id": 10135367, "quality": "hd", "file_type": "video/mp4", "width": 720, "height": 1280, "fps": 59.940101623535156, "link": "https://videos.pexels.com/video-files/6670760/6670760-hd_720_1280_60fps.mp4", "size": 2853718}], "video_pictures": [{"id": 4907062, "nr": 0, "picture": "https://images.pexels.com/videos/6670760/pictures/preview-0.jpeg"}, {"id": 4907071, "nr": 1, "picture": "https://images.pexels.com/videos/6670760/pictures/preview-1.jpeg"}, {"id": 4907081, "nr": 2, "picture": "https://images.pexels.com/videos/6670760/pictures/preview-2.jpeg"}, {"id": 4907088, "nr": 3, "picture": "https://images.pexels.com/videos/6670760/pictures/preview-3.jpeg"}, {"id": 4907099, "nr": 4, "picture": "https://images.pexels.com/videos/6670760/pictures/preview-4.jpeg"}, {"id": 4907106, "nr": 5, "picture": "https://images.pexels.com/videos/6670760/pictures/preview-5.jpeg"}, {"id": 4907112, "nr": 6, "picture": "https://images.pexels.com/videos/6670760/pictures/preview-6.jpeg"}, {"id": 4907122, "nr": 7, "picture": "https://images.pexels.com/videos/6670760/pictures/preview-7.jpeg"}, {"id": 4907127, "nr": 8, "picture": "https://images.pexels.com/videos/6670760/pictures/preview-8.jpeg"}, {"id": 4907140, "nr": 9, "picture": "https://images.pexels.com/videos/6670760/pictures/preview-9.jpeg"}, {"id": 4907146, "nr": 10, "picture": "https://images.pexels.com/videos/6670760/pictures/preview-10.jpeg"}, {"id": 4907151, "nr": 11, "picture": "https://images.pexels.com/videos/6670760/pictures/preview-11.jpeg"}, {"id": 4907162, "nr": 12, "picture": "https://images.pexels.com/videos/6670760/pictures/preview-12.jpeg"}, {"id": 4907167, "nr": 13, "picture": "https://images.pexels.com/videos/6670760/pictures/preview-13.jpeg"}, {"id": 4907177, "nr": 14, "picture": "https://images.pexels.com/videos/6670760/pictures/preview-14.jpeg"}]}], "total_results": 8000, "next_page": "https://api.pexels.com/v1/videos/search/?orientation=portrait&page=2&per_page=8&query=talking+trees+real", "url": "https://api-server.pexels.com/search/videos/talking%20trees%20real/"}, "timestamp": "2024-12-28T22:18:09.945707"}
