{"query": "rare cactus", "response": {"page": 1, "per_page": 8, "videos": [{"id": 9008315, "width": 1038, "height": 1866, "duration": 7, "full_res": null, "tags": [], "url": "https://www.pexels.com/video/water-being-poured-in-a-glass-with-flowers-9008315/", "image": "https://images.pexels.com/videos/9008315/beautiful-beautiful-flowers-blooming-bouquet-9008315.jpeg?auto=compress&cs=tinysrgb&fit=crop&h=1200&w=630", "avg_color": null, "user": {"id": 42373327, "name": "solod_sha", "url": "https://www.pexels.com/@solodsha"}, "video_files": [{"id": 11043275, "quality": "hd", "file_type": "video/mp4", "width": 720, "height": 1294, "fps": 30.0, "link": "https://videos.pexels.com/video-files/9008315/9008315-hd_720_1294_30fps.mp4", "size": 2268903}, {"id": 11043374, "quality": "sd", "file_type": "video/mp4", "width": 356, "height": 640, "fps": 30.0, "link": "https://videos.pexels.com/video-files/9008315/9008315-sd_356_640_30fps.mp4", "size": 440962}, {"id": 11043467, "quality": "hd", "file_type": "video/mp4", "width": 1038, "height": 1866, "fps": 30.0, "link": "https://videos.pexels.com/video-files/9008315/9008315-hd_1038_1866_30fps.mp4", "size": 4496499}, {"id": 11043592, "quality": "sd", "file_type": "video/mp4", "width": 238, "height": 426, "fps": 30.0, "link": "https://videos.pexels.com/video-files/9008315/9008315-sd_238_426_30fps.mp4", "size": 320486}, {"id": 11043757, "quality": "sd", "file_type": "video/mp4", "width": 534, "height": 960, "fps": 30.0, "link": "https://videos.pexels.com/video-files/9008315/9008315-sd_534_960_30fps.mp4", "size": 1337826}], "video_pictures": [{"id": 9206697, "nr": 0, "picture": "https://images.pexels.com/videos/9008315/pictures/preview-0.jpeg"}, {"id": 9206699, "nr": 1, "picture": "https://images.pexels.com/videos/9008315/pictures/preview-1.jpeg"}, {"id": 9206700, "nr": 2, "picture": "https://images.pexels.com/videos/9008315/pictures/preview-2.jpeg"}, {"id": 9206701, "nr": 3, "picture": "https://images.pexels.com/videos/9008315/pictures/preview-3.jpeg"}, {"id": 9206702, "nr": 4, "picture": "https://images.pexels.com/videos/9008315/pictures/preview-4.jpeg"}, {"id": 9206703, "nr": 5, "picture": "https://images.pexels.com/videos/9008315/pictures/preview-5.jpeg"}, {"id": 9206704, "nr": 6, "picture": "https://images.pexels.com/videos/9008315/pictures/preview-6.jpeg"}, {"id": 9206705, "nr": 7, "picture": "https://images.pexels.com/videos/9008315/pictures/preview-7.jpeg"}, {"id": 9206706, "nr": 8, "picture": "https://images.pexels.com/videos/9008315/pictures/preview-8.jpeg"}, {"id": 9206707, "nr": 9, "picture": "https://images.pexels.com/videos/9008315/pictures/preview-9.jpeg"}, {"id": 9206708, "nr": 10, "picture": "https://images.pexels.com/videos/9008315/pictures/preview-10.jpeg"}, {"id": 9206709, "nr": 11, "picture": "https://images.pexels.com/videos/9008315/pictures/preview-11.jpeg"}, {"id": 9206710, "nr": 12, "picture": "https://images.pexels.com/videos/9008315/pictures/preview-12.jpeg"}, {"id": 9206711, "nr": 13, "picture": "https://images.pexels.com/videos/9008315/pictures/preview-13.jpeg"}, {"id": 9206712, "nr": 14, "picture": "https://images.pexels.com/videos/9008315/pictures/preview-14.jpeg"}]}, {"id": 3367437, "width": 1080, "height": 1920, "duration": 21, "full_res": null, "tags": [], "url": "https://www.pexels.com/video/white-flowers-in-full-bloom-3367437/", "image": "https://images.pexels.com/videos/3367437/free-video-3367437.jpg?auto=compress&cs=tinysrgb&fit=crop&h=1200&w=630", "avg_color": null, "user": {"id": 224751, "name": "Peter James", "url": "https://www.pexels.com/@peter-james-224751"}, "video_files": [{"id": 9317714, "quality": "sd", "file_type": "video/mp4", "width": 360, "height": 640, "fps": 30.0, "link": "https://videos.pexels.com/video-files/3367437/3367437-sd_360_640_30fps.mp4", "size": 1121195}, {"id": 9317991, "quality": "sd", "file_type": "video/mp4", "width": 540, "height": 960, "fps": 30.0, "link": "https://videos.pexels.com/video-files/3367437/3367437-sd_540_960_30fps.mp4", "size": 3336205}, {"id": 9318231, "quality": "hd", "file_type": "video/mp4", "width": 720, "height": 1280, "fps": 30.0, "link": "https://videos.pexels.com/video-files/3367437/3367437-hd_720_1280_30fps.mp4", "size": 7033599}, {"id": 9318333, "quality": "hd", "file_type": "video/mp4", "width": 1080, "height": 1920, "fps": 30.0, "link": "https://videos.pexels.com/video-files/3367437/3367437-hd_1080_1920_30fps.mp4", "size": 14062240}, {"id": 9318504, "quality": "sd", "file_type": "video/mp4", "width": 240, "height": 426, "fps": 30.0, "link": "https://videos.pexels.com/video-files/3367437/3367437-sd_240_426_30fps.mp4", "size": 687690}], "video_pictures": [{"id": 728977, "nr": 0, "picture": "https://images.pexels.com/videos/3367437/pictures/preview-0.jpeg"}, {"id": 728978, "nr": 1, "picture": "https://images.pexels.com/videos/3367437/pictures/preview-1.jpeg"}, {"id": 728980, "nr": 2, "picture": "https://images.pexels.com/videos/3367437/pictures/preview-2.jpeg"}, {"id": 728982, "nr": 3, "picture": "https://images.pexels.com/videos/3367437/pictures/preview-3.jpeg"}, {"id": 728984, "nr": 4, "picture": "https://images.pexels.com/videos/3367437/pictures/preview-4.jpeg"}, {"id": 728985, "nr": 5, "picture": "https://images.pexels.com/videos/3367437/pictures/preview-5.jpeg"}, {"id": 728986, "nr": 6, "picture": "https://images.pexels.com/videos/3367437/pictures/preview-6.jpeg"}, {"id": 728987, "nr": 7, "picture": "https://images.pexels.com/videos/3367437/pictures/preview-7.jpeg"}, {"id": 728988, "nr": 8, "picture": "https://images.pexels.com/videos/3367437/pictures/preview-8.jpeg"}, {"id": 728989, "nr": 9, "picture": "https://images.pexels.com/videos/3367437/pictures/preview-9.jpeg"}, {"id": 728990, "nr": 10, "picture": "https://images.pexels.com/videos/3367437/pictures/preview-10.jpeg"}, {"id": 728991, "nr": 11, "picture": "https://images.pexels.com/videos/3367437/pictures/preview-11.jpeg"}, {"id": 728992, "nr": 12, "picture": "https://images.pexels.com/videos/3367437/pictures/preview-12.jpeg"}, {"id": 728993, "nr": 13, "picture": "https://images.pexels.com/videos/3367437/pictures/preview-13.jpeg"}, {"id": 728994, "nr": 14, "picture": "https://images.pexels.com/videos/3367437/pictures/preview-14.jpeg"}]}, {"id": 7895825, "width": 1080, "height": 1920, "duration": 11, "full_res": null, "tags": [], "url": "https://www.pexels.com/video/video-of-a-desert-plant-7895825/", "image": "https://images.pexels.com/videos/7895825/adventure-arid-background-beach-7895825.jpeg?auto=compress&cs=tinysrgb&fit=crop&h=1200&w=630", "avg_color": null, "user": {"id": 3149039, "name": "RDNE Stock project", "url": "https://www.pexels.com/@rdne"}, "video_files": [{"id": 10612547, "quality": "hd", "file_type": "video/mp4", "width": 1080, "height": 1920, "fps": 30.0, "link": "https://videos.pexels.com/video-files/7895825/7895825-hd_1080_1920_30fps.mp4", "size": 7125056}, {"id": 10612615, "quality": "sd", "file_type": "video/mp4", "width": 240, "height": 426, "fps": 30.0, "link": "https://videos.pexels.com/video-files/7895825/7895825-sd_240_426_30fps.mp4", "size": 469700}, {"id": 10612692, "quality": "sd", "file_type": "video/mp4", "width": 360, "height": 640, "fps": 30.0, "link": "https://videos.pexels.com/video-files/7895825/7895825-sd_360_640_30fps.mp4", "size": 578654}, {"id": 10612747, "quality": "hd", "file_type": "video/mp4", "width": 720, "height": 1280, "fps": 30.0, "link": "https://videos.pexels.com/video-files/7895825/7895825-hd_720_1280_30fps.mp4", "size": 3407651}, {"id": 10612777, "quality": "sd", "file_type": "video/mp4", "width": 540, "height": 960, "fps": 30.0, "link": "https://videos.pexels.com/video-files/7895825/7895825-sd_540_960_30fps.mp4", "size": 1458326}], "video_pictures": [{"id": 7236860, "nr": 0, "picture": "https://images.pexels.com/videos/7895825/pictures/preview-0.jpeg"}, {"id": 7236868, "nr": 1, "picture": "https://images.pexels.com/videos/7895825/pictures/preview-1.jpeg"}, {"id": 7236890, "nr": 2, "picture": "https://images.pexels.com/videos/7895825/pictures/preview-2.jpeg"}, {"id": 7236910, "nr": 3, "picture": "https://images.pexels.com/videos/7895825/pictures/preview-3.jpeg"}, {"id": 7236941, "nr": 4, "picture": "https://images.pexels.com/videos/7895825/pictures/preview-4.jpeg"}, {"id": 7236962, "nr": 5, "picture": "https://images.pexels.com/videos/7895825/pictures/preview-5.jpeg"}, {"id": 7236990, "nr": 6, "picture": "https://images.pexels.com/videos/7895825/pictures/preview-6.jpeg"}, {"id": 7237008, "nr": 7, "picture": "https://images.pexels.com/videos/7895825/pictures/preview-7.jpeg"}, {"id": 7237023, "nr": 8, "picture": "https://images.pexels.com/videos/7895825/pictures/preview-8.jpeg"}, {"id": 7237041, "nr": 9, "picture": "https://images.pexels.com/videos/7895825/pictures/preview-9.jpeg"}, {"id": 7237060, "nr": 10, "picture": "https://images.pexels.com/videos/7895825/pictures/preview-10.jpeg"}, {"id": 7237086, "nr": 11, "picture": "https://images.pexels.com/videos/7895825/pictures/preview-11.jpeg"}, {"id": 7237100, "nr": 12, "picture": "https://images.pexels.com/videos/7895825/pictures/preview-12.jpeg"}, {"id": 7237119, "nr": 13, "picture": "https://images.pexels.com/videos/7895825/pictures/preview-13.jpeg"}, {"id": 7237132, "nr": 14, "picture": "https://images.pexels.com/videos/7895825/pictures/preview-14.jpeg"}]}, {"id": 3694841, "width": 1080, "height": 1920, "duration": 13, "full_res": null, "tags": [], "url": "https://www.pexels.com/video/watching-the-tiger-moving-around-3694841/", "image": "https://images.pexels.com/videos/3694841/bengal-tiger-3694841.jpeg?auto=compress&cs=tinysrgb&fit=crop&h=1200&w=630", "avg_color": null, "user": {"id": 1849359, "name": "Dee  Willi", "url": "https://www.pexels.com/@dedeeo"}, "video_files": [{"id": 9322075, "quality": "sd", "file_type": "video/mp4", "width": 540, "height": 960, "fps": 30.0, "link": "https://videos.pexels.com/video-files/3694841/3694841-sd_540_960_30fps.mp4", "size": 2354711}, {"id": 9322149, "quality": "sd", "file_type": "video/mp4", "width": 240, "height": 426, "fps": 30.0, "link": "https://videos.pexels.com/video-files/3694841/3694841-sd_240_426_30fps.mp4", "size": 548597}, {"id": 9322245, "quality": "hd", "file_type": "video/mp4", "width": 1080, "height": 1920, "fps": 30.0, "link": "https://videos.pexels.com/video-files/3694841/3694841-hd_1080_1920_30fps.mp4", "size": 8853903}, {"id": 9322353, "quality": "sd", "file_type": "video/mp4", "width": 360, "height": 640, "fps": 30.0, "link": "https://videos.pexels.com/video-files/3694841/3694841-sd_360_640_30fps.mp4", "size": 910881}, {"id": 9322442, "quality": "hd", "file_type": "video/mp4", "width": 720, "height": 1280, "fps": 30.0, "link": "https://videos.pexels.com/video-files/3694841/3694841-hd_720_1280_30fps.mp4", "size": 4475603}], "video_pictures": [{"id": 870762, "nr": 0, "picture": "https://images.pexels.com/videos/3694841/pictures/preview-0.jpeg"}, {"id": 870763, "nr": 1, "picture": "https://images.pexels.com/videos/3694841/pictures/preview-1.jpeg"}, {"id": 870764, "nr": 2, "picture": "https://images.pexels.com/videos/3694841/pictures/preview-2.jpeg"}, {"id": 870765, "nr": 3, "picture": "https://images.pexels.com/videos/3694841/pictures/preview-3.jpeg"}, {"id": 870766, "nr": 4, "picture": "https://images.pexels.com/videos/3694841/pictures/preview-4.jpeg"}, {"id": 870767, "nr": 5, "picture": "https://images.pexels.com/videos/3694841/pictures/preview-5.jpeg"}, {"id": 870768, "nr": 6, "picture": "https://images.pexels.com/videos/3694841/pictures/preview-6.jpeg"}, {"id": 870769, "nr": 7, "picture": "https://images.pexels.com/videos/3694841/pictures/preview-7.jpeg"}, {"id": 870770, "nr": 8, "picture": "https://images.pexels.com/videos/3694841/pictures/preview-8.jpeg"}, {"id": 870771, "nr": 9, "picture": "https://images.pexels.com/videos/3694841/pictures/preview-9.jpeg"}, {"id": 870772, "nr": 10, "picture": "https://images.pexels.com/videos/3694841/pictures/preview-10.jpeg"}, {"id": 870773, "nr": 11, "picture": "https://images.pexels.com/videos/3694841/pictures/preview-11.jpeg"}, {"id": 870774, "nr": 12, "picture": "https://images.pexels.com/videos/3694841/pictures/preview-12.jpeg"}, {"id": 870775, "nr": 13, "picture": "https://images.pexels.com/videos/3694841/pictures/preview-13.jpeg"}, {"id": 870776, "nr": 14, "picture": "https://images.pexels.com/videos/3694841/pictures/preview-14.jpeg"}]}, {"id": 11760010, "width": 2160, "height": 4096, "duration": 19, "full_res": null, "tags": [], "url": "https://www.pexels.com/video/a-young-woman-carrying-a-suitcase-on-a-dirt-road-11760010/", "image": "https://images.pexels.com/videos/11760010/pexels-photo-11760010.jpeg?auto=compress&cs=tinysrgb&fit=crop&h=1200&w=630", "avg_color": null, "user": {"id": 2678846, "name": "ROMAN ODINTSOV", "url": "https://www.pexels.com/@roman-odintsov"}, "video_files": [{"id": 5106395, "quality": "uhd", "file_type": "video/mp4", "width": 2160, "height": 4096, "fps": 29.969999313354492, "link": "https://videos.pexels.com/video-files/11760010/11760010-uhd_2160_4096_30fps.mp4", "size": 24591825}, {"id": 5106396, "quality": "sd", "file_type": "video/mp4", "width": 338, "height": 640, "fps": 29.969999313354492, "link": "https://videos.pexels.com/video-files/11760010/11760010-sd_338_640_30fps.mp4", "size": 1888563}, {"id": 5106397, "quality": "sd", "file_type": "video/mp4", "width": 226, "height": 426, "fps": 29.969999313354492, "link": "https://videos.pexels.com/video-files/11760010/11760010-sd_226_426_30fps.mp4", "size": 1222674}, {"id": 5106398, "quality": "sd", "file_type": "video/mp4", "width": 506, "height": 960, "fps": 29.969999313354492, "link": "https://videos.pexels.com/video-files/11760010/11760010-sd_506_960_30fps.mp4", "size": 3688414}, {"id": 5106399, "quality": "hd", "file_type": "video/mp4", "width": 1080, "height": 2048, "fps": 29.969999313354492, "link": "https://videos.pexels.com/video-files/11760010/11760010-hd_1080_2048_30fps.mp4", "size": 9361562}, {"id": 5106400, "quality": "hd", "file_type": "video/mp4", "width": 720, "height": 1366, "fps": 29.969999313354492, "link": "https://videos.pexels.com/video-files/11760010/11760010-hd_720_1366_30fps.mp4", "size": 5592187}, {"id": 5106401, "quality": "uhd", "file_type": "video/mp4", "width": 1440, "height": 2732, "fps": 29.969999313354492, "link": "https://videos.pexels.com/video-files/11760010/11760010-uhd_1440_2732_30fps.mp4", "size": 14344929}], "video_pictures": [{"id": 12473924, "nr": 0, "picture": "https://images.pexels.com/videos/11760010/pictures/preview-0.jpeg"}, {"id": 12473929, "nr": 1, "picture": "https://images.pexels.com/videos/11760010/pictures/preview-1.jpeg"}, {"id": 12473938, "nr": 2, "picture": "https://images.pexels.com/videos/11760010/pictures/preview-2.jpeg"}, {"id": 12473948, "nr": 3, "picture": "https://images.pexels.com/videos/11760010/pictures/preview-3.jpeg"}, {"id": 12473957, "nr": 4, "picture": "https://images.pexels.com/videos/11760010/pictures/preview-4.jpeg"}, {"id": 12473976, "nr": 5, "picture": "https://images.pexels.com/videos/11760010/pictures/preview-5.jpeg"}, {"id": 12474003, "nr": 6, "picture": "https://images.pexels.com/videos/11760010/pictures/preview-6.jpeg"}, {"id": 12474064, "nr": 7, "picture": "https://images.pexels.com/videos/11760010/pictures/preview-7.jpeg"}, {"id": 12474082, "nr": 8, "picture": "https://images.pexels.com/videos/11760010/pictures/preview-8.jpeg"}, {"id": 12474100, "nr": 9, "picture": "https://images.pexels.com/videos/11760010/pictures/preview-9.jpeg"}, {"id": 12474115, "nr": 10, "picture": "https://images.pexels.com/videos/11760010/pictures/preview-10.jpeg"}, {"id": 12474144, "nr": 11, "picture": "https://images.pexels.com/videos/11760010/pictures/preview-11.jpeg"}, {"id": 12474159, "nr": 12, "picture": "https://images.pexels.com/videos/11760010/pictures/preview-12.jpeg"}, {"id": 12474174, "nr": 13, "picture": "https://images.pexels.com/videos/11760010/pictures/preview-13.jpeg"}, {"id": 12474202, "nr": 14, "picture": "https://images.pexels.com/videos/11760010/pictures/preview-14.jpeg"}]}, {"id": 9010992, "width": 1080, "height": 1920, "duration": 17, "full_res": null, "tags": [], "url": "https://www.pexels.com/video/hyperlapse-footage-of-a-car-passing-on-a-road-in-the-desert-9010992/", "image": "https://images.pexels.com/videos/9010992/4k-arid-asphalt-beach-9010992.jpeg?auto=compress&cs=tinysrgb&fit=crop&h=1200&w=630", "avg_color": null, "user": {"id": 10715715, "name": "Kindel Media", "url": "https://www.pexels.com/@kindelmedia"}, "video_files": [{"id": 11042530, "quality": "sd", "file_type": "video/mp4", "width": 540, "height": 960, "fps": 30.0, "link": "https://videos.pexels.com/video-files/9010992/9010992-sd_540_960_30fps.mp4", "size": 4034670}, {"id": 11042542, "quality": "hd", "file_type": "video/mp4", "width": 1080, "height": 1920, "fps": 30.0, "link": "https://videos.pexels.com/video-files/9010992/9010992-hd_1080_1920_30fps.mp4", "size": 11018916}, {"id": 11042560, "quality": "sd", "file_type": "video/mp4", "width": 360, "height": 640, "fps": 30.0, "link": "https://videos.pexels.com/video-files/9010992/9010992-sd_360_640_30fps.mp4", "size": 1433116}, {"id": 11042585, "quality": "hd", "file_type": "video/mp4", "width": 720, "height": 1280, "fps": 30.0, "link": "https://videos.pexels.com/video-files/9010992/9010992-hd_720_1280_30fps.mp4", "size": 5805370}], "video_pictures": [{"id": 9209956, "nr": 0, "picture": "https://images.pexels.com/videos/9010992/pictures/preview-0.jpeg"}, {"id": 9209957, "nr": 1, "picture": "https://images.pexels.com/videos/9010992/pictures/preview-1.jpeg"}, {"id": 9209958, "nr": 2, "picture": "https://images.pexels.com/videos/9010992/pictures/preview-2.jpeg"}, {"id": 9209960, "nr": 3, "picture": "https://images.pexels.com/videos/9010992/pictures/preview-3.jpeg"}, {"id": 9209961, "nr": 4, "picture": "https://images.pexels.com/videos/9010992/pictures/preview-4.jpeg"}, {"id": 9209962, "nr": 5, "picture": "https://images.pexels.com/videos/9010992/pictures/preview-5.jpeg"}, {"id": 9209964, "nr": 6, "picture": "https://images.pexels.com/videos/9010992/pictures/preview-6.jpeg"}, {"id": 9209965, "nr": 7, "picture": "https://images.pexels.com/videos/9010992/pictures/preview-7.jpeg"}, {"id": 9209966, "nr": 8, "picture": "https://images.pexels.com/videos/9010992/pictures/preview-8.jpeg"}, {"id": 9209968, "nr": 9, "picture": "https://images.pexels.com/videos/9010992/pictures/preview-9.jpeg"}, {"id": 9209969, "nr": 10, "picture": "https://images.pexels.com/videos/9010992/pictures/preview-10.jpeg"}, {"id": 9209972, "nr": 11, "picture": "https://images.pexels.com/videos/9010992/pictures/preview-11.jpeg"}, {"id": 9209973, "nr": 12, "picture": "https://images.pexels.com/videos/9010992/pictures/preview-12.jpeg"}, {"id": 9209975, "nr": 13, "picture": "https://images.pexels.com/videos/9010992/pictures/preview-13.jpeg"}, {"id": 9209977, "nr": 14, "picture": "https://images.pexels.com/videos/9010992/pictures/preview-14.jpeg"}]}, {"id": 6186640, "width": 2160, "height": 4096, "duration": 18, "full_res": null, "tags": [], "url": "https://www.pexels.com/video/person-putting-check-on-the-to-do-list-pad-6186640/", "image": "https://images.pexels.com/videos/6186640/pexels-photo-6186640.jpeg?auto=compress&cs=tinysrgb&fit=crop&h=1200&w=630", "avg_color": null, "user": {"id": 2408093, "name": "KATRIN  BOLOVTSOVA", "url": "https://www.pexels.com/@ekaterina-bolovtsova"}, "video_files": [{"id": 9950456, "quality": "sd", "file_type": "video/mp4", "width": 506, "height": 960, "fps": 30.0, "link": "https://videos.pexels.com/video-files/6186640/6186640-sd_506_960_30fps.mp4", "size": 998894}, {"id": 9950562, "quality": "hd", "file_type": "video/mp4", "width": 720, "height": 1366, "fps": 30.0, "link": "https://videos.pexels.com/video-files/6186640/6186640-hd_720_1366_30fps.mp4", "size": 2249558}, {"id": 9950631, "quality": "hd", "file_type": "video/mp4", "width": 1080, "height": 2048, "fps": 30.0, "link": "https://videos.pexels.com/video-files/6186640/6186640-hd_1080_2048_30fps.mp4", "size": 7121847}, {"id": 9950695, "quality": "sd", "file_type": "video/mp4", "width": 338, "height": 640, "fps": 30.0, "link": "https://videos.pexels.com/video-files/6186640/6186640-sd_338_640_30fps.mp4", "size": 462382}, {"id": 9950805, "quality": "uhd", "file_type": "video/mp4", "width": 2160, "height": 4096, "fps": 30.0, "link": "https://videos.pexels.com/video-files/6186640/6186640-uhd_2160_4096_30fps.mp4", "size": 51655552}, {"id": 9950918, "quality": "sd", "file_type": "video/mp4", "width": 226, "height": 426, "fps": 30.0, "link": "https://videos.pexels.com/video-files/6186640/6186640-sd_226_426_30fps.mp4", "size": 234314}, {"id": 9950986, "quality": "uhd", "file_type": "video/mp4", "width": 1440, "height": 2732, "fps": 30.0, "link": "https://videos.pexels.com/video-files/6186640/6186640-uhd_1440_2732_30fps.mp4", "size": 18849526}], "video_pictures": [{"id": 4037764, "nr": 0, "picture": "https://images.pexels.com/videos/6186640/pictures/preview-0.jpeg"}, {"id": 4037771, "nr": 1, "picture": "https://images.pexels.com/videos/6186640/pictures/preview-1.jpeg"}, {"id": 4037777, "nr": 2, "picture": "https://images.pexels.com/videos/6186640/pictures/preview-2.jpeg"}, {"id": 4037784, "nr": 3, "picture": "https://images.pexels.com/videos/6186640/pictures/preview-3.jpeg"}, {"id": 4037792, "nr": 4, "picture": "https://images.pexels.com/videos/6186640/pictures/preview-4.jpeg"}, {"id": 4037799, "nr": 5, "picture": "https://images.pexels.com/videos/6186640/pictures/preview-5.jpeg"}, {"id": 4037805, "nr": 6, "picture": "https://images.pexels.com/videos/6186640/pictures/preview-6.jpeg"}, {"id": 4037811, "nr": 7, "picture": "https://images.pexels.com/videos/6186640/pictures/preview-7.jpeg"}, {"id": 4037824, "nr": 8, "picture": "https://images.pexels.com/videos/6186640/pictures/preview-8.jpeg"}, {"id": 4037834, "nr": 9, "picture": "https://images.pexels.com/videos/6186640/pictures/preview-9.jpeg"}, {"id": 4037848, "nr": 10, "picture": "https://images.pexels.com/videos/6186640/pictures/preview-10.jpeg"}, {"id": 4037862, "nr": 11, "picture": "https://images.pexels.com/videos/6186640/pictures/preview-11.jpeg"}, {"id": 4037866, "nr": 12, "picture": "https://images.pexels.com/videos/6186640/pictures/preview-12.jpeg"}, {"id": 4037868, "nr": 13, "picture": "https://images.pexels.com/videos/6186640/pictures/preview-13.jpeg"}, {"id": 4037871, "nr": 14, "picture": "https://images.pexels.com/videos/6186640/pictures/preview-14.jpeg"}]}, {"id": 8516673, "width": 2160, "height": 3840, "duration": 7, "full_res": null, "tags": [], "url": "https://www.pexels.com/video/crystal-beads-on-the-table-8516673/", "image": "https://images.pexels.com/videos/8516673/abstract-abstraction-background-bubble-8516673.jpeg?auto=compress&cs=tinysrgb&fit=crop&h=1200&w=630", "avg_color": null, "user": {"id": 10955896, "name": "Anna Nekrashevich", "url": "https://www.pexels.com/@anna-nekrashevich"}, "video_files": [{"id": 10873329, "quality": "sd", "file_type": "video/mp4", "width": 360, "height": 640, "fps": 30.0, "link": "https://videos.pexels.com/video-files/8516673/8516673-sd_360_640_30fps.mp4", "size": 428389}, {"id": 10873414, "quality": "uhd", "file_type": "video/mp4", "width": 1440, "height": 2560, "fps": 30.0, "link": "https://videos.pexels.com/video-files/8516673/8516673-uhd_1440_2560_30fps.mp4", "size": 10905608}, {"id": 10873449, "quality": "sd", "file_type": "video/mp4", "width": 240, "height": 426, "fps": 30.0, "link": "https://videos.pexels.com/video-files/8516673/8516673-sd_240_426_30fps.mp4", "size": 197473}, {"id": 10873463, "quality": "hd", "file_type": "video/mp4", "width": 720, "height": 1280, "fps": 30.0, "link": "https://videos.pexels.com/video-files/8516673/8516673-hd_720_1280_30fps.mp4", "size": 2135001}, {"id": 10873587, "quality": "uhd", "file_type": "video/mp4", "width": 2160, "height": 3840, "fps": 30.0, "link": "https://videos.pexels.com/video-files/8516673/8516673-uhd_2160_3840_30fps.mp4", "size": 21000185}, {"id": 10873707, "quality": "sd", "file_type": "video/mp4", "width": 540, "height": 960, "fps": 30.0, "link": "https://videos.pexels.com/video-files/8516673/8516673-sd_540_960_30fps.mp4", "size": 1272463}, {"id": 10873751, "quality": "hd", "file_type": "video/mp4", "width": 1080, "height": 1920, "fps": 30.0, "link": "https://videos.pexels.com/video-files/8516673/8516673-hd_1080_1920_30fps.mp4", "size": 4476768}], "video_pictures": [{"id": 8417576, "nr": 0, "picture": "https://images.pexels.com/videos/8516673/pictures/preview-0.jpeg"}, {"id": 8417592, "nr": 1, "picture": "https://images.pexels.com/videos/8516673/pictures/preview-1.jpeg"}, {"id": 8417605, "nr": 2, "picture": "https://images.pexels.com/videos/8516673/pictures/preview-2.jpeg"}, {"id": 8417622, "nr": 3, "picture": "https://images.pexels.com/videos/8516673/pictures/preview-3.jpeg"}, {"id": 8417640, "nr": 4, "picture": "https://images.pexels.com/videos/8516673/pictures/preview-4.jpeg"}, {"id": 8417656, "nr": 5, "picture": "https://images.pexels.com/videos/8516673/pictures/preview-5.jpeg"}, {"id": 8417677, "nr": 6, "picture": "https://images.pexels.com/videos/8516673/pictures/preview-6.jpeg"}, {"id": 8417697, "nr": 7, "picture": "https://images.pexels.com/videos/8516673/pictures/preview-7.jpeg"}, {"id": 8417716, "nr": 8, "picture": "https://images.pexels.com/videos/8516673/pictures/preview-8.jpeg"}, {"id": 8417728, "nr": 9, "picture": "https://images.pexels.com/videos/8516673/pictures/preview-9.jpeg"}, {"id": 8417745, "nr": 10, "picture": "https://images.pexels.com/videos/8516673/pictures/preview-10.jpeg"}, {"id": 8417756, "nr": 11, "picture": "https://images.pexels.com/videos/8516673/pictures/preview-11.jpeg"}, {"id": 8417770, "nr": 12, "picture": "https://images.pexels.com/videos/8516673/pictures/preview-12.jpeg"}, {"id": 8417784, "nr": 13, "picture": "https://images.pexels.com/videos/8516673/pictures/preview-13.jpeg"}, {"id": 8417793, "nr": 14, "picture": "https://images.pexels.com/videos/8516673/pictures/preview-14.jpeg"}]}], "total_results": 165, "next_page": "https://api.pexels.com/v1/videos/search/?orientation=portrait&page=2&per_page=8&query=rare+cactus", "url": "https://api-server.pexels.com/search/videos/rare%20cactus/"}, "timestamp": "2024-12-28T23:03:43.779782"}
