{"query": "gallon container", "response": {"page": 1, "per_page": 8, "videos": [{"id": 8064121, "width": 1080, "height": 1920, "duration": 13, "full_res": null, "tags": [], "url": "https://www.pexels.com/video/man-pouring-milk-in-a-metal-gallon-8064121/", "image": "https://images.pexels.com/videos/8064121/adult-animals-art-artisan-8064121.jpeg?auto=compress&cs=tinysrgb&fit=crop&h=1200&w=630", "avg_color": null, "user": {"id": 11924337, "name": "Los Muertos Crew", "url": "https://www.pexels.com/@cristian-rojas"}, "video_files": [{"id": 10676822, "quality": "sd", "file_type": "video/mp4", "width": 240, "height": 426, "fps": 23.97599983215332, "link": "https://videos.pexels.com/video-files/8064121/8064121-sd_240_426_24fps.mp4", "size": 541137}, {"id": 10676954, "quality": "sd", "file_type": "video/mp4", "width": 360, "height": 640, "fps": 23.97599983215332, "link": "https://videos.pexels.com/video-files/8064121/8064121-sd_360_640_24fps.mp4", "size": 754055}, {"id": 10677009, "quality": "hd", "file_type": "video/mp4", "width": 720, "height": 1280, "fps": 23.97599983215332, "link": "https://videos.pexels.com/video-files/8064121/8064121-hd_720_1280_24fps.mp4", "size": 2763614}, {"id": 10677118, "quality": "sd", "file_type": "video/mp4", "width": 540, "height": 960, "fps": 23.97599983215332, "link": "https://videos.pexels.com/video-files/8064121/8064121-sd_540_960_24fps.mp4", "size": 1566878}, {"id": 10677230, "quality": "hd", "file_type": "video/mp4", "width": 1080, "height": 1920, "fps": 23.97599983215332, "link": "https://videos.pexels.com/video-files/8064121/8064121-hd_1080_1920_24fps.mp4", "size": 5891972}], "video_pictures": [{"id": 7534218, "nr": 0, "picture": "https://images.pexels.com/videos/8064121/pictures/preview-0.jpeg"}, {"id": 7534224, "nr": 1, "picture": "https://images.pexels.com/videos/8064121/pictures/preview-1.jpeg"}, {"id": 7534229, "nr": 2, "picture": "https://images.pexels.com/videos/8064121/pictures/preview-2.jpeg"}, {"id": 7534234, "nr": 3, "picture": "https://images.pexels.com/videos/8064121/pictures/preview-3.jpeg"}, {"id": 7534240, "nr": 4, "picture": "https://images.pexels.com/videos/8064121/pictures/preview-4.jpeg"}, {"id": 7534247, "nr": 5, "picture": "https://images.pexels.com/videos/8064121/pictures/preview-5.jpeg"}, {"id": 7534254, "nr": 6, "picture": "https://images.pexels.com/videos/8064121/pictures/preview-6.jpeg"}, {"id": 7534261, "nr": 7, "picture": "https://images.pexels.com/videos/8064121/pictures/preview-7.jpeg"}, {"id": 7534269, "nr": 8, "picture": "https://images.pexels.com/videos/8064121/pictures/preview-8.jpeg"}, {"id": 7534276, "nr": 9, "picture": "https://images.pexels.com/videos/8064121/pictures/preview-9.jpeg"}, {"id": 7534283, "nr": 10, "picture": "https://images.pexels.com/videos/8064121/pictures/preview-10.jpeg"}, {"id": 7534291, "nr": 11, "picture": "https://images.pexels.com/videos/8064121/pictures/preview-11.jpeg"}, {"id": 7534299, "nr": 12, "picture": "https://images.pexels.com/videos/8064121/pictures/preview-12.jpeg"}, {"id": 7534304, "nr": 13, "picture": "https://images.pexels.com/videos/8064121/pictures/preview-13.jpeg"}, {"id": 7534314, "nr": 14, "picture": "https://images.pexels.com/videos/8064121/pictures/preview-14.jpeg"}]}, {"id": 5935123, "width": 1080, "height": 1920, "duration": 12, "full_res": null, "tags": [], "url": "https://www.pexels.com/video/putting-kiwi-slices-in-blender-5935123/", "image": "https://images.pexels.com/videos/5935123/pexels-photo-5935123.jpeg?auto=compress&cs=tinysrgb&fit=crop&h=1200&w=630", "avg_color": null, "user": {"id": 3660112, "name": "Charlotte May", "url": "https://www.pexels.com/@charlotte-may"}, "video_files": [{"id": 9860885, "quality": "hd", "file_type": "video/mp4", "width": 1080, "height": 1920, "fps": 25.0, "link": "https://videos.pexels.com/video-files/5935123/5935123-hd_1080_1920_25fps.mp4", "size": 5121693}, {"id": 9860988, "quality": "sd", "file_type": "video/mp4", "width": 540, "height": 960, "fps": 25.0, "link": "https://videos.pexels.com/video-files/5935123/5935123-sd_540_960_25fps.mp4", "size": 1430667}, {"id": 9861044, "quality": "hd", "file_type": "video/mp4", "width": 720, "height": 1280, "fps": 50.0, "link": "https://videos.pexels.com/video-files/5935123/5935123-hd_720_1280_50fps.mp4", "size": 2321786}, {"id": 9861094, "quality": "sd", "file_type": "video/mp4", "width": 360, "height": 640, "fps": 25.0, "link": "https://videos.pexels.com/video-files/5935123/5935123-sd_360_640_25fps.mp4", "size": 679728}, {"id": 9861137, "quality": "sd", "file_type": "video/mp4", "width": 240, "height": 426, "fps": 25.0, "link": "https://videos.pexels.com/video-files/5935123/5935123-sd_240_426_25fps.mp4", "size": 367622}], "video_pictures": [{"id": 3622668, "nr": 0, "picture": "https://images.pexels.com/videos/5935123/pictures/preview-0.jpeg"}, {"id": 3622704, "nr": 1, "picture": "https://images.pexels.com/videos/5935123/pictures/preview-1.jpeg"}, {"id": 3622749, "nr": 2, "picture": "https://images.pexels.com/videos/5935123/pictures/preview-2.jpeg"}, {"id": 3622778, "nr": 3, "picture": "https://images.pexels.com/videos/5935123/pictures/preview-3.jpeg"}, {"id": 3622822, "nr": 4, "picture": "https://images.pexels.com/videos/5935123/pictures/preview-4.jpeg"}, {"id": 3622857, "nr": 5, "picture": "https://images.pexels.com/videos/5935123/pictures/preview-5.jpeg"}, {"id": 3622891, "nr": 6, "picture": "https://images.pexels.com/videos/5935123/pictures/preview-6.jpeg"}, {"id": 3622927, "nr": 7, "picture": "https://images.pexels.com/videos/5935123/pictures/preview-7.jpeg"}, {"id": 3622970, "nr": 8, "picture": "https://images.pexels.com/videos/5935123/pictures/preview-8.jpeg"}, {"id": 3623057, "nr": 9, "picture": "https://images.pexels.com/videos/5935123/pictures/preview-9.jpeg"}, {"id": 3623079, "nr": 10, "picture": "https://images.pexels.com/videos/5935123/pictures/preview-10.jpeg"}, {"id": 3623101, "nr": 11, "picture": "https://images.pexels.com/videos/5935123/pictures/preview-11.jpeg"}, {"id": 3623121, "nr": 12, "picture": "https://images.pexels.com/videos/5935123/pictures/preview-12.jpeg"}, {"id": 3623136, "nr": 13, "picture": "https://images.pexels.com/videos/5935123/pictures/preview-13.jpeg"}, {"id": 3623144, "nr": 14, "picture": "https://images.pexels.com/videos/5935123/pictures/preview-14.jpeg"}]}, {"id": 7931711, "width": 2160, "height": 3840, "duration": 10, "full_res": null, "tags": [], "url": "https://www.pexels.com/video/a-person-making-a-shake-7931711/", "image": "https://images.pexels.com/videos/7931711/balanced-diet-breakfast-cold-cooking-7931711.jpeg?auto=compress&cs=tinysrgb&fit=crop&h=1200&w=630", "avg_color": null, "user": {"id": 48864519, "name": "Nicola Barts", "url": "https://www.pexels.com/@nicola-barts"}, "video_files": [{"id": 10618452, "quality": "sd", "file_type": "video/mp4", "width": 360, "height": 640, "fps": 23.97599983215332, "link": "https://videos.pexels.com/video-files/7931711/7931711-sd_360_640_24fps.mp4", "size": 539244}, {"id": 10618532, "quality": "sd", "file_type": "video/mp4", "width": 540, "height": 960, "fps": 23.97599983215332, "link": "https://videos.pexels.com/video-files/7931711/7931711-sd_540_960_24fps.mp4", "size": 1266144}, {"id": 10618631, "quality": "uhd", "file_type": "video/mp4", "width": 2160, "height": 3840, "fps": 23.97599983215332, "link": "https://videos.pexels.com/video-files/7931711/7931711-uhd_2160_3840_24fps.mp4", "size": 25318058}, {"id": 10618689, "quality": "sd", "file_type": "video/mp4", "width": 240, "height": 426, "fps": 23.97599983215332, "link": "https://videos.pexels.com/video-files/7931711/7931711-sd_240_426_24fps.mp4", "size": 374554}, {"id": 10618735, "quality": "hd", "file_type": "video/mp4", "width": 720, "height": 1280, "fps": 23.97599983215332, "link": "https://videos.pexels.com/video-files/7931711/7931711-hd_720_1280_24fps.mp4", "size": 2460979}, {"id": 10618832, "quality": "hd", "file_type": "video/mp4", "width": 1080, "height": 1920, "fps": 23.97599983215332, "link": "https://videos.pexels.com/video-files/7931711/7931711-hd_1080_1920_24fps.mp4", "size": 5569391}, {"id": 10618951, "quality": "uhd", "file_type": "video/mp4", "width": 1440, "height": 2560, "fps": 23.97599983215332, "link": "https://videos.pexels.com/video-files/7931711/7931711-uhd_1440_2560_24fps.mp4", "size": 11348660}], "video_pictures": [{"id": 7283773, "nr": 0, "picture": "https://images.pexels.com/videos/7931711/pictures/preview-0.jpeg"}, {"id": 7283779, "nr": 1, "picture": "https://images.pexels.com/videos/7931711/pictures/preview-1.jpeg"}, {"id": 7283802, "nr": 2, "picture": "https://images.pexels.com/videos/7931711/pictures/preview-2.jpeg"}, {"id": 7283809, "nr": 3, "picture": "https://images.pexels.com/videos/7931711/pictures/preview-3.jpeg"}, {"id": 7283824, "nr": 4, "picture": "https://images.pexels.com/videos/7931711/pictures/preview-4.jpeg"}, {"id": 7283833, "nr": 5, "picture": "https://images.pexels.com/videos/7931711/pictures/preview-5.jpeg"}, {"id": 7283843, "nr": 6, "picture": "https://images.pexels.com/videos/7931711/pictures/preview-6.jpeg"}, {"id": 7283860, "nr": 7, "picture": "https://images.pexels.com/videos/7931711/pictures/preview-7.jpeg"}, {"id": 7283872, "nr": 8, "picture": "https://images.pexels.com/videos/7931711/pictures/preview-8.jpeg"}, {"id": 7283880, "nr": 9, "picture": "https://images.pexels.com/videos/7931711/pictures/preview-9.jpeg"}, {"id": 7283896, "nr": 10, "picture": "https://images.pexels.com/videos/7931711/pictures/preview-10.jpeg"}, {"id": 7283920, "nr": 11, "picture": "https://images.pexels.com/videos/7931711/pictures/preview-11.jpeg"}, {"id": 7283939, "nr": 12, "picture": "https://images.pexels.com/videos/7931711/pictures/preview-12.jpeg"}, {"id": 7283949, "nr": 13, "picture": "https://images.pexels.com/videos/7931711/pictures/preview-13.jpeg"}, {"id": 7283956, "nr": 14, "picture": "https://images.pexels.com/videos/7931711/pictures/preview-14.jpeg"}]}, {"id": 15863274, "width": 2160, "height": 3840, "duration": 13, "full_res": null, "tags": [], "url": "https://www.pexels.com/video/a-table-with-a-cup-of-tea-and-a-book-on-it-15863274/", "image": "https://images.pexels.com/videos/15863274/pexels-photo-15863274.jpeg?auto=compress&cs=tinysrgb&fit=crop&h=1200&w=630", "avg_color": null, "user": {"id": 53441892, "name": "hello aesthe", "url": "https://www.pexels.com/@helloaesthe"}, "video_files": [{"id": 11355243, "quality": "hd", "file_type": "video/mp4", "width": 1080, "height": 1920, "fps": 29.969999313354492, "link": "https://videos.pexels.com/video-files/15863274/15863274-hd_1080_1920_30fps.mp4", "size": 6007619}, {"id": 11355285, "quality": "uhd", "file_type": "video/mp4", "width": 1440, "height": 2560, "fps": 29.969999313354492, "link": "https://videos.pexels.com/video-files/15863274/15863274-uhd_1440_2560_30fps.mp4", "size": 9550836}, {"id": 11355344, "quality": "sd", "file_type": "video/mp4", "width": 360, "height": 640, "fps": 29.969999313354492, "link": "https://videos.pexels.com/video-files/15863274/15863274-sd_360_640_30fps.mp4", "size": 992314}, {"id": 11355448, "quality": "sd", "file_type": "video/mp4", "width": 540, "height": 960, "fps": 29.969999313354492, "link": "https://videos.pexels.com/video-files/15863274/15863274-sd_540_960_30fps.mp4", "size": 1749256}, {"id": 11355479, "quality": "hd", "file_type": "video/mp4", "width": 720, "height": 1280, "fps": 29.969999313354492, "link": "https://videos.pexels.com/video-files/15863274/15863274-hd_720_1280_30fps.mp4", "size": 2716251}, {"id": 11355573, "quality": "uhd", "file_type": "video/mp4", "width": 2160, "height": 3840, "fps": 29.969999313354492, "link": "https://videos.pexels.com/video-files/15863274/15863274-uhd_2160_3840_30fps.mp4", "size": 22430021}, {"id": 11355624, "quality": "sd", "file_type": "video/mp4", "width": 240, "height": 426, "fps": 29.969999313354492, "link": "https://videos.pexels.com/video-files/15863274/15863274-sd_240_426_30fps.mp4", "size": 647138}], "video_pictures": [{"id": 16734392, "nr": 0, "picture": "https://images.pexels.com/videos/15863274/pictures/preview-0.jpeg"}, {"id": 16734395, "nr": 1, "picture": "https://images.pexels.com/videos/15863274/pictures/preview-1.jpeg"}, {"id": 16734397, "nr": 2, "picture": "https://images.pexels.com/videos/15863274/pictures/preview-2.jpeg"}, {"id": 16734399, "nr": 3, "picture": "https://images.pexels.com/videos/15863274/pictures/preview-3.jpeg"}, {"id": 16734401, "nr": 4, "picture": "https://images.pexels.com/videos/15863274/pictures/preview-4.jpeg"}, {"id": 16734403, "nr": 5, "picture": "https://images.pexels.com/videos/15863274/pictures/preview-5.jpeg"}, {"id": 16734404, "nr": 6, "picture": "https://images.pexels.com/videos/15863274/pictures/preview-6.jpeg"}, {"id": 16734406, "nr": 7, "picture": "https://images.pexels.com/videos/15863274/pictures/preview-7.jpeg"}, {"id": 16734408, "nr": 8, "picture": "https://images.pexels.com/videos/15863274/pictures/preview-8.jpeg"}, {"id": 16734409, "nr": 9, "picture": "https://images.pexels.com/videos/15863274/pictures/preview-9.jpeg"}, {"id": 16734410, "nr": 10, "picture": "https://images.pexels.com/videos/15863274/pictures/preview-10.jpeg"}, {"id": 16734411, "nr": 11, "picture": "https://images.pexels.com/videos/15863274/pictures/preview-11.jpeg"}, {"id": 16734412, "nr": 12, "picture": "https://images.pexels.com/videos/15863274/pictures/preview-12.jpeg"}, {"id": 16734413, "nr": 13, "picture": "https://images.pexels.com/videos/15863274/pictures/preview-13.jpeg"}, {"id": 16734415, "nr": 14, "picture": "https://images.pexels.com/videos/15863274/pictures/preview-14.jpeg"}]}, {"id": 8107923, "width": 2160, "height": 4096, "duration": 17, "full_res": null, "tags": [], "url": "https://www.pexels.com/video/oatmeal-inside-a-glass-jar-8107923/", "image": "https://images.pexels.com/videos/8107923/pexels-photo-8107923.jpeg?auto=compress&cs=tinysrgb&fit=crop&h=1200&w=630", "avg_color": null, "user": {"id": 30039676, "name": "MART  PRODUCTION", "url": "https://www.pexels.com/@mart-production"}, "video_files": [{"id": 10702288, "quality": "sd", "file_type": "video/mp4", "width": 338, "height": 640, "fps": 25.0, "link": "https://videos.pexels.com/video-files/8107923/8107923-sd_338_640_25fps.mp4", "size": 784649}, {"id": 10702414, "quality": "uhd", "file_type": "video/mp4", "width": 1440, "height": 2732, "fps": 25.0, "link": "https://videos.pexels.com/video-files/8107923/8107923-uhd_1440_2732_25fps.mp4", "size": 9888651}, {"id": 10702508, "quality": "hd", "file_type": "video/mp4", "width": 1080, "height": 2048, "fps": 25.0, "link": "https://videos.pexels.com/video-files/8107923/8107923-hd_1080_2048_25fps.mp4", "size": 5783893}, {"id": 10702563, "quality": "sd", "file_type": "video/mp4", "width": 506, "height": 960, "fps": 25.0, "link": "https://videos.pexels.com/video-files/8107923/8107923-sd_506_960_25fps.mp4", "size": 1653170}, {"id": 10702697, "quality": "hd", "file_type": "video/mp4", "width": 720, "height": 1366, "fps": 25.0, "link": "https://videos.pexels.com/video-files/8107923/8107923-hd_720_1366_25fps.mp4", "size": 2941754}, {"id": 10702780, "quality": "uhd", "file_type": "video/mp4", "width": 2160, "height": 4096, "fps": 25.0, "link": "https://videos.pexels.com/video-files/8107923/8107923-uhd_2160_4096_25fps.mp4", "size": 24038208}, {"id": 10702874, "quality": "sd", "file_type": "video/mp4", "width": 226, "height": 426, "fps": 25.0, "link": "https://videos.pexels.com/video-files/8107923/8107923-sd_226_426_25fps.mp4", "size": 559285}], "video_pictures": [{"id": 7630648, "nr": 0, "picture": "https://images.pexels.com/videos/8107923/pictures/preview-0.jpeg"}, {"id": 7630650, "nr": 1, "picture": "https://images.pexels.com/videos/8107923/pictures/preview-1.jpeg"}, {"id": 7630660, "nr": 2, "picture": "https://images.pexels.com/videos/8107923/pictures/preview-2.jpeg"}, {"id": 7630670, "nr": 3, "picture": "https://images.pexels.com/videos/8107923/pictures/preview-3.jpeg"}, {"id": 7630674, "nr": 4, "picture": "https://images.pexels.com/videos/8107923/pictures/preview-4.jpeg"}, {"id": 7630680, "nr": 5, "picture": "https://images.pexels.com/videos/8107923/pictures/preview-5.jpeg"}, {"id": 7630687, "nr": 6, "picture": "https://images.pexels.com/videos/8107923/pictures/preview-6.jpeg"}, {"id": 7630698, "nr": 7, "picture": "https://images.pexels.com/videos/8107923/pictures/preview-7.jpeg"}, {"id": 7630709, "nr": 8, "picture": "https://images.pexels.com/videos/8107923/pictures/preview-8.jpeg"}, {"id": 7630723, "nr": 9, "picture": "https://images.pexels.com/videos/8107923/pictures/preview-9.jpeg"}, {"id": 7630733, "nr": 10, "picture": "https://images.pexels.com/videos/8107923/pictures/preview-10.jpeg"}, {"id": 7630743, "nr": 11, "picture": "https://images.pexels.com/videos/8107923/pictures/preview-11.jpeg"}, {"id": 7630754, "nr": 12, "picture": "https://images.pexels.com/videos/8107923/pictures/preview-12.jpeg"}, {"id": 7630762, "nr": 13, "picture": "https://images.pexels.com/videos/8107923/pictures/preview-13.jpeg"}, {"id": 7630770, "nr": 14, "picture": "https://images.pexels.com/videos/8107923/pictures/preview-14.jpeg"}]}, {"id": 6170599, "width": 2160, "height": 3840, "duration": 16, "full_res": null, "tags": [], "url": "https://www.pexels.com/video/man-unloading-delivery-truck-6170599/", "image": "https://images.pexels.com/videos/6170599/pexels-photo-6170599.jpeg?auto=compress&cs=tinysrgb&fit=crop&h=1200&w=630", "avg_color": null, "user": {"id": 3088726, "name": "Tima Miroshnichenko", "url": "https://www.pexels.com/@tima-miroshnichenko"}, "video_files": [{"id": 9941824, "quality": "sd", "file_type": "video/mp4", "width": 540, "height": 960, "fps": 25.0, "link": "https://videos.pexels.com/video-files/6170599/6170599-sd_540_960_25fps.mp4", "size": 2430270}, {"id": 9941838, "quality": "sd", "file_type": "video/mp4", "width": 360, "height": 640, "fps": 25.0, "link": "https://videos.pexels.com/video-files/6170599/6170599-sd_360_640_25fps.mp4", "size": 1020350}, {"id": 9941850, "quality": "hd", "file_type": "video/mp4", "width": 720, "height": 1280, "fps": 25.0, "link": "https://videos.pexels.com/video-files/6170599/6170599-hd_720_1280_25fps.mp4", "size": 3928962}, {"id": 9941867, "quality": "uhd", "file_type": "video/mp4", "width": 1440, "height": 2560, "fps": 25.0, "link": "https://videos.pexels.com/video-files/6170599/6170599-uhd_1440_2560_25fps.mp4", "size": 12516235}, {"id": 9941938, "quality": "uhd", "file_type": "video/mp4", "width": 2160, "height": 3840, "fps": 25.0, "link": "https://videos.pexels.com/video-files/6170599/6170599-uhd_2160_3840_25fps.mp4", "size": 26220257}, {"id": 9941994, "quality": "sd", "file_type": "video/mp4", "width": 240, "height": 426, "fps": 25.0, "link": "https://videos.pexels.com/video-files/6170599/6170599-sd_240_426_25fps.mp4", "size": 594079}, {"id": 9942005, "quality": "hd", "file_type": "video/mp4", "width": 1080, "height": 1920, "fps": 25.0, "link": "https://videos.pexels.com/video-files/6170599/6170599-hd_1080_1920_25fps.mp4", "size": 7727989}], "video_pictures": [{"id": 4000865, "nr": 0, "picture": "https://images.pexels.com/videos/6170599/pictures/preview-0.jpeg"}, {"id": 4000868, "nr": 1, "picture": "https://images.pexels.com/videos/6170599/pictures/preview-1.jpeg"}, {"id": 4000870, "nr": 2, "picture": "https://images.pexels.com/videos/6170599/pictures/preview-2.jpeg"}, {"id": 4000873, "nr": 3, "picture": "https://images.pexels.com/videos/6170599/pictures/preview-3.jpeg"}, {"id": 4000877, "nr": 4, "picture": "https://images.pexels.com/videos/6170599/pictures/preview-4.jpeg"}, {"id": 4000880, "nr": 5, "picture": "https://images.pexels.com/videos/6170599/pictures/preview-5.jpeg"}, {"id": 4000882, "nr": 6, "picture": "https://images.pexels.com/videos/6170599/pictures/preview-6.jpeg"}, {"id": 4000885, "nr": 7, "picture": "https://images.pexels.com/videos/6170599/pictures/preview-7.jpeg"}, {"id": 4000889, "nr": 8, "picture": "https://images.pexels.com/videos/6170599/pictures/preview-8.jpeg"}, {"id": 4000892, "nr": 9, "picture": "https://images.pexels.com/videos/6170599/pictures/preview-9.jpeg"}, {"id": 4000896, "nr": 10, "picture": "https://images.pexels.com/videos/6170599/pictures/preview-10.jpeg"}, {"id": 4000899, "nr": 11, "picture": "https://images.pexels.com/videos/6170599/pictures/preview-11.jpeg"}, {"id": 4000903, "nr": 12, "picture": "https://images.pexels.com/videos/6170599/pictures/preview-12.jpeg"}, {"id": 4000907, "nr": 13, "picture": "https://images.pexels.com/videos/6170599/pictures/preview-13.jpeg"}, {"id": 4000913, "nr": 14, "picture": "https://images.pexels.com/videos/6170599/pictures/preview-14.jpeg"}]}, {"id": 20393681, "width": 2160, "height": 3840, "duration": 55, "full_res": null, "tags": [], "url": "https://www.pexels.com/video/a-bottle-of-rosemary-oil-with-a-candle-on-top-20393681/", "image": "https://images.pexels.com/videos/20393681/pexels-photo-20393681.jpeg?auto=compress&cs=tinysrgb&fit=crop&h=1200&w=630", "avg_color": null, "user": {"id": 3372733, "name": "Monstera Production", "url": "https://www.pexels.com/@gabby-k"}, "video_files": [{"id": 9095639, "quality": "hd", "file_type": "video/mp4", "width": 1080, "height": 1920, "fps": 50.0, "link": "https://videos.pexels.com/video-files/20393681/20393681-hd_1080_1920_50fps.mp4", "size": 27271601}, {"id": 9095644, "quality": "sd", "file_type": "video/mp4", "width": 360, "height": 640, "fps": 25.0, "link": "https://videos.pexels.com/video-files/20393681/20393681-sd_360_640_25fps.mp4", "size": 4556232}, {"id": 9095650, "quality": "uhd", "file_type": "video/mp4", "width": 2160, "height": 3840, "fps": 50.0, "link": "https://videos.pexels.com/video-files/20393681/20393681-uhd_2160_3840_50fps.mp4", "size": 118414938}, {"id": 9095655, "quality": "uhd", "file_type": "video/mp4", "width": 1440, "height": 2560, "fps": 50.0, "link": "https://videos.pexels.com/video-files/20393681/20393681-uhd_1440_2560_50fps.mp4", "size": 51637947}, {"id": 9095660, "quality": "hd", "file_type": "video/mp4", "width": 720, "height": 1280, "fps": 50.0, "link": "https://videos.pexels.com/video-files/20393681/20393681-hd_720_1280_50fps.mp4", "size": 13962692}, {"id": 9095665, "quality": "sd", "file_type": "video/mp4", "width": 240, "height": 426, "fps": 25.0, "link": "https://videos.pexels.com/video-files/20393681/20393681-sd_240_426_25fps.mp4", "size": 2905525}, {"id": 9095669, "quality": "sd", "file_type": "video/mp4", "width": 540, "height": 960, "fps": 25.0, "link": "https://videos.pexels.com/video-files/20393681/20393681-sd_540_960_25fps.mp4", "size": 7765777}], "video_pictures": [{"id": 21338062, "nr": 0, "picture": "https://images.pexels.com/videos/20393681/pictures/preview-0.jpeg"}, {"id": 21338085, "nr": 1, "picture": "https://images.pexels.com/videos/20393681/pictures/preview-1.jpeg"}, {"id": 21338104, "nr": 2, "picture": "https://images.pexels.com/videos/20393681/pictures/preview-2.jpeg"}, {"id": 21338117, "nr": 3, "picture": "https://images.pexels.com/videos/20393681/pictures/preview-3.jpeg"}, {"id": 21338136, "nr": 4, "picture": "https://images.pexels.com/videos/20393681/pictures/preview-4.jpeg"}, {"id": 21338152, "nr": 5, "picture": "https://images.pexels.com/videos/20393681/pictures/preview-5.jpeg"}, {"id": 21338167, "nr": 6, "picture": "https://images.pexels.com/videos/20393681/pictures/preview-6.jpeg"}, {"id": 21338182, "nr": 7, "picture": "https://images.pexels.com/videos/20393681/pictures/preview-7.jpeg"}, {"id": 21338198, "nr": 8, "picture": "https://images.pexels.com/videos/20393681/pictures/preview-8.jpeg"}, {"id": 21338221, "nr": 9, "picture": "https://images.pexels.com/videos/20393681/pictures/preview-9.jpeg"}, {"id": 21338233, "nr": 10, "picture": "https://images.pexels.com/videos/20393681/pictures/preview-10.jpeg"}, {"id": 21338251, "nr": 11, "picture": "https://images.pexels.com/videos/20393681/pictures/preview-11.jpeg"}, {"id": 21338267, "nr": 12, "picture": "https://images.pexels.com/videos/20393681/pictures/preview-12.jpeg"}, {"id": 21338282, "nr": 13, "picture": "https://images.pexels.com/videos/20393681/pictures/preview-13.jpeg"}, {"id": 21338298, "nr": 14, "picture": "https://images.pexels.com/videos/20393681/pictures/preview-14.jpeg"}]}, {"id": 6170600, "width": 2160, "height": 3840, "duration": 14, "full_res": null, "tags": [], "url": "https://www.pexels.com/video/man-loading-a-delivery-truck-6170600/", "image": "https://images.pexels.com/videos/6170600/pexels-photo-6170600.jpeg?auto=compress&cs=tinysrgb&fit=crop&h=1200&w=630", "avg_color": null, "user": {"id": 3088726, "name": "Tima Miroshnichenko", "url": "https://www.pexels.com/@tima-miroshnichenko"}, "video_files": [{"id": 9942834, "quality": "uhd", "file_type": "video/mp4", "width": 1440, "height": 2560, "fps": 25.0, "link": "https://videos.pexels.com/video-files/6170600/6170600-uhd_1440_2560_25fps.mp4", "size": 11661688}, {"id": 9942957, "quality": "hd", "file_type": "video/mp4", "width": 720, "height": 1280, "fps": 25.0, "link": "https://videos.pexels.com/video-files/6170600/6170600-hd_720_1280_25fps.mp4", "size": 3958756}, {"id": 9943098, "quality": "hd", "file_type": "video/mp4", "width": 1080, "height": 1920, "fps": 25.0, "link": "https://videos.pexels.com/video-files/6170600/6170600-hd_1080_1920_25fps.mp4", "size": 7236436}, {"id": 9943207, "quality": "sd", "file_type": "video/mp4", "width": 240, "height": 426, "fps": 25.0, "link": "https://videos.pexels.com/video-files/6170600/6170600-sd_240_426_25fps.mp4", "size": 465022}, {"id": 9943275, "quality": "sd", "file_type": "video/mp4", "width": 360, "height": 640, "fps": 25.0, "link": "https://videos.pexels.com/video-files/6170600/6170600-sd_360_640_25fps.mp4", "size": 884947}, {"id": 9943308, "quality": "uhd", "file_type": "video/mp4", "width": 2160, "height": 3840, "fps": 25.0, "link": "https://videos.pexels.com/video-files/6170600/6170600-uhd_2160_3840_25fps.mp4", "size": 24128890}, {"id": 9943357, "quality": "sd", "file_type": "video/mp4", "width": 540, "height": 960, "fps": 25.0, "link": "https://videos.pexels.com/video-files/6170600/6170600-sd_540_960_25fps.mp4", "size": 2034676}], "video_pictures": [{"id": 4000950, "nr": 0, "picture": "https://images.pexels.com/videos/6170600/pictures/preview-0.jpeg"}, {"id": 4000956, "nr": 1, "picture": "https://images.pexels.com/videos/6170600/pictures/preview-1.jpeg"}, {"id": 4000963, "nr": 2, "picture": "https://images.pexels.com/videos/6170600/pictures/preview-2.jpeg"}, {"id": 4000970, "nr": 3, "picture": "https://images.pexels.com/videos/6170600/pictures/preview-3.jpeg"}, {"id": 4000973, "nr": 4, "picture": "https://images.pexels.com/videos/6170600/pictures/preview-4.jpeg"}, {"id": 4000977, "nr": 5, "picture": "https://images.pexels.com/videos/6170600/pictures/preview-5.jpeg"}, {"id": 4000984, "nr": 6, "picture": "https://images.pexels.com/videos/6170600/pictures/preview-6.jpeg"}, {"id": 4000988, "nr": 7, "picture": "https://images.pexels.com/videos/6170600/pictures/preview-7.jpeg"}, {"id": 4000990, "nr": 8, "picture": "https://images.pexels.com/videos/6170600/pictures/preview-8.jpeg"}, {"id": 4000993, "nr": 9, "picture": "https://images.pexels.com/videos/6170600/pictures/preview-9.jpeg"}, {"id": 4000996, "nr": 10, "picture": "https://images.pexels.com/videos/6170600/pictures/preview-10.jpeg"}, {"id": 4000999, "nr": 11, "picture": "https://images.pexels.com/videos/6170600/pictures/preview-11.jpeg"}, {"id": 4001001, "nr": 12, "picture": "https://images.pexels.com/videos/6170600/pictures/preview-12.jpeg"}, {"id": 4001004, "nr": 13, "picture": "https://images.pexels.com/videos/6170600/pictures/preview-13.jpeg"}, {"id": 4001007, "nr": 14, "picture": "https://images.pexels.com/videos/6170600/pictures/preview-14.jpeg"}]}], "total_results": 887, "next_page": "https://api.pexels.com/v1/videos/search/?orientation=portrait&page=2&per_page=8&query=gallon+container", "url": "https://api-server.pexels.com/search/videos/gallon%20container/"}, "timestamp": "2024-12-28T22:18:07.851929"}
