{"query": "plant growth", "response": {"page": 1, "per_page": 8, "videos": [{"id": 25935026, "width": 2160, "height": 3840, "duration": 16, "full_res": null, "tags": [], "url": "https://www.pexels.com/video/an-artist-s-illustration-of-artificial-intelligence-ai-this-image-explores-how-ai-can-be-used-to-solve-fundamental-problems-unlocking-solutions-to-many-more-it-was-created-by-jesper-l-25935026/", "image": "https://images.pexels.com/videos/25935026/agi-ai-algorithms-artificial-intelligence-25935026.jpeg?auto=compress&cs=tinysrgb&fit=crop&h=1200&w=630", "avg_color": null, "user": {"id": 472736342, "name": "Google DeepMind", "url": "https://www.pexels.com/@googledeepmind"}, "video_files": [{"id": 11922008, "quality": null, "file_type": "video/mp4", "width": 360, "height": 640, "fps": 24.0, "link": "https://videos.pexels.com/video-files/25935026/11922008_360_640_24fps.mp4", "size": 2225484}, {"id": 11922010, "quality": null, "file_type": "video/mp4", "width": 540, "height": 960, "fps": 24.0, "link": "https://videos.pexels.com/video-files/25935026/11922010_540_960_24fps.mp4", "size": 4715579}, {"id": 11922012, "quality": null, "file_type": "video/mp4", "width": 720, "height": 1280, "fps": 24.0, "link": "https://videos.pexels.com/video-files/25935026/11922012_720_1280_24fps.mp4", "size": 7797851}, {"id": 11922013, "quality": null, "file_type": "video/mp4", "width": 1080, "height": 1920, "fps": 24.0, "link": "https://videos.pexels.com/video-files/25935026/11922013_1080_1920_24fps.mp4", "size": 16171007}, {"id": 11922016, "quality": null, "file_type": "video/mp4", "width": 1440, "height": 2560, "fps": 24.0, "link": "https://videos.pexels.com/video-files/25935026/11922016_1440_2560_24fps.mp4", "size": 28464641}, {"id": 11922017, "quality": null, "file_type": "video/mp4", "width": 2160, "height": 3840, "fps": 24.0, "link": "https://videos.pexels.com/video-files/25935026/11922017_2160_3840_24fps.mp4", "size": 89307771}], "video_pictures": [{"id": 21906491, "nr": 0, "picture": "https://images.pexels.com/videos/25935026/pictures/preview-0.jpg"}, {"id": 21906492, "nr": 1, "picture": "https://images.pexels.com/videos/25935026/pictures/preview-1.jpg"}, {"id": 21906493, "nr": 2, "picture": "https://images.pexels.com/videos/25935026/pictures/preview-2.jpg"}, {"id": 21906494, "nr": 3, "picture": "https://images.pexels.com/videos/25935026/pictures/preview-3.jpg"}, {"id": 21906495, "nr": 4, "picture": "https://images.pexels.com/videos/25935026/pictures/preview-4.jpg"}, {"id": 21906496, "nr": 5, "picture": "https://images.pexels.com/videos/25935026/pictures/preview-5.jpg"}, {"id": 21906497, "nr": 6, "picture": "https://images.pexels.com/videos/25935026/pictures/preview-6.jpg"}, {"id": 21906498, "nr": 7, "picture": "https://images.pexels.com/videos/25935026/pictures/preview-7.jpg"}, {"id": 21906499, "nr": 8, "picture": "https://images.pexels.com/videos/25935026/pictures/preview-8.jpg"}, {"id": 21906500, "nr": 9, "picture": "https://images.pexels.com/videos/25935026/pictures/preview-9.jpg"}, {"id": 21906501, "nr": 10, "picture": "https://images.pexels.com/videos/25935026/pictures/preview-10.jpg"}, {"id": 21906502, "nr": 11, "picture": "https://images.pexels.com/videos/25935026/pictures/preview-11.jpg"}, {"id": 21906503, "nr": 12, "picture": "https://images.pexels.com/videos/25935026/pictures/preview-12.jpg"}, {"id": 21906504, "nr": 13, "picture": "https://images.pexels.com/videos/25935026/pictures/preview-13.jpg"}, {"id": 21906505, "nr": 14, "picture": "https://images.pexels.com/videos/25935026/pictures/preview-14.jpg"}]}, {"id": 5585433, "width": 720, "height": 1280, "duration": 8, "full_res": null, "tags": [], "url": "https://www.pexels.com/video/push-in-shot-of-a-blooming-white-flower-5585433/", "image": "https://images.pexels.com/videos/5585433/rose-whit-5585433.jpeg?auto=compress&cs=tinysrgb&fit=crop&h=1200&w=630", "avg_color": null, "user": {"id": 2644155, "name": "Arif Hussain", "url": "https://www.pexels.com/@arif-hussain-2644155"}, "video_files": [{"id": 9748874, "quality": "sd", "file_type": "video/mp4", "width": 240, "height": 426, "fps": 29.969999313354492, "link": "https://videos.pexels.com/video-files/5585433/5585433-sd_240_426_30fps.mp4", "size": 351674}, {"id": 9748963, "quality": "sd", "file_type": "video/mp4", "width": 540, "height": 960, "fps": 29.969999313354492, "link": "https://videos.pexels.com/video-files/5585433/5585433-sd_540_960_30fps.mp4", "size": 1667049}, {"id": 9749154, "quality": "hd", "file_type": "video/mp4", "width": 720, "height": 1280, "fps": 29.969999313354492, "link": "https://videos.pexels.com/video-files/5585433/5585433-hd_720_1280_30fps.mp4", "size": 2591343}, {"id": 9749182, "quality": "sd", "file_type": "video/mp4", "width": 360, "height": 640, "fps": 29.969999313354492, "link": "https://videos.pexels.com/video-files/5585433/5585433-sd_360_640_30fps.mp4", "size": 585107}], "video_pictures": [{"id": 3038804, "nr": 0, "picture": "https://images.pexels.com/videos/5585433/pictures/preview-0.jpeg"}, {"id": 3038805, "nr": 1, "picture": "https://images.pexels.com/videos/5585433/pictures/preview-1.jpeg"}, {"id": 3038806, "nr": 2, "picture": "https://images.pexels.com/videos/5585433/pictures/preview-2.jpeg"}, {"id": 3038807, "nr": 3, "picture": "https://images.pexels.com/videos/5585433/pictures/preview-3.jpeg"}, {"id": 3038809, "nr": 4, "picture": "https://images.pexels.com/videos/5585433/pictures/preview-4.jpeg"}, {"id": 3038810, "nr": 5, "picture": "https://images.pexels.com/videos/5585433/pictures/preview-5.jpeg"}, {"id": 3038811, "nr": 6, "picture": "https://images.pexels.com/videos/5585433/pictures/preview-6.jpeg"}, {"id": 3038812, "nr": 7, "picture": "https://images.pexels.com/videos/5585433/pictures/preview-7.jpeg"}, {"id": 3038814, "nr": 8, "picture": "https://images.pexels.com/videos/5585433/pictures/preview-8.jpeg"}, {"id": 3038815, "nr": 9, "picture": "https://images.pexels.com/videos/5585433/pictures/preview-9.jpeg"}, {"id": 3038816, "nr": 10, "picture": "https://images.pexels.com/videos/5585433/pictures/preview-10.jpeg"}, {"id": 3038817, "nr": 11, "picture": "https://images.pexels.com/videos/5585433/pictures/preview-11.jpeg"}, {"id": 3038819, "nr": 12, "picture": "https://images.pexels.com/videos/5585433/pictures/preview-12.jpeg"}, {"id": 3038820, "nr": 13, "picture": "https://images.pexels.com/videos/5585433/pictures/preview-13.jpeg"}, {"id": 3038821, "nr": 14, "picture": "https://images.pexels.com/videos/5585433/pictures/preview-14.jpeg"}]}, {"id": 9707284, "width": 2160, "height": 4096, "duration": 17, "full_res": null, "tags": [], "url": "https://www.pexels.com/video/many-plants-on-table-being-watered-9707284/", "image": "https://images.pexels.com/videos/9707284/pexels-photo-9707284.jpeg?auto=compress&cs=tinysrgb&fit=crop&h=1200&w=630", "avg_color": null, "user": {"id": 1437723, "name": "cottonbro studio", "url": "https://www.pexels.com/@cottonbro"}, "video_files": [{"id": 11158510, "quality": "sd", "file_type": "video/mp4", "width": 506, "height": 960, "fps": 25.0, "link": "https://videos.pexels.com/video-files/9707284/9707284-sd_506_960_25fps.mp4", "size": 974797}, {"id": 11158556, "quality": "uhd", "file_type": "video/mp4", "width": 1440, "height": 2732, "fps": 25.0, "link": "https://videos.pexels.com/video-files/9707284/9707284-uhd_1440_2732_25fps.mp4", "size": 7855425}, {"id": 11158569, "quality": "sd", "file_type": "video/mp4", "width": 338, "height": 640, "fps": 25.0, "link": "https://videos.pexels.com/video-files/9707284/9707284-sd_338_640_25fps.mp4", "size": 471121}, {"id": 11158596, "quality": "hd", "file_type": "video/mp4", "width": 720, "height": 1366, "fps": 25.0, "link": "https://videos.pexels.com/video-files/9707284/9707284-hd_720_1366_25fps.mp4", "size": 1898842}, {"id": 11158633, "quality": "uhd", "file_type": "video/mp4", "width": 2160, "height": 4096, "fps": 25.0, "link": "https://videos.pexels.com/video-files/9707284/9707284-uhd_2160_4096_25fps.mp4", "size": 21388174}, {"id": 11158684, "quality": "hd", "file_type": "video/mp4", "width": 1080, "height": 2048, "fps": 25.0, "link": "https://videos.pexels.com/video-files/9707284/9707284-hd_1080_2048_25fps.mp4", "size": 4515301}, {"id": 11158720, "quality": "sd", "file_type": "video/mp4", "width": 226, "height": 426, "fps": 25.0, "link": "https://videos.pexels.com/video-files/9707284/9707284-sd_226_426_25fps.mp4", "size": 238594}], "video_pictures": [{"id": 10056610, "nr": 0, "picture": "https://images.pexels.com/videos/9707284/pictures/preview-0.jpeg"}, {"id": 10056618, "nr": 1, "picture": "https://images.pexels.com/videos/9707284/pictures/preview-1.jpeg"}, {"id": 10056628, "nr": 2, "picture": "https://images.pexels.com/videos/9707284/pictures/preview-2.jpeg"}, {"id": 10056640, "nr": 3, "picture": "https://images.pexels.com/videos/9707284/pictures/preview-3.jpeg"}, {"id": 10056647, "nr": 4, "picture": "https://images.pexels.com/videos/9707284/pictures/preview-4.jpeg"}, {"id": 10056657, "nr": 5, "picture": "https://images.pexels.com/videos/9707284/pictures/preview-5.jpeg"}, {"id": 10056668, "nr": 6, "picture": "https://images.pexels.com/videos/9707284/pictures/preview-6.jpeg"}, {"id": 10056678, "nr": 7, "picture": "https://images.pexels.com/videos/9707284/pictures/preview-7.jpeg"}, {"id": 10056687, "nr": 8, "picture": "https://images.pexels.com/videos/9707284/pictures/preview-8.jpeg"}, {"id": 10056696, "nr": 9, "picture": "https://images.pexels.com/videos/9707284/pictures/preview-9.jpeg"}, {"id": 10056703, "nr": 10, "picture": "https://images.pexels.com/videos/9707284/pictures/preview-10.jpeg"}, {"id": 10056712, "nr": 11, "picture": "https://images.pexels.com/videos/9707284/pictures/preview-11.jpeg"}, {"id": 10056720, "nr": 12, "picture": "https://images.pexels.com/videos/9707284/pictures/preview-12.jpeg"}, {"id": 10056727, "nr": 13, "picture": "https://images.pexels.com/videos/9707284/pictures/preview-13.jpeg"}, {"id": 10056733, "nr": 14, "picture": "https://images.pexels.com/videos/9707284/pictures/preview-14.jpeg"}]}, {"id": 6438611, "width": 1080, "height": 1920, "duration": 27, "full_res": null, "tags": [], "url": "https://www.pexels.com/video/fig-tree-6438611/", "image": "https://images.pexels.com/videos/6438611/pexels-photo-6438611.jpeg?auto=compress&cs=tinysrgb&fit=crop&h=1200&w=630", "avg_color": null, "user": {"id": 17374727, "name": "TIVASEE", "url": "https://www.pexels.com/@tivasee-17374727"}, "video_files": [{"id": 10311016, "quality": "hd", "file_type": "video/mp4", "width": 720, "height": 1280, "fps": 23.97599983215332, "link": "https://videos.pexels.com/video-files/6438611/6438611-hd_720_1280_24fps.mp4", "size": 7465682}, {"id": 10311152, "quality": "hd", "file_type": "video/mp4", "width": 1080, "height": 1920, "fps": 23.97599983215332, "link": "https://videos.pexels.com/video-files/6438611/6438611-hd_1080_1920_24fps.mp4", "size": 14978516}, {"id": 10311214, "quality": "sd", "file_type": "video/mp4", "width": 240, "height": 426, "fps": 23.97599983215332, "link": "https://videos.pexels.com/video-files/6438611/6438611-sd_240_426_24fps.mp4", "size": 1065328}, {"id": 10311271, "quality": "sd", "file_type": "video/mp4", "width": 360, "height": 640, "fps": 23.97599983215332, "link": "https://videos.pexels.com/video-files/6438611/6438611-sd_360_640_24fps.mp4", "size": 2047324}, {"id": 10311312, "quality": "sd", "file_type": "video/mp4", "width": 540, "height": 960, "fps": 23.97599983215332, "link": "https://videos.pexels.com/video-files/6438611/6438611-sd_540_960_24fps.mp4", "size": 4567559}], "video_pictures": [{"id": 4450187, "nr": 0, "picture": "https://images.pexels.com/videos/6438611/pictures/preview-0.jpeg"}, {"id": 4450190, "nr": 1, "picture": "https://images.pexels.com/videos/6438611/pictures/preview-1.jpeg"}, {"id": 4450193, "nr": 2, "picture": "https://images.pexels.com/videos/6438611/pictures/preview-2.jpeg"}, {"id": 4450196, "nr": 3, "picture": "https://images.pexels.com/videos/6438611/pictures/preview-3.jpeg"}, {"id": 4450199, "nr": 4, "picture": "https://images.pexels.com/videos/6438611/pictures/preview-4.jpeg"}, {"id": 4450202, "nr": 5, "picture": "https://images.pexels.com/videos/6438611/pictures/preview-5.jpeg"}, {"id": 4450206, "nr": 6, "picture": "https://images.pexels.com/videos/6438611/pictures/preview-6.jpeg"}, {"id": 4450209, "nr": 7, "picture": "https://images.pexels.com/videos/6438611/pictures/preview-7.jpeg"}, {"id": 4450212, "nr": 8, "picture": "https://images.pexels.com/videos/6438611/pictures/preview-8.jpeg"}, {"id": 4450220, "nr": 9, "picture": "https://images.pexels.com/videos/6438611/pictures/preview-9.jpeg"}, {"id": 4450222, "nr": 10, "picture": "https://images.pexels.com/videos/6438611/pictures/preview-10.jpeg"}, {"id": 4450225, "nr": 11, "picture": "https://images.pexels.com/videos/6438611/pictures/preview-11.jpeg"}, {"id": 4450226, "nr": 12, "picture": "https://images.pexels.com/videos/6438611/pictures/preview-12.jpeg"}, {"id": 4450227, "nr": 13, "picture": "https://images.pexels.com/videos/6438611/pictures/preview-13.jpeg"}, {"id": 4450228, "nr": 14, "picture": "https://images.pexels.com/videos/6438611/pictures/preview-14.jpeg"}]}, {"id": 10040034, "width": 1080, "height": 1920, "duration": 9, "full_res": null, "tags": [], "url": "https://www.pexels.com/video/video-of-an-agave-farm-10040034/", "image": "https://images.pexels.com/videos/10040034/agave-jalisco-mexico-tequila-10040034.jpeg?auto=compress&cs=tinysrgb&fit=crop&h=1200&w=630", "avg_color": null, "user": {"id": 11924337, "name": "Los Muertos Crew", "url": "https://www.pexels.com/@cristian-rojas"}, "video_files": [{"id": 11201073, "quality": "hd", "file_type": "video/mp4", "width": 720, "height": 1280, "fps": 23.97599983215332, "link": "https://videos.pexels.com/video-files/10040034/10040034-hd_720_1280_24fps.mp4", "size": 2700360}, {"id": 11201085, "quality": "hd", "file_type": "video/mp4", "width": 1080, "height": 1920, "fps": 23.97599983215332, "link": "https://videos.pexels.com/video-files/10040034/10040034-hd_1080_1920_24fps.mp4", "size": 5415701}, {"id": 11201104, "quality": "sd", "file_type": "video/mp4", "width": 240, "height": 426, "fps": 23.97599983215332, "link": "https://videos.pexels.com/video-files/10040034/10040034-sd_240_426_24fps.mp4", "size": 382194}, {"id": 11201140, "quality": "sd", "file_type": "video/mp4", "width": 360, "height": 640, "fps": 23.97599983215332, "link": "https://videos.pexels.com/video-files/10040034/10040034-sd_360_640_24fps.mp4", "size": 534828}, {"id": 11201171, "quality": "sd", "file_type": "video/mp4", "width": 540, "height": 960, "fps": 23.97599983215332, "link": "https://videos.pexels.com/video-files/10040034/10040034-sd_540_960_24fps.mp4", "size": 1614162}], "video_pictures": [{"id": 10506771, "nr": 0, "picture": "https://images.pexels.com/videos/10040034/pictures/preview-0.jpeg"}, {"id": 10506775, "nr": 1, "picture": "https://images.pexels.com/videos/10040034/pictures/preview-1.jpeg"}, {"id": 10506781, "nr": 2, "picture": "https://images.pexels.com/videos/10040034/pictures/preview-2.jpeg"}, {"id": 10506789, "nr": 3, "picture": "https://images.pexels.com/videos/10040034/pictures/preview-3.jpeg"}, {"id": 10506796, "nr": 4, "picture": "https://images.pexels.com/videos/10040034/pictures/preview-4.jpeg"}, {"id": 10506804, "nr": 5, "picture": "https://images.pexels.com/videos/10040034/pictures/preview-5.jpeg"}, {"id": 10506812, "nr": 6, "picture": "https://images.pexels.com/videos/10040034/pictures/preview-6.jpeg"}, {"id": 10506820, "nr": 7, "picture": "https://images.pexels.com/videos/10040034/pictures/preview-7.jpeg"}, {"id": 10506830, "nr": 8, "picture": "https://images.pexels.com/videos/10040034/pictures/preview-8.jpeg"}, {"id": 10506838, "nr": 9, "picture": "https://images.pexels.com/videos/10040034/pictures/preview-9.jpeg"}, {"id": 10506850, "nr": 10, "picture": "https://images.pexels.com/videos/10040034/pictures/preview-10.jpeg"}, {"id": 10506864, "nr": 11, "picture": "https://images.pexels.com/videos/10040034/pictures/preview-11.jpeg"}, {"id": 10506877, "nr": 12, "picture": "https://images.pexels.com/videos/10040034/pictures/preview-12.jpeg"}, {"id": 10506888, "nr": 13, "picture": "https://images.pexels.com/videos/10040034/pictures/preview-13.jpeg"}, {"id": 10506898, "nr": 14, "picture": "https://images.pexels.com/videos/10040034/pictures/preview-14.jpeg"}]}, {"id": 8195621, "width": 2160, "height": 4096, "duration": 14, "full_res": null, "tags": [], "url": "https://www.pexels.com/video/conservatory-of-flowers-8195621/", "image": "https://images.pexels.com/videos/8195621/agriculture-beautiful-color-coloring-8195621.jpeg?auto=compress&cs=tinysrgb&fit=crop&h=1200&w=630", "avg_color": null, "user": {"id": 2678846, "name": "ROMAN ODINTSOV", "url": "https://www.pexels.com/@roman-odintsov"}, "video_files": [{"id": 10740596, "quality": "hd", "file_type": "video/mp4", "width": 1080, "height": 2048, "fps": 29.969999313354492, "link": "https://videos.pexels.com/video-files/8195621/8195621-hd_1080_2048_30fps.mp4", "size": 9299709}, {"id": 10740617, "quality": "sd", "file_type": "video/mp4", "width": 226, "height": 426, "fps": 29.969999313354492, "link": "https://videos.pexels.com/video-files/8195621/8195621-sd_226_426_30fps.mp4", "size": 598080}, {"id": 10740681, "quality": "sd", "file_type": "video/mp4", "width": 506, "height": 960, "fps": 29.969999313354492, "link": "https://videos.pexels.com/video-files/8195621/8195621-sd_506_960_30fps.mp4", "size": 2432714}, {"id": 10740746, "quality": "sd", "file_type": "video/mp4", "width": 338, "height": 640, "fps": 29.969999313354492, "link": "https://videos.pexels.com/video-files/8195621/8195621-sd_338_640_30fps.mp4", "size": 893961}, {"id": 10740837, "quality": "uhd", "file_type": "video/mp4", "width": 1440, "height": 2732, "fps": 29.969999313354492, "link": "https://videos.pexels.com/video-files/8195621/8195621-uhd_1440_2732_30fps.mp4", "size": 23091606}, {"id": 10740992, "quality": "hd", "file_type": "video/mp4", "width": 720, "height": 1366, "fps": 29.969999313354492, "link": "https://videos.pexels.com/video-files/8195621/8195621-hd_720_1366_30fps.mp4", "size": 4584427}, {"id": 10741101, "quality": "uhd", "file_type": "video/mp4", "width": 2160, "height": 4096, "fps": 29.969999313354492, "link": "https://videos.pexels.com/video-files/8195621/8195621-uhd_2160_4096_30fps.mp4", "size": 40944005}], "video_pictures": [{"id": 7802514, "nr": 0, "picture": "https://images.pexels.com/videos/8195621/pictures/preview-0.jpeg"}, {"id": 7802522, "nr": 1, "picture": "https://images.pexels.com/videos/8195621/pictures/preview-1.jpeg"}, {"id": 7802534, "nr": 2, "picture": "https://images.pexels.com/videos/8195621/pictures/preview-2.jpeg"}, {"id": 7802565, "nr": 3, "picture": "https://images.pexels.com/videos/8195621/pictures/preview-3.jpeg"}, {"id": 7802595, "nr": 4, "picture": "https://images.pexels.com/videos/8195621/pictures/preview-4.jpeg"}, {"id": 7802611, "nr": 5, "picture": "https://images.pexels.com/videos/8195621/pictures/preview-5.jpeg"}, {"id": 7802634, "nr": 6, "picture": "https://images.pexels.com/videos/8195621/pictures/preview-6.jpeg"}, {"id": 7802661, "nr": 7, "picture": "https://images.pexels.com/videos/8195621/pictures/preview-7.jpeg"}, {"id": 7802685, "nr": 8, "picture": "https://images.pexels.com/videos/8195621/pictures/preview-8.jpeg"}, {"id": 7802704, "nr": 9, "picture": "https://images.pexels.com/videos/8195621/pictures/preview-9.jpeg"}, {"id": 7802730, "nr": 10, "picture": "https://images.pexels.com/videos/8195621/pictures/preview-10.jpeg"}, {"id": 7802763, "nr": 11, "picture": "https://images.pexels.com/videos/8195621/pictures/preview-11.jpeg"}, {"id": 7802784, "nr": 12, "picture": "https://images.pexels.com/videos/8195621/pictures/preview-12.jpeg"}, {"id": 7802810, "nr": 13, "picture": "https://images.pexels.com/videos/8195621/pictures/preview-13.jpeg"}, {"id": 7802830, "nr": 14, "picture": "https://images.pexels.com/videos/8195621/pictures/preview-14.jpeg"}]}, {"id": 9411443, "width": 2160, "height": 3840, "duration": 10, "full_res": null, "tags": [], "url": "https://www.pexels.com/video/a-person-holding-a-plant-with-a-large-leaf-9411443/", "image": "https://images.pexels.com/videos/9411443/pexels-photo-9411443.jpeg?auto=compress&cs=tinysrgb&fit=crop&h=1200&w=630", "avg_color": null, "user": {"id": 20454725, "name": "Sasha  Kim", "url": "https://www.pexels.com/@sasha-kim"}, "video_files": [{"id": 11107536, "quality": "hd", "file_type": "video/mp4", "width": 1080, "height": 1920, "fps": 23.97599983215332, "link": "https://videos.pexels.com/video-files/9411443/9411443-hd_1080_1920_24fps.mp4", "size": 4244502}, {"id": 11107571, "quality": "sd", "file_type": "video/mp4", "width": 240, "height": 426, "fps": 23.97599983215332, "link": "https://videos.pexels.com/video-files/9411443/9411443-sd_240_426_24fps.mp4", "size": 389863}, {"id": 11107624, "quality": "uhd", "file_type": "video/mp4", "width": 1440, "height": 2560, "fps": 23.97599983215332, "link": "https://videos.pexels.com/video-files/9411443/9411443-uhd_1440_2560_24fps.mp4", "size": 7314837}, {"id": 11107657, "quality": "hd", "file_type": "video/mp4", "width": 720, "height": 1280, "fps": 23.97599983215332, "link": "https://videos.pexels.com/video-files/9411443/9411443-hd_720_1280_24fps.mp4", "size": 1937152}, {"id": 11107740, "quality": "sd", "file_type": "video/mp4", "width": 360, "height": 640, "fps": 23.97599983215332, "link": "https://videos.pexels.com/video-files/9411443/9411443-sd_360_640_24fps.mp4", "size": 572381}, {"id": 11107829, "quality": "uhd", "file_type": "video/mp4", "width": 2160, "height": 3840, "fps": 23.97599983215332, "link": "https://videos.pexels.com/video-files/9411443/9411443-uhd_2160_3840_24fps.mp4", "size": 18018867}, {"id": 11107861, "quality": "sd", "file_type": "video/mp4", "width": 540, "height": 960, "fps": 23.97599983215332, "link": "https://videos.pexels.com/video-files/9411443/9411443-sd_540_960_24fps.mp4", "size": 1137674}], "video_pictures": [{"id": 9659056, "nr": 0, "picture": "https://images.pexels.com/videos/9411443/pictures/preview-0.jpeg"}, {"id": 9659070, "nr": 1, "picture": "https://images.pexels.com/videos/9411443/pictures/preview-1.jpeg"}, {"id": 9659088, "nr": 2, "picture": "https://images.pexels.com/videos/9411443/pictures/preview-2.jpeg"}, {"id": 9659110, "nr": 3, "picture": "https://images.pexels.com/videos/9411443/pictures/preview-3.jpeg"}, {"id": 9659135, "nr": 4, "picture": "https://images.pexels.com/videos/9411443/pictures/preview-4.jpeg"}, {"id": 9659159, "nr": 5, "picture": "https://images.pexels.com/videos/9411443/pictures/preview-5.jpeg"}, {"id": 9659174, "nr": 6, "picture": "https://images.pexels.com/videos/9411443/pictures/preview-6.jpeg"}, {"id": 9659190, "nr": 7, "picture": "https://images.pexels.com/videos/9411443/pictures/preview-7.jpeg"}, {"id": 9659211, "nr": 8, "picture": "https://images.pexels.com/videos/9411443/pictures/preview-8.jpeg"}, {"id": 9659224, "nr": 9, "picture": "https://images.pexels.com/videos/9411443/pictures/preview-9.jpeg"}, {"id": 9659239, "nr": 10, "picture": "https://images.pexels.com/videos/9411443/pictures/preview-10.jpeg"}, {"id": 9659256, "nr": 11, "picture": "https://images.pexels.com/videos/9411443/pictures/preview-11.jpeg"}, {"id": 9659268, "nr": 12, "picture": "https://images.pexels.com/videos/9411443/pictures/preview-12.jpeg"}, {"id": 9659277, "nr": 13, "picture": "https://images.pexels.com/videos/9411443/pictures/preview-13.jpeg"}, {"id": 9659286, "nr": 14, "picture": "https://images.pexels.com/videos/9411443/pictures/preview-14.jpeg"}]}, {"id": 6911643, "width": 2160, "height": 3840, "duration": 10, "full_res": null, "tags": [], "url": "https://www.pexels.com/video/a-person-putting-soil-in-a-plastic-pot-6911643/", "image": "https://images.pexels.com/videos/6911643/pexels-photo-6911643.jpeg?auto=compress&cs=tinysrgb&fit=crop&h=1200&w=630", "avg_color": null, "user": {"id": 19162587, "name": "Teona Swift", "url": "https://www.pexels.com/@teona-swift"}, "video_files": [{"id": 10222483, "quality": "sd", "file_type": "video/mp4", "width": 540, "height": 960, "fps": 23.97599983215332, "link": "https://videos.pexels.com/video-files/6911643/6911643-sd_540_960_24fps.mp4", "size": 1700345}, {"id": 10222537, "quality": "uhd", "file_type": "video/mp4", "width": 1440, "height": 2560, "fps": 23.97599983215332, "link": "https://videos.pexels.com/video-files/6911643/6911643-uhd_1440_2560_24fps.mp4", "size": 14301752}, {"id": 10222625, "quality": "sd", "file_type": "video/mp4", "width": 240, "height": 426, "fps": 23.97599983215332, "link": "https://videos.pexels.com/video-files/6911643/6911643-sd_240_426_24fps.mp4", "size": 393012}, {"id": 10222712, "quality": "uhd", "file_type": "video/mp4", "width": 2160, "height": 3840, "fps": 23.97599983215332, "link": "https://videos.pexels.com/video-files/6911643/6911643-uhd_2160_3840_24fps.mp4", "size": 27484900}, {"id": 10222743, "quality": "hd", "file_type": "video/mp4", "width": 720, "height": 1280, "fps": 23.97599983215332, "link": "https://videos.pexels.com/video-files/6911643/6911643-hd_720_1280_24fps.mp4", "size": 3260489}, {"id": 10222807, "quality": "sd", "file_type": "video/mp4", "width": 360, "height": 640, "fps": 23.97599983215332, "link": "https://videos.pexels.com/video-files/6911643/6911643-sd_360_640_24fps.mp4", "size": 597810}, {"id": 10222901, "quality": "hd", "file_type": "video/mp4", "width": 1080, "height": 1920, "fps": 23.97599983215332, "link": "https://videos.pexels.com/video-files/6911643/6911643-hd_1080_1920_24fps.mp4", "size": 6184429}], "video_pictures": [{"id": 5346740, "nr": 0, "picture": "https://images.pexels.com/videos/6911643/pictures/preview-0.jpeg"}, {"id": 5346747, "nr": 1, "picture": "https://images.pexels.com/videos/6911643/pictures/preview-1.jpeg"}, {"id": 5346771, "nr": 2, "picture": "https://images.pexels.com/videos/6911643/pictures/preview-2.jpeg"}, {"id": 5346780, "nr": 3, "picture": "https://images.pexels.com/videos/6911643/pictures/preview-3.jpeg"}, {"id": 5346792, "nr": 4, "picture": "https://images.pexels.com/videos/6911643/pictures/preview-4.jpeg"}, {"id": 5346806, "nr": 5, "picture": "https://images.pexels.com/videos/6911643/pictures/preview-5.jpeg"}, {"id": 5346818, "nr": 6, "picture": "https://images.pexels.com/videos/6911643/pictures/preview-6.jpeg"}, {"id": 5346832, "nr": 7, "picture": "https://images.pexels.com/videos/6911643/pictures/preview-7.jpeg"}, {"id": 5346844, "nr": 8, "picture": "https://images.pexels.com/videos/6911643/pictures/preview-8.jpeg"}, {"id": 5346857, "nr": 9, "picture": "https://images.pexels.com/videos/6911643/pictures/preview-9.jpeg"}, {"id": 5346873, "nr": 10, "picture": "https://images.pexels.com/videos/6911643/pictures/preview-10.jpeg"}, {"id": 5346889, "nr": 11, "picture": "https://images.pexels.com/videos/6911643/pictures/preview-11.jpeg"}, {"id": 5346899, "nr": 12, "picture": "https://images.pexels.com/videos/6911643/pictures/preview-12.jpeg"}, {"id": 5346910, "nr": 13, "picture": "https://images.pexels.com/videos/6911643/pictures/preview-13.jpeg"}, {"id": 5346934, "nr": 14, "picture": "https://images.pexels.com/videos/6911643/pictures/preview-14.jpeg"}]}], "total_results": 8000, "next_page": "https://api.pexels.com/v1/videos/search/?orientation=portrait&page=2&per_page=8&query=plant+growth", "url": "https://api-server.pexels.com/search/videos/plant%20growth/"}, "timestamp": "2024-12-28T22:42:04.897325"}
