{"query": "gardening fun", "response": {"page": 1, "per_page": 8, "videos": [{"id": 5272336, "width": 2160, "height": 4096, "duration": 29, "full_res": null, "tags": [], "url": "https://www.pexels.com/video/kids-playing-with-the-plants-5272336/", "image": "https://images.pexels.com/videos/5272336/pexels-photo-5272336.jpeg?auto=compress&cs=tinysrgb&fit=crop&h=1200&w=630", "avg_color": null, "user": {"id": 3372733, "name": "Monstera Production", "url": "https://www.pexels.com/@gabby-k"}, "video_files": [{"id": 9655502, "quality": "uhd", "file_type": "video/mp4", "width": 1440, "height": 2732, "fps": 30.0, "link": "https://videos.pexels.com/video-files/5272336/5272336-uhd_1440_2732_30fps.mp4", "size": 12060828}, {"id": 9655605, "quality": "uhd", "file_type": "video/mp4", "width": 2160, "height": 4096, "fps": 30.0, "link": "https://videos.pexels.com/video-files/5272336/5272336-uhd_2160_4096_30fps.mp4", "size": 24616185}, {"id": 9655718, "quality": "hd", "file_type": "video/mp4", "width": 1080, "height": 2048, "fps": 30.0, "link": "https://videos.pexels.com/video-files/5272336/5272336-hd_1080_2048_30fps.mp4", "size": 8051384}, {"id": 9656006, "quality": "sd", "file_type": "video/mp4", "width": 338, "height": 640, "fps": 30.0, "link": "https://videos.pexels.com/video-files/5272336/5272336-sd_338_640_30fps.mp4", "size": 1640933}, {"id": 9656210, "quality": "sd", "file_type": "video/mp4", "width": 506, "height": 960, "fps": 30.0, "link": "https://videos.pexels.com/video-files/5272336/5272336-sd_506_960_30fps.mp4", "size": 3305753}, {"id": 9656546, "quality": "hd", "file_type": "video/mp4", "width": 720, "height": 1366, "fps": 30.0, "link": "https://videos.pexels.com/video-files/5272336/5272336-hd_720_1366_30fps.mp4", "size": 5007677}, {"id": 9656832, "quality": "sd", "file_type": "video/mp4", "width": 226, "height": 426, "fps": 30.0, "link": "https://videos.pexels.com/video-files/5272336/5272336-sd_226_426_30fps.mp4", "size": 959251}], "video_pictures": [{"id": 2580493, "nr": 0, "picture": "https://images.pexels.com/videos/5272336/pictures/preview-0.jpeg"}, {"id": 2580494, "nr": 1, "picture": "https://images.pexels.com/videos/5272336/pictures/preview-1.jpeg"}, {"id": 2580495, "nr": 2, "picture": "https://images.pexels.com/videos/5272336/pictures/preview-2.jpeg"}, {"id": 2580496, "nr": 3, "picture": "https://images.pexels.com/videos/5272336/pictures/preview-3.jpeg"}, {"id": 2580497, "nr": 4, "picture": "https://images.pexels.com/videos/5272336/pictures/preview-4.jpeg"}, {"id": 2580498, "nr": 5, "picture": "https://images.pexels.com/videos/5272336/pictures/preview-5.jpeg"}, {"id": 2580499, "nr": 6, "picture": "https://images.pexels.com/videos/5272336/pictures/preview-6.jpeg"}, {"id": 2580500, "nr": 7, "picture": "https://images.pexels.com/videos/5272336/pictures/preview-7.jpeg"}, {"id": 2580501, "nr": 8, "picture": "https://images.pexels.com/videos/5272336/pictures/preview-8.jpeg"}, {"id": 2580502, "nr": 9, "picture": "https://images.pexels.com/videos/5272336/pictures/preview-9.jpeg"}, {"id": 2580503, "nr": 10, "picture": "https://images.pexels.com/videos/5272336/pictures/preview-10.jpeg"}, {"id": 2580504, "nr": 11, "picture": "https://images.pexels.com/videos/5272336/pictures/preview-11.jpeg"}, {"id": 2580505, "nr": 12, "picture": "https://images.pexels.com/videos/5272336/pictures/preview-12.jpeg"}, {"id": 2580506, "nr": 13, "picture": "https://images.pexels.com/videos/5272336/pictures/preview-13.jpeg"}, {"id": 2580507, "nr": 14, "picture": "https://images.pexels.com/videos/5272336/pictures/preview-14.jpeg"}]}, {"id": 4625830, "width": 1080, "height": 1920, "duration": 12, "full_res": null, "tags": [], "url": "https://www.pexels.com/video/mother-planting-a-tree-with-her-daughter-4625830/", "image": "https://images.pexels.com/videos/4625830/bare-feet-basket-cat-child-4625830.jpeg?auto=compress&cs=tinysrgb&fit=crop&h=1200&w=630", "avg_color": null, "user": {"id": 2297095, "name": "Pavel Danilyuk", "url": "https://www.pexels.com/@pavel-danilyuk"}, "video_files": [{"id": 9387632, "quality": "sd", "file_type": "video/mp4", "width": 360, "height": 640, "fps": 29.969999313354492, "link": "https://videos.pexels.com/video-files/4625830/4625830-sd_360_640_30fps.mp4", "size": 771702}, {"id": 9387649, "quality": "sd", "file_type": "video/mp4", "width": 540, "height": 960, "fps": 29.969999313354492, "link": "https://videos.pexels.com/video-files/4625830/4625830-sd_540_960_30fps.mp4", "size": 2166311}, {"id": 9387676, "quality": "hd", "file_type": "video/mp4", "width": 1080, "height": 1920, "fps": 29.969999313354492, "link": "https://videos.pexels.com/video-files/4625830/4625830-hd_1080_1920_30fps.mp4", "size": 8250330}, {"id": 9387694, "quality": "hd", "file_type": "video/mp4", "width": 720, "height": 1280, "fps": 29.969999313354492, "link": "https://videos.pexels.com/video-files/4625830/4625830-hd_720_1280_30fps.mp4", "size": 4240070}, {"id": 9387712, "quality": "sd", "file_type": "video/mp4", "width": 240, "height": 426, "fps": 29.969999313354492, "link": "https://videos.pexels.com/video-files/4625830/4625830-sd_240_426_30fps.mp4", "size": 474404}], "video_pictures": [{"id": 1744774, "nr": 0, "picture": "https://images.pexels.com/videos/4625830/pictures/preview-0.jpeg"}, {"id": 1744775, "nr": 1, "picture": "https://images.pexels.com/videos/4625830/pictures/preview-1.jpeg"}, {"id": 1744776, "nr": 2, "picture": "https://images.pexels.com/videos/4625830/pictures/preview-2.jpeg"}, {"id": 1744777, "nr": 3, "picture": "https://images.pexels.com/videos/4625830/pictures/preview-3.jpeg"}, {"id": 1744778, "nr": 4, "picture": "https://images.pexels.com/videos/4625830/pictures/preview-4.jpeg"}, {"id": 1744779, "nr": 5, "picture": "https://images.pexels.com/videos/4625830/pictures/preview-5.jpeg"}, {"id": 1744780, "nr": 6, "picture": "https://images.pexels.com/videos/4625830/pictures/preview-6.jpeg"}, {"id": 1744781, "nr": 7, "picture": "https://images.pexels.com/videos/4625830/pictures/preview-7.jpeg"}, {"id": 1744782, "nr": 8, "picture": "https://images.pexels.com/videos/4625830/pictures/preview-8.jpeg"}, {"id": 1744783, "nr": 9, "picture": "https://images.pexels.com/videos/4625830/pictures/preview-9.jpeg"}, {"id": 1744784, "nr": 10, "picture": "https://images.pexels.com/videos/4625830/pictures/preview-10.jpeg"}, {"id": 1744785, "nr": 11, "picture": "https://images.pexels.com/videos/4625830/pictures/preview-11.jpeg"}, {"id": 1744786, "nr": 12, "picture": "https://images.pexels.com/videos/4625830/pictures/preview-12.jpeg"}, {"id": 1744787, "nr": 13, "picture": "https://images.pexels.com/videos/4625830/pictures/preview-13.jpeg"}, {"id": 1744788, "nr": 14, "picture": "https://images.pexels.com/videos/4625830/pictures/preview-14.jpeg"}]}, {"id": 5527761, "width": 2160, "height": 3840, "duration": 6, "full_res": null, "tags": [], "url": "https://www.pexels.com/video/a-young-girl-trying-to-lift-a-large-pumpkin-5527761/", "image": "https://images.pexels.com/videos/5527761/pexels-photo-5527761.jpeg?auto=compress&cs=tinysrgb&fit=crop&h=1200&w=630", "avg_color": null, "user": {"id": 3651179, "name": "Zen Chung", "url": "https://www.pexels.com/@zen-chung"}, "video_files": [{"id": 9719443, "quality": "hd", "file_type": "video/mp4", "width": 720, "height": 1280, "fps": 23.97599983215332, "link": "https://videos.pexels.com/video-files/5527761/5527761-hd_720_1280_24fps.mp4", "size": 2130350}, {"id": 9719496, "quality": "hd", "file_type": "video/mp4", "width": 1080, "height": 1920, "fps": 23.97599983215332, "link": "https://videos.pexels.com/video-files/5527761/5527761-hd_1080_1920_24fps.mp4", "size": 3998167}, {"id": 9719567, "quality": "uhd", "file_type": "video/mp4", "width": 2160, "height": 3840, "fps": 23.97599983215332, "link": "https://videos.pexels.com/video-files/5527761/5527761-uhd_2160_3840_24fps.mp4", "size": 17365267}, {"id": 9719651, "quality": "sd", "file_type": "video/mp4", "width": 540, "height": 960, "fps": 23.97599983215332, "link": "https://videos.pexels.com/video-files/5527761/5527761-sd_540_960_24fps.mp4", "size": 1378718}, {"id": 9719732, "quality": "uhd", "file_type": "video/mp4", "width": 1440, "height": 2560, "fps": 23.97599983215332, "link": "https://videos.pexels.com/video-files/5527761/5527761-uhd_1440_2560_24fps.mp4", "size": 9460878}, {"id": 9719825, "quality": "sd", "file_type": "video/mp4", "width": 360, "height": 640, "fps": 23.97599983215332, "link": "https://videos.pexels.com/video-files/5527761/5527761-sd_360_640_24fps.mp4", "size": 495308}, {"id": 9719889, "quality": "sd", "file_type": "video/mp4", "width": 240, "height": 426, "fps": 23.97599983215332, "link": "https://videos.pexels.com/video-files/5527761/5527761-sd_240_426_24fps.mp4", "size": 290570}], "video_pictures": [{"id": 2948813, "nr": 0, "picture": "https://images.pexels.com/videos/5527761/pictures/preview-0.jpeg"}, {"id": 2948821, "nr": 1, "picture": "https://images.pexels.com/videos/5527761/pictures/preview-1.jpeg"}, {"id": 2948833, "nr": 2, "picture": "https://images.pexels.com/videos/5527761/pictures/preview-2.jpeg"}, {"id": 2948858, "nr": 3, "picture": "https://images.pexels.com/videos/5527761/pictures/preview-3.jpeg"}, {"id": 2948882, "nr": 4, "picture": "https://images.pexels.com/videos/5527761/pictures/preview-4.jpeg"}, {"id": 2948903, "nr": 5, "picture": "https://images.pexels.com/videos/5527761/pictures/preview-5.jpeg"}, {"id": 2948927, "nr": 6, "picture": "https://images.pexels.com/videos/5527761/pictures/preview-6.jpeg"}, {"id": 2948961, "nr": 7, "picture": "https://images.pexels.com/videos/5527761/pictures/preview-7.jpeg"}, {"id": 2948996, "nr": 8, "picture": "https://images.pexels.com/videos/5527761/pictures/preview-8.jpeg"}, {"id": 2949030, "nr": 9, "picture": "https://images.pexels.com/videos/5527761/pictures/preview-9.jpeg"}, {"id": 2949062, "nr": 10, "picture": "https://images.pexels.com/videos/5527761/pictures/preview-10.jpeg"}, {"id": 2949087, "nr": 11, "picture": "https://images.pexels.com/videos/5527761/pictures/preview-11.jpeg"}, {"id": 2949144, "nr": 12, "picture": "https://images.pexels.com/videos/5527761/pictures/preview-12.jpeg"}, {"id": 2949192, "nr": 13, "picture": "https://images.pexels.com/videos/5527761/pictures/preview-13.jpeg"}, {"id": 2949257, "nr": 14, "picture": "https://images.pexels.com/videos/5527761/pictures/preview-14.jpeg"}]}, {"id": 4625815, "width": 1080, "height": 1920, "duration": 12, "full_res": null, "tags": [], "url": "https://www.pexels.com/video/vegetables-summer-sun-garden-4625815/", "image": "https://images.pexels.com/videos/4625815/bare-feet-basket-cat-child-4625815.jpeg?auto=compress&cs=tinysrgb&fit=crop&h=1200&w=630", "avg_color": null, "user": {"id": 2297095, "name": "Pavel Danilyuk", "url": "https://www.pexels.com/@pavel-danilyuk"}, "video_files": [{"id": 9372481, "quality": "sd", "file_type": "video/mp4", "width": 360, "height": 640, "fps": 29.969999313354492, "link": "https://videos.pexels.com/video-files/4625815/4625815-sd_360_640_30fps.mp4", "size": 741882}, {"id": 9372573, "quality": "hd", "file_type": "video/mp4", "width": 1080, "height": 1920, "fps": 29.969999313354492, "link": "https://videos.pexels.com/video-files/4625815/4625815-hd_1080_1920_30fps.mp4", "size": 7721467}, {"id": 9372615, "quality": "sd", "file_type": "video/mp4", "width": 240, "height": 426, "fps": 29.969999313354492, "link": "https://videos.pexels.com/video-files/4625815/4625815-sd_240_426_30fps.mp4", "size": 477933}, {"id": 9372673, "quality": "sd", "file_type": "video/mp4", "width": 540, "height": 960, "fps": 29.969999313354492, "link": "https://videos.pexels.com/video-files/4625815/4625815-sd_540_960_30fps.mp4", "size": 2090539}, {"id": 9372767, "quality": "hd", "file_type": "video/mp4", "width": 720, "height": 1280, "fps": 29.969999313354492, "link": "https://videos.pexels.com/video-files/4625815/4625815-hd_720_1280_30fps.mp4", "size": 3972710}], "video_pictures": [{"id": 1744594, "nr": 0, "picture": "https://images.pexels.com/videos/4625815/pictures/preview-0.jpeg"}, {"id": 1744595, "nr": 1, "picture": "https://images.pexels.com/videos/4625815/pictures/preview-1.jpeg"}, {"id": 1744596, "nr": 2, "picture": "https://images.pexels.com/videos/4625815/pictures/preview-2.jpeg"}, {"id": 1744597, "nr": 3, "picture": "https://images.pexels.com/videos/4625815/pictures/preview-3.jpeg"}, {"id": 1744598, "nr": 4, "picture": "https://images.pexels.com/videos/4625815/pictures/preview-4.jpeg"}, {"id": 1744599, "nr": 5, "picture": "https://images.pexels.com/videos/4625815/pictures/preview-5.jpeg"}, {"id": 1744600, "nr": 6, "picture": "https://images.pexels.com/videos/4625815/pictures/preview-6.jpeg"}, {"id": 1744601, "nr": 7, "picture": "https://images.pexels.com/videos/4625815/pictures/preview-7.jpeg"}, {"id": 1744602, "nr": 8, "picture": "https://images.pexels.com/videos/4625815/pictures/preview-8.jpeg"}, {"id": 1744603, "nr": 9, "picture": "https://images.pexels.com/videos/4625815/pictures/preview-9.jpeg"}, {"id": 1744604, "nr": 10, "picture": "https://images.pexels.com/videos/4625815/pictures/preview-10.jpeg"}, {"id": 1744605, "nr": 11, "picture": "https://images.pexels.com/videos/4625815/pictures/preview-11.jpeg"}, {"id": 1744606, "nr": 12, "picture": "https://images.pexels.com/videos/4625815/pictures/preview-12.jpeg"}, {"id": 1744607, "nr": 13, "picture": "https://images.pexels.com/videos/4625815/pictures/preview-13.jpeg"}, {"id": 1744608, "nr": 14, "picture": "https://images.pexels.com/videos/4625815/pictures/preview-14.jpeg"}]}, {"id": 5527335, "width": 2160, "height": 3840, "duration": 12, "full_res": null, "tags": [], "url": "https://www.pexels.com/video/women-harvesting-grapes-in-the-vineyard-5527335/", "image": "https://images.pexels.com/videos/5527335/pexels-photo-5527335.jpeg?auto=compress&cs=tinysrgb&fit=crop&h=1200&w=630", "avg_color": null, "user": {"id": 3651179, "name": "Zen Chung", "url": "https://www.pexels.com/@zen-chung"}, "video_files": [{"id": 9719674, "quality": "sd", "file_type": "video/mp4", "width": 360, "height": 640, "fps": 23.97599983215332, "link": "https://videos.pexels.com/video-files/5527335/5527335-sd_360_640_24fps.mp4", "size": 943839}, {"id": 9719801, "quality": "uhd", "file_type": "video/mp4", "width": 1440, "height": 2560, "fps": 23.97599983215332, "link": "https://videos.pexels.com/video-files/5527335/5527335-uhd_1440_2560_24fps.mp4", "size": 21096264}, {"id": 9719839, "quality": "sd", "file_type": "video/mp4", "width": 240, "height": 426, "fps": 23.97599983215332, "link": "https://videos.pexels.com/video-files/5527335/5527335-sd_240_426_24fps.mp4", "size": 552854}, {"id": 9719910, "quality": "hd", "file_type": "video/mp4", "width": 1080, "height": 1920, "fps": 23.97599983215332, "link": "https://videos.pexels.com/video-files/5527335/5527335-hd_1080_1920_24fps.mp4", "size": 7724536}, {"id": 9720074, "quality": "hd", "file_type": "video/mp4", "width": 720, "height": 1280, "fps": 23.97599983215332, "link": "https://videos.pexels.com/video-files/5527335/5527335-hd_720_1280_24fps.mp4", "size": 4063276}, {"id": 9720222, "quality": "uhd", "file_type": "video/mp4", "width": 2160, "height": 3840, "fps": 23.97599983215332, "link": "https://videos.pexels.com/video-files/5527335/5527335-uhd_2160_3840_24fps.mp4", "size": 37517654}, {"id": 9720626, "quality": "sd", "file_type": "video/mp4", "width": 540, "height": 960, "fps": 23.97599983215332, "link": "https://videos.pexels.com/video-files/5527335/5527335-sd_540_960_24fps.mp4", "size": 2569805}], "video_pictures": [{"id": 2945356, "nr": 0, "picture": "https://images.pexels.com/videos/5527335/pictures/preview-0.jpeg"}, {"id": 2945367, "nr": 1, "picture": "https://images.pexels.com/videos/5527335/pictures/preview-1.jpeg"}, {"id": 2945387, "nr": 2, "picture": "https://images.pexels.com/videos/5527335/pictures/preview-2.jpeg"}, {"id": 2945408, "nr": 3, "picture": "https://images.pexels.com/videos/5527335/pictures/preview-3.jpeg"}, {"id": 2945431, "nr": 4, "picture": "https://images.pexels.com/videos/5527335/pictures/preview-4.jpeg"}, {"id": 2945449, "nr": 5, "picture": "https://images.pexels.com/videos/5527335/pictures/preview-5.jpeg"}, {"id": 2945471, "nr": 6, "picture": "https://images.pexels.com/videos/5527335/pictures/preview-6.jpeg"}, {"id": 2945491, "nr": 7, "picture": "https://images.pexels.com/videos/5527335/pictures/preview-7.jpeg"}, {"id": 2945515, "nr": 8, "picture": "https://images.pexels.com/videos/5527335/pictures/preview-8.jpeg"}, {"id": 2945535, "nr": 9, "picture": "https://images.pexels.com/videos/5527335/pictures/preview-9.jpeg"}, {"id": 2945551, "nr": 10, "picture": "https://images.pexels.com/videos/5527335/pictures/preview-10.jpeg"}, {"id": 2945588, "nr": 11, "picture": "https://images.pexels.com/videos/5527335/pictures/preview-11.jpeg"}, {"id": 2945642, "nr": 12, "picture": "https://images.pexels.com/videos/5527335/pictures/preview-12.jpeg"}, {"id": 2945720, "nr": 13, "picture": "https://images.pexels.com/videos/5527335/pictures/preview-13.jpeg"}, {"id": 2945789, "nr": 14, "picture": "https://images.pexels.com/videos/5527335/pictures/preview-14.jpeg"}]}, {"id": 5527127, "width": 2160, "height": 3840, "duration": 8, "full_res": null, "tags": [], "url": "https://www.pexels.com/video/women-picking-fresh-apples-from-the-tree-5527127/", "image": "https://images.pexels.com/videos/5527127/pexels-photo-5527127.jpeg?auto=compress&cs=tinysrgb&fit=crop&h=1200&w=630", "avg_color": null, "user": {"id": 3651179, "name": "Zen Chung", "url": "https://www.pexels.com/@zen-chung"}, "video_files": [{"id": 9719084, "quality": "uhd", "file_type": "video/mp4", "width": 1440, "height": 2560, "fps": 23.97599983215332, "link": "https://videos.pexels.com/video-files/5527127/5527127-uhd_1440_2560_24fps.mp4", "size": 12186528}, {"id": 9719127, "quality": "uhd", "file_type": "video/mp4", "width": 2160, "height": 3840, "fps": 23.97599983215332, "link": "https://videos.pexels.com/video-files/5527127/5527127-uhd_2160_3840_24fps.mp4", "size": 22372744}, {"id": 9719158, "quality": "hd", "file_type": "video/mp4", "width": 1080, "height": 1920, "fps": 23.97599983215332, "link": "https://videos.pexels.com/video-files/5527127/5527127-hd_1080_1920_24fps.mp4", "size": 5198288}, {"id": 9719202, "quality": "hd", "file_type": "video/mp4", "width": 720, "height": 1280, "fps": 23.97599983215332, "link": "https://videos.pexels.com/video-files/5527127/5527127-hd_720_1280_24fps.mp4", "size": 2719125}, {"id": 9719226, "quality": "sd", "file_type": "video/mp4", "width": 240, "height": 426, "fps": 23.97599983215332, "link": "https://videos.pexels.com/video-files/5527127/5527127-sd_240_426_24fps.mp4", "size": 356827}, {"id": 9719278, "quality": "sd", "file_type": "video/mp4", "width": 540, "height": 960, "fps": 23.97599983215332, "link": "https://videos.pexels.com/video-files/5527127/5527127-sd_540_960_24fps.mp4", "size": 1684291}, {"id": 9719341, "quality": "sd", "file_type": "video/mp4", "width": 360, "height": 640, "fps": 23.97599983215332, "link": "https://videos.pexels.com/video-files/5527127/5527127-sd_360_640_24fps.mp4", "size": 596123}], "video_pictures": [{"id": 2944769, "nr": 0, "picture": "https://images.pexels.com/videos/5527127/pictures/preview-0.jpeg"}, {"id": 2944776, "nr": 1, "picture": "https://images.pexels.com/videos/5527127/pictures/preview-1.jpeg"}, {"id": 2944788, "nr": 2, "picture": "https://images.pexels.com/videos/5527127/pictures/preview-2.jpeg"}, {"id": 2944803, "nr": 3, "picture": "https://images.pexels.com/videos/5527127/pictures/preview-3.jpeg"}, {"id": 2944820, "nr": 4, "picture": "https://images.pexels.com/videos/5527127/pictures/preview-4.jpeg"}, {"id": 2944840, "nr": 5, "picture": "https://images.pexels.com/videos/5527127/pictures/preview-5.jpeg"}, {"id": 2944861, "nr": 6, "picture": "https://images.pexels.com/videos/5527127/pictures/preview-6.jpeg"}, {"id": 2944878, "nr": 7, "picture": "https://images.pexels.com/videos/5527127/pictures/preview-7.jpeg"}, {"id": 2944895, "nr": 8, "picture": "https://images.pexels.com/videos/5527127/pictures/preview-8.jpeg"}, {"id": 2944908, "nr": 9, "picture": "https://images.pexels.com/videos/5527127/pictures/preview-9.jpeg"}, {"id": 2944922, "nr": 10, "picture": "https://images.pexels.com/videos/5527127/pictures/preview-10.jpeg"}, {"id": 2944939, "nr": 11, "picture": "https://images.pexels.com/videos/5527127/pictures/preview-11.jpeg"}, {"id": 2944955, "nr": 12, "picture": "https://images.pexels.com/videos/5527127/pictures/preview-12.jpeg"}, {"id": 2944970, "nr": 13, "picture": "https://images.pexels.com/videos/5527127/pictures/preview-13.jpeg"}, {"id": 2944988, "nr": 14, "picture": "https://images.pexels.com/videos/5527127/pictures/preview-14.jpeg"}]}, {"id": 5527134, "width": 2160, "height": 3840, "duration": 8, "full_res": null, "tags": [], "url": "https://www.pexels.com/video/a-teenage-girl-picking-apples-from-the-trees-5527134/", "image": "https://images.pexels.com/videos/5527134/pexels-photo-5527134.jpeg?auto=compress&cs=tinysrgb&fit=crop&h=1200&w=630", "avg_color": null, "user": {"id": 3651179, "name": "Zen Chung", "url": "https://www.pexels.com/@zen-chung"}, "video_files": [{"id": 9719340, "quality": "sd", "file_type": "video/mp4", "width": 240, "height": 426, "fps": 23.97599983215332, "link": "https://videos.pexels.com/video-files/5527134/5527134-sd_240_426_24fps.mp4", "size": 355163}, {"id": 9719371, "quality": "sd", "file_type": "video/mp4", "width": 540, "height": 960, "fps": 23.97599983215332, "link": "https://videos.pexels.com/video-files/5527134/5527134-sd_540_960_24fps.mp4", "size": 1671675}, {"id": 9719391, "quality": "uhd", "file_type": "video/mp4", "width": 2160, "height": 3840, "fps": 23.97599983215332, "link": "https://videos.pexels.com/video-files/5527134/5527134-uhd_2160_3840_24fps.mp4", "size": 21626200}, {"id": 9719495, "quality": "sd", "file_type": "video/mp4", "width": 360, "height": 640, "fps": 23.97599983215332, "link": "https://videos.pexels.com/video-files/5527134/5527134-sd_360_640_24fps.mp4", "size": 608172}, {"id": 9719518, "quality": "hd", "file_type": "video/mp4", "width": 1080, "height": 1920, "fps": 23.97599983215332, "link": "https://videos.pexels.com/video-files/5527134/5527134-hd_1080_1920_24fps.mp4", "size": 4945178}, {"id": 9719627, "quality": "hd", "file_type": "video/mp4", "width": 720, "height": 1280, "fps": 23.97599983215332, "link": "https://videos.pexels.com/video-files/5527134/5527134-hd_720_1280_24fps.mp4", "size": 2616910}, {"id": 9719729, "quality": "uhd", "file_type": "video/mp4", "width": 1440, "height": 2560, "fps": 23.97599983215332, "link": "https://videos.pexels.com/video-files/5527134/5527134-uhd_1440_2560_24fps.mp4", "size": 11857290}], "video_pictures": [{"id": 2945325, "nr": 0, "picture": "https://images.pexels.com/videos/5527134/pictures/preview-0.jpeg"}, {"id": 2945327, "nr": 1, "picture": "https://images.pexels.com/videos/5527134/pictures/preview-1.jpeg"}, {"id": 2945328, "nr": 2, "picture": "https://images.pexels.com/videos/5527134/pictures/preview-2.jpeg"}, {"id": 2945330, "nr": 3, "picture": "https://images.pexels.com/videos/5527134/pictures/preview-3.jpeg"}, {"id": 2945332, "nr": 4, "picture": "https://images.pexels.com/videos/5527134/pictures/preview-4.jpeg"}, {"id": 2945333, "nr": 5, "picture": "https://images.pexels.com/videos/5527134/pictures/preview-5.jpeg"}, {"id": 2945334, "nr": 6, "picture": "https://images.pexels.com/videos/5527134/pictures/preview-6.jpeg"}, {"id": 2945335, "nr": 7, "picture": "https://images.pexels.com/videos/5527134/pictures/preview-7.jpeg"}, {"id": 2945336, "nr": 8, "picture": "https://images.pexels.com/videos/5527134/pictures/preview-8.jpeg"}, {"id": 2945337, "nr": 9, "picture": "https://images.pexels.com/videos/5527134/pictures/preview-9.jpeg"}, {"id": 2945338, "nr": 10, "picture": "https://images.pexels.com/videos/5527134/pictures/preview-10.jpeg"}, {"id": 2945339, "nr": 11, "picture": "https://images.pexels.com/videos/5527134/pictures/preview-11.jpeg"}, {"id": 2945340, "nr": 12, "picture": "https://images.pexels.com/videos/5527134/pictures/preview-12.jpeg"}, {"id": 2945341, "nr": 13, "picture": "https://images.pexels.com/videos/5527134/pictures/preview-13.jpeg"}, {"id": 2945342, "nr": 14, "picture": "https://images.pexels.com/videos/5527134/pictures/preview-14.jpeg"}]}, {"id": 9725044, "width": 2160, "height": 4096, "duration": 37, "full_res": null, "tags": [], "url": "https://www.pexels.com/video/group-of-friends-putting-black-sand-on-the-pots-9725044/", "image": "https://images.pexels.com/videos/9725044/diversity-home-gardening-homeplant-horticulture-9725044.jpeg?auto=compress&cs=tinysrgb&fit=crop&h=1200&w=630", "avg_color": null, "user": {"id": 1437723, "name": "cottonbro studio", "url": "https://www.pexels.com/@cottonbro"}, "video_files": [{"id": 11154184, "quality": "sd", "file_type": "video/mp4", "width": 506, "height": 960, "fps": 25.0, "link": "https://videos.pexels.com/video-files/9725044/9725044-sd_506_960_25fps.mp4", "size": 6428841}, {"id": 11154199, "quality": "sd", "file_type": "video/mp4", "width": 226, "height": 426, "fps": 25.0, "link": "https://videos.pexels.com/video-files/9725044/9725044-sd_226_426_25fps.mp4", "size": 1568168}, {"id": 11154205, "quality": "hd", "file_type": "video/mp4", "width": 1080, "height": 2048, "fps": 25.0, "link": "https://videos.pexels.com/video-files/9725044/9725044-hd_1080_2048_25fps.mp4", "size": 21432280}, {"id": 11154216, "quality": "uhd", "file_type": "video/mp4", "width": 2160, "height": 4096, "fps": 25.0, "link": "https://videos.pexels.com/video-files/9725044/9725044-uhd_2160_4096_25fps.mp4", "size": 72977604}, {"id": 11154223, "quality": "sd", "file_type": "video/mp4", "width": 338, "height": 640, "fps": 25.0, "link": "https://videos.pexels.com/video-files/9725044/9725044-sd_338_640_25fps.mp4", "size": 2441287}, {"id": 11154233, "quality": "hd", "file_type": "video/mp4", "width": 720, "height": 1366, "fps": 25.0, "link": "https://videos.pexels.com/video-files/9725044/9725044-hd_720_1366_25fps.mp4", "size": 11478005}, {"id": 11154240, "quality": "uhd", "file_type": "video/mp4", "width": 1440, "height": 2732, "fps": 25.0, "link": "https://videos.pexels.com/video-files/9725044/9725044-uhd_1440_2732_25fps.mp4", "size": 34083046}], "video_pictures": [{"id": 10084947, "nr": 0, "picture": "https://images.pexels.com/videos/9725044/pictures/preview-0.jpeg"}, {"id": 10084950, "nr": 1, "picture": "https://images.pexels.com/videos/9725044/pictures/preview-1.jpeg"}, {"id": 10084956, "nr": 2, "picture": "https://images.pexels.com/videos/9725044/pictures/preview-2.jpeg"}, {"id": 10084961, "nr": 3, "picture": "https://images.pexels.com/videos/9725044/pictures/preview-3.jpeg"}, {"id": 10084966, "nr": 4, "picture": "https://images.pexels.com/videos/9725044/pictures/preview-4.jpeg"}, {"id": 10084971, "nr": 5, "picture": "https://images.pexels.com/videos/9725044/pictures/preview-5.jpeg"}, {"id": 10084975, "nr": 6, "picture": "https://images.pexels.com/videos/9725044/pictures/preview-6.jpeg"}, {"id": 10084979, "nr": 7, "picture": "https://images.pexels.com/videos/9725044/pictures/preview-7.jpeg"}, {"id": 10084982, "nr": 8, "picture": "https://images.pexels.com/videos/9725044/pictures/preview-8.jpeg"}, {"id": 10084985, "nr": 9, "picture": "https://images.pexels.com/videos/9725044/pictures/preview-9.jpeg"}, {"id": 10084988, "nr": 10, "picture": "https://images.pexels.com/videos/9725044/pictures/preview-10.jpeg"}, {"id": 10084995, "nr": 11, "picture": "https://images.pexels.com/videos/9725044/pictures/preview-11.jpeg"}, {"id": 10085003, "nr": 12, "picture": "https://images.pexels.com/videos/9725044/pictures/preview-12.jpeg"}, {"id": 10085010, "nr": 13, "picture": "https://images.pexels.com/videos/9725044/pictures/preview-13.jpeg"}, {"id": 10085017, "nr": 14, "picture": "https://images.pexels.com/videos/9725044/pictures/preview-14.jpeg"}]}], "total_results": 8000, "next_page": "https://api.pexels.com/v1/videos/search/?orientation=portrait&page=2&per_page=8&query=gardening+fun", "url": "https://api-server.pexels.com/search/videos/gardening%20fun/"}, "timestamp": "2024-12-28T22:18:06.726635"}
