{"query": "clay pot water", "response": {"page": 1, "per_page": 8, "videos": [{"id": 4683406, "width": 1066, "height": 1920, "duration": 9, "full_res": null, "tags": [], "url": "https://www.pexels.com/video/video-of-person-molding-a-clay-pot-4683406/", "image": "https://images.pexels.com/videos/4683406/----4683406.jpeg?auto=compress&cs=tinysrgb&fit=crop&h=1200&w=630", "avg_color": null, "user": {"id": 2570462, "name": "Antoni Shkraba", "url": "https://www.pexels.com/@shkrabaanthony"}, "video_files": [{"id": 9436638, "quality": "hd", "file_type": "video/mp4", "width": 720, "height": 1298, "fps": 50.0, "link": "https://videos.pexels.com/video-files/4683406/4683406-hd_720_1298_50fps.mp4", "size": 2771643}, {"id": 9436741, "quality": "hd", "file_type": "video/mp4", "width": 1066, "height": 1920, "fps": 25.0, "link": "https://videos.pexels.com/video-files/4683406/4683406-hd_1066_1920_25fps.mp4", "size": 5402936}, {"id": 9436831, "quality": "sd", "file_type": "video/mp4", "width": 534, "height": 960, "fps": 25.0, "link": "https://videos.pexels.com/video-files/4683406/4683406-sd_534_960_25fps.mp4", "size": 1615595}, {"id": 9436915, "quality": "sd", "file_type": "video/mp4", "width": 356, "height": 640, "fps": 25.0, "link": "https://videos.pexels.com/video-files/4683406/4683406-sd_356_640_25fps.mp4", "size": 529899}, {"id": 9437082, "quality": "sd", "file_type": "video/mp4", "width": 238, "height": 426, "fps": 25.0, "link": "https://videos.pexels.com/video-files/4683406/4683406-sd_238_426_25fps.mp4", "size": 328246}], "video_pictures": [{"id": 1797708, "nr": 0, "picture": "https://images.pexels.com/videos/4683406/pictures/preview-0.jpeg"}, {"id": 1797710, "nr": 1, "picture": "https://images.pexels.com/videos/4683406/pictures/preview-1.jpeg"}, {"id": 1797711, "nr": 2, "picture": "https://images.pexels.com/videos/4683406/pictures/preview-2.jpeg"}, {"id": 1797712, "nr": 3, "picture": "https://images.pexels.com/videos/4683406/pictures/preview-3.jpeg"}, {"id": 1797713, "nr": 4, "picture": "https://images.pexels.com/videos/4683406/pictures/preview-4.jpeg"}, {"id": 1797714, "nr": 5, "picture": "https://images.pexels.com/videos/4683406/pictures/preview-5.jpeg"}, {"id": 1797715, "nr": 6, "picture": "https://images.pexels.com/videos/4683406/pictures/preview-6.jpeg"}, {"id": 1797716, "nr": 7, "picture": "https://images.pexels.com/videos/4683406/pictures/preview-7.jpeg"}, {"id": 1797717, "nr": 8, "picture": "https://images.pexels.com/videos/4683406/pictures/preview-8.jpeg"}, {"id": 1797718, "nr": 9, "picture": "https://images.pexels.com/videos/4683406/pictures/preview-9.jpeg"}, {"id": 1797719, "nr": 10, "picture": "https://images.pexels.com/videos/4683406/pictures/preview-10.jpeg"}, {"id": 1797720, "nr": 11, "picture": "https://images.pexels.com/videos/4683406/pictures/preview-11.jpeg"}, {"id": 1797721, "nr": 12, "picture": "https://images.pexels.com/videos/4683406/pictures/preview-12.jpeg"}, {"id": 1797722, "nr": 13, "picture": "https://images.pexels.com/videos/4683406/pictures/preview-13.jpeg"}, {"id": 1797723, "nr": 14, "picture": "https://images.pexels.com/videos/4683406/pictures/preview-14.jpeg"}]}, {"id": 5979940, "width": 2160, "height": 4096, "duration": 27, "full_res": null, "tags": [], "url": "https://www.pexels.com/video/a-woman-soaking-in-hot-water-5979940/", "image": "https://images.pexels.com/videos/5979940/baltic-sea-bath-bathe-bathing-5979940.jpeg?auto=compress&cs=tinysrgb&fit=crop&h=1200&w=630", "avg_color": null, "user": {"id": 649765, "name": "Yaroslav Shuraev", "url": "https://www.pexels.com/@yaroslav-shuraev"}, "video_files": [{"id": 9879106, "quality": "uhd", "file_type": "video/mp4", "width": 2160, "height": 4096, "fps": 24.0, "link": "https://videos.pexels.com/video-files/5979940/5979940-uhd_2160_4096_24fps.mp4", "size": 48626490}, {"id": 9879189, "quality": "uhd", "file_type": "video/mp4", "width": 1440, "height": 2732, "fps": 24.0, "link": "https://videos.pexels.com/video-files/5979940/5979940-uhd_1440_2732_24fps.mp4", "size": 19816097}, {"id": 9879236, "quality": "sd", "file_type": "video/mp4", "width": 226, "height": 426, "fps": 24.0, "link": "https://videos.pexels.com/video-files/5979940/5979940-sd_226_426_24fps.mp4", "size": 739255}, {"id": 9879324, "quality": "sd", "file_type": "video/mp4", "width": 506, "height": 960, "fps": 24.0, "link": "https://videos.pexels.com/video-files/5979940/5979940-sd_506_960_24fps.mp4", "size": 2772662}, {"id": 9879394, "quality": "hd", "file_type": "video/mp4", "width": 1080, "height": 2048, "fps": 24.0, "link": "https://videos.pexels.com/video-files/5979940/5979940-hd_1080_2048_24fps.mp4", "size": 10825917}, {"id": 9879450, "quality": "sd", "file_type": "video/mp4", "width": 338, "height": 640, "fps": 24.0, "link": "https://videos.pexels.com/video-files/5979940/5979940-sd_338_640_24fps.mp4", "size": 1455675}, {"id": 9879491, "quality": "hd", "file_type": "video/mp4", "width": 720, "height": 1366, "fps": 24.0, "link": "https://videos.pexels.com/video-files/5979940/5979940-hd_720_1366_24fps.mp4", "size": 5004699}], "video_pictures": [{"id": 3710296, "nr": 0, "picture": "https://images.pexels.com/videos/5979940/pictures/preview-0.jpeg"}, {"id": 3710303, "nr": 1, "picture": "https://images.pexels.com/videos/5979940/pictures/preview-1.jpeg"}, {"id": 3710315, "nr": 2, "picture": "https://images.pexels.com/videos/5979940/pictures/preview-2.jpeg"}, {"id": 3710320, "nr": 3, "picture": "https://images.pexels.com/videos/5979940/pictures/preview-3.jpeg"}, {"id": 3710330, "nr": 4, "picture": "https://images.pexels.com/videos/5979940/pictures/preview-4.jpeg"}, {"id": 3710341, "nr": 5, "picture": "https://images.pexels.com/videos/5979940/pictures/preview-5.jpeg"}, {"id": 3710353, "nr": 6, "picture": "https://images.pexels.com/videos/5979940/pictures/preview-6.jpeg"}, {"id": 3710362, "nr": 7, "picture": "https://images.pexels.com/videos/5979940/pictures/preview-7.jpeg"}, {"id": 3710369, "nr": 8, "picture": "https://images.pexels.com/videos/5979940/pictures/preview-8.jpeg"}, {"id": 3710378, "nr": 9, "picture": "https://images.pexels.com/videos/5979940/pictures/preview-9.jpeg"}, {"id": 3710392, "nr": 10, "picture": "https://images.pexels.com/videos/5979940/pictures/preview-10.jpeg"}, {"id": 3710410, "nr": 11, "picture": "https://images.pexels.com/videos/5979940/pictures/preview-11.jpeg"}, {"id": 3710418, "nr": 12, "picture": "https://images.pexels.com/videos/5979940/pictures/preview-12.jpeg"}, {"id": 3710429, "nr": 13, "picture": "https://images.pexels.com/videos/5979940/pictures/preview-13.jpeg"}, {"id": 3710439, "nr": 14, "picture": "https://images.pexels.com/videos/5979940/pictures/preview-14.jpeg"}]}, {"id": 7121437, "width": 1080, "height": 1920, "duration": 13, "full_res": null, "tags": [], "url": "https://www.pexels.com/video/an-elegant-ceramic-plant-pot-and-hanging-plant-on-indoor-7121437/", "image": "https://images.pexels.com/videos/7121437/accessory-art-artwork-bowl-7121437.jpeg?auto=compress&cs=tinysrgb&fit=crop&h=1200&w=630", "avg_color": null, "user": {"id": 2563618, "name": "Ivan Samkov", "url": "https://www.pexels.com/@ivan-samkov"}, "video_files": [{"id": 10311991, "quality": "sd", "file_type": "video/mp4", "width": 540, "height": 960, "fps": 25.0, "link": "https://videos.pexels.com/video-files/7121437/7121437-sd_540_960_25fps.mp4", "size": 1218950}, {"id": 10312109, "quality": "sd", "file_type": "video/mp4", "width": 240, "height": 426, "fps": 25.0, "link": "https://videos.pexels.com/video-files/7121437/7121437-sd_240_426_25fps.mp4", "size": 315167}, {"id": 10312230, "quality": "hd", "file_type": "video/mp4", "width": 720, "height": 1280, "fps": 25.0, "link": "https://videos.pexels.com/video-files/7121437/7121437-hd_720_1280_25fps.mp4", "size": 2160620}, {"id": 10312283, "quality": "hd", "file_type": "video/mp4", "width": 1080, "height": 1920, "fps": 25.0, "link": "https://videos.pexels.com/video-files/7121437/7121437-hd_1080_1920_25fps.mp4", "size": 5484480}, {"id": 10312370, "quality": "sd", "file_type": "video/mp4", "width": 360, "height": 640, "fps": 25.0, "link": "https://videos.pexels.com/video-files/7121437/7121437-sd_360_640_25fps.mp4", "size": 562147}], "video_pictures": [{"id": 5788896, "nr": 0, "picture": "https://images.pexels.com/videos/7121437/pictures/preview-0.jpeg"}, {"id": 5788900, "nr": 1, "picture": "https://images.pexels.com/videos/7121437/pictures/preview-1.jpeg"}, {"id": 5788906, "nr": 2, "picture": "https://images.pexels.com/videos/7121437/pictures/preview-2.jpeg"}, {"id": 5788908, "nr": 3, "picture": "https://images.pexels.com/videos/7121437/pictures/preview-3.jpeg"}, {"id": 5788915, "nr": 4, "picture": "https://images.pexels.com/videos/7121437/pictures/preview-4.jpeg"}, {"id": 5788918, "nr": 5, "picture": "https://images.pexels.com/videos/7121437/pictures/preview-5.jpeg"}, {"id": 5788924, "nr": 6, "picture": "https://images.pexels.com/videos/7121437/pictures/preview-6.jpeg"}, {"id": 5788928, "nr": 7, "picture": "https://images.pexels.com/videos/7121437/pictures/preview-7.jpeg"}, {"id": 5788932, "nr": 8, "picture": "https://images.pexels.com/videos/7121437/pictures/preview-8.jpeg"}, {"id": 5788934, "nr": 9, "picture": "https://images.pexels.com/videos/7121437/pictures/preview-9.jpeg"}, {"id": 5788940, "nr": 10, "picture": "https://images.pexels.com/videos/7121437/pictures/preview-10.jpeg"}, {"id": 5788943, "nr": 11, "picture": "https://images.pexels.com/videos/7121437/pictures/preview-11.jpeg"}, {"id": 5788948, "nr": 12, "picture": "https://images.pexels.com/videos/7121437/pictures/preview-12.jpeg"}, {"id": 5788951, "nr": 13, "picture": "https://images.pexels.com/videos/7121437/pictures/preview-13.jpeg"}, {"id": 5788954, "nr": 14, "picture": "https://images.pexels.com/videos/7121437/pictures/preview-14.jpeg"}]}, {"id": 4683411, "width": 1066, "height": 1920, "duration": 10, "full_res": null, "tags": [], "url": "https://www.pexels.com/video/video-of-person-putting-design-on-clay-pot-4683411/", "image": "https://images.pexels.com/videos/4683411/----4683411.jpeg?auto=compress&cs=tinysrgb&fit=crop&h=1200&w=630", "avg_color": null, "user": {"id": 2570462, "name": "Antoni Shkraba", "url": "https://www.pexels.com/@shkrabaanthony"}, "video_files": [{"id": 9436569, "quality": "sd", "file_type": "video/mp4", "width": 356, "height": 640, "fps": 25.0, "link": "https://videos.pexels.com/video-files/4683411/4683411-sd_356_640_25fps.mp4", "size": 613471}, {"id": 9436617, "quality": "hd", "file_type": "video/mp4", "width": 1066, "height": 1920, "fps": 25.0, "link": "https://videos.pexels.com/video-files/4683411/4683411-hd_1066_1920_25fps.mp4", "size": 6160123}, {"id": 9436700, "quality": "hd", "file_type": "video/mp4", "width": 720, "height": 1298, "fps": 50.0, "link": "https://videos.pexels.com/video-files/4683411/4683411-hd_720_1298_50fps.mp4", "size": 3120540}, {"id": 9436836, "quality": "sd", "file_type": "video/mp4", "width": 238, "height": 426, "fps": 25.0, "link": "https://videos.pexels.com/video-files/4683411/4683411-sd_238_426_25fps.mp4", "size": 377569}, {"id": 9436958, "quality": "sd", "file_type": "video/mp4", "width": 534, "height": 960, "fps": 25.0, "link": "https://videos.pexels.com/video-files/4683411/4683411-sd_534_960_25fps.mp4", "size": 1832620}], "video_pictures": [{"id": 1797824, "nr": 0, "picture": "https://images.pexels.com/videos/4683411/pictures/preview-0.jpeg"}, {"id": 1797829, "nr": 1, "picture": "https://images.pexels.com/videos/4683411/pictures/preview-1.jpeg"}, {"id": 1797831, "nr": 2, "picture": "https://images.pexels.com/videos/4683411/pictures/preview-2.jpeg"}, {"id": 1797832, "nr": 3, "picture": "https://images.pexels.com/videos/4683411/pictures/preview-3.jpeg"}, {"id": 1797833, "nr": 4, "picture": "https://images.pexels.com/videos/4683411/pictures/preview-4.jpeg"}, {"id": 1797834, "nr": 5, "picture": "https://images.pexels.com/videos/4683411/pictures/preview-5.jpeg"}, {"id": 1797835, "nr": 6, "picture": "https://images.pexels.com/videos/4683411/pictures/preview-6.jpeg"}, {"id": 1797836, "nr": 7, "picture": "https://images.pexels.com/videos/4683411/pictures/preview-7.jpeg"}, {"id": 1797837, "nr": 8, "picture": "https://images.pexels.com/videos/4683411/pictures/preview-8.jpeg"}, {"id": 1797838, "nr": 9, "picture": "https://images.pexels.com/videos/4683411/pictures/preview-9.jpeg"}, {"id": 1797839, "nr": 10, "picture": "https://images.pexels.com/videos/4683411/pictures/preview-10.jpeg"}, {"id": 1797840, "nr": 11, "picture": "https://images.pexels.com/videos/4683411/pictures/preview-11.jpeg"}, {"id": 1797841, "nr": 12, "picture": "https://images.pexels.com/videos/4683411/pictures/preview-12.jpeg"}, {"id": 1797842, "nr": 13, "picture": "https://images.pexels.com/videos/4683411/pictures/preview-13.jpeg"}, {"id": 1797843, "nr": 14, "picture": "https://images.pexels.com/videos/4683411/pictures/preview-14.jpeg"}]}, {"id": 4683398, "width": 1066, "height": 1920, "duration": 10, "full_res": null, "tags": [], "url": "https://www.pexels.com/video/video-of-person-working-on-pottery-business-4683398/", "image": "https://images.pexels.com/videos/4683398/----4683398.jpeg?auto=compress&cs=tinysrgb&fit=crop&h=1200&w=630", "avg_color": null, "user": {"id": 2570462, "name": "Antoni Shkraba", "url": "https://www.pexels.com/@shkrabaanthony"}, "video_files": [{"id": 9437047, "quality": "hd", "file_type": "video/mp4", "width": 720, "height": 1298, "fps": 50.0, "link": "https://videos.pexels.com/video-files/4683398/4683398-hd_720_1298_50fps.mp4", "size": 3097851}, {"id": 9437132, "quality": "sd", "file_type": "video/mp4", "width": 534, "height": 960, "fps": 25.0, "link": "https://videos.pexels.com/video-files/4683398/4683398-sd_534_960_25fps.mp4", "size": 1841110}, {"id": 9437254, "quality": "hd", "file_type": "video/mp4", "width": 1066, "height": 1920, "fps": 25.0, "link": "https://videos.pexels.com/video-files/4683398/4683398-hd_1066_1920_25fps.mp4", "size": 6161488}, {"id": 9437419, "quality": "sd", "file_type": "video/mp4", "width": 238, "height": 426, "fps": 25.0, "link": "https://videos.pexels.com/video-files/4683398/4683398-sd_238_426_25fps.mp4", "size": 371495}, {"id": 9437466, "quality": "sd", "file_type": "video/mp4", "width": 356, "height": 640, "fps": 25.0, "link": "https://videos.pexels.com/video-files/4683398/4683398-sd_356_640_25fps.mp4", "size": 590322}], "video_pictures": [{"id": 1797642, "nr": 0, "picture": "https://images.pexels.com/videos/4683398/pictures/preview-0.jpeg"}, {"id": 1797649, "nr": 1, "picture": "https://images.pexels.com/videos/4683398/pictures/preview-1.jpeg"}, {"id": 1797650, "nr": 2, "picture": "https://images.pexels.com/videos/4683398/pictures/preview-2.jpeg"}, {"id": 1797652, "nr": 3, "picture": "https://images.pexels.com/videos/4683398/pictures/preview-3.jpeg"}, {"id": 1797653, "nr": 4, "picture": "https://images.pexels.com/videos/4683398/pictures/preview-4.jpeg"}, {"id": 1797654, "nr": 5, "picture": "https://images.pexels.com/videos/4683398/pictures/preview-5.jpeg"}, {"id": 1797655, "nr": 6, "picture": "https://images.pexels.com/videos/4683398/pictures/preview-6.jpeg"}, {"id": 1797656, "nr": 7, "picture": "https://images.pexels.com/videos/4683398/pictures/preview-7.jpeg"}, {"id": 1797657, "nr": 8, "picture": "https://images.pexels.com/videos/4683398/pictures/preview-8.jpeg"}, {"id": 1797658, "nr": 9, "picture": "https://images.pexels.com/videos/4683398/pictures/preview-9.jpeg"}, {"id": 1797659, "nr": 10, "picture": "https://images.pexels.com/videos/4683398/pictures/preview-10.jpeg"}, {"id": 1797660, "nr": 11, "picture": "https://images.pexels.com/videos/4683398/pictures/preview-11.jpeg"}, {"id": 1797661, "nr": 12, "picture": "https://images.pexels.com/videos/4683398/pictures/preview-12.jpeg"}, {"id": 1797662, "nr": 13, "picture": "https://images.pexels.com/videos/4683398/pictures/preview-13.jpeg"}, {"id": 1797663, "nr": 14, "picture": "https://images.pexels.com/videos/4683398/pictures/preview-14.jpeg"}]}, {"id": 8988488, "width": 2160, "height": 3840, "duration": 10, "full_res": null, "tags": [], "url": "https://www.pexels.com/video/a-person-watering-a-plant-8988488/", "image": "https://images.pexels.com/videos/8988488/botany-care-female-floral-8988488.jpeg?auto=compress&cs=tinysrgb&fit=crop&h=1200&w=630", "avg_color": null, "user": {"id": 10955896, "name": "Anna Nekrashevich", "url": "https://www.pexels.com/@anna-nekrashevich"}, "video_files": [{"id": 11033695, "quality": "hd", "file_type": "video/mp4", "width": 1080, "height": 1920, "fps": 30.0, "link": "https://videos.pexels.com/video-files/8988488/8988488-hd_1080_1920_30fps.mp4", "size": 2782857}, {"id": 11033750, "quality": "sd", "file_type": "video/mp4", "width": 540, "height": 960, "fps": 30.0, "link": "https://videos.pexels.com/video-files/8988488/8988488-sd_540_960_30fps.mp4", "size": 611879}, {"id": 11033834, "quality": "uhd", "file_type": "video/mp4", "width": 1440, "height": 2560, "fps": 30.0, "link": "https://videos.pexels.com/video-files/8988488/8988488-uhd_1440_2560_30fps.mp4", "size": 5963735}, {"id": 11033857, "quality": "sd", "file_type": "video/mp4", "width": 240, "height": 426, "fps": 30.0, "link": "https://videos.pexels.com/video-files/8988488/8988488-sd_240_426_30fps.mp4", "size": 169253}, {"id": 11033923, "quality": "hd", "file_type": "video/mp4", "width": 720, "height": 1280, "fps": 30.0, "link": "https://videos.pexels.com/video-files/8988488/8988488-hd_720_1280_30fps.mp4", "size": 1042110}, {"id": 11033970, "quality": "sd", "file_type": "video/mp4", "width": 360, "height": 640, "fps": 30.0, "link": "https://videos.pexels.com/video-files/8988488/8988488-sd_360_640_30fps.mp4", "size": 310383}, {"id": 11034062, "quality": "uhd", "file_type": "video/mp4", "width": 2160, "height": 3840, "fps": 30.0, "link": "https://videos.pexels.com/video-files/8988488/8988488-uhd_2160_3840_30fps.mp4", "size": 27827476}], "video_pictures": [{"id": 9173948, "nr": 0, "picture": "https://images.pexels.com/videos/8988488/pictures/preview-0.jpeg"}, {"id": 9173952, "nr": 1, "picture": "https://images.pexels.com/videos/8988488/pictures/preview-1.jpeg"}, {"id": 9173960, "nr": 2, "picture": "https://images.pexels.com/videos/8988488/pictures/preview-2.jpeg"}, {"id": 9173967, "nr": 3, "picture": "https://images.pexels.com/videos/8988488/pictures/preview-3.jpeg"}, {"id": 9173976, "nr": 4, "picture": "https://images.pexels.com/videos/8988488/pictures/preview-4.jpeg"}, {"id": 9173984, "nr": 5, "picture": "https://images.pexels.com/videos/8988488/pictures/preview-5.jpeg"}, {"id": 9173992, "nr": 6, "picture": "https://images.pexels.com/videos/8988488/pictures/preview-6.jpeg"}, {"id": 9174001, "nr": 7, "picture": "https://images.pexels.com/videos/8988488/pictures/preview-7.jpeg"}, {"id": 9174016, "nr": 8, "picture": "https://images.pexels.com/videos/8988488/pictures/preview-8.jpeg"}, {"id": 9174030, "nr": 9, "picture": "https://images.pexels.com/videos/8988488/pictures/preview-9.jpeg"}, {"id": 9174047, "nr": 10, "picture": "https://images.pexels.com/videos/8988488/pictures/preview-10.jpeg"}, {"id": 9174065, "nr": 11, "picture": "https://images.pexels.com/videos/8988488/pictures/preview-11.jpeg"}, {"id": 9174079, "nr": 12, "picture": "https://images.pexels.com/videos/8988488/pictures/preview-12.jpeg"}, {"id": 9174091, "nr": 13, "picture": "https://images.pexels.com/videos/8988488/pictures/preview-13.jpeg"}, {"id": 9174105, "nr": 14, "picture": "https://images.pexels.com/videos/8988488/pictures/preview-14.jpeg"}]}, {"id": 12837556, "width": 2160, "height": 3840, "duration": 6, "full_res": null, "tags": [], "url": "https://www.pexels.com/video/man-putting-noodles-into-a-pot-with-boiling-water-while-cooking-12837556/", "image": "https://images.pexels.com/videos/12837556/pexels-photo-12837556.jpeg?auto=compress&cs=tinysrgb&fit=crop&h=1200&w=630", "avg_color": null, "user": {"id": 3525678, "name": "\u5b87\u822a \u94b1", "url": "https://www.pexels.com/@3525678"}, "video_files": [{"id": 5645136, "quality": "sd", "file_type": "video/mp4", "width": 240, "height": 426, "fps": 25.0, "link": "https://videos.pexels.com/video-files/12837556/12837556-sd_240_426_25fps.mp4", "size": 460309}, {"id": 5645137, "quality": "hd", "file_type": "video/mp4", "width": 720, "height": 1280, "fps": 25.0, "link": "https://videos.pexels.com/video-files/12837556/12837556-hd_720_1280_25fps.mp4", "size": 2758132}, {"id": 5645138, "quality": "sd", "file_type": "video/mp4", "width": 540, "height": 960, "fps": 25.0, "link": "https://videos.pexels.com/video-files/12837556/12837556-sd_540_960_25fps.mp4", "size": 1521414}, {"id": 5645139, "quality": "uhd", "file_type": "video/mp4", "width": 1440, "height": 2560, "fps": 25.0, "link": "https://videos.pexels.com/video-files/12837556/12837556-uhd_1440_2560_25fps.mp4", "size": 9226157}, {"id": 5645140, "quality": "sd", "file_type": "video/mp4", "width": 360, "height": 640, "fps": 25.0, "link": "https://videos.pexels.com/video-files/12837556/12837556-sd_360_640_25fps.mp4", "size": 744432}, {"id": 5645141, "quality": "uhd", "file_type": "video/mp4", "width": 2160, "height": 3840, "fps": 25.0, "link": "https://videos.pexels.com/video-files/12837556/12837556-uhd_2160_3840_25fps.mp4", "size": 13156058}, {"id": 5645142, "quality": "hd", "file_type": "video/mp4", "width": 1080, "height": 1920, "fps": 25.0, "link": "https://videos.pexels.com/video-files/12837556/12837556-hd_1080_1920_25fps.mp4", "size": 5520237}], "video_pictures": [{"id": 14040552, "nr": 0, "picture": "https://images.pexels.com/videos/12837556/pictures/preview-0.jpeg"}, {"id": 14040556, "nr": 1, "picture": "https://images.pexels.com/videos/12837556/pictures/preview-1.jpeg"}, {"id": 14040564, "nr": 2, "picture": "https://images.pexels.com/videos/12837556/pictures/preview-2.jpeg"}, {"id": 14040571, "nr": 3, "picture": "https://images.pexels.com/videos/12837556/pictures/preview-3.jpeg"}, {"id": 14040575, "nr": 4, "picture": "https://images.pexels.com/videos/12837556/pictures/preview-4.jpeg"}, {"id": 14040581, "nr": 5, "picture": "https://images.pexels.com/videos/12837556/pictures/preview-5.jpeg"}, {"id": 14040586, "nr": 6, "picture": "https://images.pexels.com/videos/12837556/pictures/preview-6.jpeg"}, {"id": 14040592, "nr": 7, "picture": "https://images.pexels.com/videos/12837556/pictures/preview-7.jpeg"}, {"id": 14040598, "nr": 8, "picture": "https://images.pexels.com/videos/12837556/pictures/preview-8.jpeg"}, {"id": 14040603, "nr": 9, "picture": "https://images.pexels.com/videos/12837556/pictures/preview-9.jpeg"}, {"id": 14040608, "nr": 10, "picture": "https://images.pexels.com/videos/12837556/pictures/preview-10.jpeg"}, {"id": 14040613, "nr": 11, "picture": "https://images.pexels.com/videos/12837556/pictures/preview-11.jpeg"}, {"id": 14040616, "nr": 12, "picture": "https://images.pexels.com/videos/12837556/pictures/preview-12.jpeg"}, {"id": 14040621, "nr": 13, "picture": "https://images.pexels.com/videos/12837556/pictures/preview-13.jpeg"}, {"id": 14040625, "nr": 14, "picture": "https://images.pexels.com/videos/12837556/pictures/preview-14.jpeg"}]}, {"id": 8063923, "width": 2160, "height": 4096, "duration": 10, "full_res": null, "tags": [], "url": "https://www.pexels.com/video/person-molding-with-clay-8063923/", "image": "https://images.pexels.com/videos/8063923/pexels-photo-8063923.jpeg?auto=compress&cs=tinysrgb&fit=crop&h=1200&w=630", "avg_color": null, "user": {"id": 2678846, "name": "ROMAN ODINTSOV", "url": "https://www.pexels.com/@roman-odintsov"}, "video_files": [{"id": 10676919, "quality": "sd", "file_type": "video/mp4", "width": 506, "height": 960, "fps": 29.969999313354492, "link": "https://videos.pexels.com/video-files/8063923/8063923-sd_506_960_30fps.mp4", "size": 1684311}, {"id": 10677052, "quality": "uhd", "file_type": "video/mp4", "width": 1440, "height": 2732, "fps": 29.969999313354492, "link": "https://videos.pexels.com/video-files/8063923/8063923-uhd_1440_2732_30fps.mp4", "size": 10214624}, {"id": 10677158, "quality": "uhd", "file_type": "video/mp4", "width": 2160, "height": 4096, "fps": 29.969999313354492, "link": "https://videos.pexels.com/video-files/8063923/8063923-uhd_2160_4096_30fps.mp4", "size": 18836342}, {"id": 10677261, "quality": "hd", "file_type": "video/mp4", "width": 720, "height": 1366, "fps": 29.969999313354492, "link": "https://videos.pexels.com/video-files/8063923/8063923-hd_720_1366_30fps.mp4", "size": 3078738}, {"id": 10677341, "quality": "sd", "file_type": "video/mp4", "width": 226, "height": 426, "fps": 29.969999313354492, "link": "https://videos.pexels.com/video-files/8063923/8063923-sd_226_426_30fps.mp4", "size": 436977}, {"id": 10677402, "quality": "hd", "file_type": "video/mp4", "width": 1080, "height": 2048, "fps": 29.969999313354492, "link": "https://videos.pexels.com/video-files/8063923/8063923-hd_1080_2048_30fps.mp4", "size": 6115316}, {"id": 10677513, "quality": "sd", "file_type": "video/mp4", "width": 338, "height": 640, "fps": 29.969999313354492, "link": "https://videos.pexels.com/video-files/8063923/8063923-sd_338_640_30fps.mp4", "size": 690832}], "video_pictures": [{"id": 7533247, "nr": 0, "picture": "https://images.pexels.com/videos/8063923/pictures/preview-0.jpeg"}, {"id": 7533259, "nr": 1, "picture": "https://images.pexels.com/videos/8063923/pictures/preview-1.jpeg"}, {"id": 7533269, "nr": 2, "picture": "https://images.pexels.com/videos/8063923/pictures/preview-2.jpeg"}, {"id": 7533283, "nr": 3, "picture": "https://images.pexels.com/videos/8063923/pictures/preview-3.jpeg"}, {"id": 7533297, "nr": 4, "picture": "https://images.pexels.com/videos/8063923/pictures/preview-4.jpeg"}, {"id": 7533318, "nr": 5, "picture": "https://images.pexels.com/videos/8063923/pictures/preview-5.jpeg"}, {"id": 7533337, "nr": 6, "picture": "https://images.pexels.com/videos/8063923/pictures/preview-6.jpeg"}, {"id": 7533352, "nr": 7, "picture": "https://images.pexels.com/videos/8063923/pictures/preview-7.jpeg"}, {"id": 7533375, "nr": 8, "picture": "https://images.pexels.com/videos/8063923/pictures/preview-8.jpeg"}, {"id": 7533402, "nr": 9, "picture": "https://images.pexels.com/videos/8063923/pictures/preview-9.jpeg"}, {"id": 7533435, "nr": 10, "picture": "https://images.pexels.com/videos/8063923/pictures/preview-10.jpeg"}, {"id": 7533470, "nr": 11, "picture": "https://images.pexels.com/videos/8063923/pictures/preview-11.jpeg"}, {"id": 7533495, "nr": 12, "picture": "https://images.pexels.com/videos/8063923/pictures/preview-12.jpeg"}, {"id": 7533518, "nr": 13, "picture": "https://images.pexels.com/videos/8063923/pictures/preview-13.jpeg"}, {"id": 7533549, "nr": 14, "picture": "https://images.pexels.com/videos/8063923/pictures/preview-14.jpeg"}]}], "total_results": 8000, "next_page": "https://api.pexels.com/v1/videos/search/?orientation=portrait&page=2&per_page=8&query=clay+pot+water", "url": "https://api-server.pexels.com/search/videos/clay%20pot%20water/"}, "timestamp": "2024-12-28T22:42:09.956759"}
