{"query": "379 feet", "response": {"page": 1, "per_page": 8, "videos": [{"id": 4759582, "width": 1080, "height": 1920, "duration": 8, "full_res": null, "tags": [], "url": "https://www.pexels.com/video/woman-walking-on-white-sand-of-sea-water-4759582/", "image": "https://images.pexels.com/videos/4759582/beach-blue-nails-calm-down-clear-water-4759582.jpeg?auto=compress&cs=tinysrgb&fit=crop&h=1200&w=630", "avg_color": null, "user": {"id": 2071672, "name": "Peggy Anke", "url": "https://www.pexels.com/@reisefreiheit"}, "video_files": [{"id": 9560452, "quality": "hd", "file_type": "video/mp4", "width": 720, "height": 1280, "fps": 29.969999313354492, "link": "https://videos.pexels.com/video-files/4759582/4759582-hd_720_1280_30fps.mp4", "size": 2535098}, {"id": 9560495, "quality": "hd", "file_type": "video/mp4", "width": 1080, "height": 1920, "fps": 29.969999313354492, "link": "https://videos.pexels.com/video-files/4759582/4759582-hd_1080_1920_30fps.mp4", "size": 4830102}, {"id": 9560526, "quality": "sd", "file_type": "video/mp4", "width": 540, "height": 960, "fps": 29.969999313354492, "link": "https://videos.pexels.com/video-files/4759582/4759582-sd_540_960_30fps.mp4", "size": 1601014}, {"id": 9560596, "quality": "sd", "file_type": "video/mp4", "width": 360, "height": 640, "fps": 29.969999313354492, "link": "https://videos.pexels.com/video-files/4759582/4759582-sd_360_640_30fps.mp4", "size": 558312}, {"id": 9560636, "quality": "sd", "file_type": "video/mp4", "width": 240, "height": 426, "fps": 29.969999313354492, "link": "https://videos.pexels.com/video-files/4759582/4759582-sd_240_426_30fps.mp4", "size": 344143}], "video_pictures": [{"id": 1902244, "nr": 0, "picture": "https://images.pexels.com/videos/4759582/pictures/preview-0.jpeg"}, {"id": 1902245, "nr": 1, "picture": "https://images.pexels.com/videos/4759582/pictures/preview-1.jpeg"}, {"id": 1902246, "nr": 2, "picture": "https://images.pexels.com/videos/4759582/pictures/preview-2.jpeg"}, {"id": 1902247, "nr": 3, "picture": "https://images.pexels.com/videos/4759582/pictures/preview-3.jpeg"}, {"id": 1902248, "nr": 4, "picture": "https://images.pexels.com/videos/4759582/pictures/preview-4.jpeg"}, {"id": 1902249, "nr": 5, "picture": "https://images.pexels.com/videos/4759582/pictures/preview-5.jpeg"}, {"id": 1902250, "nr": 6, "picture": "https://images.pexels.com/videos/4759582/pictures/preview-6.jpeg"}, {"id": 1902251, "nr": 7, "picture": "https://images.pexels.com/videos/4759582/pictures/preview-7.jpeg"}, {"id": 1902252, "nr": 8, "picture": "https://images.pexels.com/videos/4759582/pictures/preview-8.jpeg"}, {"id": 1902253, "nr": 9, "picture": "https://images.pexels.com/videos/4759582/pictures/preview-9.jpeg"}, {"id": 1902254, "nr": 10, "picture": "https://images.pexels.com/videos/4759582/pictures/preview-10.jpeg"}, {"id": 1902255, "nr": 11, "picture": "https://images.pexels.com/videos/4759582/pictures/preview-11.jpeg"}, {"id": 1902256, "nr": 12, "picture": "https://images.pexels.com/videos/4759582/pictures/preview-12.jpeg"}, {"id": 1902257, "nr": 13, "picture": "https://images.pexels.com/videos/4759582/pictures/preview-13.jpeg"}, {"id": 1902258, "nr": 14, "picture": "https://images.pexels.com/videos/4759582/pictures/preview-14.jpeg"}]}, {"id": 7364275, "width": 1080, "height": 1920, "duration": 10, "full_res": null, "tags": [], "url": "https://www.pexels.com/video/a-lady-holding-flowers-by-her-legs-7364275/", "image": "https://images.pexels.com/videos/7364275/beautiful-bride-dark-elegant-7364275.jpeg?auto=compress&cs=tinysrgb&fit=crop&h=1200&w=630", "avg_color": null, "user": {"id": 3838865, "name": "Mariam Antadze", "url": "https://www.pexels.com/@sunsetoned"}, "video_files": [{"id": 10414485, "quality": "hd", "file_type": "video/mp4", "width": 1080, "height": 1920, "fps": 30.0, "link": "https://videos.pexels.com/video-files/7364275/7364275-hd_1080_1920_30fps.mp4", "size": 6950433}, {"id": 10414521, "quality": "hd", "file_type": "video/mp4", "width": 720, "height": 1280, "fps": 30.0, "link": "https://videos.pexels.com/video-files/7364275/7364275-hd_720_1280_30fps.mp4", "size": 3497806}, {"id": 10414590, "quality": "sd", "file_type": "video/mp4", "width": 540, "height": 960, "fps": 30.0, "link": "https://videos.pexels.com/video-files/7364275/7364275-sd_540_960_30fps.mp4", "size": 1570591}, {"id": 10414629, "quality": "sd", "file_type": "video/mp4", "width": 360, "height": 640, "fps": 30.0, "link": "https://videos.pexels.com/video-files/7364275/7364275-sd_360_640_30fps.mp4", "size": 608226}, {"id": 10414696, "quality": "sd", "file_type": "video/mp4", "width": 240, "height": 426, "fps": 30.0, "link": "https://videos.pexels.com/video-files/7364275/7364275-sd_240_426_30fps.mp4", "size": 447402}], "video_pictures": [{"id": 6290997, "nr": 0, "picture": "https://images.pexels.com/videos/7364275/pictures/preview-0.jpeg"}, {"id": 6290999, "nr": 1, "picture": "https://images.pexels.com/videos/7364275/pictures/preview-1.jpeg"}, {"id": 6291000, "nr": 2, "picture": "https://images.pexels.com/videos/7364275/pictures/preview-2.jpeg"}, {"id": 6291004, "nr": 3, "picture": "https://images.pexels.com/videos/7364275/pictures/preview-3.jpeg"}, {"id": 6291008, "nr": 4, "picture": "https://images.pexels.com/videos/7364275/pictures/preview-4.jpeg"}, {"id": 6291012, "nr": 5, "picture": "https://images.pexels.com/videos/7364275/pictures/preview-5.jpeg"}, {"id": 6291015, "nr": 6, "picture": "https://images.pexels.com/videos/7364275/pictures/preview-6.jpeg"}, {"id": 6291020, "nr": 7, "picture": "https://images.pexels.com/videos/7364275/pictures/preview-7.jpeg"}, {"id": 6291023, "nr": 8, "picture": "https://images.pexels.com/videos/7364275/pictures/preview-8.jpeg"}, {"id": 6291024, "nr": 9, "picture": "https://images.pexels.com/videos/7364275/pictures/preview-9.jpeg"}, {"id": 6291026, "nr": 10, "picture": "https://images.pexels.com/videos/7364275/pictures/preview-10.jpeg"}, {"id": 6291028, "nr": 11, "picture": "https://images.pexels.com/videos/7364275/pictures/preview-11.jpeg"}, {"id": 6291031, "nr": 12, "picture": "https://images.pexels.com/videos/7364275/pictures/preview-12.jpeg"}, {"id": 6291033, "nr": 13, "picture": "https://images.pexels.com/videos/7364275/pictures/preview-13.jpeg"}, {"id": 6291036, "nr": 14, "picture": "https://images.pexels.com/videos/7364275/pictures/preview-14.jpeg"}]}, {"id": 5838007, "width": 2160, "height": 3840, "duration": 23, "full_res": null, "tags": [], "url": "https://www.pexels.com/video/walking-in-the-autumn-leaves-5838007/", "image": "https://images.pexels.com/videos/5838007/pexels-photo-5838007.jpeg?auto=compress&cs=tinysrgb&fit=crop&h=1200&w=630", "avg_color": null, "user": {"id": 1834174, "name": "Dom Le Roy", "url": "https://www.pexels.com/@domleroy"}, "video_files": [{"id": 9829929, "quality": "sd", "file_type": "video/mp4", "width": 240, "height": 426, "fps": 30.0, "link": "https://videos.pexels.com/video-files/5838007/5838007-sd_240_426_30fps.mp4", "size": 1054844}, {"id": 9830042, "quality": "sd", "file_type": "video/mp4", "width": 360, "height": 640, "fps": 30.0, "link": "https://videos.pexels.com/video-files/5838007/5838007-sd_360_640_30fps.mp4", "size": 1859442}, {"id": 9830140, "quality": "hd", "file_type": "video/mp4", "width": 720, "height": 1280, "fps": 30.0, "link": "https://videos.pexels.com/video-files/5838007/5838007-hd_720_1280_30fps.mp4", "size": 8913461}, {"id": 9830206, "quality": "uhd", "file_type": "video/mp4", "width": 1440, "height": 2560, "fps": 30.0, "link": "https://videos.pexels.com/video-files/5838007/5838007-uhd_1440_2560_30fps.mp4", "size": 39886540}, {"id": 9830298, "quality": "sd", "file_type": "video/mp4", "width": 540, "height": 960, "fps": 30.0, "link": "https://videos.pexels.com/video-files/5838007/5838007-sd_540_960_30fps.mp4", "size": 5126019}, {"id": 9830428, "quality": "uhd", "file_type": "video/mp4", "width": 2160, "height": 3840, "fps": 30.0, "link": "https://videos.pexels.com/video-files/5838007/5838007-uhd_2160_3840_30fps.mp4", "size": 72525184}, {"id": 9830582, "quality": "hd", "file_type": "video/mp4", "width": 1080, "height": 1920, "fps": 30.0, "link": "https://videos.pexels.com/video-files/5838007/5838007-hd_1080_1920_30fps.mp4", "size": 16993950}], "video_pictures": [{"id": 3446858, "nr": 0, "picture": "https://images.pexels.com/videos/5838007/pictures/preview-0.jpeg"}, {"id": 3446860, "nr": 1, "picture": "https://images.pexels.com/videos/5838007/pictures/preview-1.jpeg"}, {"id": 3446861, "nr": 2, "picture": "https://images.pexels.com/videos/5838007/pictures/preview-2.jpeg"}, {"id": 3446863, "nr": 3, "picture": "https://images.pexels.com/videos/5838007/pictures/preview-3.jpeg"}, {"id": 3446864, "nr": 4, "picture": "https://images.pexels.com/videos/5838007/pictures/preview-4.jpeg"}, {"id": 3446865, "nr": 5, "picture": "https://images.pexels.com/videos/5838007/pictures/preview-5.jpeg"}, {"id": 3446866, "nr": 6, "picture": "https://images.pexels.com/videos/5838007/pictures/preview-6.jpeg"}, {"id": 3446867, "nr": 7, "picture": "https://images.pexels.com/videos/5838007/pictures/preview-7.jpeg"}, {"id": 3446868, "nr": 8, "picture": "https://images.pexels.com/videos/5838007/pictures/preview-8.jpeg"}, {"id": 3446869, "nr": 9, "picture": "https://images.pexels.com/videos/5838007/pictures/preview-9.jpeg"}, {"id": 3446870, "nr": 10, "picture": "https://images.pexels.com/videos/5838007/pictures/preview-10.jpeg"}, {"id": 3446871, "nr": 11, "picture": "https://images.pexels.com/videos/5838007/pictures/preview-11.jpeg"}, {"id": 3446872, "nr": 12, "picture": "https://images.pexels.com/videos/5838007/pictures/preview-12.jpeg"}, {"id": 3446873, "nr": 13, "picture": "https://images.pexels.com/videos/5838007/pictures/preview-13.jpeg"}, {"id": 3446874, "nr": 14, "picture": "https://images.pexels.com/videos/5838007/pictures/preview-14.jpeg"}]}, {"id": 5243254, "width": 1080, "height": 1920, "duration": 13, "full_res": null, "tags": [], "url": "https://www.pexels.com/video/sea-waves-running-over-foot-steps-of-a-person-5243254/", "image": "https://images.pexels.com/videos/5243254/beach-foot-steps-sea-seaside-5243254.jpeg?auto=compress&cs=tinysrgb&fit=crop&h=1200&w=630", "avg_color": null, "user": {"id": 2332540, "name": "Photo By: Kaboompics.com", "url": "https://www.pexels.com/@karolina-grabowska"}, "video_files": [{"id": 9646743, "quality": "sd", "file_type": "video/mp4", "width": 360, "height": 640, "fps": 25.0, "link": "https://videos.pexels.com/video-files/5243254/5243254-sd_360_640_25fps.mp4", "size": 668431}, {"id": 9646860, "quality": "hd", "file_type": "video/mp4", "width": 720, "height": 1280, "fps": 50.0, "link": "https://videos.pexels.com/video-files/5243254/5243254-hd_720_1280_50fps.mp4", "size": 2941108}, {"id": 9646927, "quality": "sd", "file_type": "video/mp4", "width": 540, "height": 960, "fps": 25.0, "link": "https://videos.pexels.com/video-files/5243254/5243254-sd_540_960_25fps.mp4", "size": 1589134}, {"id": 9647016, "quality": "hd", "file_type": "video/mp4", "width": 1080, "height": 1920, "fps": 25.0, "link": "https://videos.pexels.com/video-files/5243254/5243254-hd_1080_1920_25fps.mp4", "size": 6709353}, {"id": 9647073, "quality": "sd", "file_type": "video/mp4", "width": 240, "height": 426, "fps": 25.0, "link": "https://videos.pexels.com/video-files/5243254/5243254-sd_240_426_25fps.mp4", "size": 351792}], "video_pictures": [{"id": 2534909, "nr": 0, "picture": "https://images.pexels.com/videos/5243254/pictures/preview-0.jpeg"}, {"id": 2534912, "nr": 1, "picture": "https://images.pexels.com/videos/5243254/pictures/preview-1.jpeg"}, {"id": 2534914, "nr": 2, "picture": "https://images.pexels.com/videos/5243254/pictures/preview-2.jpeg"}, {"id": 2534917, "nr": 3, "picture": "https://images.pexels.com/videos/5243254/pictures/preview-3.jpeg"}, {"id": 2534920, "nr": 4, "picture": "https://images.pexels.com/videos/5243254/pictures/preview-4.jpeg"}, {"id": 2534925, "nr": 5, "picture": "https://images.pexels.com/videos/5243254/pictures/preview-5.jpeg"}, {"id": 2534927, "nr": 6, "picture": "https://images.pexels.com/videos/5243254/pictures/preview-6.jpeg"}, {"id": 2534931, "nr": 7, "picture": "https://images.pexels.com/videos/5243254/pictures/preview-7.jpeg"}, {"id": 2534934, "nr": 8, "picture": "https://images.pexels.com/videos/5243254/pictures/preview-8.jpeg"}, {"id": 2534937, "nr": 9, "picture": "https://images.pexels.com/videos/5243254/pictures/preview-9.jpeg"}, {"id": 2534939, "nr": 10, "picture": "https://images.pexels.com/videos/5243254/pictures/preview-10.jpeg"}, {"id": 2534942, "nr": 11, "picture": "https://images.pexels.com/videos/5243254/pictures/preview-11.jpeg"}, {"id": 2534947, "nr": 12, "picture": "https://images.pexels.com/videos/5243254/pictures/preview-12.jpeg"}, {"id": 2534949, "nr": 13, "picture": "https://images.pexels.com/videos/5243254/pictures/preview-13.jpeg"}, {"id": 2534955, "nr": 14, "picture": "https://images.pexels.com/videos/5243254/pictures/preview-14.jpeg"}]}, {"id": 3992122, "width": 1080, "height": 1920, "duration": 31, "full_res": null, "tags": [], "url": "https://www.pexels.com/video/beach-sand-woman-feet-3992122/", "image": "https://images.pexels.com/videos/3992122/asia-beach-beach-sand-beachwalk-3992122.jpeg?auto=compress&cs=tinysrgb&fit=crop&h=1200&w=630", "avg_color": null, "user": {"id": 2071672, "name": "Peggy Anke", "url": "https://www.pexels.com/@reisefreiheit"}, "video_files": [{"id": 9356872, "quality": "sd", "file_type": "video/mp4", "width": 240, "height": 426, "fps": 29.969999313354492, "link": "https://videos.pexels.com/video-files/3992122/3992122-sd_240_426_30fps.mp4", "size": 1563957}, {"id": 9356912, "quality": "sd", "file_type": "video/mp4", "width": 540, "height": 960, "fps": 29.969999313354492, "link": "https://videos.pexels.com/video-files/3992122/3992122-sd_540_960_30fps.mp4", "size": 7478993}, {"id": 9356984, "quality": "hd", "file_type": "video/mp4", "width": 720, "height": 1280, "fps": 29.969999313354492, "link": "https://videos.pexels.com/video-files/3992122/3992122-hd_720_1280_30fps.mp4", "size": 12076149}, {"id": 9357013, "quality": "hd", "file_type": "video/mp4", "width": 1080, "height": 1920, "fps": 29.969999313354492, "link": "https://videos.pexels.com/video-files/3992122/3992122-hd_1080_1920_30fps.mp4", "size": 23126537}, {"id": 9357049, "quality": "sd", "file_type": "video/mp4", "width": 360, "height": 640, "fps": 29.969999313354492, "link": "https://videos.pexels.com/video-files/3992122/3992122-sd_360_640_30fps.mp4", "size": 2676740}], "video_pictures": [{"id": 1047672, "nr": 0, "picture": "https://images.pexels.com/videos/3992122/pictures/preview-0.jpeg"}, {"id": 1047673, "nr": 1, "picture": "https://images.pexels.com/videos/3992122/pictures/preview-1.jpeg"}, {"id": 1047674, "nr": 2, "picture": "https://images.pexels.com/videos/3992122/pictures/preview-2.jpeg"}, {"id": 1047675, "nr": 3, "picture": "https://images.pexels.com/videos/3992122/pictures/preview-3.jpeg"}, {"id": 1047676, "nr": 4, "picture": "https://images.pexels.com/videos/3992122/pictures/preview-4.jpeg"}, {"id": 1047677, "nr": 5, "picture": "https://images.pexels.com/videos/3992122/pictures/preview-5.jpeg"}, {"id": 1047678, "nr": 6, "picture": "https://images.pexels.com/videos/3992122/pictures/preview-6.jpeg"}, {"id": 1047679, "nr": 7, "picture": "https://images.pexels.com/videos/3992122/pictures/preview-7.jpeg"}, {"id": 1047680, "nr": 8, "picture": "https://images.pexels.com/videos/3992122/pictures/preview-8.jpeg"}, {"id": 1047681, "nr": 9, "picture": "https://images.pexels.com/videos/3992122/pictures/preview-9.jpeg"}, {"id": 1047682, "nr": 10, "picture": "https://images.pexels.com/videos/3992122/pictures/preview-10.jpeg"}, {"id": 1047683, "nr": 11, "picture": "https://images.pexels.com/videos/3992122/pictures/preview-11.jpeg"}, {"id": 1047684, "nr": 12, "picture": "https://images.pexels.com/videos/3992122/pictures/preview-12.jpeg"}, {"id": 1047685, "nr": 13, "picture": "https://images.pexels.com/videos/3992122/pictures/preview-13.jpeg"}, {"id": 1047686, "nr": 14, "picture": "https://images.pexels.com/videos/3992122/pictures/preview-14.jpeg"}]}, {"id": 6984901, "width": 2160, "height": 3840, "duration": 8, "full_res": null, "tags": [], "url": "https://www.pexels.com/video/legs-of-a-person-on-water-6984901/", "image": "https://images.pexels.com/videos/6984901/pexels-photo-6984901.jpeg?auto=compress&cs=tinysrgb&fit=crop&h=1200&w=630", "avg_color": null, "user": {"id": 649765, "name": "Yaroslav Shuraev", "url": "https://www.pexels.com/@yaroslav-shuraev"}, "video_files": [{"id": 10266172, "quality": "uhd", "file_type": "video/mp4", "width": 2160, "height": 3840, "fps": 23.97599983215332, "link": "https://videos.pexels.com/video-files/6984901/6984901-uhd_2160_3840_24fps.mp4", "size": 23131502}, {"id": 10266220, "quality": "uhd", "file_type": "video/mp4", "width": 1440, "height": 2560, "fps": 23.97599983215332, "link": "https://videos.pexels.com/video-files/6984901/6984901-uhd_1440_2560_24fps.mp4", "size": 12567841}, {"id": 10266275, "quality": "sd", "file_type": "video/mp4", "width": 240, "height": 426, "fps": 23.97599983215332, "link": "https://videos.pexels.com/video-files/6984901/6984901-sd_240_426_24fps.mp4", "size": 321820}, {"id": 10266410, "quality": "hd", "file_type": "video/mp4", "width": 1080, "height": 1920, "fps": 23.97599983215332, "link": "https://videos.pexels.com/video-files/6984901/6984901-hd_1080_1920_24fps.mp4", "size": 5215547}, {"id": 10266532, "quality": "sd", "file_type": "video/mp4", "width": 360, "height": 640, "fps": 23.97599983215332, "link": "https://videos.pexels.com/video-files/6984901/6984901-sd_360_640_24fps.mp4", "size": 514809}, {"id": 10266578, "quality": "sd", "file_type": "video/mp4", "width": 540, "height": 960, "fps": 23.97599983215332, "link": "https://videos.pexels.com/video-files/6984901/6984901-sd_540_960_24fps.mp4", "size": 1577649}, {"id": 10266592, "quality": "hd", "file_type": "video/mp4", "width": 720, "height": 1280, "fps": 23.97599983215332, "link": "https://videos.pexels.com/video-files/6984901/6984901-hd_720_1280_24fps.mp4", "size": 2624943}], "video_pictures": [{"id": 5537622, "nr": 0, "picture": "https://images.pexels.com/videos/6984901/pictures/preview-0.jpeg"}, {"id": 5537640, "nr": 1, "picture": "https://images.pexels.com/videos/6984901/pictures/preview-1.jpeg"}, {"id": 5537661, "nr": 2, "picture": "https://images.pexels.com/videos/6984901/pictures/preview-2.jpeg"}, {"id": 5537686, "nr": 3, "picture": "https://images.pexels.com/videos/6984901/pictures/preview-3.jpeg"}, {"id": 5537710, "nr": 4, "picture": "https://images.pexels.com/videos/6984901/pictures/preview-4.jpeg"}, {"id": 5537743, "nr": 5, "picture": "https://images.pexels.com/videos/6984901/pictures/preview-5.jpeg"}, {"id": 5537770, "nr": 6, "picture": "https://images.pexels.com/videos/6984901/pictures/preview-6.jpeg"}, {"id": 5537792, "nr": 7, "picture": "https://images.pexels.com/videos/6984901/pictures/preview-7.jpeg"}, {"id": 5537816, "nr": 8, "picture": "https://images.pexels.com/videos/6984901/pictures/preview-8.jpeg"}, {"id": 5537834, "nr": 9, "picture": "https://images.pexels.com/videos/6984901/pictures/preview-9.jpeg"}, {"id": 5537855, "nr": 10, "picture": "https://images.pexels.com/videos/6984901/pictures/preview-10.jpeg"}, {"id": 5537874, "nr": 11, "picture": "https://images.pexels.com/videos/6984901/pictures/preview-11.jpeg"}, {"id": 5537891, "nr": 12, "picture": "https://images.pexels.com/videos/6984901/pictures/preview-12.jpeg"}, {"id": 5537915, "nr": 13, "picture": "https://images.pexels.com/videos/6984901/pictures/preview-13.jpeg"}, {"id": 5537937, "nr": 14, "picture": "https://images.pexels.com/videos/6984901/pictures/preview-14.jpeg"}]}, {"id": 4654970, "width": 960, "height": 1280, "duration": 10, "full_res": null, "tags": [], "url": "https://www.pexels.com/video/person-standing-on-asphalt-ground-with-leaves-falling-4654970/", "image": "https://images.pexels.com/videos/4654970/pexels-photo-4654970.jpeg?auto=compress&cs=tinysrgb&fit=crop&h=1200&w=630", "avg_color": null, "user": {"id": 1251397, "name": "Andre Moura", "url": "https://www.pexels.com/@oandremoura"}, "video_files": [{"id": 9412062, "quality": "sd", "file_type": "video/mp4", "width": 540, "height": 720, "fps": 30.0, "link": "https://videos.pexels.com/video-files/4654970/4654970-sd_540_720_30fps.mp4", "size": 1689461}, {"id": 9412115, "quality": "sd", "file_type": "video/mp4", "width": 240, "height": 320, "fps": 30.0, "link": "https://videos.pexels.com/video-files/4654970/4654970-sd_240_320_30fps.mp4", "size": 362318}, {"id": 9412175, "quality": "hd", "file_type": "video/mp4", "width": 720, "height": 960, "fps": 30.0, "link": "https://videos.pexels.com/video-files/4654970/4654970-hd_720_960_30fps.mp4", "size": 2953774}, {"id": 9412255, "quality": "sd", "file_type": "video/mp4", "width": 360, "height": 480, "fps": 30.0, "link": "https://videos.pexels.com/video-files/4654970/4654970-sd_360_480_30fps.mp4", "size": 584823}], "video_pictures": [{"id": 1767919, "nr": 0, "picture": "https://images.pexels.com/videos/4654970/pictures/preview-0.jpeg"}, {"id": 1767920, "nr": 1, "picture": "https://images.pexels.com/videos/4654970/pictures/preview-1.jpeg"}, {"id": 1767921, "nr": 2, "picture": "https://images.pexels.com/videos/4654970/pictures/preview-2.jpeg"}, {"id": 1767922, "nr": 3, "picture": "https://images.pexels.com/videos/4654970/pictures/preview-3.jpeg"}, {"id": 1767923, "nr": 4, "picture": "https://images.pexels.com/videos/4654970/pictures/preview-4.jpeg"}, {"id": 1767924, "nr": 5, "picture": "https://images.pexels.com/videos/4654970/pictures/preview-5.jpeg"}, {"id": 1767925, "nr": 6, "picture": "https://images.pexels.com/videos/4654970/pictures/preview-6.jpeg"}, {"id": 1767926, "nr": 7, "picture": "https://images.pexels.com/videos/4654970/pictures/preview-7.jpeg"}, {"id": 1767927, "nr": 8, "picture": "https://images.pexels.com/videos/4654970/pictures/preview-8.jpeg"}, {"id": 1767928, "nr": 9, "picture": "https://images.pexels.com/videos/4654970/pictures/preview-9.jpeg"}, {"id": 1767929, "nr": 10, "picture": "https://images.pexels.com/videos/4654970/pictures/preview-10.jpeg"}, {"id": 1767930, "nr": 11, "picture": "https://images.pexels.com/videos/4654970/pictures/preview-11.jpeg"}, {"id": 1767931, "nr": 12, "picture": "https://images.pexels.com/videos/4654970/pictures/preview-12.jpeg"}, {"id": 1767932, "nr": 13, "picture": "https://images.pexels.com/videos/4654970/pictures/preview-13.jpeg"}, {"id": 1767933, "nr": 14, "picture": "https://images.pexels.com/videos/4654970/pictures/preview-14.jpeg"}]}, {"id": 8045157, "width": 1080, "height": 1920, "duration": 13, "full_res": null, "tags": [], "url": "https://www.pexels.com/video/woman-dabbling-her-feet-in-the-pool-8045157/", "image": "https://images.pexels.com/videos/8045157/pexels-photo-8045157.jpeg?auto=compress&cs=tinysrgb&fit=crop&h=1200&w=630", "avg_color": null, "user": {"id": 2278756, "name": "Vlada Karpovich", "url": "https://www.pexels.com/@vlada-karpovich"}, "video_files": [{"id": 10664289, "quality": "sd", "file_type": "video/mp4", "width": 360, "height": 640, "fps": 25.0, "link": "https://videos.pexels.com/video-files/8045157/8045157-sd_360_640_25fps.mp4", "size": 805743}, {"id": 10664354, "quality": "hd", "file_type": "video/mp4", "width": 1080, "height": 1920, "fps": 25.0, "link": "https://videos.pexels.com/video-files/8045157/8045157-hd_1080_1920_25fps.mp4", "size": 9067312}, {"id": 10664436, "quality": "sd", "file_type": "video/mp4", "width": 240, "height": 426, "fps": 25.0, "link": "https://videos.pexels.com/video-files/8045157/8045157-sd_240_426_25fps.mp4", "size": 559250}, {"id": 10664495, "quality": "sd", "file_type": "video/mp4", "width": 540, "height": 960, "fps": 25.0, "link": "https://videos.pexels.com/video-files/8045157/8045157-sd_540_960_25fps.mp4", "size": 2385479}, {"id": 10664520, "quality": "hd", "file_type": "video/mp4", "width": 720, "height": 1280, "fps": 50.0, "link": "https://videos.pexels.com/video-files/8045157/8045157-hd_720_1280_50fps.mp4", "size": 4643414}], "video_pictures": [{"id": 7484621, "nr": 0, "picture": "https://images.pexels.com/videos/8045157/pictures/preview-0.jpeg"}, {"id": 7484630, "nr": 1, "picture": "https://images.pexels.com/videos/8045157/pictures/preview-1.jpeg"}, {"id": 7484640, "nr": 2, "picture": "https://images.pexels.com/videos/8045157/pictures/preview-2.jpeg"}, {"id": 7484650, "nr": 3, "picture": "https://images.pexels.com/videos/8045157/pictures/preview-3.jpeg"}, {"id": 7484660, "nr": 4, "picture": "https://images.pexels.com/videos/8045157/pictures/preview-4.jpeg"}, {"id": 7484668, "nr": 5, "picture": "https://images.pexels.com/videos/8045157/pictures/preview-5.jpeg"}, {"id": 7484678, "nr": 6, "picture": "https://images.pexels.com/videos/8045157/pictures/preview-6.jpeg"}, {"id": 7484686, "nr": 7, "picture": "https://images.pexels.com/videos/8045157/pictures/preview-7.jpeg"}, {"id": 7484693, "nr": 8, "picture": "https://images.pexels.com/videos/8045157/pictures/preview-8.jpeg"}, {"id": 7484701, "nr": 9, "picture": "https://images.pexels.com/videos/8045157/pictures/preview-9.jpeg"}, {"id": 7484709, "nr": 10, "picture": "https://images.pexels.com/videos/8045157/pictures/preview-10.jpeg"}, {"id": 7484718, "nr": 11, "picture": "https://images.pexels.com/videos/8045157/pictures/preview-11.jpeg"}, {"id": 7484730, "nr": 12, "picture": "https://images.pexels.com/videos/8045157/pictures/preview-12.jpeg"}, {"id": 7484737, "nr": 13, "picture": "https://images.pexels.com/videos/8045157/pictures/preview-13.jpeg"}, {"id": 7484745, "nr": 14, "picture": "https://images.pexels.com/videos/8045157/pictures/preview-14.jpeg"}]}], "total_results": 778, "next_page": "https://api.pexels.com/v1/videos/search/?orientation=portrait&page=2&per_page=8&query=379+feet", "url": "https://api-server.pexels.com/search/videos/379%20feet/"}, "timestamp": "2024-12-28T22:42:51.873835"}
