{"query": "hydrated plants", "response": {"page": 1, "per_page": 8, "videos": [{"id": 4625747, "width": 2160, "height": 3840, "duration": 7, "full_res": null, "tags": [], "url": "https://www.pexels.com/video/vehicles-on-the-road-on-a-rainy-day-4625747/", "image": "https://images.pexels.com/videos/4625747/beauty-car-rain-4625747.jpeg?auto=compress&cs=tinysrgb&fit=crop&h=1200&w=630", "avg_color": null, "user": {"id": 3053074, "name": "Amin Hope", "url": "https://www.pexels.com/@amin-hope-3053074"}, "video_files": [{"id": 9387905, "quality": "uhd", "file_type": "video/mp4", "width": 1440, "height": 2560, "fps": 24.0, "link": "https://videos.pexels.com/video-files/4625747/4625747-uhd_1440_2560_24fps.mp4", "size": 10370880}, {"id": 9388030, "quality": "sd", "file_type": "video/mp4", "width": 240, "height": 426, "fps": 24.0, "link": "https://videos.pexels.com/video-files/4625747/4625747-sd_240_426_24fps.mp4", "size": 299452}, {"id": 9388049, "quality": "sd", "file_type": "video/mp4", "width": 360, "height": 640, "fps": 24.0, "link": "https://videos.pexels.com/video-files/4625747/4625747-sd_360_640_24fps.mp4", "size": 499806}, {"id": 9388115, "quality": "sd", "file_type": "video/mp4", "width": 540, "height": 960, "fps": 24.0, "link": "https://videos.pexels.com/video-files/4625747/4625747-sd_540_960_24fps.mp4", "size": 1397294}, {"id": 9388167, "quality": "hd", "file_type": "video/mp4", "width": 720, "height": 1280, "fps": 24.0, "link": "https://videos.pexels.com/video-files/4625747/4625747-hd_720_1280_24fps.mp4", "size": 2270355}, {"id": 9388213, "quality": "hd", "file_type": "video/mp4", "width": 1080, "height": 1920, "fps": 24.0, "link": "https://videos.pexels.com/video-files/4625747/4625747-hd_1080_1920_24fps.mp4", "size": 4364243}, {"id": 9388274, "quality": "uhd", "file_type": "video/mp4", "width": 2160, "height": 3840, "fps": 24.0, "link": "https://videos.pexels.com/video-files/4625747/4625747-uhd_2160_3840_24fps.mp4", "size": 18879643}], "video_pictures": [{"id": 1744324, "nr": 0, "picture": "https://images.pexels.com/videos/4625747/pictures/preview-0.jpeg"}, {"id": 1744325, "nr": 1, "picture": "https://images.pexels.com/videos/4625747/pictures/preview-1.jpeg"}, {"id": 1744326, "nr": 2, "picture": "https://images.pexels.com/videos/4625747/pictures/preview-2.jpeg"}, {"id": 1744327, "nr": 3, "picture": "https://images.pexels.com/videos/4625747/pictures/preview-3.jpeg"}, {"id": 1744328, "nr": 4, "picture": "https://images.pexels.com/videos/4625747/pictures/preview-4.jpeg"}, {"id": 1744329, "nr": 5, "picture": "https://images.pexels.com/videos/4625747/pictures/preview-5.jpeg"}, {"id": 1744330, "nr": 6, "picture": "https://images.pexels.com/videos/4625747/pictures/preview-6.jpeg"}, {"id": 1744331, "nr": 7, "picture": "https://images.pexels.com/videos/4625747/pictures/preview-7.jpeg"}, {"id": 1744332, "nr": 8, "picture": "https://images.pexels.com/videos/4625747/pictures/preview-8.jpeg"}, {"id": 1744333, "nr": 9, "picture": "https://images.pexels.com/videos/4625747/pictures/preview-9.jpeg"}, {"id": 1744334, "nr": 10, "picture": "https://images.pexels.com/videos/4625747/pictures/preview-10.jpeg"}, {"id": 1744335, "nr": 11, "picture": "https://images.pexels.com/videos/4625747/pictures/preview-11.jpeg"}, {"id": 1744336, "nr": 12, "picture": "https://images.pexels.com/videos/4625747/pictures/preview-12.jpeg"}, {"id": 1744337, "nr": 13, "picture": "https://images.pexels.com/videos/4625747/pictures/preview-13.jpeg"}, {"id": 1744338, "nr": 14, "picture": "https://images.pexels.com/videos/4625747/pictures/preview-14.jpeg"}]}, {"id": 5007874, "width": 1080, "height": 1920, "duration": 18, "full_res": null, "tags": [], "url": "https://www.pexels.com/video/raindrops-falling-on-the-green-leaves-5007874/", "image": "https://images.pexels.com/videos/5007874/pexels-photo-5007874.jpeg?auto=compress&cs=tinysrgb&fit=crop&h=1200&w=630", "avg_color": null, "user": {"id": 3348932, "name": "Shubham Prakash", "url": "https://www.pexels.com/@shubham-prakash-3348932"}, "video_files": [{"id": 9595029, "quality": "hd", "file_type": "video/mp4", "width": 1080, "height": 1920, "fps": 29.969999313354492, "link": "https://videos.pexels.com/video-files/5007874/5007874-hd_1080_1920_30fps.mp4", "size": 11484903}, {"id": 9595080, "quality": "sd", "file_type": "video/mp4", "width": 360, "height": 640, "fps": 29.969999313354492, "link": "https://videos.pexels.com/video-files/5007874/5007874-sd_360_640_30fps.mp4", "size": 1433664}, {"id": 9595140, "quality": "hd", "file_type": "video/mp4", "width": 720, "height": 1280, "fps": 29.969999313354492, "link": "https://videos.pexels.com/video-files/5007874/5007874-hd_720_1280_30fps.mp4", "size": 5525138}, {"id": 9595208, "quality": "sd", "file_type": "video/mp4", "width": 240, "height": 426, "fps": 29.969999313354492, "link": "https://videos.pexels.com/video-files/5007874/5007874-sd_240_426_30fps.mp4", "size": 869097}, {"id": 9595296, "quality": "sd", "file_type": "video/mp4", "width": 540, "height": 960, "fps": 29.969999313354492, "link": "https://videos.pexels.com/video-files/5007874/5007874-sd_540_960_30fps.mp4", "size": 3443205}], "video_pictures": [{"id": 2238018, "nr": 0, "picture": "https://images.pexels.com/videos/5007874/pictures/preview-0.jpeg"}, {"id": 2238019, "nr": 1, "picture": "https://images.pexels.com/videos/5007874/pictures/preview-1.jpeg"}, {"id": 2238020, "nr": 2, "picture": "https://images.pexels.com/videos/5007874/pictures/preview-2.jpeg"}, {"id": 2238022, "nr": 3, "picture": "https://images.pexels.com/videos/5007874/pictures/preview-3.jpeg"}, {"id": 2238023, "nr": 4, "picture": "https://images.pexels.com/videos/5007874/pictures/preview-4.jpeg"}, {"id": 2238024, "nr": 5, "picture": "https://images.pexels.com/videos/5007874/pictures/preview-5.jpeg"}, {"id": 2238026, "nr": 6, "picture": "https://images.pexels.com/videos/5007874/pictures/preview-6.jpeg"}, {"id": 2238027, "nr": 7, "picture": "https://images.pexels.com/videos/5007874/pictures/preview-7.jpeg"}, {"id": 2238028, "nr": 8, "picture": "https://images.pexels.com/videos/5007874/pictures/preview-8.jpeg"}, {"id": 2238030, "nr": 9, "picture": "https://images.pexels.com/videos/5007874/pictures/preview-9.jpeg"}, {"id": 2238031, "nr": 10, "picture": "https://images.pexels.com/videos/5007874/pictures/preview-10.jpeg"}, {"id": 2238032, "nr": 11, "picture": "https://images.pexels.com/videos/5007874/pictures/preview-11.jpeg"}, {"id": 2238034, "nr": 12, "picture": "https://images.pexels.com/videos/5007874/pictures/preview-12.jpeg"}, {"id": 2238035, "nr": 13, "picture": "https://images.pexels.com/videos/5007874/pictures/preview-13.jpeg"}, {"id": 2238036, "nr": 14, "picture": "https://images.pexels.com/videos/5007874/pictures/preview-14.jpeg"}]}, {"id": 4536571, "width": 1080, "height": 1920, "duration": 18, "full_res": null, "tags": [], "url": "https://www.pexels.com/video/leaves-drench-in-rains-4536571/", "image": "https://images.pexels.com/videos/4536571/pexels-photo-4536571.jpeg?auto=compress&cs=tinysrgb&fit=crop&h=1200&w=630", "avg_color": null, "user": {"id": 2297095, "name": "Pavel Danilyuk", "url": "https://www.pexels.com/@pavel-danilyuk"}, "video_files": [{"id": 9533937, "quality": "hd", "file_type": "video/mp4", "width": 720, "height": 1280, "fps": 29.969999313354492, "link": "https://videos.pexels.com/video-files/4536571/4536571-hd_720_1280_30fps.mp4", "size": 5805645}, {"id": 9534027, "quality": "sd", "file_type": "video/mp4", "width": 240, "height": 426, "fps": 29.969999313354492, "link": "https://videos.pexels.com/video-files/4536571/4536571-sd_240_426_30fps.mp4", "size": 715395}, {"id": 9534072, "quality": "sd", "file_type": "video/mp4", "width": 360, "height": 640, "fps": 29.969999313354492, "link": "https://videos.pexels.com/video-files/4536571/4536571-sd_360_640_30fps.mp4", "size": 1164877}, {"id": 9534163, "quality": "sd", "file_type": "video/mp4", "width": 540, "height": 960, "fps": 29.969999313354492, "link": "https://videos.pexels.com/video-files/4536571/4536571-sd_540_960_30fps.mp4", "size": 3099107}, {"id": 9534319, "quality": "hd", "file_type": "video/mp4", "width": 1080, "height": 1920, "fps": 29.969999313354492, "link": "https://videos.pexels.com/video-files/4536571/4536571-hd_1080_1920_30fps.mp4", "size": 10806058}], "video_pictures": [{"id": 1638531, "nr": 0, "picture": "https://images.pexels.com/videos/4536571/pictures/preview-0.jpeg"}, {"id": 1638570, "nr": 1, "picture": "https://images.pexels.com/videos/4536571/pictures/preview-1.jpeg"}, {"id": 1638589, "nr": 2, "picture": "https://images.pexels.com/videos/4536571/pictures/preview-2.jpeg"}, {"id": 1638602, "nr": 3, "picture": "https://images.pexels.com/videos/4536571/pictures/preview-3.jpeg"}, {"id": 1638626, "nr": 4, "picture": "https://images.pexels.com/videos/4536571/pictures/preview-4.jpeg"}, {"id": 1638646, "nr": 5, "picture": "https://images.pexels.com/videos/4536571/pictures/preview-5.jpeg"}, {"id": 1638665, "nr": 6, "picture": "https://images.pexels.com/videos/4536571/pictures/preview-6.jpeg"}, {"id": 1638681, "nr": 7, "picture": "https://images.pexels.com/videos/4536571/pictures/preview-7.jpeg"}, {"id": 1638699, "nr": 8, "picture": "https://images.pexels.com/videos/4536571/pictures/preview-8.jpeg"}, {"id": 1638717, "nr": 9, "picture": "https://images.pexels.com/videos/4536571/pictures/preview-9.jpeg"}, {"id": 1638737, "nr": 10, "picture": "https://images.pexels.com/videos/4536571/pictures/preview-10.jpeg"}, {"id": 1638761, "nr": 11, "picture": "https://images.pexels.com/videos/4536571/pictures/preview-11.jpeg"}, {"id": 1638779, "nr": 12, "picture": "https://images.pexels.com/videos/4536571/pictures/preview-12.jpeg"}, {"id": 1638795, "nr": 13, "picture": "https://images.pexels.com/videos/4536571/pictures/preview-13.jpeg"}, {"id": 1638814, "nr": 14, "picture": "https://images.pexels.com/videos/4536571/pictures/preview-14.jpeg"}]}, {"id": 6911696, "width": 2160, "height": 3840, "duration": 10, "full_res": null, "tags": [], "url": "https://www.pexels.com/video/close-up-video-of-a-plant-6911696/", "image": "https://images.pexels.com/videos/6911696/pexels-photo-6911696.jpeg?auto=compress&cs=tinysrgb&fit=crop&h=1200&w=630", "avg_color": null, "user": {"id": 19162587, "name": "Teona Swift", "url": "https://www.pexels.com/@teona-swift"}, "video_files": [{"id": 10222961, "quality": "uhd", "file_type": "video/mp4", "width": 1440, "height": 2560, "fps": 23.97599983215332, "link": "https://videos.pexels.com/video-files/6911696/6911696-uhd_1440_2560_24fps.mp4", "size": 5423702}, {"id": 10223082, "quality": "sd", "file_type": "video/mp4", "width": 360, "height": 640, "fps": 23.97599983215332, "link": "https://videos.pexels.com/video-files/6911696/6911696-sd_360_640_24fps.mp4", "size": 382005}, {"id": 10223163, "quality": "hd", "file_type": "video/mp4", "width": 1080, "height": 1920, "fps": 23.97599983215332, "link": "https://videos.pexels.com/video-files/6911696/6911696-hd_1080_1920_24fps.mp4", "size": 2919187}, {"id": 10223187, "quality": "sd", "file_type": "video/mp4", "width": 240, "height": 426, "fps": 23.97599983215332, "link": "https://videos.pexels.com/video-files/6911696/6911696-sd_240_426_24fps.mp4", "size": 217926}, {"id": 10223346, "quality": "hd", "file_type": "video/mp4", "width": 720, "height": 1280, "fps": 23.97599983215332, "link": "https://videos.pexels.com/video-files/6911696/6911696-hd_720_1280_24fps.mp4", "size": 1201986}, {"id": 10223444, "quality": "sd", "file_type": "video/mp4", "width": 540, "height": 960, "fps": 23.97599983215332, "link": "https://videos.pexels.com/video-files/6911696/6911696-sd_540_960_24fps.mp4", "size": 721961}, {"id": 10223497, "quality": "uhd", "file_type": "video/mp4", "width": 2160, "height": 3840, "fps": 23.97599983215332, "link": "https://videos.pexels.com/video-files/6911696/6911696-uhd_2160_3840_24fps.mp4", "size": 19272622}], "video_pictures": [{"id": 5347079, "nr": 0, "picture": "https://images.pexels.com/videos/6911696/pictures/preview-0.jpeg"}, {"id": 5347080, "nr": 1, "picture": "https://images.pexels.com/videos/6911696/pictures/preview-1.jpeg"}, {"id": 5347083, "nr": 2, "picture": "https://images.pexels.com/videos/6911696/pictures/preview-2.jpeg"}, {"id": 5347086, "nr": 3, "picture": "https://images.pexels.com/videos/6911696/pictures/preview-3.jpeg"}, {"id": 5347091, "nr": 4, "picture": "https://images.pexels.com/videos/6911696/pictures/preview-4.jpeg"}, {"id": 5347102, "nr": 5, "picture": "https://images.pexels.com/videos/6911696/pictures/preview-5.jpeg"}, {"id": 5347109, "nr": 6, "picture": "https://images.pexels.com/videos/6911696/pictures/preview-6.jpeg"}, {"id": 5347113, "nr": 7, "picture": "https://images.pexels.com/videos/6911696/pictures/preview-7.jpeg"}, {"id": 5347115, "nr": 8, "picture": "https://images.pexels.com/videos/6911696/pictures/preview-8.jpeg"}, {"id": 5347117, "nr": 9, "picture": "https://images.pexels.com/videos/6911696/pictures/preview-9.jpeg"}, {"id": 5347119, "nr": 10, "picture": "https://images.pexels.com/videos/6911696/pictures/preview-10.jpeg"}, {"id": 5347122, "nr": 11, "picture": "https://images.pexels.com/videos/6911696/pictures/preview-11.jpeg"}, {"id": 5347124, "nr": 12, "picture": "https://images.pexels.com/videos/6911696/pictures/preview-12.jpeg"}, {"id": 5347127, "nr": 13, "picture": "https://images.pexels.com/videos/6911696/pictures/preview-13.jpeg"}, {"id": 5347129, "nr": 14, "picture": "https://images.pexels.com/videos/6911696/pictures/preview-14.jpeg"}]}, {"id": 8032662, "width": 2160, "height": 4096, "duration": 18, "full_res": null, "tags": [], "url": "https://www.pexels.com/video/woman-drinking-water-8032662/", "image": "https://images.pexels.com/videos/8032662/athlete-body-care-domestic-exercise-8032662.jpeg?auto=compress&cs=tinysrgb&fit=crop&h=1200&w=630", "avg_color": null, "user": {"id": 30039676, "name": "MART  PRODUCTION", "url": "https://www.pexels.com/@mart-production"}, "video_files": [{"id": 10658498, "quality": "hd", "file_type": "video/mp4", "width": 1080, "height": 2048, "fps": 25.0, "link": "https://videos.pexels.com/video-files/8032662/8032662-hd_1080_2048_25fps.mp4", "size": 9972587}, {"id": 10658540, "quality": "sd", "file_type": "video/mp4", "width": 506, "height": 960, "fps": 25.0, "link": "https://videos.pexels.com/video-files/8032662/8032662-sd_506_960_25fps.mp4", "size": 2757284}, {"id": 10658643, "quality": "uhd", "file_type": "video/mp4", "width": 2160, "height": 4096, "fps": 25.0, "link": "https://videos.pexels.com/video-files/8032662/8032662-uhd_2160_4096_25fps.mp4", "size": 44003897}, {"id": 10658690, "quality": "sd", "file_type": "video/mp4", "width": 226, "height": 426, "fps": 25.0, "link": "https://videos.pexels.com/video-files/8032662/8032662-sd_226_426_25fps.mp4", "size": 758150}, {"id": 10658744, "quality": "hd", "file_type": "video/mp4", "width": 720, "height": 1366, "fps": 25.0, "link": "https://videos.pexels.com/video-files/8032662/8032662-hd_720_1366_25fps.mp4", "size": 5061425}, {"id": 10658797, "quality": "uhd", "file_type": "video/mp4", "width": 1440, "height": 2732, "fps": 25.0, "link": "https://videos.pexels.com/video-files/8032662/8032662-uhd_1440_2732_25fps.mp4", "size": 19678771}, {"id": 10658843, "quality": "sd", "file_type": "video/mp4", "width": 338, "height": 640, "fps": 25.0, "link": "https://videos.pexels.com/video-files/8032662/8032662-sd_338_640_25fps.mp4", "size": 1096918}], "video_pictures": [{"id": 7459292, "nr": 0, "picture": "https://images.pexels.com/videos/8032662/pictures/preview-0.jpeg"}, {"id": 7459293, "nr": 1, "picture": "https://images.pexels.com/videos/8032662/pictures/preview-1.jpeg"}, {"id": 7459294, "nr": 2, "picture": "https://images.pexels.com/videos/8032662/pictures/preview-2.jpeg"}, {"id": 7459295, "nr": 3, "picture": "https://images.pexels.com/videos/8032662/pictures/preview-3.jpeg"}, {"id": 7459297, "nr": 4, "picture": "https://images.pexels.com/videos/8032662/pictures/preview-4.jpeg"}, {"id": 7459300, "nr": 5, "picture": "https://images.pexels.com/videos/8032662/pictures/preview-5.jpeg"}, {"id": 7459304, "nr": 6, "picture": "https://images.pexels.com/videos/8032662/pictures/preview-6.jpeg"}, {"id": 7459308, "nr": 7, "picture": "https://images.pexels.com/videos/8032662/pictures/preview-7.jpeg"}, {"id": 7459316, "nr": 8, "picture": "https://images.pexels.com/videos/8032662/pictures/preview-8.jpeg"}, {"id": 7459323, "nr": 9, "picture": "https://images.pexels.com/videos/8032662/pictures/preview-9.jpeg"}, {"id": 7459331, "nr": 10, "picture": "https://images.pexels.com/videos/8032662/pictures/preview-10.jpeg"}, {"id": 7459333, "nr": 11, "picture": "https://images.pexels.com/videos/8032662/pictures/preview-11.jpeg"}, {"id": 7459334, "nr": 12, "picture": "https://images.pexels.com/videos/8032662/pictures/preview-12.jpeg"}, {"id": 7459335, "nr": 13, "picture": "https://images.pexels.com/videos/8032662/pictures/preview-13.jpeg"}, {"id": 7459336, "nr": 14, "picture": "https://images.pexels.com/videos/8032662/pictures/preview-14.jpeg"}]}, {"id": 4975156, "width": 1080, "height": 1920, "duration": 44, "full_res": null, "tags": [], "url": "https://www.pexels.com/video/close-up-video-of-wet-leaves-4975156/", "image": "https://images.pexels.com/videos/4975156/pexels-photo-4975156.jpeg?auto=compress&cs=tinysrgb&fit=crop&h=1200&w=630", "avg_color": null, "user": {"id": 708158, "name": "Ajay Babu Gorantla", "url": "https://www.pexels.com/@ajay-babu-gorantla-708158"}, "video_files": [{"id": 9588811, "quality": "sd", "file_type": "video/mp4", "width": 360, "height": 640, "fps": 30.0, "link": "https://videos.pexels.com/video-files/4975156/4975156-sd_360_640_30fps.mp4", "size": 2681101}, {"id": 9588839, "quality": "sd", "file_type": "video/mp4", "width": 240, "height": 426, "fps": 30.0, "link": "https://videos.pexels.com/video-files/4975156/4975156-sd_240_426_30fps.mp4", "size": 1647001}, {"id": 9588894, "quality": "sd", "file_type": "video/mp4", "width": 540, "height": 960, "fps": 30.0, "link": "https://videos.pexels.com/video-files/4975156/4975156-sd_540_960_30fps.mp4", "size": 7855668}, {"id": 9588924, "quality": "hd", "file_type": "video/mp4", "width": 1080, "height": 1920, "fps": 30.0, "link": "https://videos.pexels.com/video-files/4975156/4975156-hd_1080_1920_30fps.mp4", "size": 30804687}, {"id": 9588958, "quality": "hd", "file_type": "video/mp4", "width": 720, "height": 1280, "fps": 30.0, "link": "https://videos.pexels.com/video-files/4975156/4975156-hd_720_1280_30fps.mp4", "size": 15494834}], "video_pictures": [{"id": 2197488, "nr": 0, "picture": "https://images.pexels.com/videos/4975156/pictures/preview-0.jpeg"}, {"id": 2197490, "nr": 1, "picture": "https://images.pexels.com/videos/4975156/pictures/preview-1.jpeg"}, {"id": 2197492, "nr": 2, "picture": "https://images.pexels.com/videos/4975156/pictures/preview-2.jpeg"}, {"id": 2197494, "nr": 3, "picture": "https://images.pexels.com/videos/4975156/pictures/preview-3.jpeg"}, {"id": 2197496, "nr": 4, "picture": "https://images.pexels.com/videos/4975156/pictures/preview-4.jpeg"}, {"id": 2197497, "nr": 5, "picture": "https://images.pexels.com/videos/4975156/pictures/preview-5.jpeg"}, {"id": 2197498, "nr": 6, "picture": "https://images.pexels.com/videos/4975156/pictures/preview-6.jpeg"}, {"id": 2197499, "nr": 7, "picture": "https://images.pexels.com/videos/4975156/pictures/preview-7.jpeg"}, {"id": 2197500, "nr": 8, "picture": "https://images.pexels.com/videos/4975156/pictures/preview-8.jpeg"}, {"id": 2197501, "nr": 9, "picture": "https://images.pexels.com/videos/4975156/pictures/preview-9.jpeg"}, {"id": 2197502, "nr": 10, "picture": "https://images.pexels.com/videos/4975156/pictures/preview-10.jpeg"}, {"id": 2197503, "nr": 11, "picture": "https://images.pexels.com/videos/4975156/pictures/preview-11.jpeg"}, {"id": 2197504, "nr": 12, "picture": "https://images.pexels.com/videos/4975156/pictures/preview-12.jpeg"}, {"id": 2197505, "nr": 13, "picture": "https://images.pexels.com/videos/4975156/pictures/preview-13.jpeg"}, {"id": 2197506, "nr": 14, "picture": "https://images.pexels.com/videos/4975156/pictures/preview-14.jpeg"}]}, {"id": 6912208, "width": 2160, "height": 3840, "duration": 10, "full_res": null, "tags": [], "url": "https://www.pexels.com/video/a-person-using-a-laptop-6912208/", "image": "https://images.pexels.com/videos/6912208/pexels-photo-6912208.jpeg?auto=compress&cs=tinysrgb&fit=crop&h=1200&w=630", "avg_color": null, "user": {"id": 19162587, "name": "Teona Swift", "url": "https://www.pexels.com/@teona-swift"}, "video_files": [{"id": 10223181, "quality": "sd", "file_type": "video/mp4", "width": 240, "height": 426, "fps": 23.97599983215332, "link": "https://videos.pexels.com/video-files/6912208/6912208-sd_240_426_24fps.mp4", "size": 288064}, {"id": 10223257, "quality": "sd", "file_type": "video/mp4", "width": 540, "height": 960, "fps": 23.97599983215332, "link": "https://videos.pexels.com/video-files/6912208/6912208-sd_540_960_24fps.mp4", "size": 964318}, {"id": 10223307, "quality": "sd", "file_type": "video/mp4", "width": 360, "height": 640, "fps": 23.97599983215332, "link": "https://videos.pexels.com/video-files/6912208/6912208-sd_360_640_24fps.mp4", "size": 447205}, {"id": 10223445, "quality": "uhd", "file_type": "video/mp4", "width": 1440, "height": 2560, "fps": 23.97599983215332, "link": "https://videos.pexels.com/video-files/6912208/6912208-uhd_1440_2560_24fps.mp4", "size": 6806643}, {"id": 10223500, "quality": "hd", "file_type": "video/mp4", "width": 720, "height": 1280, "fps": 23.97599983215332, "link": "https://videos.pexels.com/video-files/6912208/6912208-hd_720_1280_24fps.mp4", "size": 1678511}, {"id": 10223639, "quality": "hd", "file_type": "video/mp4", "width": 1080, "height": 1920, "fps": 23.97599983215332, "link": "https://videos.pexels.com/video-files/6912208/6912208-hd_1080_1920_24fps.mp4", "size": 3644410}, {"id": 10223769, "quality": "uhd", "file_type": "video/mp4", "width": 2160, "height": 3840, "fps": 23.97599983215332, "link": "https://videos.pexels.com/video-files/6912208/6912208-uhd_2160_3840_24fps.mp4", "size": 22057162}], "video_pictures": [{"id": 5350109, "nr": 0, "picture": "https://images.pexels.com/videos/6912208/pictures/preview-0.jpeg"}, {"id": 5350137, "nr": 1, "picture": "https://images.pexels.com/videos/6912208/pictures/preview-1.jpeg"}, {"id": 5350171, "nr": 2, "picture": "https://images.pexels.com/videos/6912208/pictures/preview-2.jpeg"}, {"id": 5350200, "nr": 3, "picture": "https://images.pexels.com/videos/6912208/pictures/preview-3.jpeg"}, {"id": 5350247, "nr": 4, "picture": "https://images.pexels.com/videos/6912208/pictures/preview-4.jpeg"}, {"id": 5350275, "nr": 5, "picture": "https://images.pexels.com/videos/6912208/pictures/preview-5.jpeg"}, {"id": 5350295, "nr": 6, "picture": "https://images.pexels.com/videos/6912208/pictures/preview-6.jpeg"}, {"id": 5350309, "nr": 7, "picture": "https://images.pexels.com/videos/6912208/pictures/preview-7.jpeg"}, {"id": 5350330, "nr": 8, "picture": "https://images.pexels.com/videos/6912208/pictures/preview-8.jpeg"}, {"id": 5350354, "nr": 9, "picture": "https://images.pexels.com/videos/6912208/pictures/preview-9.jpeg"}, {"id": 5350371, "nr": 10, "picture": "https://images.pexels.com/videos/6912208/pictures/preview-10.jpeg"}, {"id": 5350390, "nr": 11, "picture": "https://images.pexels.com/videos/6912208/pictures/preview-11.jpeg"}, {"id": 5350403, "nr": 12, "picture": "https://images.pexels.com/videos/6912208/pictures/preview-12.jpeg"}, {"id": 5350414, "nr": 13, "picture": "https://images.pexels.com/videos/6912208/pictures/preview-13.jpeg"}, {"id": 5350424, "nr": 14, "picture": "https://images.pexels.com/videos/6912208/pictures/preview-14.jpeg"}]}, {"id": 6911695, "width": 2160, "height": 3840, "duration": 10, "full_res": null, "tags": [], "url": "https://www.pexels.com/video/shallow-focus-of-green-plants-6911695/", "image": "https://images.pexels.com/videos/6911695/pexels-photo-6911695.jpeg?auto=compress&cs=tinysrgb&fit=crop&h=1200&w=630", "avg_color": null, "user": {"id": 19162587, "name": "Teona Swift", "url": "https://www.pexels.com/@teona-swift"}, "video_files": [{"id": 10222717, "quality": "sd", "file_type": "video/mp4", "width": 240, "height": 426, "fps": 23.97599983215332, "link": "https://videos.pexels.com/video-files/6911695/6911695-sd_240_426_24fps.mp4", "size": 311172}, {"id": 10222825, "quality": "uhd", "file_type": "video/mp4", "width": 1440, "height": 2560, "fps": 23.97599983215332, "link": "https://videos.pexels.com/video-files/6911695/6911695-uhd_1440_2560_24fps.mp4", "size": 6526011}, {"id": 10222970, "quality": "uhd", "file_type": "video/mp4", "width": 2160, "height": 3840, "fps": 23.97599983215332, "link": "https://videos.pexels.com/video-files/6911695/6911695-uhd_2160_3840_24fps.mp4", "size": 19247856}, {"id": 10223030, "quality": "hd", "file_type": "video/mp4", "width": 1080, "height": 1920, "fps": 23.97599983215332, "link": "https://videos.pexels.com/video-files/6911695/6911695-hd_1080_1920_24fps.mp4", "size": 3435381}, {"id": 10223100, "quality": "sd", "file_type": "video/mp4", "width": 360, "height": 640, "fps": 23.97599983215332, "link": "https://videos.pexels.com/video-files/6911695/6911695-sd_360_640_24fps.mp4", "size": 506563}, {"id": 10223178, "quality": "hd", "file_type": "video/mp4", "width": 720, "height": 1280, "fps": 23.97599983215332, "link": "https://videos.pexels.com/video-files/6911695/6911695-hd_720_1280_24fps.mp4", "size": 1696708}, {"id": 10223324, "quality": "sd", "file_type": "video/mp4", "width": 540, "height": 960, "fps": 23.97599983215332, "link": "https://videos.pexels.com/video-files/6911695/6911695-sd_540_960_24fps.mp4", "size": 998683}], "video_pictures": [{"id": 5346659, "nr": 0, "picture": "https://images.pexels.com/videos/6911695/pictures/preview-0.jpeg"}, {"id": 5346660, "nr": 1, "picture": "https://images.pexels.com/videos/6911695/pictures/preview-1.jpeg"}, {"id": 5346664, "nr": 2, "picture": "https://images.pexels.com/videos/6911695/pictures/preview-2.jpeg"}, {"id": 5346674, "nr": 3, "picture": "https://images.pexels.com/videos/6911695/pictures/preview-3.jpeg"}, {"id": 5346683, "nr": 4, "picture": "https://images.pexels.com/videos/6911695/pictures/preview-4.jpeg"}, {"id": 5346691, "nr": 5, "picture": "https://images.pexels.com/videos/6911695/pictures/preview-5.jpeg"}, {"id": 5346696, "nr": 6, "picture": "https://images.pexels.com/videos/6911695/pictures/preview-6.jpeg"}, {"id": 5346702, "nr": 7, "picture": "https://images.pexels.com/videos/6911695/pictures/preview-7.jpeg"}, {"id": 5346707, "nr": 8, "picture": "https://images.pexels.com/videos/6911695/pictures/preview-8.jpeg"}, {"id": 5346711, "nr": 9, "picture": "https://images.pexels.com/videos/6911695/pictures/preview-9.jpeg"}, {"id": 5346714, "nr": 10, "picture": "https://images.pexels.com/videos/6911695/pictures/preview-10.jpeg"}, {"id": 5346717, "nr": 11, "picture": "https://images.pexels.com/videos/6911695/pictures/preview-11.jpeg"}, {"id": 5346720, "nr": 12, "picture": "https://images.pexels.com/videos/6911695/pictures/preview-12.jpeg"}, {"id": 5346722, "nr": 13, "picture": "https://images.pexels.com/videos/6911695/pictures/preview-13.jpeg"}, {"id": 5346723, "nr": 14, "picture": "https://images.pexels.com/videos/6911695/pictures/preview-14.jpeg"}]}], "total_results": 8000, "next_page": "https://api.pexels.com/v1/videos/search/?orientation=portrait&page=2&per_page=8&query=hydrated+plants", "url": "https://api-server.pexels.com/search/videos/hydrated%20plants/"}, "timestamp": "2024-12-28T22:42:12.861279"}
