{"query": "digesting insects", "response": {"page": 1, "per_page": 8, "videos": [{"id": 5972761, "width": 2160, "height": 3840, "duration": 5, "full_res": null, "tags": [], "url": "https://www.pexels.com/video/common-blue-butterflies-mating-5972761/", "image": "https://images.pexels.com/videos/5972761/pexels-photo-5972761.jpeg?auto=compress&cs=tinysrgb&fit=crop&h=1200&w=630", "avg_color": null, "user": {"id": 3838865, "name": "Mariam Antadze", "url": "https://www.pexels.com/@sunsetoned"}, "video_files": [{"id": 9872898, "quality": "sd", "file_type": "video/mp4", "width": 240, "height": 426, "fps": 30.0, "link": "https://videos.pexels.com/video-files/5972761/5972761-sd_240_426_30fps.mp4", "size": 195351}, {"id": 9873038, "quality": "sd", "file_type": "video/mp4", "width": 540, "height": 960, "fps": 30.0, "link": "https://videos.pexels.com/video-files/5972761/5972761-sd_540_960_30fps.mp4", "size": 963939}, {"id": 9873078, "quality": "hd", "file_type": "video/mp4", "width": 720, "height": 1280, "fps": 60.0, "link": "https://videos.pexels.com/video-files/5972761/5972761-hd_720_1280_60fps.mp4", "size": 1650527}, {"id": 9873140, "quality": "hd", "file_type": "video/mp4", "width": 1080, "height": 1920, "fps": 30.0, "link": "https://videos.pexels.com/video-files/5972761/5972761-hd_1080_1920_30fps.mp4", "size": 3335191}, {"id": 9873202, "quality": "uhd", "file_type": "video/mp4", "width": 1440, "height": 2560, "fps": 30.0, "link": "https://videos.pexels.com/video-files/5972761/5972761-uhd_1440_2560_30fps.mp4", "size": 8379756}, {"id": 9873260, "quality": "uhd", "file_type": "video/mp4", "width": 2160, "height": 3840, "fps": 30.0, "link": "https://videos.pexels.com/video-files/5972761/5972761-uhd_2160_3840_30fps.mp4", "size": 15068283}, {"id": 9873285, "quality": "sd", "file_type": "video/mp4", "width": 360, "height": 640, "fps": 30.0, "link": "https://videos.pexels.com/video-files/5972761/5972761-sd_360_640_30fps.mp4", "size": 322753}], "video_pictures": [{"id": 3690510, "nr": 0, "picture": "https://images.pexels.com/videos/5972761/pictures/preview-0.jpeg"}, {"id": 3690515, "nr": 1, "picture": "https://images.pexels.com/videos/5972761/pictures/preview-1.jpeg"}, {"id": 3690517, "nr": 2, "picture": "https://images.pexels.com/videos/5972761/pictures/preview-2.jpeg"}, {"id": 3690520, "nr": 3, "picture": "https://images.pexels.com/videos/5972761/pictures/preview-3.jpeg"}, {"id": 3690523, "nr": 4, "picture": "https://images.pexels.com/videos/5972761/pictures/preview-4.jpeg"}, {"id": 3690527, "nr": 5, "picture": "https://images.pexels.com/videos/5972761/pictures/preview-5.jpeg"}, {"id": 3690532, "nr": 6, "picture": "https://images.pexels.com/videos/5972761/pictures/preview-6.jpeg"}, {"id": 3690537, "nr": 7, "picture": "https://images.pexels.com/videos/5972761/pictures/preview-7.jpeg"}, {"id": 3690539, "nr": 8, "picture": "https://images.pexels.com/videos/5972761/pictures/preview-8.jpeg"}, {"id": 3690545, "nr": 9, "picture": "https://images.pexels.com/videos/5972761/pictures/preview-9.jpeg"}, {"id": 3690550, "nr": 10, "picture": "https://images.pexels.com/videos/5972761/pictures/preview-10.jpeg"}, {"id": 3690555, "nr": 11, "picture": "https://images.pexels.com/videos/5972761/pictures/preview-11.jpeg"}, {"id": 3690559, "nr": 12, "picture": "https://images.pexels.com/videos/5972761/pictures/preview-12.jpeg"}, {"id": 3690562, "nr": 13, "picture": "https://images.pexels.com/videos/5972761/pictures/preview-13.jpeg"}, {"id": 3690564, "nr": 14, "picture": "https://images.pexels.com/videos/5972761/pictures/preview-14.jpeg"}]}, {"id": 4777714, "width": 2160, "height": 3840, "duration": 30, "full_res": null, "tags": [], "url": "https://www.pexels.com/video/close-up-view-of-a-ants-in-the-flowers-4777714/", "image": "https://images.pexels.com/videos/4777714/pexels-photo-4777714.jpeg?auto=compress&cs=tinysrgb&fit=crop&h=1200&w=630", "avg_color": null, "user": {"id": 937544, "name": "Jayakrishnan Krishnakumar", "url": "https://www.pexels.com/@jeguthedesigner"}, "video_files": [{"id": 9565015, "quality": "hd", "file_type": "video/mp4", "width": 720, "height": 1280, "fps": 59.940101623535156, "link": "https://videos.pexels.com/video-files/4777714/4777714-hd_720_1280_60fps.mp4", "size": 6710082}, {"id": 9565332, "quality": "sd", "file_type": "video/mp4", "width": 240, "height": 426, "fps": 29.969999313354492, "link": "https://videos.pexels.com/video-files/4777714/4777714-sd_240_426_30fps.mp4", "size": 965610}, {"id": 9565514, "quality": "sd", "file_type": "video/mp4", "width": 360, "height": 640, "fps": 29.969999313354492, "link": "https://videos.pexels.com/video-files/4777714/4777714-sd_360_640_30fps.mp4", "size": 1771355}, {"id": 9565715, "quality": "uhd", "file_type": "video/mp4", "width": 2160, "height": 3840, "fps": 59.940101623535156, "link": "https://videos.pexels.com/video-files/4777714/4777714-uhd_2160_3840_60fps.mp4", "size": 93998700}, {"id": 9565839, "quality": "sd", "file_type": "video/mp4", "width": 540, "height": 960, "fps": 29.969999313354492, "link": "https://videos.pexels.com/video-files/4777714/4777714-sd_540_960_30fps.mp4", "size": 3498513}, {"id": 9565920, "quality": "uhd", "file_type": "video/mp4", "width": 1440, "height": 2560, "fps": 29.969999313354492, "link": "https://videos.pexels.com/video-files/4777714/4777714-uhd_1440_2560_30fps.mp4", "size": 43360099}, {"id": 9565935, "quality": "hd", "file_type": "video/mp4", "width": 1080, "height": 1920, "fps": 29.969999313354492, "link": "https://videos.pexels.com/video-files/4777714/4777714-hd_1080_1920_30fps.mp4", "size": 15662966}], "video_pictures": [{"id": 1974511, "nr": 0, "picture": "https://images.pexels.com/videos/4777714/pictures/preview-0.jpeg"}, {"id": 1974870, "nr": 1, "picture": "https://images.pexels.com/videos/4777714/pictures/preview-1.jpeg"}, {"id": 1974887, "nr": 2, "picture": "https://images.pexels.com/videos/4777714/pictures/preview-2.jpeg"}, {"id": 1974903, "nr": 3, "picture": "https://images.pexels.com/videos/4777714/pictures/preview-3.jpeg"}, {"id": 1974921, "nr": 4, "picture": "https://images.pexels.com/videos/4777714/pictures/preview-4.jpeg"}, {"id": 1974936, "nr": 5, "picture": "https://images.pexels.com/videos/4777714/pictures/preview-5.jpeg"}, {"id": 1974964, "nr": 6, "picture": "https://images.pexels.com/videos/4777714/pictures/preview-6.jpeg"}, {"id": 1974991, "nr": 7, "picture": "https://images.pexels.com/videos/4777714/pictures/preview-7.jpeg"}, {"id": 1975027, "nr": 8, "picture": "https://images.pexels.com/videos/4777714/pictures/preview-8.jpeg"}, {"id": 1975047, "nr": 9, "picture": "https://images.pexels.com/videos/4777714/pictures/preview-9.jpeg"}, {"id": 1975065, "nr": 10, "picture": "https://images.pexels.com/videos/4777714/pictures/preview-10.jpeg"}, {"id": 1975081, "nr": 11, "picture": "https://images.pexels.com/videos/4777714/pictures/preview-11.jpeg"}, {"id": 1975100, "nr": 12, "picture": "https://images.pexels.com/videos/4777714/pictures/preview-12.jpeg"}, {"id": 1975115, "nr": 13, "picture": "https://images.pexels.com/videos/4777714/pictures/preview-13.jpeg"}, {"id": 1975152, "nr": 14, "picture": "https://images.pexels.com/videos/4777714/pictures/preview-14.jpeg"}]}, {"id": 8209265, "width": 2160, "height": 4096, "duration": 21, "full_res": null, "tags": [], "url": "https://www.pexels.com/video/shirtless-man-posing-with-butterflies-on-his-body-8209265/", "image": "https://images.pexels.com/videos/8209265/pexels-photo-8209265.jpeg?auto=compress&cs=tinysrgb&fit=crop&h=1200&w=630", "avg_color": null, "user": {"id": 1437723, "name": "cottonbro studio", "url": "https://www.pexels.com/@cottonbro"}, "video_files": [{"id": 10745967, "quality": "hd", "file_type": "video/mp4", "width": 720, "height": 1366, "fps": 25.0, "link": "https://videos.pexels.com/video-files/8209265/8209265-hd_720_1366_25fps.mp4", "size": 2872219}, {"id": 10746119, "quality": "sd", "file_type": "video/mp4", "width": 506, "height": 960, "fps": 25.0, "link": "https://videos.pexels.com/video-files/8209265/8209265-sd_506_960_25fps.mp4", "size": 1549961}, {"id": 10746307, "quality": "uhd", "file_type": "video/mp4", "width": 2160, "height": 4096, "fps": 25.0, "link": "https://videos.pexels.com/video-files/8209265/8209265-uhd_2160_4096_25fps.mp4", "size": 40320616}, {"id": 10746461, "quality": "hd", "file_type": "video/mp4", "width": 1080, "height": 2048, "fps": 25.0, "link": "https://videos.pexels.com/video-files/8209265/8209265-hd_1080_2048_25fps.mp4", "size": 7128019}, {"id": 10746531, "quality": "sd", "file_type": "video/mp4", "width": 338, "height": 640, "fps": 25.0, "link": "https://videos.pexels.com/video-files/8209265/8209265-sd_338_640_25fps.mp4", "size": 842579}, {"id": 10746668, "quality": "sd", "file_type": "video/mp4", "width": 226, "height": 426, "fps": 25.0, "link": "https://videos.pexels.com/video-files/8209265/8209265-sd_226_426_25fps.mp4", "size": 489587}, {"id": 10746729, "quality": "uhd", "file_type": "video/mp4", "width": 1440, "height": 2732, "fps": 25.0, "link": "https://videos.pexels.com/video-files/8209265/8209265-uhd_1440_2732_25fps.mp4", "size": 12785927}], "video_pictures": [{"id": 7827614, "nr": 0, "picture": "https://images.pexels.com/videos/8209265/pictures/preview-0.jpeg"}, {"id": 7827620, "nr": 1, "picture": "https://images.pexels.com/videos/8209265/pictures/preview-1.jpeg"}, {"id": 7827630, "nr": 2, "picture": "https://images.pexels.com/videos/8209265/pictures/preview-2.jpeg"}, {"id": 7827638, "nr": 3, "picture": "https://images.pexels.com/videos/8209265/pictures/preview-3.jpeg"}, {"id": 7827648, "nr": 4, "picture": "https://images.pexels.com/videos/8209265/pictures/preview-4.jpeg"}, {"id": 7827660, "nr": 5, "picture": "https://images.pexels.com/videos/8209265/pictures/preview-5.jpeg"}, {"id": 7827665, "nr": 6, "picture": "https://images.pexels.com/videos/8209265/pictures/preview-6.jpeg"}, {"id": 7827676, "nr": 7, "picture": "https://images.pexels.com/videos/8209265/pictures/preview-7.jpeg"}, {"id": 7827682, "nr": 8, "picture": "https://images.pexels.com/videos/8209265/pictures/preview-8.jpeg"}, {"id": 7827691, "nr": 9, "picture": "https://images.pexels.com/videos/8209265/pictures/preview-9.jpeg"}, {"id": 7827700, "nr": 10, "picture": "https://images.pexels.com/videos/8209265/pictures/preview-10.jpeg"}, {"id": 7827709, "nr": 11, "picture": "https://images.pexels.com/videos/8209265/pictures/preview-11.jpeg"}, {"id": 7827719, "nr": 12, "picture": "https://images.pexels.com/videos/8209265/pictures/preview-12.jpeg"}, {"id": 7827728, "nr": 13, "picture": "https://images.pexels.com/videos/8209265/pictures/preview-13.jpeg"}, {"id": 7827734, "nr": 14, "picture": "https://images.pexels.com/videos/8209265/pictures/preview-14.jpeg"}]}, {"id": 4150354, "width": 480, "height": 848, "duration": 45, "full_res": null, "tags": [], "url": "https://www.pexels.com/video/flock-of-insects-in-the-sky-4150354/", "image": "https://images.pexels.com/videos/4150354/pexels-photo-4150354.jpeg?auto=compress&cs=tinysrgb&fit=crop&h=1200&w=630", "avg_color": null, "user": {"id": 2555629, "name": "sriman narayana", "url": "https://www.pexels.com/@sriman-narayana-2555629"}, "video_files": [{"id": 9490767, "quality": "sd", "file_type": "video/mp4", "width": 240, "height": 424, "fps": 30.0, "link": "https://videos.pexels.com/video-files/4150354/4150354-sd_240_424_30fps.mp4", "size": 2074779}, {"id": 9490865, "quality": "sd", "file_type": "video/mp4", "width": 480, "height": 848, "fps": 30.0, "link": "https://videos.pexels.com/video-files/4150354/4150354-sd_480_848_30fps.mp4", "size": 9963052}, {"id": 9490991, "quality": "sd", "file_type": "video/mp4", "width": 360, "height": 636, "fps": 30.0, "link": "https://videos.pexels.com/video-files/4150354/4150354-sd_360_636_30fps.mp4", "size": 3578629}], "video_pictures": [{"id": 1206477, "nr": 0, "picture": "https://images.pexels.com/videos/4150354/pictures/preview-0.jpeg"}, {"id": 1206481, "nr": 1, "picture": "https://images.pexels.com/videos/4150354/pictures/preview-1.jpeg"}, {"id": 1206482, "nr": 2, "picture": "https://images.pexels.com/videos/4150354/pictures/preview-2.jpeg"}, {"id": 1206486, "nr": 3, "picture": "https://images.pexels.com/videos/4150354/pictures/preview-3.jpeg"}, {"id": 1206490, "nr": 4, "picture": "https://images.pexels.com/videos/4150354/pictures/preview-4.jpeg"}, {"id": 1206491, "nr": 5, "picture": "https://images.pexels.com/videos/4150354/pictures/preview-5.jpeg"}, {"id": 1206494, "nr": 6, "picture": "https://images.pexels.com/videos/4150354/pictures/preview-6.jpeg"}, {"id": 1206496, "nr": 7, "picture": "https://images.pexels.com/videos/4150354/pictures/preview-7.jpeg"}, {"id": 1206497, "nr": 8, "picture": "https://images.pexels.com/videos/4150354/pictures/preview-8.jpeg"}, {"id": 1206498, "nr": 9, "picture": "https://images.pexels.com/videos/4150354/pictures/preview-9.jpeg"}, {"id": 1206499, "nr": 10, "picture": "https://images.pexels.com/videos/4150354/pictures/preview-10.jpeg"}, {"id": 1206500, "nr": 11, "picture": "https://images.pexels.com/videos/4150354/pictures/preview-11.jpeg"}, {"id": 1206501, "nr": 12, "picture": "https://images.pexels.com/videos/4150354/pictures/preview-12.jpeg"}, {"id": 1206502, "nr": 13, "picture": "https://images.pexels.com/videos/4150354/pictures/preview-13.jpeg"}, {"id": 1206503, "nr": 14, "picture": "https://images.pexels.com/videos/4150354/pictures/preview-14.jpeg"}]}, {"id": 5241084, "width": 1080, "height": 1920, "duration": 10, "full_res": null, "tags": [], "url": "https://www.pexels.com/video/a-beekeeper-taking-care-of-bees-5241084/", "image": "https://images.pexels.com/videos/5241084/pexels-photo-5241084.jpeg?auto=compress&cs=tinysrgb&fit=crop&h=1200&w=630", "avg_color": null, "user": {"id": 2202476, "name": "Anete Lusina", "url": "https://www.pexels.com/@anete-lusina"}, "video_files": [{"id": 9645070, "quality": "hd", "file_type": "video/mp4", "width": 720, "height": 1280, "fps": 59.940101623535156, "link": "https://videos.pexels.com/video-files/5241084/5241084-hd_720_1280_60fps.mp4", "size": 3461218}, {"id": 9645121, "quality": "sd", "file_type": "video/mp4", "width": 240, "height": 426, "fps": 29.969999313354492, "link": "https://videos.pexels.com/video-files/5241084/5241084-sd_240_426_30fps.mp4", "size": 483949}, {"id": 9645209, "quality": "sd", "file_type": "video/mp4", "width": 540, "height": 960, "fps": 29.969999313354492, "link": "https://videos.pexels.com/video-files/5241084/5241084-sd_540_960_30fps.mp4", "size": 2181417}, {"id": 9645332, "quality": "sd", "file_type": "video/mp4", "width": 360, "height": 640, "fps": 29.969999313354492, "link": "https://videos.pexels.com/video-files/5241084/5241084-sd_360_640_30fps.mp4", "size": 805947}, {"id": 9645369, "quality": "hd", "file_type": "video/mp4", "width": 1080, "height": 1920, "fps": 29.969999313354492, "link": "https://videos.pexels.com/video-files/5241084/5241084-hd_1080_1920_30fps.mp4", "size": 6595391}], "video_pictures": [{"id": 2538396, "nr": 0, "picture": "https://images.pexels.com/videos/5241084/pictures/preview-0.jpeg"}, {"id": 2538397, "nr": 1, "picture": "https://images.pexels.com/videos/5241084/pictures/preview-1.jpeg"}, {"id": 2538399, "nr": 2, "picture": "https://images.pexels.com/videos/5241084/pictures/preview-2.jpeg"}, {"id": 2538400, "nr": 3, "picture": "https://images.pexels.com/videos/5241084/pictures/preview-3.jpeg"}, {"id": 2538401, "nr": 4, "picture": "https://images.pexels.com/videos/5241084/pictures/preview-4.jpeg"}, {"id": 2538403, "nr": 5, "picture": "https://images.pexels.com/videos/5241084/pictures/preview-5.jpeg"}, {"id": 2538404, "nr": 6, "picture": "https://images.pexels.com/videos/5241084/pictures/preview-6.jpeg"}, {"id": 2538406, "nr": 7, "picture": "https://images.pexels.com/videos/5241084/pictures/preview-7.jpeg"}, {"id": 2538407, "nr": 8, "picture": "https://images.pexels.com/videos/5241084/pictures/preview-8.jpeg"}, {"id": 2538408, "nr": 9, "picture": "https://images.pexels.com/videos/5241084/pictures/preview-9.jpeg"}, {"id": 2538409, "nr": 10, "picture": "https://images.pexels.com/videos/5241084/pictures/preview-10.jpeg"}, {"id": 2538411, "nr": 11, "picture": "https://images.pexels.com/videos/5241084/pictures/preview-11.jpeg"}, {"id": 2538412, "nr": 12, "picture": "https://images.pexels.com/videos/5241084/pictures/preview-12.jpeg"}, {"id": 2538414, "nr": 13, "picture": "https://images.pexels.com/videos/5241084/pictures/preview-13.jpeg"}, {"id": 2538415, "nr": 14, "picture": "https://images.pexels.com/videos/5241084/pictures/preview-14.jpeg"}]}, {"id": 8209269, "width": 2160, "height": 4096, "duration": 42, "full_res": null, "tags": [], "url": "https://www.pexels.com/video/butterflies-laying-in-the-skin-of-a-man-8209269/", "image": "https://images.pexels.com/videos/8209269/pexels-photo-8209269.jpeg?auto=compress&cs=tinysrgb&fit=crop&h=1200&w=630", "avg_color": null, "user": {"id": 1437723, "name": "cottonbro studio", "url": "https://www.pexels.com/@cottonbro"}, "video_files": [{"id": 10746218, "quality": "hd", "file_type": "video/mp4", "width": 1080, "height": 2048, "fps": 25.0, "link": "https://videos.pexels.com/video-files/8209269/8209269-hd_1080_2048_25fps.mp4", "size": 16896165}, {"id": 10746245, "quality": "hd", "file_type": "video/mp4", "width": 720, "height": 1366, "fps": 25.0, "link": "https://videos.pexels.com/video-files/8209269/8209269-hd_720_1366_25fps.mp4", "size": 7705206}, {"id": 10746276, "quality": "sd", "file_type": "video/mp4", "width": 338, "height": 640, "fps": 25.0, "link": "https://videos.pexels.com/video-files/8209269/8209269-sd_338_640_25fps.mp4", "size": 1984692}, {"id": 10746324, "quality": "sd", "file_type": "video/mp4", "width": 226, "height": 426, "fps": 25.0, "link": "https://videos.pexels.com/video-files/8209269/8209269-sd_226_426_25fps.mp4", "size": 1332911}, {"id": 10746352, "quality": "sd", "file_type": "video/mp4", "width": 506, "height": 960, "fps": 25.0, "link": "https://videos.pexels.com/video-files/8209269/8209269-sd_506_960_25fps.mp4", "size": 4021948}, {"id": 10746383, "quality": "uhd", "file_type": "video/mp4", "width": 1440, "height": 2732, "fps": 25.0, "link": "https://videos.pexels.com/video-files/8209269/8209269-uhd_1440_2732_25fps.mp4", "size": 31215748}, {"id": 10746407, "quality": "uhd", "file_type": "video/mp4", "width": 2160, "height": 4096, "fps": 25.0, "link": "https://videos.pexels.com/video-files/8209269/8209269-uhd_2160_4096_25fps.mp4", "size": 82057524}], "video_pictures": [{"id": 7827601, "nr": 0, "picture": "https://images.pexels.com/videos/8209269/pictures/preview-0.jpeg"}, {"id": 7827606, "nr": 1, "picture": "https://images.pexels.com/videos/8209269/pictures/preview-1.jpeg"}, {"id": 7827613, "nr": 2, "picture": "https://images.pexels.com/videos/8209269/pictures/preview-2.jpeg"}, {"id": 7827624, "nr": 3, "picture": "https://images.pexels.com/videos/8209269/pictures/preview-3.jpeg"}, {"id": 7827634, "nr": 4, "picture": "https://images.pexels.com/videos/8209269/pictures/preview-4.jpeg"}, {"id": 7827643, "nr": 5, "picture": "https://images.pexels.com/videos/8209269/pictures/preview-5.jpeg"}, {"id": 7827654, "nr": 6, "picture": "https://images.pexels.com/videos/8209269/pictures/preview-6.jpeg"}, {"id": 7827662, "nr": 7, "picture": "https://images.pexels.com/videos/8209269/pictures/preview-7.jpeg"}, {"id": 7827669, "nr": 8, "picture": "https://images.pexels.com/videos/8209269/pictures/preview-8.jpeg"}, {"id": 7827675, "nr": 9, "picture": "https://images.pexels.com/videos/8209269/pictures/preview-9.jpeg"}, {"id": 7827681, "nr": 10, "picture": "https://images.pexels.com/videos/8209269/pictures/preview-10.jpeg"}, {"id": 7827688, "nr": 11, "picture": "https://images.pexels.com/videos/8209269/pictures/preview-11.jpeg"}, {"id": 7827696, "nr": 12, "picture": "https://images.pexels.com/videos/8209269/pictures/preview-12.jpeg"}, {"id": 7827707, "nr": 13, "picture": "https://images.pexels.com/videos/8209269/pictures/preview-13.jpeg"}, {"id": 7827718, "nr": 14, "picture": "https://images.pexels.com/videos/8209269/pictures/preview-14.jpeg"}]}, {"id": 9153869, "width": 1080, "height": 1920, "duration": 9, "full_res": null, "tags": [], "url": "https://www.pexels.com/video/a-beekeeper-smoking-a-beehive-9153869/", "image": "https://images.pexels.com/videos/9153869/adult-anthill-apiary-appoint-9153869.jpeg?auto=compress&cs=tinysrgb&fit=crop&h=1200&w=630", "avg_color": null, "user": {"id": 2678846, "name": "ROMAN ODINTSOV", "url": "https://www.pexels.com/@roman-odintsov"}, "video_files": [{"id": 11067415, "quality": "hd", "file_type": "video/mp4", "width": 720, "height": 1280, "fps": 25.0, "link": "https://videos.pexels.com/video-files/9153869/9153869-hd_720_1280_25fps.mp4", "size": 3260562}, {"id": 11067432, "quality": "sd", "file_type": "video/mp4", "width": 360, "height": 640, "fps": 25.0, "link": "https://videos.pexels.com/video-files/9153869/9153869-sd_360_640_25fps.mp4", "size": 730686}, {"id": 11067478, "quality": "hd", "file_type": "video/mp4", "width": 1080, "height": 1920, "fps": 25.0, "link": "https://videos.pexels.com/video-files/9153869/9153869-hd_1080_1920_25fps.mp4", "size": 6215415}, {"id": 11067518, "quality": "sd", "file_type": "video/mp4", "width": 540, "height": 960, "fps": 25.0, "link": "https://videos.pexels.com/video-files/9153869/9153869-sd_540_960_25fps.mp4", "size": 2042473}], "video_pictures": [{"id": 9387182, "nr": 0, "picture": "https://images.pexels.com/videos/9153869/pictures/preview-0.jpeg"}, {"id": 9387187, "nr": 1, "picture": "https://images.pexels.com/videos/9153869/pictures/preview-1.jpeg"}, {"id": 9387190, "nr": 2, "picture": "https://images.pexels.com/videos/9153869/pictures/preview-2.jpeg"}, {"id": 9387195, "nr": 3, "picture": "https://images.pexels.com/videos/9153869/pictures/preview-3.jpeg"}, {"id": 9387201, "nr": 4, "picture": "https://images.pexels.com/videos/9153869/pictures/preview-4.jpeg"}, {"id": 9387207, "nr": 5, "picture": "https://images.pexels.com/videos/9153869/pictures/preview-5.jpeg"}, {"id": 9387210, "nr": 6, "picture": "https://images.pexels.com/videos/9153869/pictures/preview-6.jpeg"}, {"id": 9387215, "nr": 7, "picture": "https://images.pexels.com/videos/9153869/pictures/preview-7.jpeg"}, {"id": 9387221, "nr": 8, "picture": "https://images.pexels.com/videos/9153869/pictures/preview-8.jpeg"}, {"id": 9387223, "nr": 9, "picture": "https://images.pexels.com/videos/9153869/pictures/preview-9.jpeg"}, {"id": 9387232, "nr": 10, "picture": "https://images.pexels.com/videos/9153869/pictures/preview-10.jpeg"}, {"id": 9387238, "nr": 11, "picture": "https://images.pexels.com/videos/9153869/pictures/preview-11.jpeg"}, {"id": 9387241, "nr": 12, "picture": "https://images.pexels.com/videos/9153869/pictures/preview-12.jpeg"}, {"id": 9387250, "nr": 13, "picture": "https://images.pexels.com/videos/9153869/pictures/preview-13.jpeg"}, {"id": 9387253, "nr": 14, "picture": "https://images.pexels.com/videos/9153869/pictures/preview-14.jpeg"}]}, {"id": 9153873, "width": 1080, "height": 1920, "duration": 6, "full_res": null, "tags": [], "url": "https://www.pexels.com/video/a-person-holding-a-bee-smoker-9153873/", "image": "https://images.pexels.com/videos/9153873/adult-agriculture-anthill-apiary-9153873.jpeg?auto=compress&cs=tinysrgb&fit=crop&h=1200&w=630", "avg_color": null, "user": {"id": 2678846, "name": "ROMAN ODINTSOV", "url": "https://www.pexels.com/@roman-odintsov"}, "video_files": [{"id": 11067565, "quality": "sd", "file_type": "video/mp4", "width": 360, "height": 640, "fps": 25.0, "link": "https://videos.pexels.com/video-files/9153873/9153873-sd_360_640_25fps.mp4", "size": 466833}, {"id": 11067575, "quality": "hd", "file_type": "video/mp4", "width": 1080, "height": 1920, "fps": 25.0, "link": "https://videos.pexels.com/video-files/9153873/9153873-hd_1080_1920_25fps.mp4", "size": 3946373}, {"id": 11067607, "quality": "hd", "file_type": "video/mp4", "width": 720, "height": 1280, "fps": 25.0, "link": "https://videos.pexels.com/video-files/9153873/9153873-hd_720_1280_25fps.mp4", "size": 2052973}, {"id": 11067706, "quality": "sd", "file_type": "video/mp4", "width": 540, "height": 960, "fps": 25.0, "link": "https://videos.pexels.com/video-files/9153873/9153873-sd_540_960_25fps.mp4", "size": 1303231}], "video_pictures": [{"id": 9387904, "nr": 0, "picture": "https://images.pexels.com/videos/9153873/pictures/preview-0.jpeg"}, {"id": 9387908, "nr": 1, "picture": "https://images.pexels.com/videos/9153873/pictures/preview-1.jpeg"}, {"id": 9387912, "nr": 2, "picture": "https://images.pexels.com/videos/9153873/pictures/preview-2.jpeg"}, {"id": 9387919, "nr": 3, "picture": "https://images.pexels.com/videos/9153873/pictures/preview-3.jpeg"}, {"id": 9387923, "nr": 4, "picture": "https://images.pexels.com/videos/9153873/pictures/preview-4.jpeg"}, {"id": 9387928, "nr": 5, "picture": "https://images.pexels.com/videos/9153873/pictures/preview-5.jpeg"}, {"id": 9387932, "nr": 6, "picture": "https://images.pexels.com/videos/9153873/pictures/preview-6.jpeg"}, {"id": 9387937, "nr": 7, "picture": "https://images.pexels.com/videos/9153873/pictures/preview-7.jpeg"}, {"id": 9387943, "nr": 8, "picture": "https://images.pexels.com/videos/9153873/pictures/preview-8.jpeg"}, {"id": 9387948, "nr": 9, "picture": "https://images.pexels.com/videos/9153873/pictures/preview-9.jpeg"}, {"id": 9387953, "nr": 10, "picture": "https://images.pexels.com/videos/9153873/pictures/preview-10.jpeg"}, {"id": 9387960, "nr": 11, "picture": "https://images.pexels.com/videos/9153873/pictures/preview-11.jpeg"}, {"id": 9387963, "nr": 12, "picture": "https://images.pexels.com/videos/9153873/pictures/preview-12.jpeg"}, {"id": 9387968, "nr": 13, "picture": "https://images.pexels.com/videos/9153873/pictures/preview-13.jpeg"}, {"id": 9387975, "nr": 14, "picture": "https://images.pexels.com/videos/9153873/pictures/preview-14.jpeg"}]}], "total_results": 303, "next_page": "https://api.pexels.com/v1/videos/search/?orientation=portrait&page=2&per_page=8&query=digesting+insects", "url": "https://api-server.pexels.com/search/videos/digesting%20insects/"}, "timestamp": "2024-12-28T22:42:53.433034"}
