{"query": "tall tree", "response": {"page": 1, "per_page": 8, "videos": [{"id": 6010317, "width": 2160, "height": 3840, "duration": 9, "full_res": null, "tags": [], "url": "https://www.pexels.com/video/a-palm-tree-against-blue-sky-6010317/", "image": "https://images.pexels.com/videos/6010317/pexels-photo-6010317.jpeg?auto=compress&cs=tinysrgb&fit=crop&h=1200&w=630", "avg_color": null, "user": {"id": 3088726, "name": "Tima Miroshnichenko", "url": "https://www.pexels.com/@tima-miroshnichenko"}, "video_files": [{"id": 9892596, "quality": "hd", "file_type": "video/mp4", "width": 720, "height": 1280, "fps": 25.0, "link": "https://videos.pexels.com/video-files/6010317/6010317-hd_720_1280_25fps.mp4", "size": 2838725}, {"id": 9892928, "quality": "sd", "file_type": "video/mp4", "width": 240, "height": 426, "fps": 25.0, "link": "https://videos.pexels.com/video-files/6010317/6010317-sd_240_426_25fps.mp4", "size": 349283}, {"id": 9893635, "quality": "hd", "file_type": "video/mp4", "width": 1080, "height": 1920, "fps": 25.0, "link": "https://videos.pexels.com/video-files/6010317/6010317-hd_1080_1920_25fps.mp4", "size": 5610616}, {"id": 9893873, "quality": "uhd", "file_type": "video/mp4", "width": 1440, "height": 2560, "fps": 25.0, "link": "https://videos.pexels.com/video-files/6010317/6010317-uhd_1440_2560_25fps.mp4", "size": 13485929}, {"id": 9894154, "quality": "sd", "file_type": "video/mp4", "width": 540, "height": 960, "fps": 25.0, "link": "https://videos.pexels.com/video-files/6010317/6010317-sd_540_960_25fps.mp4", "size": 1712872}, {"id": 9894462, "quality": "sd", "file_type": "video/mp4", "width": 360, "height": 640, "fps": 25.0, "link": "https://videos.pexels.com/video-files/6010317/6010317-sd_360_640_25fps.mp4", "size": 572526}, {"id": 9894828, "quality": "uhd", "file_type": "video/mp4", "width": 2160, "height": 3840, "fps": 25.0, "link": "https://videos.pexels.com/video-files/6010317/6010317-uhd_2160_3840_25fps.mp4", "size": 25146944}], "video_pictures": [{"id": 3763291, "nr": 0, "picture": "https://images.pexels.com/videos/6010317/pictures/preview-0.jpeg"}, {"id": 3763293, "nr": 1, "picture": "https://images.pexels.com/videos/6010317/pictures/preview-1.jpeg"}, {"id": 3763296, "nr": 2, "picture": "https://images.pexels.com/videos/6010317/pictures/preview-2.jpeg"}, {"id": 3763298, "nr": 3, "picture": "https://images.pexels.com/videos/6010317/pictures/preview-3.jpeg"}, {"id": 3763299, "nr": 4, "picture": "https://images.pexels.com/videos/6010317/pictures/preview-4.jpeg"}, {"id": 3763300, "nr": 5, "picture": "https://images.pexels.com/videos/6010317/pictures/preview-5.jpeg"}, {"id": 3763301, "nr": 6, "picture": "https://images.pexels.com/videos/6010317/pictures/preview-6.jpeg"}, {"id": 3763302, "nr": 7, "picture": "https://images.pexels.com/videos/6010317/pictures/preview-7.jpeg"}, {"id": 3763303, "nr": 8, "picture": "https://images.pexels.com/videos/6010317/pictures/preview-8.jpeg"}, {"id": 3763304, "nr": 9, "picture": "https://images.pexels.com/videos/6010317/pictures/preview-9.jpeg"}, {"id": 3763305, "nr": 10, "picture": "https://images.pexels.com/videos/6010317/pictures/preview-10.jpeg"}, {"id": 3763306, "nr": 11, "picture": "https://images.pexels.com/videos/6010317/pictures/preview-11.jpeg"}, {"id": 3763307, "nr": 12, "picture": "https://images.pexels.com/videos/6010317/pictures/preview-12.jpeg"}, {"id": 3763309, "nr": 13, "picture": "https://images.pexels.com/videos/6010317/pictures/preview-13.jpeg"}, {"id": 3763311, "nr": 14, "picture": "https://images.pexels.com/videos/6010317/pictures/preview-14.jpeg"}]}, {"id": 5613311, "width": 1080, "height": 1920, "duration": 11, "full_res": null, "tags": [], "url": "https://www.pexels.com/video/a-coconut-tree-under-cloudy-sky-5613311/", "image": "https://images.pexels.com/videos/5613311/pexels-photo-5613311.jpeg?auto=compress&cs=tinysrgb&fit=crop&h=1200&w=630", "avg_color": null, "user": {"id": 2071672, "name": "Peggy Anke", "url": "https://www.pexels.com/@reisefreiheit"}, "video_files": [{"id": 9757708, "quality": "hd", "file_type": "video/mp4", "width": 720, "height": 1280, "fps": 29.969999313354492, "link": "https://videos.pexels.com/video-files/5613311/5613311-hd_720_1280_30fps.mp4", "size": 4143515}, {"id": 9757744, "quality": "sd", "file_type": "video/mp4", "width": 360, "height": 640, "fps": 29.969999313354492, "link": "https://videos.pexels.com/video-files/5613311/5613311-sd_360_640_30fps.mp4", "size": 770677}, {"id": 9757771, "quality": "sd", "file_type": "video/mp4", "width": 240, "height": 426, "fps": 29.969999313354492, "link": "https://videos.pexels.com/video-files/5613311/5613311-sd_240_426_30fps.mp4", "size": 486391}, {"id": 9757802, "quality": "hd", "file_type": "video/mp4", "width": 1080, "height": 1920, "fps": 29.969999313354492, "link": "https://videos.pexels.com/video-files/5613311/5613311-hd_1080_1920_30fps.mp4", "size": 8150696}, {"id": 9757845, "quality": "sd", "file_type": "video/mp4", "width": 540, "height": 960, "fps": 29.969999313354492, "link": "https://videos.pexels.com/video-files/5613311/5613311-sd_540_960_30fps.mp4", "size": 2015718}], "video_pictures": [{"id": 3085101, "nr": 0, "picture": "https://images.pexels.com/videos/5613311/pictures/preview-0.jpeg"}, {"id": 3085102, "nr": 1, "picture": "https://images.pexels.com/videos/5613311/pictures/preview-1.jpeg"}, {"id": 3085103, "nr": 2, "picture": "https://images.pexels.com/videos/5613311/pictures/preview-2.jpeg"}, {"id": 3085104, "nr": 3, "picture": "https://images.pexels.com/videos/5613311/pictures/preview-3.jpeg"}, {"id": 3085105, "nr": 4, "picture": "https://images.pexels.com/videos/5613311/pictures/preview-4.jpeg"}, {"id": 3085106, "nr": 5, "picture": "https://images.pexels.com/videos/5613311/pictures/preview-5.jpeg"}, {"id": 3085107, "nr": 6, "picture": "https://images.pexels.com/videos/5613311/pictures/preview-6.jpeg"}, {"id": 3085108, "nr": 7, "picture": "https://images.pexels.com/videos/5613311/pictures/preview-7.jpeg"}, {"id": 3085109, "nr": 8, "picture": "https://images.pexels.com/videos/5613311/pictures/preview-8.jpeg"}, {"id": 3085110, "nr": 9, "picture": "https://images.pexels.com/videos/5613311/pictures/preview-9.jpeg"}, {"id": 3085111, "nr": 10, "picture": "https://images.pexels.com/videos/5613311/pictures/preview-10.jpeg"}, {"id": 3085112, "nr": 11, "picture": "https://images.pexels.com/videos/5613311/pictures/preview-11.jpeg"}, {"id": 3085113, "nr": 12, "picture": "https://images.pexels.com/videos/5613311/pictures/preview-12.jpeg"}, {"id": 3085114, "nr": 13, "picture": "https://images.pexels.com/videos/5613311/pictures/preview-13.jpeg"}, {"id": 3085115, "nr": 14, "picture": "https://images.pexels.com/videos/5613311/pictures/preview-14.jpeg"}]}, {"id": 6178044, "width": 1080, "height": 2336, "duration": 6, "full_res": null, "tags": [], "url": "https://www.pexels.com/video/a-man-climbing-down-a-coconut-tree-6178044/", "image": "https://images.pexels.com/videos/6178044/climber-climbing-coconut-coconut-tree-6178044.jpeg?auto=compress&cs=tinysrgb&fit=crop&h=1200&w=630", "avg_color": null, "user": {"id": 3082651, "name": "Mamunur Rashid", "url": "https://www.pexels.com/@mamunur-rashid-3082651"}, "video_files": [{"id": 10001958, "quality": "hd", "file_type": "video/mp4", "width": 948, "height": 2048, "fps": 29.969999313354492, "link": "https://videos.pexels.com/video-files/6178044/6178044-hd_948_2048_30fps.mp4", "size": 3630964}, {"id": 10001975, "quality": "sd", "file_type": "video/mp4", "width": 198, "height": 426, "fps": 29.969999313354492, "link": "https://videos.pexels.com/video-files/6178044/6178044-sd_198_426_30fps.mp4", "size": 255936}, {"id": 10002020, "quality": "hd", "file_type": "video/mp4", "width": 632, "height": 1366, "fps": 29.969999313354492, "link": "https://videos.pexels.com/video-files/6178044/6178044-hd_632_1366_30fps.mp4", "size": 1893091}, {"id": 10002043, "quality": "sd", "file_type": "video/mp4", "width": 444, "height": 960, "fps": 29.969999313354492, "link": "https://videos.pexels.com/video-files/6178044/6178044-sd_444_960_30fps.mp4", "size": 1211685}, {"id": 10002137, "quality": "sd", "file_type": "video/mp4", "width": 296, "height": 640, "fps": 29.969999313354492, "link": "https://videos.pexels.com/video-files/6178044/6178044-sd_296_640_30fps.mp4", "size": 437537}], "video_pictures": [{"id": 4016353, "nr": 0, "picture": "https://images.pexels.com/videos/6178044/pictures/preview-0.jpeg"}, {"id": 4016370, "nr": 1, "picture": "https://images.pexels.com/videos/6178044/pictures/preview-1.jpeg"}, {"id": 4016386, "nr": 2, "picture": "https://images.pexels.com/videos/6178044/pictures/preview-2.jpeg"}, {"id": 4016405, "nr": 3, "picture": "https://images.pexels.com/videos/6178044/pictures/preview-3.jpeg"}, {"id": 4016422, "nr": 4, "picture": "https://images.pexels.com/videos/6178044/pictures/preview-4.jpeg"}, {"id": 4016443, "nr": 5, "picture": "https://images.pexels.com/videos/6178044/pictures/preview-5.jpeg"}, {"id": 4016462, "nr": 6, "picture": "https://images.pexels.com/videos/6178044/pictures/preview-6.jpeg"}, {"id": 4016480, "nr": 7, "picture": "https://images.pexels.com/videos/6178044/pictures/preview-7.jpeg"}, {"id": 4016494, "nr": 8, "picture": "https://images.pexels.com/videos/6178044/pictures/preview-8.jpeg"}, {"id": 4016502, "nr": 9, "picture": "https://images.pexels.com/videos/6178044/pictures/preview-9.jpeg"}, {"id": 4016508, "nr": 10, "picture": "https://images.pexels.com/videos/6178044/pictures/preview-10.jpeg"}, {"id": 4016513, "nr": 11, "picture": "https://images.pexels.com/videos/6178044/pictures/preview-11.jpeg"}, {"id": 4016516, "nr": 12, "picture": "https://images.pexels.com/videos/6178044/pictures/preview-12.jpeg"}, {"id": 4016518, "nr": 13, "picture": "https://images.pexels.com/videos/6178044/pictures/preview-13.jpeg"}, {"id": 4016520, "nr": 14, "picture": "https://images.pexels.com/videos/6178044/pictures/preview-14.jpeg"}]}, {"id": 6284632, "width": 2160, "height": 4096, "duration": 9, "full_res": null, "tags": [], "url": "https://www.pexels.com/video/a-couple-pointing-at-the-cathedral-6284632/", "image": "https://images.pexels.com/videos/6284632/pexels-photo-6284632.jpeg?auto=compress&cs=tinysrgb&fit=crop&h=1200&w=630", "avg_color": null, "user": {"id": 1437723, "name": "cottonbro studio", "url": "https://www.pexels.com/@cottonbro"}, "video_files": [{"id": 9992001, "quality": "sd", "file_type": "video/mp4", "width": 506, "height": 960, "fps": 25.0, "link": "https://videos.pexels.com/video-files/6284632/6284632-sd_506_960_25fps.mp4", "size": 1648255}, {"id": 9992019, "quality": "hd", "file_type": "video/mp4", "width": 1080, "height": 2048, "fps": 25.0, "link": "https://videos.pexels.com/video-files/6284632/6284632-hd_1080_2048_25fps.mp4", "size": 5433808}, {"id": 9992036, "quality": "sd", "file_type": "video/mp4", "width": 338, "height": 640, "fps": 25.0, "link": "https://videos.pexels.com/video-files/6284632/6284632-sd_338_640_25fps.mp4", "size": 554772}, {"id": 9992049, "quality": "sd", "file_type": "video/mp4", "width": 226, "height": 426, "fps": 25.0, "link": "https://videos.pexels.com/video-files/6284632/6284632-sd_226_426_25fps.mp4", "size": 338338}, {"id": 9992064, "quality": "hd", "file_type": "video/mp4", "width": 720, "height": 1366, "fps": 25.0, "link": "https://videos.pexels.com/video-files/6284632/6284632-hd_720_1366_25fps.mp4", "size": 2716687}, {"id": 9992078, "quality": "uhd", "file_type": "video/mp4", "width": 2160, "height": 4096, "fps": 25.0, "link": "https://videos.pexels.com/video-files/6284632/6284632-uhd_2160_4096_25fps.mp4", "size": 24870991}, {"id": 9992091, "quality": "uhd", "file_type": "video/mp4", "width": 1440, "height": 2732, "fps": 25.0, "link": "https://videos.pexels.com/video-files/6284632/6284632-uhd_1440_2732_25fps.mp4", "size": 13311884}], "video_pictures": [{"id": 4225136, "nr": 0, "picture": "https://images.pexels.com/videos/6284632/pictures/preview-0.jpg"}, {"id": 4225143, "nr": 0, "picture": "https://images.pexels.com/videos/6284632/pictures/preview-0.jpg"}, {"id": 4225146, "nr": 1, "picture": "https://images.pexels.com/videos/6284632/pictures/preview-1.jpg"}, {"id": 4225154, "nr": 2, "picture": "https://images.pexels.com/videos/6284632/pictures/preview-2.jpg"}, {"id": 4225157, "nr": 1, "picture": "https://images.pexels.com/videos/6284632/pictures/preview-1.jpg"}, {"id": 4225166, "nr": 2, "picture": "https://images.pexels.com/videos/6284632/pictures/preview-2.jpg"}, {"id": 4225167, "nr": 3, "picture": "https://images.pexels.com/videos/6284632/pictures/preview-3.jpg"}, {"id": 4225177, "nr": 4, "picture": "https://images.pexels.com/videos/6284632/pictures/preview-4.jpg"}, {"id": 4225178, "nr": 3, "picture": "https://images.pexels.com/videos/6284632/pictures/preview-3.jpg"}, {"id": 4225189, "nr": 4, "picture": "https://images.pexels.com/videos/6284632/pictures/preview-4.jpg"}, {"id": 4225193, "nr": 5, "picture": "https://images.pexels.com/videos/6284632/pictures/preview-5.jpg"}, {"id": 4225206, "nr": 6, "picture": "https://images.pexels.com/videos/6284632/pictures/preview-6.jpg"}, {"id": 4225214, "nr": 5, "picture": "https://images.pexels.com/videos/6284632/pictures/preview-5.jpg"}, {"id": 4225218, "nr": 7, "picture": "https://images.pexels.com/videos/6284632/pictures/preview-7.jpg"}, {"id": 4225228, "nr": 8, "picture": "https://images.pexels.com/videos/6284632/pictures/preview-8.jpg"}, {"id": 4225229, "nr": 6, "picture": "https://images.pexels.com/videos/6284632/pictures/preview-6.jpg"}, {"id": 4225241, "nr": 7, "picture": "https://images.pexels.com/videos/6284632/pictures/preview-7.jpg"}, {"id": 4225242, "nr": 9, "picture": "https://images.pexels.com/videos/6284632/pictures/preview-9.jpg"}, {"id": 4225252, "nr": 8, "picture": "https://images.pexels.com/videos/6284632/pictures/preview-8.jpg"}, {"id": 4225257, "nr": 10, "picture": "https://images.pexels.com/videos/6284632/pictures/preview-10.jpg"}, {"id": 4225265, "nr": 9, "picture": "https://images.pexels.com/videos/6284632/pictures/preview-9.jpg"}, {"id": 4225271, "nr": 11, "picture": "https://images.pexels.com/videos/6284632/pictures/preview-11.jpg"}, {"id": 4225278, "nr": 10, "picture": "https://images.pexels.com/videos/6284632/pictures/preview-10.jpg"}, {"id": 4225284, "nr": 12, "picture": "https://images.pexels.com/videos/6284632/pictures/preview-12.jpg"}, {"id": 4225292, "nr": 11, "picture": "https://images.pexels.com/videos/6284632/pictures/preview-11.jpg"}, {"id": 4225296, "nr": 13, "picture": "https://images.pexels.com/videos/6284632/pictures/preview-13.jpg"}, {"id": 4225308, "nr": 14, "picture": "https://images.pexels.com/videos/6284632/pictures/preview-14.jpg"}, {"id": 4225310, "nr": 12, "picture": "https://images.pexels.com/videos/6284632/pictures/preview-12.jpg"}, {"id": 4225322, "nr": 13, "picture": "https://images.pexels.com/videos/6284632/pictures/preview-13.jpg"}, {"id": 4225330, "nr": 14, "picture": "https://images.pexels.com/videos/6284632/pictures/preview-14.jpg"}]}, {"id": 6578985, "width": 2363, "height": 4096, "duration": 9, "full_res": null, "tags": [], "url": "https://www.pexels.com/video/silhouette-footage-of-a-person-standing-beside-a-bench-6578985/", "image": "https://images.pexels.com/videos/6578985/pexels-photo-6578985.jpeg?auto=compress&cs=tinysrgb&fit=crop&h=1200&w=630", "avg_color": null, "user": {"id": 2678846, "name": "ROMAN ODINTSOV", "url": "https://www.pexels.com/@roman-odintsov"}, "video_files": [{"id": 10088043, "quality": "uhd", "file_type": "video/mp4", "width": 1440, "height": 2496, "fps": 29.969999313354492, "link": "https://videos.pexels.com/video-files/6578985/6578985-uhd_1440_2496_30fps.mp4", "size": 13998833}, {"id": 10088104, "quality": "sd", "file_type": "video/mp4", "width": 540, "height": 936, "fps": 29.969999313354492, "link": "https://videos.pexels.com/video-files/6578985/6578985-sd_540_936_30fps.mp4", "size": 1838822}, {"id": 10088167, "quality": "hd", "file_type": "video/mp4", "width": 1080, "height": 1872, "fps": 29.969999313354492, "link": "https://videos.pexels.com/video-files/6578985/6578985-hd_1080_1872_30fps.mp4", "size": 5810442}, {"id": 10088238, "quality": "sd", "file_type": "video/mp4", "width": 360, "height": 624, "fps": 29.969999313354492, "link": "https://videos.pexels.com/video-files/6578985/6578985-sd_360_624_30fps.mp4", "size": 660747}, {"id": 10088276, "quality": "uhd", "file_type": "video/mp4", "width": 2160, "height": 3744, "fps": 29.969999313354492, "link": "https://videos.pexels.com/video-files/6578985/6578985-uhd_2160_3744_30fps.mp4", "size": 25116635}, {"id": 10088324, "quality": "sd", "file_type": "video/mp4", "width": 240, "height": 416, "fps": 29.969999313354492, "link": "https://videos.pexels.com/video-files/6578985/6578985-sd_240_416_30fps.mp4", "size": 390981}, {"id": 10088351, "quality": "hd", "file_type": "video/mp4", "width": 720, "height": 1248, "fps": 29.969999313354492, "link": "https://videos.pexels.com/video-files/6578985/6578985-hd_720_1248_30fps.mp4", "size": 3070355}], "video_pictures": [{"id": 4697536, "nr": 0, "picture": "https://images.pexels.com/videos/6578985/pictures/preview-0.jpeg"}, {"id": 4697540, "nr": 1, "picture": "https://images.pexels.com/videos/6578985/pictures/preview-1.jpeg"}, {"id": 4697545, "nr": 2, "picture": "https://images.pexels.com/videos/6578985/pictures/preview-2.jpeg"}, {"id": 4697551, "nr": 3, "picture": "https://images.pexels.com/videos/6578985/pictures/preview-3.jpeg"}, {"id": 4697557, "nr": 4, "picture": "https://images.pexels.com/videos/6578985/pictures/preview-4.jpeg"}, {"id": 4697565, "nr": 5, "picture": "https://images.pexels.com/videos/6578985/pictures/preview-5.jpeg"}, {"id": 4697570, "nr": 6, "picture": "https://images.pexels.com/videos/6578985/pictures/preview-6.jpeg"}, {"id": 4697574, "nr": 7, "picture": "https://images.pexels.com/videos/6578985/pictures/preview-7.jpeg"}, {"id": 4697580, "nr": 8, "picture": "https://images.pexels.com/videos/6578985/pictures/preview-8.jpeg"}, {"id": 4697588, "nr": 9, "picture": "https://images.pexels.com/videos/6578985/pictures/preview-9.jpeg"}, {"id": 4697594, "nr": 10, "picture": "https://images.pexels.com/videos/6578985/pictures/preview-10.jpeg"}, {"id": 4697601, "nr": 11, "picture": "https://images.pexels.com/videos/6578985/pictures/preview-11.jpeg"}, {"id": 4697605, "nr": 12, "picture": "https://images.pexels.com/videos/6578985/pictures/preview-12.jpeg"}, {"id": 4697607, "nr": 13, "picture": "https://images.pexels.com/videos/6578985/pictures/preview-13.jpeg"}, {"id": 4697609, "nr": 14, "picture": "https://images.pexels.com/videos/6578985/pictures/preview-14.jpeg"}]}, {"id": 7958072, "width": 2160, "height": 3840, "duration": 12, "full_res": null, "tags": [], "url": "https://www.pexels.com/video/man-hugging-a-tree-trunk-7958072/", "image": "https://images.pexels.com/videos/7958072/adult-art-color-couple-7958072.jpeg?auto=compress&cs=tinysrgb&fit=crop&h=1200&w=630", "avg_color": null, "user": {"id": 649765, "name": "Yaroslav Shuraev", "url": "https://www.pexels.com/@yaroslav-shuraev"}, "video_files": [{"id": 10630265, "quality": "uhd", "file_type": "video/mp4", "width": 1440, "height": 2560, "fps": 23.97599983215332, "link": "https://videos.pexels.com/video-files/7958072/7958072-uhd_1440_2560_24fps.mp4", "size": 8992676}, {"id": 10630318, "quality": "sd", "file_type": "video/mp4", "width": 240, "height": 426, "fps": 23.97599983215332, "link": "https://videos.pexels.com/video-files/7958072/7958072-sd_240_426_24fps.mp4", "size": 427223}, {"id": 10630459, "quality": "sd", "file_type": "video/mp4", "width": 540, "height": 960, "fps": 23.97599983215332, "link": "https://videos.pexels.com/video-files/7958072/7958072-sd_540_960_24fps.mp4", "size": 1473373}, {"id": 10630527, "quality": "hd", "file_type": "video/mp4", "width": 1080, "height": 1920, "fps": 23.97599983215332, "link": "https://videos.pexels.com/video-files/7958072/7958072-hd_1080_1920_24fps.mp4", "size": 5246619}, {"id": 10630628, "quality": "sd", "file_type": "video/mp4", "width": 360, "height": 640, "fps": 23.97599983215332, "link": "https://videos.pexels.com/video-files/7958072/7958072-sd_360_640_24fps.mp4", "size": 714582}, {"id": 10630769, "quality": "uhd", "file_type": "video/mp4", "width": 2160, "height": 3840, "fps": 23.97599983215332, "link": "https://videos.pexels.com/video-files/7958072/7958072-uhd_2160_3840_24fps.mp4", "size": 23786326}, {"id": 10630893, "quality": "hd", "file_type": "video/mp4", "width": 720, "height": 1280, "fps": 23.97599983215332, "link": "https://videos.pexels.com/video-files/7958072/7958072-hd_720_1280_24fps.mp4", "size": 2527172}], "video_pictures": [{"id": 7334979, "nr": 0, "picture": "https://images.pexels.com/videos/7958072/pictures/preview-0.jpeg"}, {"id": 7334992, "nr": 1, "picture": "https://images.pexels.com/videos/7958072/pictures/preview-1.jpeg"}, {"id": 7335003, "nr": 2, "picture": "https://images.pexels.com/videos/7958072/pictures/preview-2.jpeg"}, {"id": 7335014, "nr": 3, "picture": "https://images.pexels.com/videos/7958072/pictures/preview-3.jpeg"}, {"id": 7335029, "nr": 4, "picture": "https://images.pexels.com/videos/7958072/pictures/preview-4.jpeg"}, {"id": 7335037, "nr": 5, "picture": "https://images.pexels.com/videos/7958072/pictures/preview-5.jpeg"}, {"id": 7335048, "nr": 6, "picture": "https://images.pexels.com/videos/7958072/pictures/preview-6.jpeg"}, {"id": 7335057, "nr": 7, "picture": "https://images.pexels.com/videos/7958072/pictures/preview-7.jpeg"}, {"id": 7335075, "nr": 8, "picture": "https://images.pexels.com/videos/7958072/pictures/preview-8.jpeg"}, {"id": 7335092, "nr": 9, "picture": "https://images.pexels.com/videos/7958072/pictures/preview-9.jpeg"}, {"id": 7335100, "nr": 10, "picture": "https://images.pexels.com/videos/7958072/pictures/preview-10.jpeg"}, {"id": 7335119, "nr": 11, "picture": "https://images.pexels.com/videos/7958072/pictures/preview-11.jpeg"}, {"id": 7335139, "nr": 12, "picture": "https://images.pexels.com/videos/7958072/pictures/preview-12.jpeg"}, {"id": 7335159, "nr": 13, "picture": "https://images.pexels.com/videos/7958072/pictures/preview-13.jpeg"}, {"id": 7335175, "nr": 14, "picture": "https://images.pexels.com/videos/7958072/pictures/preview-14.jpeg"}]}, {"id": 5561612, "width": 2160, "height": 4096, "duration": 32, "full_res": null, "tags": [], "url": "https://www.pexels.com/video/woman-leaning-against-a-tall-tree-5561612/", "image": "https://images.pexels.com/videos/5561612/pexels-photo-5561612.jpeg?auto=compress&cs=tinysrgb&fit=crop&h=1200&w=630", "avg_color": null, "user": {"id": 1437723, "name": "cottonbro studio", "url": "https://www.pexels.com/@cottonbro"}, "video_files": [{"id": 9732195, "quality": "sd", "file_type": "video/mp4", "width": 506, "height": 960, "fps": 25.0, "link": "https://videos.pexels.com/video-files/5561612/5561612-sd_506_960_25fps.mp4", "size": 5352281}, {"id": 9732213, "quality": "uhd", "file_type": "video/mp4", "width": 1440, "height": 2732, "fps": 25.0, "link": "https://videos.pexels.com/video-files/5561612/5561612-uhd_1440_2732_25fps.mp4", "size": 43827048}, {"id": 9732255, "quality": "sd", "file_type": "video/mp4", "width": 338, "height": 640, "fps": 25.0, "link": "https://videos.pexels.com/video-files/5561612/5561612-sd_338_640_25fps.mp4", "size": 1912459}, {"id": 9732282, "quality": "hd", "file_type": "video/mp4", "width": 720, "height": 1366, "fps": 25.0, "link": "https://videos.pexels.com/video-files/5561612/5561612-hd_720_1366_25fps.mp4", "size": 10256718}, {"id": 9732320, "quality": "sd", "file_type": "video/mp4", "width": 226, "height": 426, "fps": 25.0, "link": "https://videos.pexels.com/video-files/5561612/5561612-sd_226_426_25fps.mp4", "size": 1205009}, {"id": 9732363, "quality": "uhd", "file_type": "video/mp4", "width": 2160, "height": 4096, "fps": 25.0, "link": "https://videos.pexels.com/video-files/5561612/5561612-uhd_2160_4096_25fps.mp4", "size": 82383662}, {"id": 9732392, "quality": "hd", "file_type": "video/mp4", "width": 1080, "height": 2048, "fps": 25.0, "link": "https://videos.pexels.com/video-files/5561612/5561612-hd_1080_2048_25fps.mp4", "size": 19056196}], "video_pictures": [{"id": 3007760, "nr": 0, "picture": "https://images.pexels.com/videos/5561612/pictures/preview-0.jpeg"}, {"id": 3007762, "nr": 1, "picture": "https://images.pexels.com/videos/5561612/pictures/preview-1.jpeg"}, {"id": 3007763, "nr": 2, "picture": "https://images.pexels.com/videos/5561612/pictures/preview-2.jpeg"}, {"id": 3007764, "nr": 3, "picture": "https://images.pexels.com/videos/5561612/pictures/preview-3.jpeg"}, {"id": 3007768, "nr": 4, "picture": "https://images.pexels.com/videos/5561612/pictures/preview-4.jpeg"}, {"id": 3007772, "nr": 5, "picture": "https://images.pexels.com/videos/5561612/pictures/preview-5.jpeg"}, {"id": 3007778, "nr": 6, "picture": "https://images.pexels.com/videos/5561612/pictures/preview-6.jpeg"}, {"id": 3007784, "nr": 7, "picture": "https://images.pexels.com/videos/5561612/pictures/preview-7.jpeg"}, {"id": 3007790, "nr": 8, "picture": "https://images.pexels.com/videos/5561612/pictures/preview-8.jpeg"}, {"id": 3007796, "nr": 9, "picture": "https://images.pexels.com/videos/5561612/pictures/preview-9.jpeg"}, {"id": 3007800, "nr": 10, "picture": "https://images.pexels.com/videos/5561612/pictures/preview-10.jpeg"}, {"id": 3007805, "nr": 11, "picture": "https://images.pexels.com/videos/5561612/pictures/preview-11.jpeg"}, {"id": 3007812, "nr": 12, "picture": "https://images.pexels.com/videos/5561612/pictures/preview-12.jpeg"}, {"id": 3007817, "nr": 13, "picture": "https://images.pexels.com/videos/5561612/pictures/preview-13.jpeg"}, {"id": 3007825, "nr": 14, "picture": "https://images.pexels.com/videos/5561612/pictures/preview-14.jpeg"}]}, {"id": 6025120, "width": 1080, "height": 1920, "duration": 17, "full_res": null, "tags": [], "url": "https://www.pexels.com/video/video-of-a-coconut-tree-6025120/", "image": "https://images.pexels.com/videos/6025120/pexels-photo-6025120.jpeg?auto=compress&cs=tinysrgb&fit=crop&h=1200&w=630", "avg_color": null, "user": {"id": 3086054, "name": "Luz Marina Gil Gonzalez", "url": "https://www.pexels.com/@luz-marina-gil-gonzalez-3086054"}, "video_files": [{"id": 9912149, "quality": "sd", "file_type": "video/mp4", "width": 360, "height": 640, "fps": 29.969999313354492, "link": "https://videos.pexels.com/video-files/6025120/6025120-sd_360_640_30fps.mp4", "size": 1139949}, {"id": 9912377, "quality": "sd", "file_type": "video/mp4", "width": 540, "height": 960, "fps": 29.969999313354492, "link": "https://videos.pexels.com/video-files/6025120/6025120-sd_540_960_30fps.mp4", "size": 2955493}, {"id": 9912456, "quality": "sd", "file_type": "video/mp4", "width": 240, "height": 426, "fps": 29.969999313354492, "link": "https://videos.pexels.com/video-files/6025120/6025120-sd_240_426_30fps.mp4", "size": 705591}, {"id": 9912572, "quality": "hd", "file_type": "video/mp4", "width": 720, "height": 1280, "fps": 29.969999313354492, "link": "https://videos.pexels.com/video-files/6025120/6025120-hd_720_1280_30fps.mp4", "size": 6004521}, {"id": 9912817, "quality": "hd", "file_type": "video/mp4", "width": 1080, "height": 1920, "fps": 29.969999313354492, "link": "https://videos.pexels.com/video-files/6025120/6025120-hd_1080_1920_30fps.mp4", "size": 11926803}], "video_pictures": [{"id": 3794754, "nr": 0, "picture": "https://images.pexels.com/videos/6025120/pictures/preview-0.jpeg"}, {"id": 3794755, "nr": 1, "picture": "https://images.pexels.com/videos/6025120/pictures/preview-1.jpeg"}, {"id": 3794756, "nr": 2, "picture": "https://images.pexels.com/videos/6025120/pictures/preview-2.jpeg"}, {"id": 3794757, "nr": 3, "picture": "https://images.pexels.com/videos/6025120/pictures/preview-3.jpeg"}, {"id": 3794758, "nr": 4, "picture": "https://images.pexels.com/videos/6025120/pictures/preview-4.jpeg"}, {"id": 3794759, "nr": 5, "picture": "https://images.pexels.com/videos/6025120/pictures/preview-5.jpeg"}, {"id": 3794760, "nr": 6, "picture": "https://images.pexels.com/videos/6025120/pictures/preview-6.jpeg"}, {"id": 3794761, "nr": 7, "picture": "https://images.pexels.com/videos/6025120/pictures/preview-7.jpeg"}, {"id": 3794762, "nr": 8, "picture": "https://images.pexels.com/videos/6025120/pictures/preview-8.jpeg"}, {"id": 3794763, "nr": 9, "picture": "https://images.pexels.com/videos/6025120/pictures/preview-9.jpeg"}, {"id": 3794764, "nr": 10, "picture": "https://images.pexels.com/videos/6025120/pictures/preview-10.jpeg"}, {"id": 3794765, "nr": 11, "picture": "https://images.pexels.com/videos/6025120/pictures/preview-11.jpeg"}, {"id": 3794766, "nr": 12, "picture": "https://images.pexels.com/videos/6025120/pictures/preview-12.jpeg"}, {"id": 3794767, "nr": 13, "picture": "https://images.pexels.com/videos/6025120/pictures/preview-13.jpeg"}, {"id": 3794768, "nr": 14, "picture": "https://images.pexels.com/videos/6025120/pictures/preview-14.jpeg"}]}], "total_results": 8000, "next_page": "https://api.pexels.com/v1/videos/search/?orientation=portrait&page=2&per_page=8&query=tall+tree", "url": "https://api-server.pexels.com/search/videos/tall%20tree/"}, "timestamp": "2024-12-28T22:42:50.726598"}
