{"query": "flowering plant", "response": {"page": 1, "per_page": 8, "videos": [{"id": 8233938, "width": 2160, "height": 4096, "duration": 13, "full_res": null, "tags": [], "url": "https://www.pexels.com/video/a-small-flower-near-whitewater-8233938/", "image": "https://images.pexels.com/videos/8233938/pexels-photo-8233938.jpeg?auto=compress&cs=tinysrgb&fit=crop&h=1200&w=630", "avg_color": null, "user": {"id": 2678846, "name": "ROMAN ODINTSOV", "url": "https://www.pexels.com/@roman-odintsov"}, "video_files": [{"id": 10753056, "quality": "sd", "file_type": "video/mp4", "width": 226, "height": 426, "fps": 25.0, "link": "https://videos.pexels.com/video-files/8233938/8233938-sd_226_426_25fps.mp4", "size": 456955}, {"id": 10753134, "quality": "uhd", "file_type": "video/mp4", "width": 1440, "height": 2732, "fps": 25.0, "link": "https://videos.pexels.com/video-files/8233938/8233938-uhd_1440_2732_25fps.mp4", "size": 12638404}, {"id": 10753153, "quality": "hd", "file_type": "video/mp4", "width": 1080, "height": 2048, "fps": 25.0, "link": "https://videos.pexels.com/video-files/8233938/8233938-hd_1080_2048_25fps.mp4", "size": 7076891}, {"id": 10753204, "quality": "hd", "file_type": "video/mp4", "width": 720, "height": 1366, "fps": 25.0, "link": "https://videos.pexels.com/video-files/8233938/8233938-hd_720_1366_25fps.mp4", "size": 2969360}, {"id": 10753214, "quality": "uhd", "file_type": "video/mp4", "width": 2160, "height": 4096, "fps": 25.0, "link": "https://videos.pexels.com/video-files/8233938/8233938-uhd_2160_4096_25fps.mp4", "size": 32160133}, {"id": 10753234, "quality": "sd", "file_type": "video/mp4", "width": 506, "height": 960, "fps": 25.0, "link": "https://videos.pexels.com/video-files/8233938/8233938-sd_506_960_25fps.mp4", "size": 1556064}, {"id": 10753242, "quality": "sd", "file_type": "video/mp4", "width": 338, "height": 640, "fps": 25.0, "link": "https://videos.pexels.com/video-files/8233938/8233938-sd_338_640_25fps.mp4", "size": 713597}], "video_pictures": [{"id": 7865458, "nr": 0, "picture": "https://images.pexels.com/videos/8233938/pictures/preview-0.jpeg"}, {"id": 7865473, "nr": 1, "picture": "https://images.pexels.com/videos/8233938/pictures/preview-1.jpeg"}, {"id": 7865488, "nr": 2, "picture": "https://images.pexels.com/videos/8233938/pictures/preview-2.jpeg"}, {"id": 7865509, "nr": 3, "picture": "https://images.pexels.com/videos/8233938/pictures/preview-3.jpeg"}, {"id": 7865533, "nr": 4, "picture": "https://images.pexels.com/videos/8233938/pictures/preview-4.jpeg"}, {"id": 7865554, "nr": 5, "picture": "https://images.pexels.com/videos/8233938/pictures/preview-5.jpeg"}, {"id": 7865577, "nr": 6, "picture": "https://images.pexels.com/videos/8233938/pictures/preview-6.jpeg"}, {"id": 7865614, "nr": 7, "picture": "https://images.pexels.com/videos/8233938/pictures/preview-7.jpeg"}, {"id": 7865648, "nr": 8, "picture": "https://images.pexels.com/videos/8233938/pictures/preview-8.jpeg"}, {"id": 7865672, "nr": 9, "picture": "https://images.pexels.com/videos/8233938/pictures/preview-9.jpeg"}, {"id": 7865703, "nr": 10, "picture": "https://images.pexels.com/videos/8233938/pictures/preview-10.jpeg"}, {"id": 7865727, "nr": 11, "picture": "https://images.pexels.com/videos/8233938/pictures/preview-11.jpeg"}, {"id": 7865757, "nr": 12, "picture": "https://images.pexels.com/videos/8233938/pictures/preview-12.jpeg"}, {"id": 7865776, "nr": 13, "picture": "https://images.pexels.com/videos/8233938/pictures/preview-13.jpeg"}, {"id": 7865796, "nr": 14, "picture": "https://images.pexels.com/videos/8233938/pictures/preview-14.jpeg"}]}, {"id": 3176704, "width": 1080, "height": 1920, "duration": 20, "full_res": null, "tags": [], "url": "https://www.pexels.com/video/a-pink-rose-in-full-bloom-swaying-by-the-wind-blows-3176704/", "image": "https://images.pexels.com/videos/3176704/free-video-3176704.jpg?auto=compress&cs=tinysrgb&fit=crop&h=1200&w=630", "avg_color": null, "user": {"id": 1611131, "name": "Diego da Silva", "url": "https://www.pexels.com/@diego-da-silva-1611131"}, "video_files": [{"id": 9315164, "quality": "sd", "file_type": "video/mp4", "width": 540, "height": 960, "fps": 29.969999313354492, "link": "https://videos.pexels.com/video-files/3176704/3176704-sd_540_960_30fps.mp4", "size": 3298943}, {"id": 9315281, "quality": "hd", "file_type": "video/mp4", "width": 1080, "height": 1920, "fps": 29.969999313354492, "link": "https://videos.pexels.com/video-files/3176704/3176704-hd_1080_1920_30fps.mp4", "size": 10097010}, {"id": 9315338, "quality": "sd", "file_type": "video/mp4", "width": 240, "height": 426, "fps": 29.969999313354492, "link": "https://videos.pexels.com/video-files/3176704/3176704-sd_240_426_30fps.mp4", "size": 892100}, {"id": 9315400, "quality": "hd", "file_type": "video/mp4", "width": 720, "height": 1280, "fps": 29.969999313354492, "link": "https://videos.pexels.com/video-files/3176704/3176704-hd_720_1280_30fps.mp4", "size": 5058626}, {"id": 9315493, "quality": "sd", "file_type": "video/mp4", "width": 360, "height": 640, "fps": 29.969999313354492, "link": "https://videos.pexels.com/video-files/3176704/3176704-sd_360_640_30fps.mp4", "size": 1476365}], "video_pictures": [{"id": 565767, "nr": 0, "picture": "https://images.pexels.com/videos/3176704/pictures/preview-0.jpeg"}, {"id": 565768, "nr": 1, "picture": "https://images.pexels.com/videos/3176704/pictures/preview-1.jpeg"}, {"id": 565769, "nr": 2, "picture": "https://images.pexels.com/videos/3176704/pictures/preview-2.jpeg"}, {"id": 565770, "nr": 3, "picture": "https://images.pexels.com/videos/3176704/pictures/preview-3.jpeg"}, {"id": 565771, "nr": 4, "picture": "https://images.pexels.com/videos/3176704/pictures/preview-4.jpeg"}, {"id": 565772, "nr": 5, "picture": "https://images.pexels.com/videos/3176704/pictures/preview-5.jpeg"}, {"id": 565773, "nr": 6, "picture": "https://images.pexels.com/videos/3176704/pictures/preview-6.jpeg"}, {"id": 565774, "nr": 7, "picture": "https://images.pexels.com/videos/3176704/pictures/preview-7.jpeg"}, {"id": 565775, "nr": 8, "picture": "https://images.pexels.com/videos/3176704/pictures/preview-8.jpeg"}, {"id": 565776, "nr": 9, "picture": "https://images.pexels.com/videos/3176704/pictures/preview-9.jpeg"}, {"id": 565777, "nr": 10, "picture": "https://images.pexels.com/videos/3176704/pictures/preview-10.jpeg"}, {"id": 565778, "nr": 11, "picture": "https://images.pexels.com/videos/3176704/pictures/preview-11.jpeg"}, {"id": 565779, "nr": 12, "picture": "https://images.pexels.com/videos/3176704/pictures/preview-12.jpeg"}, {"id": 565780, "nr": 13, "picture": "https://images.pexels.com/videos/3176704/pictures/preview-13.jpeg"}, {"id": 565781, "nr": 14, "picture": "https://images.pexels.com/videos/3176704/pictures/preview-14.jpeg"}]}, {"id": 6701932, "width": 1080, "height": 1920, "duration": 9, "full_res": null, "tags": [], "url": "https://www.pexels.com/video/a-brown-butterfly-on-a-flower-6701932/", "image": "https://images.pexels.com/videos/6701932/butterfly-helping-pollination-butterfly-on-a-flower-pollination-6701932.jpeg?auto=compress&cs=tinysrgb&fit=crop&h=1200&w=630", "avg_color": null, "user": {"id": 3359314, "name": "Malabika Borah", "url": "https://www.pexels.com/@chance4clicks"}, "video_files": [{"id": 10149299, "quality": "sd", "file_type": "video/mp4", "width": 540, "height": 960, "fps": 29.00200080871582, "link": "https://videos.pexels.com/video-files/6701932/6701932-sd_540_960_29fps.mp4", "size": 1795523}, {"id": 10149328, "quality": "hd", "file_type": "video/mp4", "width": 1080, "height": 1920, "fps": 29.00200080871582, "link": "https://videos.pexels.com/video-files/6701932/6701932-hd_1080_1920_29fps.mp4", "size": 5222912}, {"id": 10149358, "quality": "sd", "file_type": "video/mp4", "width": 240, "height": 426, "fps": 29.00200080871582, "link": "https://videos.pexels.com/video-files/6701932/6701932-sd_240_426_29fps.mp4", "size": 382061}, {"id": 10149378, "quality": "hd", "file_type": "video/mp4", "width": 720, "height": 1280, "fps": 29.00200080871582, "link": "https://videos.pexels.com/video-files/6701932/6701932-hd_720_1280_29fps.mp4", "size": 2762773}, {"id": 10149399, "quality": "sd", "file_type": "video/mp4", "width": 360, "height": 640, "fps": 29.00200080871582, "link": "https://videos.pexels.com/video-files/6701932/6701932-sd_360_640_29fps.mp4", "size": 651852}], "video_pictures": [{"id": 4966097, "nr": 0, "picture": "https://images.pexels.com/videos/6701932/pictures/preview-0.jpeg"}, {"id": 4966098, "nr": 1, "picture": "https://images.pexels.com/videos/6701932/pictures/preview-1.jpeg"}, {"id": 4966099, "nr": 2, "picture": "https://images.pexels.com/videos/6701932/pictures/preview-2.jpeg"}, {"id": 4966100, "nr": 3, "picture": "https://images.pexels.com/videos/6701932/pictures/preview-3.jpeg"}, {"id": 4966101, "nr": 4, "picture": "https://images.pexels.com/videos/6701932/pictures/preview-4.jpeg"}, {"id": 4966102, "nr": 5, "picture": "https://images.pexels.com/videos/6701932/pictures/preview-5.jpeg"}, {"id": 4966103, "nr": 6, "picture": "https://images.pexels.com/videos/6701932/pictures/preview-6.jpeg"}, {"id": 4966104, "nr": 7, "picture": "https://images.pexels.com/videos/6701932/pictures/preview-7.jpeg"}, {"id": 4966106, "nr": 8, "picture": "https://images.pexels.com/videos/6701932/pictures/preview-8.jpeg"}, {"id": 4966108, "nr": 9, "picture": "https://images.pexels.com/videos/6701932/pictures/preview-9.jpeg"}, {"id": 4966110, "nr": 10, "picture": "https://images.pexels.com/videos/6701932/pictures/preview-10.jpeg"}, {"id": 4966112, "nr": 11, "picture": "https://images.pexels.com/videos/6701932/pictures/preview-11.jpeg"}, {"id": 4966114, "nr": 12, "picture": "https://images.pexels.com/videos/6701932/pictures/preview-12.jpeg"}, {"id": 4966116, "nr": 13, "picture": "https://images.pexels.com/videos/6701932/pictures/preview-13.jpeg"}, {"id": 4966117, "nr": 14, "picture": "https://images.pexels.com/videos/6701932/pictures/preview-14.jpeg"}]}, {"id": 6907162, "width": 1080, "height": 1920, "duration": 10, "full_res": null, "tags": [], "url": "https://www.pexels.com/video/a-shadow-of-a-hand-holding-a-plant-6907162/", "image": "https://images.pexels.com/videos/6907162/aesthetic-blossom-flora-book-cherry-blossom-6907162.jpeg?auto=compress&cs=tinysrgb&fit=crop&h=1200&w=630", "avg_color": null, "user": {"id": 2946790, "name": "Leeloo The First", "url": "https://www.pexels.com/@leeloothefirst"}, "video_files": [{"id": 10221106, "quality": "sd", "file_type": "video/mp4", "width": 240, "height": 426, "fps": 29.969999313354492, "link": "https://videos.pexels.com/video-files/6907162/6907162-sd_240_426_30fps.mp4", "size": 451887}, {"id": 10221190, "quality": "hd", "file_type": "video/mp4", "width": 720, "height": 1280, "fps": 29.969999313354492, "link": "https://videos.pexels.com/video-files/6907162/6907162-hd_720_1280_30fps.mp4", "size": 3356948}, {"id": 10221286, "quality": "hd", "file_type": "video/mp4", "width": 1080, "height": 1920, "fps": 29.969999313354492, "link": "https://videos.pexels.com/video-files/6907162/6907162-hd_1080_1920_30fps.mp4", "size": 6318646}, {"id": 10221347, "quality": "sd", "file_type": "video/mp4", "width": 360, "height": 640, "fps": 29.969999313354492, "link": "https://videos.pexels.com/video-files/6907162/6907162-sd_360_640_30fps.mp4", "size": 758659}, {"id": 10221385, "quality": "sd", "file_type": "video/mp4", "width": 540, "height": 960, "fps": 29.969999313354492, "link": "https://videos.pexels.com/video-files/6907162/6907162-sd_540_960_30fps.mp4", "size": 2141826}], "video_pictures": [{"id": 5341447, "nr": 0, "picture": "https://images.pexels.com/videos/6907162/pictures/preview-0.jpeg"}, {"id": 5341464, "nr": 1, "picture": "https://images.pexels.com/videos/6907162/pictures/preview-1.jpeg"}, {"id": 5341484, "nr": 2, "picture": "https://images.pexels.com/videos/6907162/pictures/preview-2.jpeg"}, {"id": 5341509, "nr": 3, "picture": "https://images.pexels.com/videos/6907162/pictures/preview-3.jpeg"}, {"id": 5341535, "nr": 4, "picture": "https://images.pexels.com/videos/6907162/pictures/preview-4.jpeg"}, {"id": 5341560, "nr": 5, "picture": "https://images.pexels.com/videos/6907162/pictures/preview-5.jpeg"}, {"id": 5341580, "nr": 6, "picture": "https://images.pexels.com/videos/6907162/pictures/preview-6.jpeg"}, {"id": 5341600, "nr": 7, "picture": "https://images.pexels.com/videos/6907162/pictures/preview-7.jpeg"}, {"id": 5341623, "nr": 8, "picture": "https://images.pexels.com/videos/6907162/pictures/preview-8.jpeg"}, {"id": 5341646, "nr": 9, "picture": "https://images.pexels.com/videos/6907162/pictures/preview-9.jpeg"}, {"id": 5341669, "nr": 10, "picture": "https://images.pexels.com/videos/6907162/pictures/preview-10.jpeg"}, {"id": 5341693, "nr": 11, "picture": "https://images.pexels.com/videos/6907162/pictures/preview-11.jpeg"}, {"id": 5341707, "nr": 12, "picture": "https://images.pexels.com/videos/6907162/pictures/preview-12.jpeg"}, {"id": 5341718, "nr": 13, "picture": "https://images.pexels.com/videos/6907162/pictures/preview-13.jpeg"}, {"id": 5341722, "nr": 14, "picture": "https://images.pexels.com/videos/6907162/pictures/preview-14.jpeg"}]}, {"id": 5594116, "width": 1080, "height": 1920, "duration": 16, "full_res": null, "tags": [], "url": "https://www.pexels.com/video/close-up-view-of-a-white-daisy-5594116/", "image": "https://images.pexels.com/videos/5594116/pexels-photo-5594116.jpeg?auto=compress&cs=tinysrgb&fit=crop&h=1200&w=630", "avg_color": null, "user": {"id": 2516744, "name": "Evelyne Herbin", "url": "https://www.pexels.com/@evelyne-herbin-2516744"}, "video_files": [{"id": 9753652, "quality": "hd", "file_type": "video/mp4", "width": 1080, "height": 1920, "fps": 29.969999313354492, "link": "https://videos.pexels.com/video-files/5594116/5594116-hd_1080_1920_30fps.mp4", "size": 11674293}, {"id": 9753845, "quality": "sd", "file_type": "video/mp4", "width": 360, "height": 640, "fps": 29.969999313354492, "link": "https://videos.pexels.com/video-files/5594116/5594116-sd_360_640_30fps.mp4", "size": 1231349}, {"id": 9753948, "quality": "sd", "file_type": "video/mp4", "width": 240, "height": 426, "fps": 29.969999313354492, "link": "https://videos.pexels.com/video-files/5594116/5594116-sd_240_426_30fps.mp4", "size": 742668}, {"id": 9754069, "quality": "sd", "file_type": "video/mp4", "width": 540, "height": 960, "fps": 29.969999313354492, "link": "https://videos.pexels.com/video-files/5594116/5594116-sd_540_960_30fps.mp4", "size": 3306287}, {"id": 9754254, "quality": "hd", "file_type": "video/mp4", "width": 720, "height": 1280, "fps": 29.969999313354492, "link": "https://videos.pexels.com/video-files/5594116/5594116-hd_720_1280_30fps.mp4", "size": 6046494}], "video_pictures": [{"id": 3054385, "nr": 0, "picture": "https://images.pexels.com/videos/5594116/pictures/preview-0.jpeg"}, {"id": 3054386, "nr": 1, "picture": "https://images.pexels.com/videos/5594116/pictures/preview-1.jpeg"}, {"id": 3054387, "nr": 2, "picture": "https://images.pexels.com/videos/5594116/pictures/preview-2.jpeg"}, {"id": 3054388, "nr": 3, "picture": "https://images.pexels.com/videos/5594116/pictures/preview-3.jpeg"}, {"id": 3054389, "nr": 4, "picture": "https://images.pexels.com/videos/5594116/pictures/preview-4.jpeg"}, {"id": 3054390, "nr": 5, "picture": "https://images.pexels.com/videos/5594116/pictures/preview-5.jpeg"}, {"id": 3054391, "nr": 6, "picture": "https://images.pexels.com/videos/5594116/pictures/preview-6.jpeg"}, {"id": 3054392, "nr": 7, "picture": "https://images.pexels.com/videos/5594116/pictures/preview-7.jpeg"}, {"id": 3054393, "nr": 8, "picture": "https://images.pexels.com/videos/5594116/pictures/preview-8.jpeg"}, {"id": 3054394, "nr": 9, "picture": "https://images.pexels.com/videos/5594116/pictures/preview-9.jpeg"}, {"id": 3054395, "nr": 10, "picture": "https://images.pexels.com/videos/5594116/pictures/preview-10.jpeg"}, {"id": 3054396, "nr": 11, "picture": "https://images.pexels.com/videos/5594116/pictures/preview-11.jpeg"}, {"id": 3054397, "nr": 12, "picture": "https://images.pexels.com/videos/5594116/pictures/preview-12.jpeg"}, {"id": 3054398, "nr": 13, "picture": "https://images.pexels.com/videos/5594116/pictures/preview-13.jpeg"}, {"id": 3054399, "nr": 14, "picture": "https://images.pexels.com/videos/5594116/pictures/preview-14.jpeg"}]}, {"id": 6907150, "width": 1080, "height": 1920, "duration": 16, "full_res": null, "tags": [], "url": "https://www.pexels.com/video/a-shadow-of-a-plant-6907150/", "image": "https://images.pexels.com/videos/6907150/aesthetic-blossom-flora-book-cherry-blossom-6907150.jpeg?auto=compress&cs=tinysrgb&fit=crop&h=1200&w=630", "avg_color": null, "user": {"id": 2946790, "name": "Leeloo The First", "url": "https://www.pexels.com/@leeloothefirst"}, "video_files": [{"id": 10221055, "quality": "sd", "file_type": "video/mp4", "width": 240, "height": 426, "fps": 29.969999313354492, "link": "https://videos.pexels.com/video-files/6907150/6907150-sd_240_426_30fps.mp4", "size": 625741}, {"id": 10221142, "quality": "hd", "file_type": "video/mp4", "width": 1080, "height": 1920, "fps": 29.969999313354492, "link": "https://videos.pexels.com/video-files/6907150/6907150-hd_1080_1920_30fps.mp4", "size": 9757166}, {"id": 10221178, "quality": "hd", "file_type": "video/mp4", "width": 720, "height": 1280, "fps": 29.969999313354492, "link": "https://videos.pexels.com/video-files/6907150/6907150-hd_720_1280_30fps.mp4", "size": 4305621}, {"id": 10221221, "quality": "sd", "file_type": "video/mp4", "width": 360, "height": 640, "fps": 29.969999313354492, "link": "https://videos.pexels.com/video-files/6907150/6907150-sd_360_640_30fps.mp4", "size": 1222566}, {"id": 10221301, "quality": "sd", "file_type": "video/mp4", "width": 540, "height": 960, "fps": 29.969999313354492, "link": "https://videos.pexels.com/video-files/6907150/6907150-sd_540_960_30fps.mp4", "size": 2666791}], "video_pictures": [{"id": 5341469, "nr": 0, "picture": "https://images.pexels.com/videos/6907150/pictures/preview-0.jpeg"}, {"id": 5341482, "nr": 1, "picture": "https://images.pexels.com/videos/6907150/pictures/preview-1.jpeg"}, {"id": 5341501, "nr": 2, "picture": "https://images.pexels.com/videos/6907150/pictures/preview-2.jpeg"}, {"id": 5341528, "nr": 3, "picture": "https://images.pexels.com/videos/6907150/pictures/preview-3.jpeg"}, {"id": 5341546, "nr": 4, "picture": "https://images.pexels.com/videos/6907150/pictures/preview-4.jpeg"}, {"id": 5341569, "nr": 5, "picture": "https://images.pexels.com/videos/6907150/pictures/preview-5.jpeg"}, {"id": 5341590, "nr": 6, "picture": "https://images.pexels.com/videos/6907150/pictures/preview-6.jpeg"}, {"id": 5341614, "nr": 7, "picture": "https://images.pexels.com/videos/6907150/pictures/preview-7.jpeg"}, {"id": 5341636, "nr": 8, "picture": "https://images.pexels.com/videos/6907150/pictures/preview-8.jpeg"}, {"id": 5341663, "nr": 9, "picture": "https://images.pexels.com/videos/6907150/pictures/preview-9.jpeg"}, {"id": 5341686, "nr": 10, "picture": "https://images.pexels.com/videos/6907150/pictures/preview-10.jpeg"}, {"id": 5341704, "nr": 11, "picture": "https://images.pexels.com/videos/6907150/pictures/preview-11.jpeg"}, {"id": 5341716, "nr": 12, "picture": "https://images.pexels.com/videos/6907150/pictures/preview-12.jpeg"}, {"id": 5341724, "nr": 13, "picture": "https://images.pexels.com/videos/6907150/pictures/preview-13.jpeg"}, {"id": 5341727, "nr": 14, "picture": "https://images.pexels.com/videos/6907150/pictures/preview-14.jpeg"}]}, {"id": 8516671, "width": 2160, "height": 3840, "duration": 9, "full_res": null, "tags": [], "url": "https://www.pexels.com/video/a-shadow-of-a-hand-holding-small-flowers-8516671/", "image": "https://images.pexels.com/videos/8516671/abstract-animal-art-backdrop-8516671.jpeg?auto=compress&cs=tinysrgb&fit=crop&h=1200&w=630", "avg_color": null, "user": {"id": 10955896, "name": "Anna Nekrashevich", "url": "https://www.pexels.com/@anna-nekrashevich"}, "video_files": [{"id": 10873065, "quality": "hd", "file_type": "video/mp4", "width": 1080, "height": 1920, "fps": 30.0, "link": "https://videos.pexels.com/video-files/8516671/8516671-hd_1080_1920_30fps.mp4", "size": 5116561}, {"id": 10873103, "quality": "sd", "file_type": "video/mp4", "width": 240, "height": 426, "fps": 30.0, "link": "https://videos.pexels.com/video-files/8516671/8516671-sd_240_426_30fps.mp4", "size": 148104}, {"id": 10873271, "quality": "uhd", "file_type": "video/mp4", "width": 1440, "height": 2560, "fps": 30.0, "link": "https://videos.pexels.com/video-files/8516671/8516671-uhd_1440_2560_30fps.mp4", "size": 12011868}, {"id": 10873466, "quality": "sd", "file_type": "video/mp4", "width": 360, "height": 640, "fps": 30.0, "link": "https://videos.pexels.com/video-files/8516671/8516671-sd_360_640_30fps.mp4", "size": 514747}, {"id": 10873637, "quality": "uhd", "file_type": "video/mp4", "width": 2160, "height": 3840, "fps": 30.0, "link": "https://videos.pexels.com/video-files/8516671/8516671-uhd_2160_3840_30fps.mp4", "size": 22684421}, {"id": 10873792, "quality": "sd", "file_type": "video/mp4", "width": 540, "height": 960, "fps": 30.0, "link": "https://videos.pexels.com/video-files/8516671/8516671-sd_540_960_30fps.mp4", "size": 1542047}, {"id": 10873857, "quality": "hd", "file_type": "video/mp4", "width": 720, "height": 1280, "fps": 30.0, "link": "https://videos.pexels.com/video-files/8516671/8516671-hd_720_1280_30fps.mp4", "size": 2507862}], "video_pictures": [{"id": 8417566, "nr": 0, "picture": "https://images.pexels.com/videos/8516671/pictures/preview-0.jpeg"}, {"id": 8417577, "nr": 1, "picture": "https://images.pexels.com/videos/8516671/pictures/preview-1.jpeg"}, {"id": 8417589, "nr": 2, "picture": "https://images.pexels.com/videos/8516671/pictures/preview-2.jpeg"}, {"id": 8417606, "nr": 3, "picture": "https://images.pexels.com/videos/8516671/pictures/preview-3.jpeg"}, {"id": 8417620, "nr": 4, "picture": "https://images.pexels.com/videos/8516671/pictures/preview-4.jpeg"}, {"id": 8417636, "nr": 5, "picture": "https://images.pexels.com/videos/8516671/pictures/preview-5.jpeg"}, {"id": 8417654, "nr": 6, "picture": "https://images.pexels.com/videos/8516671/pictures/preview-6.jpeg"}, {"id": 8417667, "nr": 7, "picture": "https://images.pexels.com/videos/8516671/pictures/preview-7.jpeg"}, {"id": 8417681, "nr": 8, "picture": "https://images.pexels.com/videos/8516671/pictures/preview-8.jpeg"}, {"id": 8417695, "nr": 9, "picture": "https://images.pexels.com/videos/8516671/pictures/preview-9.jpeg"}, {"id": 8417711, "nr": 10, "picture": "https://images.pexels.com/videos/8516671/pictures/preview-10.jpeg"}, {"id": 8417726, "nr": 11, "picture": "https://images.pexels.com/videos/8516671/pictures/preview-11.jpeg"}, {"id": 8417741, "nr": 12, "picture": "https://images.pexels.com/videos/8516671/pictures/preview-12.jpeg"}, {"id": 8417754, "nr": 13, "picture": "https://images.pexels.com/videos/8516671/pictures/preview-13.jpeg"}, {"id": 8417765, "nr": 14, "picture": "https://images.pexels.com/videos/8516671/pictures/preview-14.jpeg"}]}, {"id": 7857385, "width": 2160, "height": 3840, "duration": 10, "full_res": null, "tags": [], "url": "https://www.pexels.com/video/beautiful-flowers-7857385/", "image": "https://images.pexels.com/videos/7857385/pexels-photo-7857385.jpeg?auto=compress&cs=tinysrgb&fit=crop&h=1200&w=630", "avg_color": null, "user": {"id": 48519361, "name": "Greta Hoffman", "url": "https://www.pexels.com/@greta-hoffman"}, "video_files": [{"id": 10598630, "quality": "hd", "file_type": "video/mp4", "width": 1080, "height": 1920, "fps": 23.97599983215332, "link": "https://videos.pexels.com/video-files/7857385/7857385-hd_1080_1920_24fps.mp4", "size": 5329276}, {"id": 10598656, "quality": "uhd", "file_type": "video/mp4", "width": 1440, "height": 2560, "fps": 23.97599983215332, "link": "https://videos.pexels.com/video-files/7857385/7857385-uhd_1440_2560_24fps.mp4", "size": 10549337}, {"id": 10598683, "quality": "sd", "file_type": "video/mp4", "width": 360, "height": 640, "fps": 23.97599983215332, "link": "https://videos.pexels.com/video-files/7857385/7857385-sd_360_640_24fps.mp4", "size": 578235}, {"id": 10598713, "quality": "sd", "file_type": "video/mp4", "width": 540, "height": 960, "fps": 23.97599983215332, "link": "https://videos.pexels.com/video-files/7857385/7857385-sd_540_960_24fps.mp4", "size": 1541947}, {"id": 10598743, "quality": "uhd", "file_type": "video/mp4", "width": 2160, "height": 3840, "fps": 23.97599983215332, "link": "https://videos.pexels.com/video-files/7857385/7857385-uhd_2160_3840_24fps.mp4", "size": 24778066}, {"id": 10598778, "quality": "hd", "file_type": "video/mp4", "width": 720, "height": 1280, "fps": 23.97599983215332, "link": "https://videos.pexels.com/video-files/7857385/7857385-hd_720_1280_24fps.mp4", "size": 2720208}, {"id": 10598826, "quality": "sd", "file_type": "video/mp4", "width": 240, "height": 426, "fps": 23.97599983215332, "link": "https://videos.pexels.com/video-files/7857385/7857385-sd_240_426_24fps.mp4", "size": 423597}], "video_pictures": [{"id": 7171862, "nr": 0, "picture": "https://images.pexels.com/videos/7857385/pictures/preview-0.jpeg"}, {"id": 7171873, "nr": 1, "picture": "https://images.pexels.com/videos/7857385/pictures/preview-1.jpeg"}, {"id": 7171883, "nr": 2, "picture": "https://images.pexels.com/videos/7857385/pictures/preview-2.jpeg"}, {"id": 7171893, "nr": 3, "picture": "https://images.pexels.com/videos/7857385/pictures/preview-3.jpeg"}, {"id": 7171905, "nr": 4, "picture": "https://images.pexels.com/videos/7857385/pictures/preview-4.jpeg"}, {"id": 7171921, "nr": 5, "picture": "https://images.pexels.com/videos/7857385/pictures/preview-5.jpeg"}, {"id": 7171940, "nr": 6, "picture": "https://images.pexels.com/videos/7857385/pictures/preview-6.jpeg"}, {"id": 7171962, "nr": 7, "picture": "https://images.pexels.com/videos/7857385/pictures/preview-7.jpeg"}, {"id": 7171981, "nr": 8, "picture": "https://images.pexels.com/videos/7857385/pictures/preview-8.jpeg"}, {"id": 7171998, "nr": 9, "picture": "https://images.pexels.com/videos/7857385/pictures/preview-9.jpeg"}, {"id": 7172016, "nr": 10, "picture": "https://images.pexels.com/videos/7857385/pictures/preview-10.jpeg"}, {"id": 7172036, "nr": 11, "picture": "https://images.pexels.com/videos/7857385/pictures/preview-11.jpeg"}, {"id": 7172055, "nr": 12, "picture": "https://images.pexels.com/videos/7857385/pictures/preview-12.jpeg"}, {"id": 7172074, "nr": 13, "picture": "https://images.pexels.com/videos/7857385/pictures/preview-13.jpeg"}, {"id": 7172096, "nr": 14, "picture": "https://images.pexels.com/videos/7857385/pictures/preview-14.jpeg"}]}], "total_results": 8000, "next_page": "https://api.pexels.com/v1/videos/search/?orientation=portrait&page=2&per_page=8&query=flowering+plant", "url": "https://api-server.pexels.com/search/videos/flowering%20plant/"}, "timestamp": "2024-12-28T22:37:04.778865"}
