{"query": "world record tree", "response": {"page": 1, "per_page": 8, "videos": [{"id": 7681542, "width": 2160, "height": 3840, "duration": 22, "full_res": null, "tags": [], "url": "https://www.pexels.com/video/a-puddle-of-water-7681542/", "image": "https://images.pexels.com/videos/7681542/abstract-art-beautiful-bird-7681542.jpeg?auto=compress&cs=tinysrgb&fit=crop&h=1200&w=630", "avg_color": null, "user": {"id": 3754792, "name": "Jill Burrow", "url": "https://www.pexels.com/@jill-burrow"}, "video_files": [{"id": 10538212, "quality": "hd", "file_type": "video/mp4", "width": 1080, "height": 1920, "fps": 24.0, "link": "https://videos.pexels.com/video-files/7681542/7681542-hd_1080_1920_24fps.mp4", "size": 16077291}, {"id": 10538253, "quality": "uhd", "file_type": "video/mp4", "width": 1440, "height": 2560, "fps": 24.0, "link": "https://videos.pexels.com/video-files/7681542/7681542-uhd_1440_2560_24fps.mp4", "size": 35949228}, {"id": 10538275, "quality": "hd", "file_type": "video/mp4", "width": 720, "height": 1280, "fps": 24.0, "link": "https://videos.pexels.com/video-files/7681542/7681542-hd_720_1280_24fps.mp4", "size": 8471215}, {"id": 10538317, "quality": "sd", "file_type": "video/mp4", "width": 540, "height": 960, "fps": 24.0, "link": "https://videos.pexels.com/video-files/7681542/7681542-sd_540_960_24fps.mp4", "size": 4741496}, {"id": 10538361, "quality": "sd", "file_type": "video/mp4", "width": 360, "height": 640, "fps": 24.0, "link": "https://videos.pexels.com/video-files/7681542/7681542-sd_360_640_24fps.mp4", "size": 1738534}, {"id": 10538389, "quality": "uhd", "file_type": "video/mp4", "width": 2160, "height": 3840, "fps": 24.0, "link": "https://videos.pexels.com/video-files/7681542/7681542-uhd_2160_3840_24fps.mp4", "size": 56655412}], "video_pictures": [{"id": 6876536, "nr": 0, "picture": "https://images.pexels.com/videos/7681542/pictures/preview-0.jpeg"}, {"id": 6876565, "nr": 1, "picture": "https://images.pexels.com/videos/7681542/pictures/preview-1.jpeg"}, {"id": 6876607, "nr": 2, "picture": "https://images.pexels.com/videos/7681542/pictures/preview-2.jpeg"}, {"id": 6876640, "nr": 3, "picture": "https://images.pexels.com/videos/7681542/pictures/preview-3.jpeg"}, {"id": 6876681, "nr": 4, "picture": "https://images.pexels.com/videos/7681542/pictures/preview-4.jpeg"}, {"id": 6876722, "nr": 5, "picture": "https://images.pexels.com/videos/7681542/pictures/preview-5.jpeg"}, {"id": 6876760, "nr": 6, "picture": "https://images.pexels.com/videos/7681542/pictures/preview-6.jpeg"}, {"id": 6876798, "nr": 7, "picture": "https://images.pexels.com/videos/7681542/pictures/preview-7.jpeg"}, {"id": 6876825, "nr": 8, "picture": "https://images.pexels.com/videos/7681542/pictures/preview-8.jpeg"}, {"id": 6876865, "nr": 9, "picture": "https://images.pexels.com/videos/7681542/pictures/preview-9.jpeg"}, {"id": 6876891, "nr": 10, "picture": "https://images.pexels.com/videos/7681542/pictures/preview-10.jpeg"}, {"id": 6876923, "nr": 11, "picture": "https://images.pexels.com/videos/7681542/pictures/preview-11.jpeg"}, {"id": 6876946, "nr": 12, "picture": "https://images.pexels.com/videos/7681542/pictures/preview-12.jpeg"}, {"id": 6876967, "nr": 13, "picture": "https://images.pexels.com/videos/7681542/pictures/preview-13.jpeg"}, {"id": 6876995, "nr": 14, "picture": "https://images.pexels.com/videos/7681542/pictures/preview-14.jpeg"}]}, {"id": 27980502, "width": 1080, "height": 1920, "duration": 31, "full_res": null, "tags": [], "url": "https://www.pexels.com/video/a-waterfall-is-shown-in-this-photo-27980502/", "image": "https://images.pexels.com/videos/27980502/pexels-photo-27980502.jpeg?auto=compress&cs=tinysrgb&fit=crop&h=1200&w=630", "avg_color": null, "user": {"id": 956037374, "name": "Frekans  360\u2070", "url": "https://www.pexels.com/@frekans-360-956037374"}, "video_files": [{"id": 12280273, "quality": null, "file_type": "video/mp4", "width": 360, "height": 640, "fps": 30.0, "link": "https://videos.pexels.com/video-files/27980502/12280273_360_640_30fps.mp4", "size": 30205948}, {"id": 12280274, "quality": null, "file_type": "video/mp4", "width": 540, "height": 960, "fps": 30.0, "link": "https://videos.pexels.com/video-files/27980502/12280274_540_960_30fps.mp4", "size": 64068357}, {"id": 12280275, "quality": null, "file_type": "video/mp4", "width": 720, "height": 1280, "fps": 30.0, "link": "https://videos.pexels.com/video-files/27980502/12280275_720_1280_30fps.mp4", "size": 100122223}, {"id": 12280276, "quality": null, "file_type": "video/mp4", "width": 1080, "height": 1920, "fps": 30.0, "link": "https://videos.pexels.com/video-files/27980502/12280276_1080_1920_30fps.mp4", "size": 141876675}], "video_pictures": [{"id": 22793977, "nr": 0, "picture": "https://images.pexels.com/videos/27980502/pictures/preview-0.jpg"}, {"id": 22793978, "nr": 1, "picture": "https://images.pexels.com/videos/27980502/pictures/preview-1.jpg"}, {"id": 22793979, "nr": 2, "picture": "https://images.pexels.com/videos/27980502/pictures/preview-2.jpg"}, {"id": 22793980, "nr": 3, "picture": "https://images.pexels.com/videos/27980502/pictures/preview-3.jpg"}, {"id": 22793981, "nr": 4, "picture": "https://images.pexels.com/videos/27980502/pictures/preview-4.jpg"}, {"id": 22793982, "nr": 5, "picture": "https://images.pexels.com/videos/27980502/pictures/preview-5.jpg"}, {"id": 22793983, "nr": 6, "picture": "https://images.pexels.com/videos/27980502/pictures/preview-6.jpg"}, {"id": 22793984, "nr": 7, "picture": "https://images.pexels.com/videos/27980502/pictures/preview-7.jpg"}, {"id": 22793985, "nr": 8, "picture": "https://images.pexels.com/videos/27980502/pictures/preview-8.jpg"}, {"id": 22793986, "nr": 9, "picture": "https://images.pexels.com/videos/27980502/pictures/preview-9.jpg"}, {"id": 22793987, "nr": 10, "picture": "https://images.pexels.com/videos/27980502/pictures/preview-10.jpg"}, {"id": 22793988, "nr": 11, "picture": "https://images.pexels.com/videos/27980502/pictures/preview-11.jpg"}, {"id": 22793989, "nr": 12, "picture": "https://images.pexels.com/videos/27980502/pictures/preview-12.jpg"}, {"id": 22793990, "nr": 13, "picture": "https://images.pexels.com/videos/27980502/pictures/preview-13.jpg"}, {"id": 22793991, "nr": 14, "picture": "https://images.pexels.com/videos/27980502/pictures/preview-14.jpg"}]}, {"id": 28154609, "width": 2160, "height": 3840, "duration": 15, "full_res": null, "tags": [], "url": "https://www.pexels.com/video/morning-coffee-28154609/", "image": "https://images.pexels.com/videos/28154609/americano-beach-black-coffee-coffee-28154609.jpeg?auto=compress&cs=tinysrgb&fit=crop&h=1200&w=630", "avg_color": null, "user": {"id": 774979196, "name": "Webliner Channel", "url": "https://www.pexels.com/@webliner"}, "video_files": [{"id": 12312017, "quality": null, "file_type": "video/mp4", "width": 360, "height": 640, "fps": 50.0, "link": "https://videos.pexels.com/video-files/28154609/12312017_360_640_50fps.mp4", "size": 5524442}, {"id": 12312018, "quality": null, "file_type": "video/mp4", "width": 540, "height": 960, "fps": 50.0, "link": "https://videos.pexels.com/video-files/28154609/12312018_540_960_50fps.mp4", "size": 12486670}, {"id": 12312019, "quality": null, "file_type": "video/mp4", "width": 720, "height": 1280, "fps": 50.0, "link": "https://videos.pexels.com/video-files/28154609/12312019_720_1280_50fps.mp4", "size": 21191744}, {"id": 12312020, "quality": null, "file_type": "video/mp4", "width": 1080, "height": 1920, "fps": 50.0, "link": "https://videos.pexels.com/video-files/28154609/12312020_1080_1920_50fps.mp4", "size": 44369749}, {"id": 12312021, "quality": null, "file_type": "video/mp4", "width": 1440, "height": 2560, "fps": 50.0, "link": "https://videos.pexels.com/video-files/28154609/12312021_1440_2560_50fps.mp4", "size": 75985671}, {"id": 12312022, "quality": null, "file_type": "video/mp4", "width": 2160, "height": 3840, "fps": 50.0, "link": "https://videos.pexels.com/video-files/28154609/12312022_2160_3840_50fps.mp4", "size": 168134367}], "video_pictures": [{"id": 22875299, "nr": 0, "picture": "https://images.pexels.com/videos/28154609/pictures/preview-0.jpg"}, {"id": 22875300, "nr": 1, "picture": "https://images.pexels.com/videos/28154609/pictures/preview-1.jpg"}, {"id": 22875301, "nr": 2, "picture": "https://images.pexels.com/videos/28154609/pictures/preview-2.jpg"}, {"id": 22875302, "nr": 3, "picture": "https://images.pexels.com/videos/28154609/pictures/preview-3.jpg"}, {"id": 22875303, "nr": 4, "picture": "https://images.pexels.com/videos/28154609/pictures/preview-4.jpg"}, {"id": 22875304, "nr": 5, "picture": "https://images.pexels.com/videos/28154609/pictures/preview-5.jpg"}, {"id": 22875305, "nr": 6, "picture": "https://images.pexels.com/videos/28154609/pictures/preview-6.jpg"}, {"id": 22875306, "nr": 7, "picture": "https://images.pexels.com/videos/28154609/pictures/preview-7.jpg"}, {"id": 22875307, "nr": 8, "picture": "https://images.pexels.com/videos/28154609/pictures/preview-8.jpg"}, {"id": 22875308, "nr": 9, "picture": "https://images.pexels.com/videos/28154609/pictures/preview-9.jpg"}, {"id": 22875309, "nr": 10, "picture": "https://images.pexels.com/videos/28154609/pictures/preview-10.jpg"}, {"id": 22875310, "nr": 11, "picture": "https://images.pexels.com/videos/28154609/pictures/preview-11.jpg"}, {"id": 22875311, "nr": 12, "picture": "https://images.pexels.com/videos/28154609/pictures/preview-12.jpg"}, {"id": 22875312, "nr": 13, "picture": "https://images.pexels.com/videos/28154609/pictures/preview-13.jpg"}]}, {"id": 29900748, "width": 1080, "height": 1920, "duration": 39, "full_res": null, "tags": [], "url": "https://www.pexels.com/video/adorable-red-panda-sleeping-in-the-tree-29900748/", "image": "https://images.pexels.com/videos/29900748/animal-world-asleep-cute-pets-european-zoo-29900748.jpeg?auto=compress&cs=tinysrgb&fit=crop&h=1200&w=630", "avg_color": null, "user": {"id": 337910228, "name": "Hobi Photography", "url": "https://www.pexels.com/@hobiphotography"}, "video_files": [{"id": 12834749, "quality": null, "file_type": "video/mp4", "width": 360, "height": 640, "fps": 30.0, "link": "https://videos.pexels.com/video-files/29900748/12834749_360_640_30fps.mp4", "size": 5266296}, {"id": 12834750, "quality": null, "file_type": "video/mp4", "width": 540, "height": 960, "fps": 30.0, "link": "https://videos.pexels.com/video-files/29900748/12834750_540_960_30fps.mp4", "size": 9607876}, {"id": 12834751, "quality": null, "file_type": "video/mp4", "width": 720, "height": 1280, "fps": 30.0, "link": "https://videos.pexels.com/video-files/29900748/12834751_720_1280_30fps.mp4", "size": 14241991}, {"id": 12834752, "quality": null, "file_type": "video/mp4", "width": 1080, "height": 1920, "fps": 30.0, "link": "https://videos.pexels.com/video-files/29900748/12834752_1080_1920_30fps.mp4", "size": 29532224}], "video_pictures": [{"id": 24265146, "nr": 0, "picture": "https://images.pexels.com/videos/29900748/pictures/preview-0.jpg"}, {"id": 24265147, "nr": 1, "picture": "https://images.pexels.com/videos/29900748/pictures/preview-1.jpg"}, {"id": 24265148, "nr": 2, "picture": "https://images.pexels.com/videos/29900748/pictures/preview-2.jpg"}, {"id": 24265149, "nr": 3, "picture": "https://images.pexels.com/videos/29900748/pictures/preview-3.jpg"}, {"id": 24265150, "nr": 4, "picture": "https://images.pexels.com/videos/29900748/pictures/preview-4.jpg"}, {"id": 24265151, "nr": 5, "picture": "https://images.pexels.com/videos/29900748/pictures/preview-5.jpg"}, {"id": 24265152, "nr": 6, "picture": "https://images.pexels.com/videos/29900748/pictures/preview-6.jpg"}, {"id": 24265153, "nr": 7, "picture": "https://images.pexels.com/videos/29900748/pictures/preview-7.jpg"}, {"id": 24265154, "nr": 8, "picture": "https://images.pexels.com/videos/29900748/pictures/preview-8.jpg"}, {"id": 24265155, "nr": 9, "picture": "https://images.pexels.com/videos/29900748/pictures/preview-9.jpg"}, {"id": 24265156, "nr": 10, "picture": "https://images.pexels.com/videos/29900748/pictures/preview-10.jpg"}, {"id": 24265157, "nr": 11, "picture": "https://images.pexels.com/videos/29900748/pictures/preview-11.jpg"}, {"id": 24265158, "nr": 12, "picture": "https://images.pexels.com/videos/29900748/pictures/preview-12.jpg"}, {"id": 24265159, "nr": 13, "picture": "https://images.pexels.com/videos/29900748/pictures/preview-13.jpg"}, {"id": 24265160, "nr": 14, "picture": "https://images.pexels.com/videos/29900748/pictures/preview-14.jpg"}]}, {"id": 17301128, "width": 2160, "height": 3840, "duration": 24, "full_res": null, "tags": [], "url": "https://www.pexels.com/video/bear-slow-motion-17301128/", "image": "https://images.pexels.com/videos/17301128/animal-animal-head-animal-live-animal-photography-17301128.jpeg?auto=compress&cs=tinysrgb&fit=crop&h=1200&w=630", "avg_color": null, "user": {"id": 32566116, "name": "Gabriele Brancati", "url": "https://www.pexels.com/@gabriele-brancati-32566116"}, "video_files": [{"id": 7183468, "quality": "uhd", "file_type": "video/mp4", "width": 1440, "height": 2560, "fps": 30.0, "link": "https://videos.pexels.com/video-files/17301128/17301128-uhd_1440_2560_30fps.mp4", "size": 34718474}, {"id": 7183469, "quality": "hd", "file_type": "video/mp4", "width": 1080, "height": 1920, "fps": 30.0, "link": "https://videos.pexels.com/video-files/17301128/17301128-hd_1080_1920_30fps.mp4", "size": 17981004}, {"id": 7183470, "quality": "sd", "file_type": "video/mp4", "width": 540, "height": 960, "fps": 30.0, "link": "https://videos.pexels.com/video-files/17301128/17301128-sd_540_960_30fps.mp4", "size": 5684457}, {"id": 7183471, "quality": "sd", "file_type": "video/mp4", "width": 360, "height": 640, "fps": 30.0, "link": "https://videos.pexels.com/video-files/17301128/17301128-sd_360_640_30fps.mp4", "size": 2980743}, {"id": 7183472, "quality": "hd", "file_type": "video/mp4", "width": 720, "height": 1280, "fps": 30.0, "link": "https://videos.pexels.com/video-files/17301128/17301128-hd_720_1280_30fps.mp4", "size": 9264876}, {"id": 7183473, "quality": "uhd", "file_type": "video/mp4", "width": 2160, "height": 3840, "fps": 30.0, "link": "https://videos.pexels.com/video-files/17301128/17301128-uhd_2160_3840_30fps.mp4", "size": 65526504}, {"id": 7183474, "quality": "sd", "file_type": "video/mp4", "width": 240, "height": 426, "fps": 30.0, "link": "https://videos.pexels.com/video-files/17301128/17301128-sd_240_426_30fps.mp4", "size": 1620042}], "video_pictures": [{"id": 18101517, "nr": 0, "picture": "https://images.pexels.com/videos/17301128/pictures/preview-0.jpeg"}, {"id": 18101523, "nr": 1, "picture": "https://images.pexels.com/videos/17301128/pictures/preview-1.jpeg"}, {"id": 18101526, "nr": 2, "picture": "https://images.pexels.com/videos/17301128/pictures/preview-2.jpeg"}, {"id": 18101527, "nr": 3, "picture": "https://images.pexels.com/videos/17301128/pictures/preview-3.jpeg"}, {"id": 18101530, "nr": 4, "picture": "https://images.pexels.com/videos/17301128/pictures/preview-4.jpeg"}, {"id": 18101535, "nr": 5, "picture": "https://images.pexels.com/videos/17301128/pictures/preview-5.jpeg"}, {"id": 18101539, "nr": 6, "picture": "https://images.pexels.com/videos/17301128/pictures/preview-6.jpeg"}, {"id": 18101544, "nr": 7, "picture": "https://images.pexels.com/videos/17301128/pictures/preview-7.jpeg"}, {"id": 18101547, "nr": 8, "picture": "https://images.pexels.com/videos/17301128/pictures/preview-8.jpeg"}, {"id": 18101548, "nr": 9, "picture": "https://images.pexels.com/videos/17301128/pictures/preview-9.jpeg"}, {"id": 18101549, "nr": 10, "picture": "https://images.pexels.com/videos/17301128/pictures/preview-10.jpeg"}, {"id": 18101550, "nr": 11, "picture": "https://images.pexels.com/videos/17301128/pictures/preview-11.jpeg"}, {"id": 18101551, "nr": 12, "picture": "https://images.pexels.com/videos/17301128/pictures/preview-12.jpeg"}, {"id": 18101552, "nr": 13, "picture": "https://images.pexels.com/videos/17301128/pictures/preview-13.jpeg"}, {"id": 18101553, "nr": 14, "picture": "https://images.pexels.com/videos/17301128/pictures/preview-14.jpeg"}]}, {"id": 12715069, "width": 2160, "height": 4096, "duration": 10, "full_res": null, "tags": [], "url": "https://www.pexels.com/video/a-parrot-on-a-tree-branch-12715069/", "image": "https://images.pexels.com/videos/12715069/animal-avian-beak-bird-12715069.jpeg?auto=compress&cs=tinysrgb&fit=crop&h=1200&w=630", "avg_color": null, "user": {"id": 2678846, "name": "ROMAN ODINTSOV", "url": "https://www.pexels.com/@roman-odintsov"}, "video_files": [{"id": 5582538, "quality": "sd", "file_type": "video/mp4", "width": 226, "height": 426, "fps": 29.969999313354492, "link": "https://videos.pexels.com/video-files/12715069/12715069-sd_226_426_30fps.mp4", "size": 642270}, {"id": 5582539, "quality": "sd", "file_type": "video/mp4", "width": 506, "height": 960, "fps": 29.969999313354492, "link": "https://videos.pexels.com/video-files/12715069/12715069-sd_506_960_30fps.mp4", "size": 1528397}, {"id": 5582540, "quality": "uhd", "file_type": "video/mp4", "width": 1440, "height": 2732, "fps": 29.969999313354492, "link": "https://videos.pexels.com/video-files/12715069/12715069-uhd_1440_2732_30fps.mp4", "size": 6811080}, {"id": 5582541, "quality": "hd", "file_type": "video/mp4", "width": 720, "height": 1366, "fps": 29.969999313354492, "link": "https://videos.pexels.com/video-files/12715069/12715069-hd_720_1366_30fps.mp4", "size": 2374715}, {"id": 5582542, "quality": "hd", "file_type": "video/mp4", "width": 1080, "height": 2048, "fps": 29.969999313354492, "link": "https://videos.pexels.com/video-files/12715069/12715069-hd_1080_2048_30fps.mp4", "size": 4415735}, {"id": 5582543, "quality": "sd", "file_type": "video/mp4", "width": 338, "height": 640, "fps": 29.969999313354492, "link": "https://videos.pexels.com/video-files/12715069/12715069-sd_338_640_30fps.mp4", "size": 898790}, {"id": 5582544, "quality": "uhd", "file_type": "video/mp4", "width": 2160, "height": 4096, "fps": 29.969999313354492, "link": "https://videos.pexels.com/video-files/12715069/12715069-uhd_2160_4096_30fps.mp4", "size": 13030334}], "video_pictures": [{"id": 13855164, "nr": 0, "picture": "https://images.pexels.com/videos/12715069/pictures/preview-0.jpeg"}, {"id": 13855185, "nr": 1, "picture": "https://images.pexels.com/videos/12715069/pictures/preview-1.jpeg"}, {"id": 13855211, "nr": 2, "picture": "https://images.pexels.com/videos/12715069/pictures/preview-2.jpeg"}, {"id": 13855236, "nr": 3, "picture": "https://images.pexels.com/videos/12715069/pictures/preview-3.jpeg"}, {"id": 13855261, "nr": 4, "picture": "https://images.pexels.com/videos/12715069/pictures/preview-4.jpeg"}, {"id": 13855282, "nr": 5, "picture": "https://images.pexels.com/videos/12715069/pictures/preview-5.jpeg"}, {"id": 13855295, "nr": 6, "picture": "https://images.pexels.com/videos/12715069/pictures/preview-6.jpeg"}, {"id": 13855314, "nr": 7, "picture": "https://images.pexels.com/videos/12715069/pictures/preview-7.jpeg"}, {"id": 13855332, "nr": 8, "picture": "https://images.pexels.com/videos/12715069/pictures/preview-8.jpeg"}, {"id": 13855345, "nr": 9, "picture": "https://images.pexels.com/videos/12715069/pictures/preview-9.jpeg"}, {"id": 13855358, "nr": 10, "picture": "https://images.pexels.com/videos/12715069/pictures/preview-10.jpeg"}, {"id": 13855372, "nr": 11, "picture": "https://images.pexels.com/videos/12715069/pictures/preview-11.jpeg"}, {"id": 13855384, "nr": 12, "picture": "https://images.pexels.com/videos/12715069/pictures/preview-12.jpeg"}, {"id": 13855394, "nr": 13, "picture": "https://images.pexels.com/videos/12715069/pictures/preview-13.jpeg"}, {"id": 13855401, "nr": 14, "picture": "https://images.pexels.com/videos/12715069/pictures/preview-14.jpeg"}]}, {"id": 6609503, "width": 2160, "height": 4096, "duration": 16, "full_res": null, "tags": [], "url": "https://www.pexels.com/video/person-touching-tree-trunk-6609503/", "image": "https://images.pexels.com/videos/6609503/pexels-photo-6609503.jpeg?auto=compress&cs=tinysrgb&fit=crop&h=1200&w=630", "avg_color": null, "user": {"id": 2678846, "name": "ROMAN ODINTSOV", "url": "https://www.pexels.com/@roman-odintsov"}, "video_files": [{"id": 10101274, "quality": "uhd", "file_type": "video/mp4", "width": 2160, "height": 4096, "fps": 29.969999313354492, "link": "https://videos.pexels.com/video-files/6609503/6609503-uhd_2160_4096_30fps.mp4", "size": 29189444}, {"id": 10101313, "quality": "sd", "file_type": "video/mp4", "width": 226, "height": 426, "fps": 29.969999313354492, "link": "https://videos.pexels.com/video-files/6609503/6609503-sd_226_426_30fps.mp4", "size": 736284}, {"id": 10101345, "quality": "sd", "file_type": "video/mp4", "width": 338, "height": 640, "fps": 29.969999313354492, "link": "https://videos.pexels.com/video-files/6609503/6609503-sd_338_640_30fps.mp4", "size": 1206636}, {"id": 10101369, "quality": "sd", "file_type": "video/mp4", "width": 506, "height": 960, "fps": 29.969999313354492, "link": "https://videos.pexels.com/video-files/6609503/6609503-sd_506_960_30fps.mp4", "size": 3000086}, {"id": 10101396, "quality": "hd", "file_type": "video/mp4", "width": 720, "height": 1366, "fps": 29.969999313354492, "link": "https://videos.pexels.com/video-files/6609503/6609503-hd_720_1366_30fps.mp4", "size": 5008092}, {"id": 10101417, "quality": "hd", "file_type": "video/mp4", "width": 1080, "height": 2048, "fps": 29.969999313354492, "link": "https://videos.pexels.com/video-files/6609503/6609503-hd_1080_2048_30fps.mp4", "size": 9295197}, {"id": 10101444, "quality": "uhd", "file_type": "video/mp4", "width": 1440, "height": 2732, "fps": 29.969999313354492, "link": "https://videos.pexels.com/video-files/6609503/6609503-uhd_1440_2732_30fps.mp4", "size": 16178097}], "video_pictures": [{"id": 4766803, "nr": 0, "picture": "https://images.pexels.com/videos/6609503/pictures/preview-0.jpeg"}, {"id": 4766810, "nr": 1, "picture": "https://images.pexels.com/videos/6609503/pictures/preview-1.jpeg"}, {"id": 4766820, "nr": 2, "picture": "https://images.pexels.com/videos/6609503/pictures/preview-2.jpeg"}, {"id": 4766833, "nr": 3, "picture": "https://images.pexels.com/videos/6609503/pictures/preview-3.jpeg"}, {"id": 4766845, "nr": 4, "picture": "https://images.pexels.com/videos/6609503/pictures/preview-4.jpeg"}, {"id": 4766861, "nr": 5, "picture": "https://images.pexels.com/videos/6609503/pictures/preview-5.jpeg"}, {"id": 4766893, "nr": 6, "picture": "https://images.pexels.com/videos/6609503/pictures/preview-6.jpeg"}, {"id": 4766905, "nr": 7, "picture": "https://images.pexels.com/videos/6609503/pictures/preview-7.jpeg"}, {"id": 4766921, "nr": 8, "picture": "https://images.pexels.com/videos/6609503/pictures/preview-8.jpeg"}, {"id": 4766932, "nr": 9, "picture": "https://images.pexels.com/videos/6609503/pictures/preview-9.jpeg"}, {"id": 4766941, "nr": 10, "picture": "https://images.pexels.com/videos/6609503/pictures/preview-10.jpeg"}, {"id": 4766948, "nr": 11, "picture": "https://images.pexels.com/videos/6609503/pictures/preview-11.jpeg"}, {"id": 4766956, "nr": 12, "picture": "https://images.pexels.com/videos/6609503/pictures/preview-12.jpeg"}, {"id": 4766967, "nr": 13, "picture": "https://images.pexels.com/videos/6609503/pictures/preview-13.jpeg"}, {"id": 4766973, "nr": 14, "picture": "https://images.pexels.com/videos/6609503/pictures/preview-14.jpeg"}]}, {"id": 6963350, "width": 1080, "height": 1920, "duration": 8, "full_res": null, "tags": [], "url": "https://www.pexels.com/video/people-rotating-a-globe-with-their-hands-6963350/", "image": "https://images.pexels.com/videos/6963350/eco-friendly-environment-environmentally-friendly-mothernature-6963350.jpeg?auto=compress&cs=tinysrgb&fit=crop&h=1200&w=630", "avg_color": null, "user": {"id": 3716105, "name": "Cup of  Couple", "url": "https://www.pexels.com/@cup-of-couple"}, "video_files": [{"id": 10252818, "quality": "hd", "file_type": "video/mp4", "width": 1080, "height": 1920, "fps": 25.0, "link": "https://videos.pexels.com/video-files/6963350/6963350-hd_1080_1920_25fps.mp4", "size": 4809015}, {"id": 10252844, "quality": "hd", "file_type": "video/mp4", "width": 720, "height": 1280, "fps": 50.0, "link": "https://videos.pexels.com/video-files/6963350/6963350-hd_720_1280_50fps.mp4", "size": 2398550}, {"id": 10252864, "quality": "sd", "file_type": "video/mp4", "width": 540, "height": 960, "fps": 25.0, "link": "https://videos.pexels.com/video-files/6963350/6963350-sd_540_960_25fps.mp4", "size": 1400329}, {"id": 10252902, "quality": "sd", "file_type": "video/mp4", "width": 360, "height": 640, "fps": 25.0, "link": "https://videos.pexels.com/video-files/6963350/6963350-sd_360_640_25fps.mp4", "size": 470027}, {"id": 10252950, "quality": "sd", "file_type": "video/mp4", "width": 240, "height": 426, "fps": 25.0, "link": "https://videos.pexels.com/video-files/6963350/6963350-sd_240_426_25fps.mp4", "size": 286279}], "video_pictures": [{"id": 5476513, "nr": 0, "picture": "https://images.pexels.com/videos/6963350/pictures/preview-0.jpeg"}, {"id": 5476516, "nr": 1, "picture": "https://images.pexels.com/videos/6963350/pictures/preview-1.jpeg"}, {"id": 5476520, "nr": 2, "picture": "https://images.pexels.com/videos/6963350/pictures/preview-2.jpeg"}, {"id": 5476524, "nr": 3, "picture": "https://images.pexels.com/videos/6963350/pictures/preview-3.jpeg"}, {"id": 5476528, "nr": 4, "picture": "https://images.pexels.com/videos/6963350/pictures/preview-4.jpeg"}, {"id": 5476531, "nr": 5, "picture": "https://images.pexels.com/videos/6963350/pictures/preview-5.jpeg"}, {"id": 5476537, "nr": 6, "picture": "https://images.pexels.com/videos/6963350/pictures/preview-6.jpeg"}, {"id": 5476541, "nr": 7, "picture": "https://images.pexels.com/videos/6963350/pictures/preview-7.jpeg"}, {"id": 5476545, "nr": 8, "picture": "https://images.pexels.com/videos/6963350/pictures/preview-8.jpeg"}, {"id": 5476548, "nr": 9, "picture": "https://images.pexels.com/videos/6963350/pictures/preview-9.jpeg"}, {"id": 5476551, "nr": 10, "picture": "https://images.pexels.com/videos/6963350/pictures/preview-10.jpeg"}, {"id": 5476556, "nr": 11, "picture": "https://images.pexels.com/videos/6963350/pictures/preview-11.jpeg"}, {"id": 5476563, "nr": 12, "picture": "https://images.pexels.com/videos/6963350/pictures/preview-12.jpeg"}, {"id": 5476568, "nr": 13, "picture": "https://images.pexels.com/videos/6963350/pictures/preview-13.jpeg"}, {"id": 5476570, "nr": 14, "picture": "https://images.pexels.com/videos/6963350/pictures/preview-14.jpeg"}]}], "total_results": 8000, "next_page": "https://api.pexels.com/v1/videos/search/?orientation=portrait&page=2&per_page=8&query=world+record+tree", "url": "https://api-server.pexels.com/search/videos/world%20record%20tree/"}, "timestamp": "2024-12-28T22:59:57.768890"}
