{"query": "marigold flowers", "response": {"page": 1, "per_page": 8, "videos": [{"id": 19036918, "width": 2160, "height": 3840, "duration": 16, "full_res": null, "tags": [], "url": "https://www.pexels.com/video/a-woman-in-a-costume-sitting-on-the-ground-with-flowers-19036918/", "image": "https://images.pexels.com/videos/19036918/catrina-cementerio-day-of-the-dead-dia-de-los-muertos-19036918.jpeg?auto=compress&cs=tinysrgb&fit=crop&h=1200&w=630", "avg_color": null, "user": {"id": 177885845, "name": "Ali  Alc\u00e1ntara", "url": "https://www.pexels.com/@alialcantara"}, "video_files": [{"id": 8177761, "quality": "uhd", "file_type": "video/mp4", "width": 1440, "height": 2560, "fps": 29.969999313354492, "link": "https://videos.pexels.com/video-files/19036918/19036918-uhd_1440_2560_30fps.mp4", "size": 18438313}, {"id": 8177762, "quality": "hd", "file_type": "video/mp4", "width": 1080, "height": 1920, "fps": 29.969999313354492, "link": "https://videos.pexels.com/video-files/19036918/19036918-hd_1080_1920_30fps.mp4", "size": 9331440}, {"id": 8177763, "quality": "uhd", "file_type": "video/mp4", "width": 2160, "height": 3840, "fps": 29.969999313354492, "link": "https://videos.pexels.com/video-files/19036918/19036918-uhd_2160_3840_30fps.mp4", "size": 42382761}, {"id": 8177764, "quality": "hd", "file_type": "video/mp4", "width": 720, "height": 1280, "fps": 29.969999313354492, "link": "https://videos.pexels.com/video-files/19036918/19036918-hd_720_1280_30fps.mp4", "size": 5259901}, {"id": 8177765, "quality": "sd", "file_type": "video/mp4", "width": 360, "height": 640, "fps": 29.969999313354492, "link": "https://videos.pexels.com/video-files/19036918/19036918-sd_360_640_30fps.mp4", "size": 1711505}, {"id": 8177766, "quality": "sd", "file_type": "video/mp4", "width": 540, "height": 960, "fps": 29.969999313354492, "link": "https://videos.pexels.com/video-files/19036918/19036918-sd_540_960_30fps.mp4", "size": 2913178}, {"id": 8177768, "quality": "sd", "file_type": "video/mp4", "width": 240, "height": 426, "fps": 29.969999313354492, "link": "https://videos.pexels.com/video-files/19036918/19036918-sd_240_426_30fps.mp4", "size": 1021582}], "video_pictures": [{"id": 19842662, "nr": 0, "picture": "https://images.pexels.com/videos/19036918/pictures/preview-0.jpeg"}, {"id": 19842714, "nr": 1, "picture": "https://images.pexels.com/videos/19036918/pictures/preview-1.jpeg"}, {"id": 19842763, "nr": 2, "picture": "https://images.pexels.com/videos/19036918/pictures/preview-2.jpeg"}, {"id": 19842819, "nr": 3, "picture": "https://images.pexels.com/videos/19036918/pictures/preview-3.jpeg"}, {"id": 19842868, "nr": 4, "picture": "https://images.pexels.com/videos/19036918/pictures/preview-4.jpeg"}, {"id": 19842920, "nr": 5, "picture": "https://images.pexels.com/videos/19036918/pictures/preview-5.jpeg"}, {"id": 19842969, "nr": 6, "picture": "https://images.pexels.com/videos/19036918/pictures/preview-6.jpeg"}, {"id": 19843014, "nr": 7, "picture": "https://images.pexels.com/videos/19036918/pictures/preview-7.jpeg"}, {"id": 19843074, "nr": 8, "picture": "https://images.pexels.com/videos/19036918/pictures/preview-8.jpeg"}, {"id": 19843128, "nr": 9, "picture": "https://images.pexels.com/videos/19036918/pictures/preview-9.jpeg"}, {"id": 19843187, "nr": 10, "picture": "https://images.pexels.com/videos/19036918/pictures/preview-10.jpeg"}, {"id": 19843225, "nr": 11, "picture": "https://images.pexels.com/videos/19036918/pictures/preview-11.jpeg"}, {"id": 19843255, "nr": 12, "picture": "https://images.pexels.com/videos/19036918/pictures/preview-12.jpeg"}, {"id": 19843284, "nr": 13, "picture": "https://images.pexels.com/videos/19036918/pictures/preview-13.jpeg"}, {"id": 19843298, "nr": 14, "picture": "https://images.pexels.com/videos/19036918/pictures/preview-14.jpeg"}]}, {"id": 8849021, "width": 2160, "height": 3840, "duration": 12, "full_res": null, "tags": [], "url": "https://www.pexels.com/video/two-people-lighting-candles-on-the-floor-8849021/", "image": "https://images.pexels.com/videos/8849021/pexels-photo-8849021.jpeg?auto=compress&cs=tinysrgb&fit=crop&h=1200&w=630", "avg_color": null, "user": {"id": 80197268, "name": "Lara Jameson", "url": "https://www.pexels.com/@lara-jameson"}, "video_files": [{"id": 10974089, "quality": "sd", "file_type": "video/mp4", "width": 240, "height": 426, "fps": 29.969999313354492, "link": "https://videos.pexels.com/video-files/8849021/8849021-sd_240_426_30fps.mp4", "size": 530842}, {"id": 10974095, "quality": "hd", "file_type": "video/mp4", "width": 720, "height": 1280, "fps": 59.940101623535156, "link": "https://videos.pexels.com/video-files/8849021/8849021-hd_720_1280_60fps.mp4", "size": 3877506}, {"id": 10974103, "quality": "uhd", "file_type": "video/mp4", "width": 1440, "height": 2560, "fps": 29.969999313354492, "link": "https://videos.pexels.com/video-files/8849021/8849021-uhd_1440_2560_30fps.mp4", "size": 18343582}, {"id": 10974110, "quality": "sd", "file_type": "video/mp4", "width": 540, "height": 960, "fps": 29.969999313354492, "link": "https://videos.pexels.com/video-files/8849021/8849021-sd_540_960_30fps.mp4", "size": 2217058}, {"id": 10974116, "quality": "hd", "file_type": "video/mp4", "width": 1080, "height": 1920, "fps": 29.969999313354492, "link": "https://videos.pexels.com/video-files/8849021/8849021-hd_1080_1920_30fps.mp4", "size": 8873268}, {"id": 10974126, "quality": "uhd", "file_type": "video/mp4", "width": 2160, "height": 3840, "fps": 29.969999313354492, "link": "https://videos.pexels.com/video-files/8849021/8849021-uhd_2160_3840_30fps.mp4", "size": 33716240}, {"id": 10974137, "quality": "sd", "file_type": "video/mp4", "width": 360, "height": 640, "fps": 29.969999313354492, "link": "https://videos.pexels.com/video-files/8849021/8849021-sd_360_640_30fps.mp4", "size": 808435}], "video_pictures": [{"id": 8923926, "nr": 0, "picture": "https://images.pexels.com/videos/8849021/pictures/preview-0.jpeg"}, {"id": 8923951, "nr": 1, "picture": "https://images.pexels.com/videos/8849021/pictures/preview-1.jpeg"}, {"id": 8923980, "nr": 2, "picture": "https://images.pexels.com/videos/8849021/pictures/preview-2.jpeg"}, {"id": 8924010, "nr": 3, "picture": "https://images.pexels.com/videos/8849021/pictures/preview-3.jpeg"}, {"id": 8924041, "nr": 4, "picture": "https://images.pexels.com/videos/8849021/pictures/preview-4.jpeg"}, {"id": 8924066, "nr": 5, "picture": "https://images.pexels.com/videos/8849021/pictures/preview-5.jpeg"}, {"id": 8924089, "nr": 6, "picture": "https://images.pexels.com/videos/8849021/pictures/preview-6.jpeg"}, {"id": 8924110, "nr": 7, "picture": "https://images.pexels.com/videos/8849021/pictures/preview-7.jpeg"}, {"id": 8924135, "nr": 8, "picture": "https://images.pexels.com/videos/8849021/pictures/preview-8.jpeg"}, {"id": 8924162, "nr": 9, "picture": "https://images.pexels.com/videos/8849021/pictures/preview-9.jpeg"}, {"id": 8924177, "nr": 10, "picture": "https://images.pexels.com/videos/8849021/pictures/preview-10.jpeg"}, {"id": 8924199, "nr": 11, "picture": "https://images.pexels.com/videos/8849021/pictures/preview-11.jpeg"}, {"id": 8924220, "nr": 12, "picture": "https://images.pexels.com/videos/8849021/pictures/preview-12.jpeg"}, {"id": 8924246, "nr": 13, "picture": "https://images.pexels.com/videos/8849021/pictures/preview-13.jpeg"}, {"id": 8924260, "nr": 14, "picture": "https://images.pexels.com/videos/8849021/pictures/preview-14.jpeg"}]}, {"id": 8849026, "width": 2160, "height": 3840, "duration": 11, "full_res": null, "tags": [], "url": "https://www.pexels.com/video/a-woman-lightning-candles-8849026/", "image": "https://images.pexels.com/videos/8849026/pexels-photo-8849026.jpeg?auto=compress&cs=tinysrgb&fit=crop&h=1200&w=630", "avg_color": null, "user": {"id": 80197268, "name": "Lara Jameson", "url": "https://www.pexels.com/@lara-jameson"}, "video_files": [{"id": 10974488, "quality": "uhd", "file_type": "video/mp4", "width": 2160, "height": 3840, "fps": 29.969999313354492, "link": "https://videos.pexels.com/video-files/8849026/8849026-uhd_2160_3840_30fps.mp4", "size": 34412364}, {"id": 10974552, "quality": "sd", "file_type": "video/mp4", "width": 540, "height": 960, "fps": 29.969999313354492, "link": "https://videos.pexels.com/video-files/8849026/8849026-sd_540_960_30fps.mp4", "size": 1929069}, {"id": 10974614, "quality": "uhd", "file_type": "video/mp4", "width": 1440, "height": 2560, "fps": 29.969999313354492, "link": "https://videos.pexels.com/video-files/8849026/8849026-uhd_1440_2560_30fps.mp4", "size": 16112485}, {"id": 10974679, "quality": "sd", "file_type": "video/mp4", "width": 360, "height": 640, "fps": 29.969999313354492, "link": "https://videos.pexels.com/video-files/8849026/8849026-sd_360_640_30fps.mp4", "size": 724258}, {"id": 10974759, "quality": "hd", "file_type": "video/mp4", "width": 720, "height": 1280, "fps": 59.940101623535156, "link": "https://videos.pexels.com/video-files/8849026/8849026-hd_720_1280_60fps.mp4", "size": 4050503}, {"id": 10974813, "quality": "sd", "file_type": "video/mp4", "width": 240, "height": 426, "fps": 29.969999313354492, "link": "https://videos.pexels.com/video-files/8849026/8849026-sd_240_426_30fps.mp4", "size": 483523}, {"id": 10974854, "quality": "hd", "file_type": "video/mp4", "width": 1080, "height": 1920, "fps": 29.969999313354492, "link": "https://videos.pexels.com/video-files/8849026/8849026-hd_1080_1920_30fps.mp4", "size": 8019180}], "video_pictures": [{"id": 8923855, "nr": 0, "picture": "https://images.pexels.com/videos/8849026/pictures/preview-0.jpeg"}, {"id": 8923879, "nr": 1, "picture": "https://images.pexels.com/videos/8849026/pictures/preview-1.jpeg"}, {"id": 8923912, "nr": 2, "picture": "https://images.pexels.com/videos/8849026/pictures/preview-2.jpeg"}, {"id": 8923937, "nr": 3, "picture": "https://images.pexels.com/videos/8849026/pictures/preview-3.jpeg"}, {"id": 8923971, "nr": 4, "picture": "https://images.pexels.com/videos/8849026/pictures/preview-4.jpeg"}, {"id": 8924007, "nr": 5, "picture": "https://images.pexels.com/videos/8849026/pictures/preview-5.jpeg"}, {"id": 8924030, "nr": 6, "picture": "https://images.pexels.com/videos/8849026/pictures/preview-6.jpeg"}, {"id": 8924054, "nr": 7, "picture": "https://images.pexels.com/videos/8849026/pictures/preview-7.jpeg"}, {"id": 8924079, "nr": 8, "picture": "https://images.pexels.com/videos/8849026/pictures/preview-8.jpeg"}, {"id": 8924107, "nr": 9, "picture": "https://images.pexels.com/videos/8849026/pictures/preview-9.jpeg"}, {"id": 8924131, "nr": 10, "picture": "https://images.pexels.com/videos/8849026/pictures/preview-10.jpeg"}, {"id": 8924143, "nr": 11, "picture": "https://images.pexels.com/videos/8849026/pictures/preview-11.jpeg"}, {"id": 8924165, "nr": 12, "picture": "https://images.pexels.com/videos/8849026/pictures/preview-12.jpeg"}, {"id": 8924187, "nr": 13, "picture": "https://images.pexels.com/videos/8849026/pictures/preview-13.jpeg"}, {"id": 8924212, "nr": 14, "picture": "https://images.pexels.com/videos/8849026/pictures/preview-14.jpeg"}]}, {"id": 8811004, "width": 1080, "height": 1920, "duration": 17, "full_res": null, "tags": [], "url": "https://www.pexels.com/video/woman-arranging-flower-petals-on-a-silver-bowl-8811004/", "image": "https://images.pexels.com/videos/8811004/adult-bowl-bracelet-child-8811004.jpeg?auto=compress&cs=tinysrgb&fit=crop&h=1200&w=630", "avg_color": null, "user": {"id": 2905570, "name": "Yan Krukau", "url": "https://www.pexels.com/@yankrukov"}, "video_files": [{"id": 10960067, "quality": "hd", "file_type": "video/mp4", "width": 1080, "height": 1920, "fps": 25.0, "link": "https://videos.pexels.com/video-files/8811004/8811004-hd_1080_1920_25fps.mp4", "size": 8631015}, {"id": 10960101, "quality": "hd", "file_type": "video/mp4", "width": 720, "height": 1280, "fps": 25.0, "link": "https://videos.pexels.com/video-files/8811004/8811004-hd_720_1280_25fps.mp4", "size": 3926369}, {"id": 10960139, "quality": "sd", "file_type": "video/mp4", "width": 540, "height": 960, "fps": 25.0, "link": "https://videos.pexels.com/video-files/8811004/8811004-sd_540_960_25fps.mp4", "size": 2373093}, {"id": 10960177, "quality": "sd", "file_type": "video/mp4", "width": 240, "height": 426, "fps": 25.0, "link": "https://videos.pexels.com/video-files/8811004/8811004-sd_240_426_25fps.mp4", "size": 721728}, {"id": 10960244, "quality": "sd", "file_type": "video/mp4", "width": 360, "height": 640, "fps": 25.0, "link": "https://videos.pexels.com/video-files/8811004/8811004-sd_360_640_25fps.mp4", "size": 981527}], "video_pictures": [{"id": 8859838, "nr": 0, "picture": "https://images.pexels.com/videos/8811004/pictures/preview-0.jpeg"}, {"id": 8859843, "nr": 1, "picture": "https://images.pexels.com/videos/8811004/pictures/preview-1.jpeg"}, {"id": 8859848, "nr": 2, "picture": "https://images.pexels.com/videos/8811004/pictures/preview-2.jpeg"}, {"id": 8859852, "nr": 3, "picture": "https://images.pexels.com/videos/8811004/pictures/preview-3.jpeg"}, {"id": 8859856, "nr": 4, "picture": "https://images.pexels.com/videos/8811004/pictures/preview-4.jpeg"}, {"id": 8859861, "nr": 5, "picture": "https://images.pexels.com/videos/8811004/pictures/preview-5.jpeg"}, {"id": 8859865, "nr": 6, "picture": "https://images.pexels.com/videos/8811004/pictures/preview-6.jpeg"}, {"id": 8859871, "nr": 7, "picture": "https://images.pexels.com/videos/8811004/pictures/preview-7.jpeg"}, {"id": 8859877, "nr": 8, "picture": "https://images.pexels.com/videos/8811004/pictures/preview-8.jpeg"}, {"id": 8859883, "nr": 9, "picture": "https://images.pexels.com/videos/8811004/pictures/preview-9.jpeg"}, {"id": 8859888, "nr": 10, "picture": "https://images.pexels.com/videos/8811004/pictures/preview-10.jpeg"}, {"id": 8859900, "nr": 11, "picture": "https://images.pexels.com/videos/8811004/pictures/preview-11.jpeg"}, {"id": 8859908, "nr": 12, "picture": "https://images.pexels.com/videos/8811004/pictures/preview-12.jpeg"}, {"id": 8859915, "nr": 13, "picture": "https://images.pexels.com/videos/8811004/pictures/preview-13.jpeg"}, {"id": 8859922, "nr": 14, "picture": "https://images.pexels.com/videos/8811004/pictures/preview-14.jpeg"}]}, {"id": 8811001, "width": 1080, "height": 1920, "duration": 16, "full_res": null, "tags": [], "url": "https://www.pexels.com/video/a-person-holding-flowers-in-a-tray-8811001/", "image": "https://images.pexels.com/videos/8811001/diwali-holiday-indian-8811001.jpeg?auto=compress&cs=tinysrgb&fit=crop&h=1200&w=630", "avg_color": null, "user": {"id": 2905570, "name": "Yan Krukau", "url": "https://www.pexels.com/@yankrukov"}, "video_files": [{"id": 10960065, "quality": "hd", "file_type": "video/mp4", "width": 720, "height": 1280, "fps": 25.0, "link": "https://videos.pexels.com/video-files/8811001/8811001-hd_720_1280_25fps.mp4", "size": 3609795}, {"id": 10960094, "quality": "sd", "file_type": "video/mp4", "width": 240, "height": 426, "fps": 25.0, "link": "https://videos.pexels.com/video-files/8811001/8811001-sd_240_426_25fps.mp4", "size": 678918}, {"id": 10960111, "quality": "sd", "file_type": "video/mp4", "width": 360, "height": 640, "fps": 25.0, "link": "https://videos.pexels.com/video-files/8811001/8811001-sd_360_640_25fps.mp4", "size": 947673}, {"id": 10960126, "quality": "hd", "file_type": "video/mp4", "width": 1080, "height": 1920, "fps": 25.0, "link": "https://videos.pexels.com/video-files/8811001/8811001-hd_1080_1920_25fps.mp4", "size": 7925661}, {"id": 10960241, "quality": "sd", "file_type": "video/mp4", "width": 540, "height": 960, "fps": 25.0, "link": "https://videos.pexels.com/video-files/8811001/8811001-sd_540_960_25fps.mp4", "size": 2155412}], "video_pictures": [{"id": 8859708, "nr": 0, "picture": "https://images.pexels.com/videos/8811001/pictures/preview-0.jpeg"}, {"id": 8859711, "nr": 1, "picture": "https://images.pexels.com/videos/8811001/pictures/preview-1.jpeg"}, {"id": 8859713, "nr": 2, "picture": "https://images.pexels.com/videos/8811001/pictures/preview-2.jpeg"}, {"id": 8859717, "nr": 3, "picture": "https://images.pexels.com/videos/8811001/pictures/preview-3.jpeg"}, {"id": 8859719, "nr": 4, "picture": "https://images.pexels.com/videos/8811001/pictures/preview-4.jpeg"}, {"id": 8859723, "nr": 5, "picture": "https://images.pexels.com/videos/8811001/pictures/preview-5.jpeg"}, {"id": 8859725, "nr": 6, "picture": "https://images.pexels.com/videos/8811001/pictures/preview-6.jpeg"}, {"id": 8859727, "nr": 7, "picture": "https://images.pexels.com/videos/8811001/pictures/preview-7.jpeg"}, {"id": 8859731, "nr": 8, "picture": "https://images.pexels.com/videos/8811001/pictures/preview-8.jpeg"}, {"id": 8859735, "nr": 9, "picture": "https://images.pexels.com/videos/8811001/pictures/preview-9.jpeg"}, {"id": 8859739, "nr": 10, "picture": "https://images.pexels.com/videos/8811001/pictures/preview-10.jpeg"}, {"id": 8859742, "nr": 11, "picture": "https://images.pexels.com/videos/8811001/pictures/preview-11.jpeg"}, {"id": 8859746, "nr": 12, "picture": "https://images.pexels.com/videos/8811001/pictures/preview-12.jpeg"}, {"id": 8859753, "nr": 13, "picture": "https://images.pexels.com/videos/8811001/pictures/preview-13.jpeg"}, {"id": 8859757, "nr": 14, "picture": "https://images.pexels.com/videos/8811001/pictures/preview-14.jpeg"}]}, {"id": 8848957, "width": 2160, "height": 3840, "duration": 10, "full_res": null, "tags": [], "url": "https://www.pexels.com/video/women-decorating-the-table-8848957/", "image": "https://images.pexels.com/videos/8848957/pexels-photo-8848957.jpeg?auto=compress&cs=tinysrgb&fit=crop&h=1200&w=630", "avg_color": null, "user": {"id": 80197268, "name": "Lara Jameson", "url": "https://www.pexels.com/@lara-jameson"}, "video_files": [{"id": 10974222, "quality": "uhd", "file_type": "video/mp4", "width": 1440, "height": 2560, "fps": 29.969999313354492, "link": "https://videos.pexels.com/video-files/8848957/8848957-uhd_1440_2560_30fps.mp4", "size": 10723164}, {"id": 10974252, "quality": "sd", "file_type": "video/mp4", "width": 360, "height": 640, "fps": 29.969999313354492, "link": "https://videos.pexels.com/video-files/8848957/8848957-sd_360_640_30fps.mp4", "size": 689279}, {"id": 10974265, "quality": "uhd", "file_type": "video/mp4", "width": 2160, "height": 3840, "fps": 29.969999313354492, "link": "https://videos.pexels.com/video-files/8848957/8848957-uhd_2160_3840_30fps.mp4", "size": 24319629}, {"id": 10974278, "quality": "sd", "file_type": "video/mp4", "width": 240, "height": 426, "fps": 29.969999313354492, "link": "https://videos.pexels.com/video-files/8848957/8848957-sd_240_426_30fps.mp4", "size": 451482}, {"id": 10974294, "quality": "hd", "file_type": "video/mp4", "width": 720, "height": 1280, "fps": 59.940101623535156, "link": "https://videos.pexels.com/video-files/8848957/8848957-hd_720_1280_60fps.mp4", "size": 3624765}, {"id": 10974309, "quality": "sd", "file_type": "video/mp4", "width": 540, "height": 960, "fps": 29.969999313354492, "link": "https://videos.pexels.com/video-files/8848957/8848957-sd_540_960_30fps.mp4", "size": 1831516}, {"id": 10974329, "quality": "hd", "file_type": "video/mp4", "width": 1080, "height": 1920, "fps": 29.969999313354492, "link": "https://videos.pexels.com/video-files/8848957/8848957-hd_1080_1920_30fps.mp4", "size": 6416713}], "video_pictures": [{"id": 8923570, "nr": 0, "picture": "https://images.pexels.com/videos/8848957/pictures/preview-0.jpeg"}, {"id": 8923573, "nr": 1, "picture": "https://images.pexels.com/videos/8848957/pictures/preview-1.jpeg"}, {"id": 8923579, "nr": 2, "picture": "https://images.pexels.com/videos/8848957/pictures/preview-2.jpeg"}, {"id": 8923585, "nr": 3, "picture": "https://images.pexels.com/videos/8848957/pictures/preview-3.jpeg"}, {"id": 8923591, "nr": 0, "picture": "https://images.pexels.com/videos/8848957/pictures/preview-0.jpeg"}, {"id": 8923601, "nr": 1, "picture": "https://images.pexels.com/videos/8848957/pictures/preview-1.jpeg"}, {"id": 8923608, "nr": 4, "picture": "https://images.pexels.com/videos/8848957/pictures/preview-4.jpeg"}, {"id": 8923618, "nr": 2, "picture": "https://images.pexels.com/videos/8848957/pictures/preview-2.jpeg"}, {"id": 8923626, "nr": 5, "picture": "https://images.pexels.com/videos/8848957/pictures/preview-5.jpeg"}, {"id": 8923633, "nr": 3, "picture": "https://images.pexels.com/videos/8848957/pictures/preview-3.jpeg"}, {"id": 8923640, "nr": 6, "picture": "https://images.pexels.com/videos/8848957/pictures/preview-6.jpeg"}, {"id": 8923649, "nr": 7, "picture": "https://images.pexels.com/videos/8848957/pictures/preview-7.jpeg"}, {"id": 8923653, "nr": 4, "picture": "https://images.pexels.com/videos/8848957/pictures/preview-4.jpeg"}, {"id": 8923666, "nr": 8, "picture": "https://images.pexels.com/videos/8848957/pictures/preview-8.jpeg"}, {"id": 8923674, "nr": 5, "picture": "https://images.pexels.com/videos/8848957/pictures/preview-5.jpeg"}, {"id": 8923688, "nr": 9, "picture": "https://images.pexels.com/videos/8848957/pictures/preview-9.jpeg"}, {"id": 8923692, "nr": 6, "picture": "https://images.pexels.com/videos/8848957/pictures/preview-6.jpeg"}, {"id": 8923710, "nr": 7, "picture": "https://images.pexels.com/videos/8848957/pictures/preview-7.jpeg"}, {"id": 8923712, "nr": 10, "picture": "https://images.pexels.com/videos/8848957/pictures/preview-10.jpeg"}, {"id": 8923727, "nr": 8, "picture": "https://images.pexels.com/videos/8848957/pictures/preview-8.jpeg"}, {"id": 8923735, "nr": 11, "picture": "https://images.pexels.com/videos/8848957/pictures/preview-11.jpeg"}, {"id": 8923748, "nr": 9, "picture": "https://images.pexels.com/videos/8848957/pictures/preview-9.jpeg"}, {"id": 8923754, "nr": 12, "picture": "https://images.pexels.com/videos/8848957/pictures/preview-12.jpeg"}, {"id": 8923772, "nr": 13, "picture": "https://images.pexels.com/videos/8848957/pictures/preview-13.jpeg"}, {"id": 8923778, "nr": 10, "picture": "https://images.pexels.com/videos/8848957/pictures/preview-10.jpeg"}, {"id": 8923797, "nr": 14, "picture": "https://images.pexels.com/videos/8848957/pictures/preview-14.jpeg"}, {"id": 8923802, "nr": 11, "picture": "https://images.pexels.com/videos/8848957/pictures/preview-11.jpeg"}, {"id": 8923825, "nr": 12, "picture": "https://images.pexels.com/videos/8848957/pictures/preview-12.jpeg"}, {"id": 8923844, "nr": 13, "picture": "https://images.pexels.com/videos/8848957/pictures/preview-13.jpeg"}, {"id": 8923893, "nr": 14, "picture": "https://images.pexels.com/videos/8848957/pictures/preview-14.jpeg"}]}, {"id": 7121782, "width": 1080, "height": 1920, "duration": 13, "full_res": null, "tags": [], "url": "https://www.pexels.com/video/a-video-of-a-lighted-candles-7121782/", "image": "https://images.pexels.com/videos/7121782/burning-candles-candle-lights-candles-diwali-7121782.jpeg?auto=compress&cs=tinysrgb&fit=crop&h=1200&w=630", "avg_color": null, "user": {"id": 2946790, "name": "Leeloo The First", "url": "https://www.pexels.com/@leeloothefirst"}, "video_files": [{"id": 10311918, "quality": "hd", "file_type": "video/mp4", "width": 720, "height": 1280, "fps": 29.969999313354492, "link": "https://videos.pexels.com/video-files/7121782/7121782-hd_720_1280_30fps.mp4", "size": 3975870}, {"id": 10312032, "quality": "sd", "file_type": "video/mp4", "width": 360, "height": 640, "fps": 29.969999313354492, "link": "https://videos.pexels.com/video-files/7121782/7121782-sd_360_640_30fps.mp4", "size": 908920}, {"id": 10312066, "quality": "hd", "file_type": "video/mp4", "width": 1080, "height": 1920, "fps": 29.969999313354492, "link": "https://videos.pexels.com/video-files/7121782/7121782-hd_1080_1920_30fps.mp4", "size": 8069274}, {"id": 10312102, "quality": "sd", "file_type": "video/mp4", "width": 240, "height": 426, "fps": 29.969999313354492, "link": "https://videos.pexels.com/video-files/7121782/7121782-sd_240_426_30fps.mp4", "size": 580513}, {"id": 10312202, "quality": "sd", "file_type": "video/mp4", "width": 540, "height": 960, "fps": 29.969999313354492, "link": "https://videos.pexels.com/video-files/7121782/7121782-sd_540_960_30fps.mp4", "size": 2331199}], "video_pictures": [{"id": 5787568, "nr": 0, "picture": "https://images.pexels.com/videos/7121782/pictures/preview-0.jpeg"}, {"id": 5787572, "nr": 1, "picture": "https://images.pexels.com/videos/7121782/pictures/preview-1.jpeg"}, {"id": 5787577, "nr": 2, "picture": "https://images.pexels.com/videos/7121782/pictures/preview-2.jpeg"}, {"id": 5787579, "nr": 3, "picture": "https://images.pexels.com/videos/7121782/pictures/preview-3.jpeg"}, {"id": 5787583, "nr": 4, "picture": "https://images.pexels.com/videos/7121782/pictures/preview-4.jpeg"}, {"id": 5787587, "nr": 5, "picture": "https://images.pexels.com/videos/7121782/pictures/preview-5.jpeg"}, {"id": 5787591, "nr": 6, "picture": "https://images.pexels.com/videos/7121782/pictures/preview-6.jpeg"}, {"id": 5787595, "nr": 7, "picture": "https://images.pexels.com/videos/7121782/pictures/preview-7.jpeg"}, {"id": 5787599, "nr": 8, "picture": "https://images.pexels.com/videos/7121782/pictures/preview-8.jpeg"}, {"id": 5787604, "nr": 9, "picture": "https://images.pexels.com/videos/7121782/pictures/preview-9.jpeg"}, {"id": 5787606, "nr": 10, "picture": "https://images.pexels.com/videos/7121782/pictures/preview-10.jpeg"}, {"id": 5787612, "nr": 11, "picture": "https://images.pexels.com/videos/7121782/pictures/preview-11.jpeg"}, {"id": 5787615, "nr": 12, "picture": "https://images.pexels.com/videos/7121782/pictures/preview-12.jpeg"}, {"id": 5787618, "nr": 13, "picture": "https://images.pexels.com/videos/7121782/pictures/preview-13.jpeg"}, {"id": 5787624, "nr": 14, "picture": "https://images.pexels.com/videos/7121782/pictures/preview-14.jpeg"}]}, {"id": 8848959, "width": 2160, "height": 3840, "duration": 13, "full_res": null, "tags": [], "url": "https://www.pexels.com/video/women-decorating-the-table-setting-8848959/", "image": "https://images.pexels.com/videos/8848959/pexels-photo-8848959.jpeg?auto=compress&cs=tinysrgb&fit=crop&h=1200&w=630", "avg_color": null, "user": {"id": 80197268, "name": "Lara Jameson", "url": "https://www.pexels.com/@lara-jameson"}, "video_files": [{"id": 10974207, "quality": "sd", "file_type": "video/mp4", "width": 240, "height": 426, "fps": 29.969999313354492, "link": "https://videos.pexels.com/video-files/8848959/8848959-sd_240_426_30fps.mp4", "size": 551194}, {"id": 10974268, "quality": "hd", "file_type": "video/mp4", "width": 720, "height": 1280, "fps": 59.940101623535156, "link": "https://videos.pexels.com/video-files/8848959/8848959-hd_720_1280_60fps.mp4", "size": 4600545}, {"id": 10974315, "quality": "sd", "file_type": "video/mp4", "width": 540, "height": 960, "fps": 29.969999313354492, "link": "https://videos.pexels.com/video-files/8848959/8848959-sd_540_960_30fps.mp4", "size": 2323731}, {"id": 10974402, "quality": "uhd", "file_type": "video/mp4", "width": 2160, "height": 3840, "fps": 29.969999313354492, "link": "https://videos.pexels.com/video-files/8848959/8848959-uhd_2160_3840_30fps.mp4", "size": 33312559}, {"id": 10974482, "quality": "sd", "file_type": "video/mp4", "width": 360, "height": 640, "fps": 29.969999313354492, "link": "https://videos.pexels.com/video-files/8848959/8848959-sd_360_640_30fps.mp4", "size": 851250}, {"id": 10974601, "quality": "hd", "file_type": "video/mp4", "width": 1080, "height": 1920, "fps": 29.969999313354492, "link": "https://videos.pexels.com/video-files/8848959/8848959-hd_1080_1920_30fps.mp4", "size": 8455397}, {"id": 10974680, "quality": "uhd", "file_type": "video/mp4", "width": 1440, "height": 2560, "fps": 29.969999313354492, "link": "https://videos.pexels.com/video-files/8848959/8848959-uhd_1440_2560_30fps.mp4", "size": 15622959}], "video_pictures": [{"id": 8923581, "nr": 0, "picture": "https://images.pexels.com/videos/8848959/pictures/preview-0.jpeg"}, {"id": 8923587, "nr": 1, "picture": "https://images.pexels.com/videos/8848959/pictures/preview-1.jpeg"}, {"id": 8923609, "nr": 2, "picture": "https://images.pexels.com/videos/8848959/pictures/preview-2.jpeg"}, {"id": 8923624, "nr": 3, "picture": "https://images.pexels.com/videos/8848959/pictures/preview-3.jpeg"}, {"id": 8923644, "nr": 4, "picture": "https://images.pexels.com/videos/8848959/pictures/preview-4.jpeg"}, {"id": 8923662, "nr": 5, "picture": "https://images.pexels.com/videos/8848959/pictures/preview-5.jpeg"}, {"id": 8923681, "nr": 6, "picture": "https://images.pexels.com/videos/8848959/pictures/preview-6.jpeg"}, {"id": 8923700, "nr": 7, "picture": "https://images.pexels.com/videos/8848959/pictures/preview-7.jpeg"}, {"id": 8923728, "nr": 8, "picture": "https://images.pexels.com/videos/8848959/pictures/preview-8.jpeg"}, {"id": 8923746, "nr": 9, "picture": "https://images.pexels.com/videos/8848959/pictures/preview-9.jpeg"}, {"id": 8923766, "nr": 10, "picture": "https://images.pexels.com/videos/8848959/pictures/preview-10.jpeg"}, {"id": 8923790, "nr": 11, "picture": "https://images.pexels.com/videos/8848959/pictures/preview-11.jpeg"}, {"id": 8923821, "nr": 12, "picture": "https://images.pexels.com/videos/8848959/pictures/preview-12.jpeg"}, {"id": 8923842, "nr": 13, "picture": "https://images.pexels.com/videos/8848959/pictures/preview-13.jpeg"}, {"id": 8923877, "nr": 14, "picture": "https://images.pexels.com/videos/8848959/pictures/preview-14.jpeg"}]}], "total_results": 6232, "next_page": "https://api.pexels.com/v1/videos/search/?orientation=portrait&page=2&per_page=8&query=marigold+flowers", "url": "https://api-server.pexels.com/search/videos/marigold%20flowers/"}, "timestamp": "2024-12-28T22:41:54.982783"}
