{"query": "small water lily", "response": {"page": 1, "per_page": 8, "videos": [{"id": 8195692, "width": 2160, "height": 4096, "duration": 9, "full_res": null, "tags": [], "url": "https://www.pexels.com/video/close-up-shot-of-waterlily-8195692/", "image": "https://images.pexels.com/videos/8195692/art-beautiful-cactus-color-8195692.jpeg?auto=compress&cs=tinysrgb&fit=crop&h=1200&w=630", "avg_color": null, "user": {"id": 2678846, "name": "ROMAN ODINTSOV", "url": "https://www.pexels.com/@roman-odintsov"}, "video_files": [{"id": 10741165, "quality": "sd", "file_type": "video/mp4", "width": 226, "height": 426, "fps": 29.969999313354492, "link": "https://videos.pexels.com/video-files/8195692/8195692-sd_226_426_30fps.mp4", "size": 383802}, {"id": 10741393, "quality": "sd", "file_type": "video/mp4", "width": 506, "height": 960, "fps": 29.969999313354492, "link": "https://videos.pexels.com/video-files/8195692/8195692-sd_506_960_30fps.mp4", "size": 1566363}, {"id": 10741514, "quality": "uhd", "file_type": "video/mp4", "width": 1440, "height": 2732, "fps": 29.969999313354492, "link": "https://videos.pexels.com/video-files/8195692/8195692-uhd_1440_2732_30fps.mp4", "size": 13500305}, {"id": 10741761, "quality": "hd", "file_type": "video/mp4", "width": 720, "height": 1366, "fps": 29.969999313354492, "link": "https://videos.pexels.com/video-files/8195692/8195692-hd_720_1366_30fps.mp4", "size": 2660550}, {"id": 10741858, "quality": "sd", "file_type": "video/mp4", "width": 338, "height": 640, "fps": 29.969999313354492, "link": "https://videos.pexels.com/video-files/8195692/8195692-sd_338_640_30fps.mp4", "size": 533068}, {"id": 10741935, "quality": "uhd", "file_type": "video/mp4", "width": 2160, "height": 4096, "fps": 29.969999313354492, "link": "https://videos.pexels.com/video-files/8195692/8195692-uhd_2160_4096_30fps.mp4", "size": 24670621}, {"id": 10742004, "quality": "hd", "file_type": "video/mp4", "width": 1080, "height": 2048, "fps": 29.969999313354492, "link": "https://videos.pexels.com/video-files/8195692/8195692-hd_1080_2048_30fps.mp4", "size": 5432823}], "video_pictures": [{"id": 7803050, "nr": 0, "picture": "https://images.pexels.com/videos/8195692/pictures/preview-0.jpeg"}, {"id": 7803069, "nr": 1, "picture": "https://images.pexels.com/videos/8195692/pictures/preview-1.jpeg"}, {"id": 7803095, "nr": 2, "picture": "https://images.pexels.com/videos/8195692/pictures/preview-2.jpeg"}, {"id": 7803120, "nr": 3, "picture": "https://images.pexels.com/videos/8195692/pictures/preview-3.jpeg"}, {"id": 7803150, "nr": 4, "picture": "https://images.pexels.com/videos/8195692/pictures/preview-4.jpeg"}, {"id": 7803189, "nr": 5, "picture": "https://images.pexels.com/videos/8195692/pictures/preview-5.jpeg"}, {"id": 7803231, "nr": 6, "picture": "https://images.pexels.com/videos/8195692/pictures/preview-6.jpeg"}, {"id": 7803253, "nr": 7, "picture": "https://images.pexels.com/videos/8195692/pictures/preview-7.jpeg"}, {"id": 7803277, "nr": 8, "picture": "https://images.pexels.com/videos/8195692/pictures/preview-8.jpeg"}, {"id": 7803297, "nr": 9, "picture": "https://images.pexels.com/videos/8195692/pictures/preview-9.jpeg"}, {"id": 7803321, "nr": 10, "picture": "https://images.pexels.com/videos/8195692/pictures/preview-10.jpeg"}, {"id": 7803342, "nr": 11, "picture": "https://images.pexels.com/videos/8195692/pictures/preview-11.jpeg"}, {"id": 7803361, "nr": 12, "picture": "https://images.pexels.com/videos/8195692/pictures/preview-12.jpeg"}, {"id": 7803375, "nr": 13, "picture": "https://images.pexels.com/videos/8195692/pictures/preview-13.jpeg"}, {"id": 7803389, "nr": 14, "picture": "https://images.pexels.com/videos/8195692/pictures/preview-14.jpeg"}]}, {"id": 8286872, "width": 2160, "height": 4096, "duration": 33, "full_res": null, "tags": [], "url": "https://www.pexels.com/video/microgreens-in-an-egg-tray-being-sprayed-with-water-8286872/", "image": "https://images.pexels.com/videos/8286872/at-home-greens-growing-home-gardening-8286872.jpeg?auto=compress&cs=tinysrgb&fit=crop&h=1200&w=630", "avg_color": null, "user": {"id": 22992178, "name": "Ron Lach", "url": "https://www.pexels.com/@ron-lach"}, "video_files": [{"id": 10764631, "quality": "uhd", "file_type": "video/mp4", "width": 1440, "height": 2732, "fps": 25.0, "link": "https://videos.pexels.com/video-files/8286872/8286872-uhd_1440_2732_25fps.mp4", "size": 37217958}, {"id": 10764678, "quality": "sd", "file_type": "video/mp4", "width": 226, "height": 426, "fps": 25.0, "link": "https://videos.pexels.com/video-files/8286872/8286872-sd_226_426_25fps.mp4", "size": 1350932}, {"id": 10764790, "quality": "sd", "file_type": "video/mp4", "width": 506, "height": 960, "fps": 25.0, "link": "https://videos.pexels.com/video-files/8286872/8286872-sd_506_960_25fps.mp4", "size": 4952681}, {"id": 10764908, "quality": "hd", "file_type": "video/mp4", "width": 720, "height": 1366, "fps": 25.0, "link": "https://videos.pexels.com/video-files/8286872/8286872-hd_720_1366_25fps.mp4", "size": 9498202}, {"id": 10765008, "quality": "uhd", "file_type": "video/mp4", "width": 2160, "height": 4096, "fps": 25.0, "link": "https://videos.pexels.com/video-files/8286872/8286872-uhd_2160_4096_25fps.mp4", "size": 80620433}, {"id": 10765194, "quality": "sd", "file_type": "video/mp4", "width": 338, "height": 640, "fps": 25.0, "link": "https://videos.pexels.com/video-files/8286872/8286872-sd_338_640_25fps.mp4", "size": 1950209}, {"id": 10765303, "quality": "hd", "file_type": "video/mp4", "width": 1080, "height": 2048, "fps": 25.0, "link": "https://videos.pexels.com/video-files/8286872/8286872-hd_1080_2048_25fps.mp4", "size": 19682119}], "video_pictures": [{"id": 7951963, "nr": 0, "picture": "https://images.pexels.com/videos/8286872/pictures/preview-0.jpeg"}, {"id": 7951964, "nr": 1, "picture": "https://images.pexels.com/videos/8286872/pictures/preview-1.jpeg"}, {"id": 7951966, "nr": 2, "picture": "https://images.pexels.com/videos/8286872/pictures/preview-2.jpeg"}, {"id": 7951969, "nr": 3, "picture": "https://images.pexels.com/videos/8286872/pictures/preview-3.jpeg"}, {"id": 7951971, "nr": 4, "picture": "https://images.pexels.com/videos/8286872/pictures/preview-4.jpeg"}, {"id": 7951974, "nr": 5, "picture": "https://images.pexels.com/videos/8286872/pictures/preview-5.jpeg"}, {"id": 7951978, "nr": 6, "picture": "https://images.pexels.com/videos/8286872/pictures/preview-6.jpeg"}, {"id": 7951979, "nr": 7, "picture": "https://images.pexels.com/videos/8286872/pictures/preview-7.jpeg"}, {"id": 7951982, "nr": 8, "picture": "https://images.pexels.com/videos/8286872/pictures/preview-8.jpeg"}, {"id": 7951985, "nr": 9, "picture": "https://images.pexels.com/videos/8286872/pictures/preview-9.jpeg"}, {"id": 7951989, "nr": 10, "picture": "https://images.pexels.com/videos/8286872/pictures/preview-10.jpeg"}, {"id": 7951990, "nr": 11, "picture": "https://images.pexels.com/videos/8286872/pictures/preview-11.jpeg"}, {"id": 7951992, "nr": 12, "picture": "https://images.pexels.com/videos/8286872/pictures/preview-12.jpeg"}, {"id": 7951993, "nr": 13, "picture": "https://images.pexels.com/videos/8286872/pictures/preview-13.jpeg"}, {"id": 7951995, "nr": 14, "picture": "https://images.pexels.com/videos/8286872/pictures/preview-14.jpeg"}]}, {"id": 7639239, "width": 1080, "height": 1920, "duration": 16, "full_res": null, "tags": [], "url": "https://www.pexels.com/video/small-objects-falling-underwater-7639239/", "image": "https://images.pexels.com/videos/7639239/abstract-animal-art-artistic-7639239.jpeg?auto=compress&cs=tinysrgb&fit=crop&h=1200&w=630", "avg_color": null, "user": {"id": 3540511, "name": "Eva Bronzini", "url": "https://www.pexels.com/@eva-bronzini"}, "video_files": [{"id": 10508730, "quality": "hd", "file_type": "video/mp4", "width": 1080, "height": 1920, "fps": 29.969999313354492, "link": "https://videos.pexels.com/video-files/7639239/7639239-hd_1080_1920_30fps.mp4", "size": 7577255}, {"id": 10508853, "quality": "sd", "file_type": "video/mp4", "width": 540, "height": 960, "fps": 29.969999313354492, "link": "https://videos.pexels.com/video-files/7639239/7639239-sd_540_960_30fps.mp4", "size": 1777606}, {"id": 10508979, "quality": "sd", "file_type": "video/mp4", "width": 360, "height": 640, "fps": 29.969999313354492, "link": "https://videos.pexels.com/video-files/7639239/7639239-sd_360_640_30fps.mp4", "size": 812244}, {"id": 10509055, "quality": "hd", "file_type": "video/mp4", "width": 720, "height": 1280, "fps": 29.969999313354492, "link": "https://videos.pexels.com/video-files/7639239/7639239-hd_720_1280_30fps.mp4", "size": 2748248}], "video_pictures": [{"id": 6770400, "nr": 0, "picture": "https://images.pexels.com/videos/7639239/pictures/preview-0.jpeg"}, {"id": 6770401, "nr": 1, "picture": "https://images.pexels.com/videos/7639239/pictures/preview-1.jpeg"}, {"id": 6770402, "nr": 2, "picture": "https://images.pexels.com/videos/7639239/pictures/preview-2.jpeg"}, {"id": 6770403, "nr": 3, "picture": "https://images.pexels.com/videos/7639239/pictures/preview-3.jpeg"}, {"id": 6770404, "nr": 4, "picture": "https://images.pexels.com/videos/7639239/pictures/preview-4.jpeg"}, {"id": 6770405, "nr": 5, "picture": "https://images.pexels.com/videos/7639239/pictures/preview-5.jpeg"}, {"id": 6770406, "nr": 6, "picture": "https://images.pexels.com/videos/7639239/pictures/preview-6.jpeg"}, {"id": 6770407, "nr": 7, "picture": "https://images.pexels.com/videos/7639239/pictures/preview-7.jpeg"}, {"id": 6770408, "nr": 8, "picture": "https://images.pexels.com/videos/7639239/pictures/preview-8.jpeg"}, {"id": 6770409, "nr": 9, "picture": "https://images.pexels.com/videos/7639239/pictures/preview-9.jpeg"}, {"id": 6770410, "nr": 10, "picture": "https://images.pexels.com/videos/7639239/pictures/preview-10.jpeg"}, {"id": 6770411, "nr": 11, "picture": "https://images.pexels.com/videos/7639239/pictures/preview-11.jpeg"}, {"id": 6770412, "nr": 12, "picture": "https://images.pexels.com/videos/7639239/pictures/preview-12.jpeg"}, {"id": 6770413, "nr": 13, "picture": "https://images.pexels.com/videos/7639239/pictures/preview-13.jpeg"}, {"id": 6770414, "nr": 14, "picture": "https://images.pexels.com/videos/7639239/pictures/preview-14.jpeg"}]}, {"id": 6288857, "width": 1080, "height": 1920, "duration": 12, "full_res": null, "tags": [], "url": "https://www.pexels.com/video/close-up-video-of-quail-eggs-6288857/", "image": "https://images.pexels.com/videos/6288857/pexels-photo-6288857.jpeg?auto=compress&cs=tinysrgb&fit=crop&h=1200&w=630", "avg_color": null, "user": {"id": 6928139, "name": "Klaus Nielsen", "url": "https://www.pexels.com/@klaus-nielsen"}, "video_files": [{"id": 9993936, "quality": "hd", "file_type": "video/mp4", "width": 1080, "height": 1920, "fps": 25.0, "link": "https://videos.pexels.com/video-files/6288857/6288857-hd_1080_1920_25fps.mp4", "size": 7806675}, {"id": 9994040, "quality": "sd", "file_type": "video/mp4", "width": 240, "height": 426, "fps": 25.0, "link": "https://videos.pexels.com/video-files/6288857/6288857-sd_240_426_25fps.mp4", "size": 501657}, {"id": 9994206, "quality": "sd", "file_type": "video/mp4", "width": 540, "height": 960, "fps": 25.0, "link": "https://videos.pexels.com/video-files/6288857/6288857-sd_540_960_25fps.mp4", "size": 1986459}, {"id": 9994263, "quality": "hd", "file_type": "video/mp4", "width": 720, "height": 1280, "fps": 50.0, "link": "https://videos.pexels.com/video-files/6288857/6288857-hd_720_1280_50fps.mp4", "size": 3700327}, {"id": 9994317, "quality": "sd", "file_type": "video/mp4", "width": 360, "height": 640, "fps": 25.0, "link": "https://videos.pexels.com/video-files/6288857/6288857-sd_360_640_25fps.mp4", "size": 864172}], "video_pictures": [{"id": 4232899, "nr": 0, "picture": "https://images.pexels.com/videos/6288857/pictures/preview-0.jpeg"}, {"id": 4232947, "nr": 1, "picture": "https://images.pexels.com/videos/6288857/pictures/preview-1.jpeg"}, {"id": 4232987, "nr": 2, "picture": "https://images.pexels.com/videos/6288857/pictures/preview-2.jpeg"}, {"id": 4233018, "nr": 3, "picture": "https://images.pexels.com/videos/6288857/pictures/preview-3.jpeg"}, {"id": 4233046, "nr": 4, "picture": "https://images.pexels.com/videos/6288857/pictures/preview-4.jpeg"}, {"id": 4233073, "nr": 5, "picture": "https://images.pexels.com/videos/6288857/pictures/preview-5.jpeg"}, {"id": 4233095, "nr": 6, "picture": "https://images.pexels.com/videos/6288857/pictures/preview-6.jpeg"}, {"id": 4233122, "nr": 7, "picture": "https://images.pexels.com/videos/6288857/pictures/preview-7.jpeg"}, {"id": 4233149, "nr": 8, "picture": "https://images.pexels.com/videos/6288857/pictures/preview-8.jpeg"}, {"id": 4233171, "nr": 9, "picture": "https://images.pexels.com/videos/6288857/pictures/preview-9.jpeg"}, {"id": 4233185, "nr": 10, "picture": "https://images.pexels.com/videos/6288857/pictures/preview-10.jpeg"}, {"id": 4233207, "nr": 11, "picture": "https://images.pexels.com/videos/6288857/pictures/preview-11.jpeg"}, {"id": 4233230, "nr": 12, "picture": "https://images.pexels.com/videos/6288857/pictures/preview-12.jpeg"}, {"id": 4233246, "nr": 13, "picture": "https://images.pexels.com/videos/6288857/pictures/preview-13.jpeg"}, {"id": 4233253, "nr": 14, "picture": "https://images.pexels.com/videos/6288857/pictures/preview-14.jpeg"}]}, {"id": 9063405, "width": 2160, "height": 4096, "duration": 30, "full_res": null, "tags": [], "url": "https://www.pexels.com/video/watering-a-plant-9063405/", "image": "https://images.pexels.com/videos/9063405/pexels-photo-9063405.jpeg?auto=compress&cs=tinysrgb&fit=crop&h=1200&w=630", "avg_color": null, "user": {"id": 2408093, "name": "KATRIN  BOLOVTSOVA", "url": "https://www.pexels.com/@ekaterina-bolovtsova"}, "video_files": [{"id": 11055372, "quality": "uhd", "file_type": "video/mp4", "width": 2160, "height": 4096, "fps": 30.0, "link": "https://videos.pexels.com/video-files/9063405/9063405-uhd_2160_4096_30fps.mp4", "size": 28284838}, {"id": 11055402, "quality": "sd", "file_type": "video/mp4", "width": 506, "height": 960, "fps": 30.0, "link": "https://videos.pexels.com/video-files/9063405/9063405-sd_506_960_30fps.mp4", "size": 1436234}, {"id": 11055423, "quality": "sd", "file_type": "video/mp4", "width": 226, "height": 426, "fps": 30.0, "link": "https://videos.pexels.com/video-files/9063405/9063405-sd_226_426_30fps.mp4", "size": 351399}, {"id": 11055441, "quality": "sd", "file_type": "video/mp4", "width": 338, "height": 640, "fps": 30.0, "link": "https://videos.pexels.com/video-files/9063405/9063405-sd_338_640_30fps.mp4", "size": 695176}, {"id": 11055454, "quality": "uhd", "file_type": "video/mp4", "width": 1440, "height": 2732, "fps": 30.0, "link": "https://videos.pexels.com/video-files/9063405/9063405-uhd_1440_2732_30fps.mp4", "size": 11974402}, {"id": 11055461, "quality": "hd", "file_type": "video/mp4", "width": 720, "height": 1366, "fps": 30.0, "link": "https://videos.pexels.com/video-files/9063405/9063405-hd_720_1366_30fps.mp4", "size": 2762718}, {"id": 11055467, "quality": "hd", "file_type": "video/mp4", "width": 1080, "height": 2048, "fps": 30.0, "link": "https://videos.pexels.com/video-files/9063405/9063405-hd_1080_2048_30fps.mp4", "size": 7114675}], "video_pictures": [{"id": 9275220, "nr": 0, "picture": "https://images.pexels.com/videos/9063405/pictures/preview-0.jpeg"}, {"id": 9275232, "nr": 1, "picture": "https://images.pexels.com/videos/9063405/pictures/preview-1.jpeg"}, {"id": 9275250, "nr": 2, "picture": "https://images.pexels.com/videos/9063405/pictures/preview-2.jpeg"}, {"id": 9275259, "nr": 3, "picture": "https://images.pexels.com/videos/9063405/pictures/preview-3.jpeg"}, {"id": 9275268, "nr": 4, "picture": "https://images.pexels.com/videos/9063405/pictures/preview-4.jpeg"}, {"id": 9275277, "nr": 5, "picture": "https://images.pexels.com/videos/9063405/pictures/preview-5.jpeg"}, {"id": 9275286, "nr": 6, "picture": "https://images.pexels.com/videos/9063405/pictures/preview-6.jpeg"}, {"id": 9275299, "nr": 7, "picture": "https://images.pexels.com/videos/9063405/pictures/preview-7.jpeg"}, {"id": 9275309, "nr": 8, "picture": "https://images.pexels.com/videos/9063405/pictures/preview-8.jpeg"}, {"id": 9275318, "nr": 9, "picture": "https://images.pexels.com/videos/9063405/pictures/preview-9.jpeg"}, {"id": 9275332, "nr": 10, "picture": "https://images.pexels.com/videos/9063405/pictures/preview-10.jpeg"}, {"id": 9275346, "nr": 11, "picture": "https://images.pexels.com/videos/9063405/pictures/preview-11.jpeg"}, {"id": 9275356, "nr": 12, "picture": "https://images.pexels.com/videos/9063405/pictures/preview-12.jpeg"}, {"id": 9275368, "nr": 13, "picture": "https://images.pexels.com/videos/9063405/pictures/preview-13.jpeg"}, {"id": 9275378, "nr": 14, "picture": "https://images.pexels.com/videos/9063405/pictures/preview-14.jpeg"}]}, {"id": 19130256, "width": 2160, "height": 3840, "duration": 5, "full_res": null, "tags": [], "url": "https://www.pexels.com/video/sun-glare-on-water-plant-s-leaves-19130256/", "image": "https://images.pexels.com/videos/19130256/idyllic-instagram-stories-pound-sparkling-water-19130256.jpeg?auto=compress&cs=tinysrgb&fit=crop&h=1200&w=630", "avg_color": null, "user": {"id": 696965791, "name": "Taty  Gkiozos", "url": "https://www.pexels.com/@taty-gkiozos-696965791"}, "video_files": [{"id": 8232770, "quality": "uhd", "file_type": "video/mp4", "width": 2160, "height": 3840, "fps": 30.0, "link": "https://videos.pexels.com/video-files/19130256/19130256-uhd_2160_3840_30fps.mp4", "size": 16464020}, {"id": 8232771, "quality": "hd", "file_type": "video/mp4", "width": 720, "height": 1280, "fps": 30.0, "link": "https://videos.pexels.com/video-files/19130256/19130256-hd_720_1280_30fps.mp4", "size": 2019915}, {"id": 8232772, "quality": "sd", "file_type": "video/mp4", "width": 360, "height": 640, "fps": 30.0, "link": "https://videos.pexels.com/video-files/19130256/19130256-sd_360_640_30fps.mp4", "size": 628056}, {"id": 8232773, "quality": "sd", "file_type": "video/mp4", "width": 540, "height": 960, "fps": 30.0, "link": "https://videos.pexels.com/video-files/19130256/19130256-sd_540_960_30fps.mp4", "size": 1120641}, {"id": 8232774, "quality": "hd", "file_type": "video/mp4", "width": 1080, "height": 1920, "fps": 30.0, "link": "https://videos.pexels.com/video-files/19130256/19130256-hd_1080_1920_30fps.mp4", "size": 3689993}, {"id": 8232775, "quality": "uhd", "file_type": "video/mp4", "width": 1440, "height": 2560, "fps": 30.0, "link": "https://videos.pexels.com/video-files/19130256/19130256-uhd_1440_2560_30fps.mp4", "size": 7725329}, {"id": 8232776, "quality": "sd", "file_type": "video/mp4", "width": 240, "height": 426, "fps": 30.0, "link": "https://videos.pexels.com/video-files/19130256/19130256-sd_240_426_30fps.mp4", "size": 363688}], "video_pictures": [{"id": 19932989, "nr": 0, "picture": "https://images.pexels.com/videos/19130256/pictures/preview-0.jpeg"}, {"id": 19932990, "nr": 1, "picture": "https://images.pexels.com/videos/19130256/pictures/preview-1.jpeg"}, {"id": 19932992, "nr": 2, "picture": "https://images.pexels.com/videos/19130256/pictures/preview-2.jpeg"}, {"id": 19932994, "nr": 3, "picture": "https://images.pexels.com/videos/19130256/pictures/preview-3.jpeg"}, {"id": 19932995, "nr": 4, "picture": "https://images.pexels.com/videos/19130256/pictures/preview-4.jpeg"}, {"id": 19932998, "nr": 5, "picture": "https://images.pexels.com/videos/19130256/pictures/preview-5.jpeg"}, {"id": 19933001, "nr": 6, "picture": "https://images.pexels.com/videos/19130256/pictures/preview-6.jpeg"}, {"id": 19933004, "nr": 7, "picture": "https://images.pexels.com/videos/19130256/pictures/preview-7.jpeg"}, {"id": 19933009, "nr": 8, "picture": "https://images.pexels.com/videos/19130256/pictures/preview-8.jpeg"}, {"id": 19933012, "nr": 9, "picture": "https://images.pexels.com/videos/19130256/pictures/preview-9.jpeg"}, {"id": 19933017, "nr": 10, "picture": "https://images.pexels.com/videos/19130256/pictures/preview-10.jpeg"}, {"id": 19933022, "nr": 11, "picture": "https://images.pexels.com/videos/19130256/pictures/preview-11.jpeg"}, {"id": 19933027, "nr": 12, "picture": "https://images.pexels.com/videos/19130256/pictures/preview-12.jpeg"}, {"id": 19933031, "nr": 13, "picture": "https://images.pexels.com/videos/19130256/pictures/preview-13.jpeg"}, {"id": 19933035, "nr": 14, "picture": "https://images.pexels.com/videos/19130256/pictures/preview-14.jpeg"}]}, {"id": 12541024, "width": 2160, "height": 3840, "duration": 3, "full_res": null, "tags": [], "url": "https://www.pexels.com/video/beach-holiday-vacation-sand-12541024/", "image": "https://images.pexels.com/videos/12541024/pexels-photo-12541024.jpeg?auto=compress&cs=tinysrgb&fit=crop&h=1200&w=630", "avg_color": null, "user": {"id": 45786, "name": "Asad Photo Maldives", "url": "https://www.pexels.com/@asadphoto"}, "video_files": [{"id": 5488763, "quality": "sd", "file_type": "video/mp4", "width": 240, "height": 426, "fps": 24.0, "link": "https://videos.pexels.com/video-files/12541024/12541024-sd_240_426_24fps.mp4", "size": 228515}, {"id": 5488764, "quality": "sd", "file_type": "video/mp4", "width": 540, "height": 960, "fps": 24.0, "link": "https://videos.pexels.com/video-files/12541024/12541024-sd_540_960_24fps.mp4", "size": 712116}, {"id": 5488765, "quality": "uhd", "file_type": "video/mp4", "width": 2160, "height": 3840, "fps": 24.0, "link": "https://videos.pexels.com/video-files/12541024/12541024-uhd_2160_3840_24fps.mp4", "size": 10190514}, {"id": 5488766, "quality": "hd", "file_type": "video/mp4", "width": 720, "height": 1280, "fps": 24.0, "link": "https://videos.pexels.com/video-files/12541024/12541024-hd_720_1280_24fps.mp4", "size": 1309989}, {"id": 5488767, "quality": "sd", "file_type": "video/mp4", "width": 360, "height": 640, "fps": 24.0, "link": "https://videos.pexels.com/video-files/12541024/12541024-sd_360_640_24fps.mp4", "size": 365016}, {"id": 5488768, "quality": "hd", "file_type": "video/mp4", "width": 1080, "height": 1920, "fps": 24.0, "link": "https://videos.pexels.com/video-files/12541024/12541024-hd_1080_1920_24fps.mp4", "size": 2986923}, {"id": 5488769, "quality": "uhd", "file_type": "video/mp4", "width": 1440, "height": 2560, "fps": 24.0, "link": "https://videos.pexels.com/video-files/12541024/12541024-uhd_1440_2560_24fps.mp4", "size": 6055889}], "video_pictures": [{"id": 13579977, "nr": 0, "picture": "https://images.pexels.com/videos/12541024/pictures/preview-0.jpeg"}, {"id": 13579987, "nr": 1, "picture": "https://images.pexels.com/videos/12541024/pictures/preview-1.jpeg"}, {"id": 13580002, "nr": 2, "picture": "https://images.pexels.com/videos/12541024/pictures/preview-2.jpeg"}, {"id": 13580014, "nr": 3, "picture": "https://images.pexels.com/videos/12541024/pictures/preview-3.jpeg"}, {"id": 13580025, "nr": 4, "picture": "https://images.pexels.com/videos/12541024/pictures/preview-4.jpeg"}, {"id": 13580039, "nr": 5, "picture": "https://images.pexels.com/videos/12541024/pictures/preview-5.jpeg"}, {"id": 13580054, "nr": 6, "picture": "https://images.pexels.com/videos/12541024/pictures/preview-6.jpeg"}, {"id": 13580065, "nr": 7, "picture": "https://images.pexels.com/videos/12541024/pictures/preview-7.jpeg"}, {"id": 13580081, "nr": 8, "picture": "https://images.pexels.com/videos/12541024/pictures/preview-8.jpeg"}, {"id": 13580098, "nr": 9, "picture": "https://images.pexels.com/videos/12541024/pictures/preview-9.jpeg"}, {"id": 13580114, "nr": 10, "picture": "https://images.pexels.com/videos/12541024/pictures/preview-10.jpeg"}, {"id": 13580129, "nr": 11, "picture": "https://images.pexels.com/videos/12541024/pictures/preview-11.jpeg"}, {"id": 13580143, "nr": 12, "picture": "https://images.pexels.com/videos/12541024/pictures/preview-12.jpeg"}, {"id": 13580155, "nr": 13, "picture": "https://images.pexels.com/videos/12541024/pictures/preview-13.jpeg"}, {"id": 13580168, "nr": 14, "picture": "https://images.pexels.com/videos/12541024/pictures/preview-14.jpeg"}]}, {"id": 16272692, "width": 2160, "height": 3840, "duration": 12, "full_res": null, "tags": [], "url": "https://www.pexels.com/video/a-purple-water-lily-floating-in-a-pond-with-lily-pads-16272692/", "image": "https://images.pexels.com/videos/16272692/beautiful-flowers-beautiful-nature-botanic-garden-flower-16272692.jpeg?auto=compress&cs=tinysrgb&fit=crop&h=1200&w=630", "avg_color": null, "user": {"id": 723228, "name": "Deeana Arts", "url": "https://www.pexels.com/@deeanacreates"}, "video_files": [{"id": 6699108, "quality": "hd", "file_type": "video/mp4", "width": 720, "height": 1280, "fps": 60.0, "link": "https://videos.pexels.com/video-files/16272692/16272692-hd_720_1280_60fps.mp4", "size": 4732659}, {"id": 6699109, "quality": "sd", "file_type": "video/mp4", "width": 540, "height": 960, "fps": 30.0, "link": "https://videos.pexels.com/video-files/16272692/16272692-sd_540_960_30fps.mp4", "size": 2708890}, {"id": 6699110, "quality": "hd", "file_type": "video/mp4", "width": 1080, "height": 1920, "fps": 60.0, "link": "https://videos.pexels.com/video-files/16272692/16272692-hd_1080_1920_60fps.mp4", "size": 9468503}, {"id": 6699111, "quality": "sd", "file_type": "video/mp4", "width": 240, "height": 426, "fps": 30.0, "link": "https://videos.pexels.com/video-files/16272692/16272692-sd_240_426_30fps.mp4", "size": 549279}, {"id": 6699112, "quality": "uhd", "file_type": "video/mp4", "width": 1440, "height": 2560, "fps": 60.0, "link": "https://videos.pexels.com/video-files/16272692/16272692-uhd_1440_2560_60fps.mp4", "size": 18616726}, {"id": 6699113, "quality": "sd", "file_type": "video/mp4", "width": 360, "height": 640, "fps": 30.0, "link": "https://videos.pexels.com/video-files/16272692/16272692-sd_360_640_30fps.mp4", "size": 1269234}, {"id": 6699114, "quality": "uhd", "file_type": "video/mp4", "width": 2160, "height": 3840, "fps": 60.0, "link": "https://videos.pexels.com/video-files/16272692/16272692-uhd_2160_3840_60fps.mp4", "size": 37094271}], "video_pictures": [{"id": 17179735, "nr": 0, "picture": "https://images.pexels.com/videos/16272692/pictures/preview-0.jpeg"}, {"id": 17179739, "nr": 1, "picture": "https://images.pexels.com/videos/16272692/pictures/preview-1.jpeg"}, {"id": 17179745, "nr": 2, "picture": "https://images.pexels.com/videos/16272692/pictures/preview-2.jpeg"}, {"id": 17179748, "nr": 3, "picture": "https://images.pexels.com/videos/16272692/pictures/preview-3.jpeg"}, {"id": 17179753, "nr": 4, "picture": "https://images.pexels.com/videos/16272692/pictures/preview-4.jpeg"}, {"id": 17179756, "nr": 5, "picture": "https://images.pexels.com/videos/16272692/pictures/preview-5.jpeg"}, {"id": 17179758, "nr": 6, "picture": "https://images.pexels.com/videos/16272692/pictures/preview-6.jpeg"}, {"id": 17179761, "nr": 7, "picture": "https://images.pexels.com/videos/16272692/pictures/preview-7.jpeg"}, {"id": 17179766, "nr": 8, "picture": "https://images.pexels.com/videos/16272692/pictures/preview-8.jpeg"}, {"id": 17179768, "nr": 9, "picture": "https://images.pexels.com/videos/16272692/pictures/preview-9.jpeg"}, {"id": 17179782, "nr": 10, "picture": "https://images.pexels.com/videos/16272692/pictures/preview-10.jpeg"}, {"id": 17179802, "nr": 11, "picture": "https://images.pexels.com/videos/16272692/pictures/preview-11.jpeg"}, {"id": 17179818, "nr": 12, "picture": "https://images.pexels.com/videos/16272692/pictures/preview-12.jpeg"}, {"id": 17179843, "nr": 13, "picture": "https://images.pexels.com/videos/16272692/pictures/preview-13.jpeg"}, {"id": 17179865, "nr": 14, "picture": "https://images.pexels.com/videos/16272692/pictures/preview-14.jpeg"}]}], "total_results": 8000, "next_page": "https://api.pexels.com/v1/videos/search/?orientation=portrait&page=2&per_page=8&query=small+water+lily", "url": "https://api-server.pexels.com/search/videos/small%20water%20lily/"}, "timestamp": "2024-12-28T22:18:08.737657"}
