{"query": "2000 years", "response": {"page": 1, "per_page": 8, "videos": [{"id": 29898627, "width": 2160, "height": 3840, "duration": 67, "full_res": null, "tags": [], "url": "https://www.pexels.com/video/charming-alleyway-in-ho-chi-minh-city-29898627/", "image": "https://images.pexels.com/videos/29898627/attraction-chinese-new-year-city-coffeeshop-29898627.jpeg?auto=compress&cs=tinysrgb&fit=crop&h=1200&w=630", "avg_color": null, "user": {"id": 898884684, "name": "Khanh Nguyen", "url": "https://www.pexels.com/@passengerslover"}, "video_files": [{"id": 12834438, "quality": null, "file_type": "video/mp4", "width": 360, "height": 640, "fps": 60.0, "link": "https://videos.pexels.com/video-files/29898627/12834438_360_640_60fps.mp4", "size": 13431101}, {"id": 12834439, "quality": null, "file_type": "video/mp4", "width": 540, "height": 960, "fps": 60.0, "link": "https://videos.pexels.com/video-files/29898627/12834439_540_960_60fps.mp4", "size": 29044788}, {"id": 12834440, "quality": null, "file_type": "video/mp4", "width": 720, "height": 1280, "fps": 60.0, "link": "https://videos.pexels.com/video-files/29898627/12834440_720_1280_60fps.mp4", "size": 53004885}, {"id": 12834441, "quality": null, "file_type": "video/mp4", "width": 1080, "height": 1920, "fps": 60.0, "link": "https://videos.pexels.com/video-files/29898627/12834441_1080_1920_60fps.mp4", "size": 141788957}, {"id": 12834442, "quality": null, "file_type": "video/mp4", "width": 1440, "height": 2560, "fps": 60.0, "link": "https://videos.pexels.com/video-files/29898627/12834442_1440_2560_60fps.mp4", "size": 255176791}, {"id": 12834443, "quality": null, "file_type": "video/mp4", "width": 2160, "height": 3840, "fps": 60.0, "link": "https://videos.pexels.com/video-files/29898627/12834443_2160_3840_60fps.mp4", "size": 590403130}], "video_pictures": [{"id": 24263912, "nr": 0, "picture": "https://images.pexels.com/videos/29898627/pictures/preview-0.jpg"}, {"id": 24263913, "nr": 1, "picture": "https://images.pexels.com/videos/29898627/pictures/preview-1.jpg"}, {"id": 24263914, "nr": 2, "picture": "https://images.pexels.com/videos/29898627/pictures/preview-2.jpg"}, {"id": 24263915, "nr": 3, "picture": "https://images.pexels.com/videos/29898627/pictures/preview-3.jpg"}, {"id": 24263916, "nr": 4, "picture": "https://images.pexels.com/videos/29898627/pictures/preview-4.jpg"}, {"id": 24263917, "nr": 5, "picture": "https://images.pexels.com/videos/29898627/pictures/preview-5.jpg"}, {"id": 24263918, "nr": 6, "picture": "https://images.pexels.com/videos/29898627/pictures/preview-6.jpg"}, {"id": 24263919, "nr": 7, "picture": "https://images.pexels.com/videos/29898627/pictures/preview-7.jpg"}, {"id": 24263920, "nr": 8, "picture": "https://images.pexels.com/videos/29898627/pictures/preview-8.jpg"}, {"id": 24263921, "nr": 9, "picture": "https://images.pexels.com/videos/29898627/pictures/preview-9.jpg"}, {"id": 24263922, "nr": 10, "picture": "https://images.pexels.com/videos/29898627/pictures/preview-10.jpg"}, {"id": 24263923, "nr": 11, "picture": "https://images.pexels.com/videos/29898627/pictures/preview-11.jpg"}, {"id": 24263924, "nr": 12, "picture": "https://images.pexels.com/videos/29898627/pictures/preview-12.jpg"}, {"id": 24263925, "nr": 13, "picture": "https://images.pexels.com/videos/29898627/pictures/preview-13.jpg"}, {"id": 24263926, "nr": 14, "picture": "https://images.pexels.com/videos/29898627/pictures/preview-14.jpg"}]}, {"id": 6032683, "width": 1080, "height": 1920, "duration": 8, "full_res": null, "tags": [], "url": "https://www.pexels.com/video/close-up-video-of-a-christmas-snow-globe-6032683/", "image": "https://images.pexels.com/videos/6032683/christmas-christmas-tree-daughter-family-6032683.jpeg?auto=compress&cs=tinysrgb&fit=crop&h=1200&w=630", "avg_color": null, "user": {"id": 2638647, "name": "olia danilevich", "url": "https://www.pexels.com/@olia-danilevich"}, "video_files": [{"id": 9904148, "quality": "hd", "file_type": "video/mp4", "width": 720, "height": 1280, "fps": 25.0, "link": "https://videos.pexels.com/video-files/6032683/6032683-hd_720_1280_25fps.mp4", "size": 2767922}, {"id": 9904200, "quality": "sd", "file_type": "video/mp4", "width": 240, "height": 426, "fps": 25.0, "link": "https://videos.pexels.com/video-files/6032683/6032683-sd_240_426_25fps.mp4", "size": 366518}, {"id": 9904234, "quality": "sd", "file_type": "video/mp4", "width": 540, "height": 960, "fps": 25.0, "link": "https://videos.pexels.com/video-files/6032683/6032683-sd_540_960_25fps.mp4", "size": 1738238}, {"id": 9904255, "quality": "hd", "file_type": "video/mp4", "width": 1080, "height": 1920, "fps": 25.0, "link": "https://videos.pexels.com/video-files/6032683/6032683-hd_1080_1920_25fps.mp4", "size": 5271702}, {"id": 9904283, "quality": "sd", "file_type": "video/mp4", "width": 360, "height": 640, "fps": 25.0, "link": "https://videos.pexels.com/video-files/6032683/6032683-sd_360_640_25fps.mp4", "size": 617895}], "video_pictures": [{"id": 3806529, "nr": 0, "picture": "https://images.pexels.com/videos/6032683/pictures/preview-0.jpeg"}, {"id": 3806538, "nr": 1, "picture": "https://images.pexels.com/videos/6032683/pictures/preview-1.jpeg"}, {"id": 3806546, "nr": 2, "picture": "https://images.pexels.com/videos/6032683/pictures/preview-2.jpeg"}, {"id": 3806554, "nr": 3, "picture": "https://images.pexels.com/videos/6032683/pictures/preview-3.jpeg"}, {"id": 3806565, "nr": 4, "picture": "https://images.pexels.com/videos/6032683/pictures/preview-4.jpeg"}, {"id": 3806574, "nr": 5, "picture": "https://images.pexels.com/videos/6032683/pictures/preview-5.jpeg"}, {"id": 3806586, "nr": 6, "picture": "https://images.pexels.com/videos/6032683/pictures/preview-6.jpeg"}, {"id": 3806595, "nr": 7, "picture": "https://images.pexels.com/videos/6032683/pictures/preview-7.jpeg"}, {"id": 3806603, "nr": 8, "picture": "https://images.pexels.com/videos/6032683/pictures/preview-8.jpeg"}, {"id": 3806611, "nr": 9, "picture": "https://images.pexels.com/videos/6032683/pictures/preview-9.jpeg"}, {"id": 3806620, "nr": 10, "picture": "https://images.pexels.com/videos/6032683/pictures/preview-10.jpeg"}, {"id": 3806627, "nr": 11, "picture": "https://images.pexels.com/videos/6032683/pictures/preview-11.jpeg"}, {"id": 3806640, "nr": 12, "picture": "https://images.pexels.com/videos/6032683/pictures/preview-12.jpeg"}, {"id": 3806649, "nr": 13, "picture": "https://images.pexels.com/videos/6032683/pictures/preview-13.jpeg"}, {"id": 3806658, "nr": 14, "picture": "https://images.pexels.com/videos/6032683/pictures/preview-14.jpeg"}]}, {"id": 5834605, "width": 2160, "height": 3840, "duration": 29, "full_res": null, "tags": [], "url": "https://www.pexels.com/video/person-holding-a-sparkler-5834605/", "image": "https://images.pexels.com/videos/5834605/pexels-photo-5834605.jpeg?auto=compress&cs=tinysrgb&fit=crop&h=1200&w=630", "avg_color": null, "user": {"id": 3088726, "name": "Tima Miroshnichenko", "url": "https://www.pexels.com/@tima-miroshnichenko"}, "video_files": [{"id": 9817885, "quality": "hd", "file_type": "video/mp4", "width": 720, "height": 1280, "fps": 25.0, "link": "https://videos.pexels.com/video-files/5834605/5834605-hd_720_1280_25fps.mp4", "size": 5962895}, {"id": 9817917, "quality": "sd", "file_type": "video/mp4", "width": 240, "height": 426, "fps": 25.0, "link": "https://videos.pexels.com/video-files/5834605/5834605-sd_240_426_25fps.mp4", "size": 1060608}, {"id": 9817944, "quality": "uhd", "file_type": "video/mp4", "width": 2160, "height": 3840, "fps": 25.0, "link": "https://videos.pexels.com/video-files/5834605/5834605-uhd_2160_3840_25fps.mp4", "size": 60576970}, {"id": 9818019, "quality": "sd", "file_type": "video/mp4", "width": 360, "height": 640, "fps": 25.0, "link": "https://videos.pexels.com/video-files/5834605/5834605-sd_360_640_25fps.mp4", "size": 1666053}, {"id": 9818052, "quality": "hd", "file_type": "video/mp4", "width": 1080, "height": 1920, "fps": 25.0, "link": "https://videos.pexels.com/video-files/5834605/5834605-hd_1080_1920_25fps.mp4", "size": 12407530}, {"id": 9818081, "quality": "sd", "file_type": "video/mp4", "width": 540, "height": 960, "fps": 25.0, "link": "https://videos.pexels.com/video-files/5834605/5834605-sd_540_960_25fps.mp4", "size": 3212773}, {"id": 9818115, "quality": "uhd", "file_type": "video/mp4", "width": 1440, "height": 2560, "fps": 25.0, "link": "https://videos.pexels.com/video-files/5834605/5834605-uhd_1440_2560_25fps.mp4", "size": 22545938}], "video_pictures": [{"id": 3437519, "nr": 0, "picture": "https://images.pexels.com/videos/5834605/pictures/preview-0.jpeg"}, {"id": 3437527, "nr": 1, "picture": "https://images.pexels.com/videos/5834605/pictures/preview-1.jpeg"}, {"id": 3437535, "nr": 2, "picture": "https://images.pexels.com/videos/5834605/pictures/preview-2.jpeg"}, {"id": 3437538, "nr": 3, "picture": "https://images.pexels.com/videos/5834605/pictures/preview-3.jpeg"}, {"id": 3437543, "nr": 4, "picture": "https://images.pexels.com/videos/5834605/pictures/preview-4.jpeg"}, {"id": 3437549, "nr": 5, "picture": "https://images.pexels.com/videos/5834605/pictures/preview-5.jpeg"}, {"id": 3437555, "nr": 6, "picture": "https://images.pexels.com/videos/5834605/pictures/preview-6.jpeg"}, {"id": 3437562, "nr": 7, "picture": "https://images.pexels.com/videos/5834605/pictures/preview-7.jpeg"}, {"id": 3437566, "nr": 8, "picture": "https://images.pexels.com/videos/5834605/pictures/preview-8.jpeg"}, {"id": 3437572, "nr": 9, "picture": "https://images.pexels.com/videos/5834605/pictures/preview-9.jpeg"}, {"id": 3437577, "nr": 10, "picture": "https://images.pexels.com/videos/5834605/pictures/preview-10.jpeg"}, {"id": 3437580, "nr": 11, "picture": "https://images.pexels.com/videos/5834605/pictures/preview-11.jpeg"}, {"id": 3437582, "nr": 12, "picture": "https://images.pexels.com/videos/5834605/pictures/preview-12.jpeg"}, {"id": 3437585, "nr": 13, "picture": "https://images.pexels.com/videos/5834605/pictures/preview-13.jpeg"}, {"id": 3437587, "nr": 14, "picture": "https://images.pexels.com/videos/5834605/pictures/preview-14.jpeg"}]}, {"id": 14618955, "width": 2160, "height": 3840, "duration": 8, "full_res": null, "tags": [], "url": "https://www.pexels.com/video/solar-system-animation-14618955/", "image": "https://images.pexels.com/videos/14618955/cosmos-earth-jupiter-milky-way-14618955.jpeg?auto=compress&cs=tinysrgb&fit=crop&h=1200&w=630", "avg_color": null, "user": {"id": 2791918, "name": "Zelch Csaba", "url": "https://www.pexels.com/@zelch"}, "video_files": [{"id": 6195754, "quality": "sd", "file_type": "video/mp4", "width": 360, "height": 640, "fps": 24.0, "link": "https://videos.pexels.com/video-files/14618955/14618955-sd_360_640_24fps.mp4", "size": 328278}, {"id": 6195755, "quality": "sd", "file_type": "video/mp4", "width": 540, "height": 960, "fps": 24.0, "link": "https://videos.pexels.com/video-files/14618955/14618955-sd_540_960_24fps.mp4", "size": 606607}, {"id": 6195756, "quality": "uhd", "file_type": "video/mp4", "width": 2160, "height": 3840, "fps": 24.0, "link": "https://videos.pexels.com/video-files/14618955/14618955-uhd_2160_3840_24fps.mp4", "size": 6201241}, {"id": 6195757, "quality": "hd", "file_type": "video/mp4", "width": 720, "height": 1280, "fps": 24.0, "link": "https://videos.pexels.com/video-files/14618955/14618955-hd_720_1280_24fps.mp4", "size": 872217}, {"id": 6195758, "quality": "hd", "file_type": "video/mp4", "width": 1080, "height": 1920, "fps": 24.0, "link": "https://videos.pexels.com/video-files/14618955/14618955-hd_1080_1920_24fps.mp4", "size": 1815527}, {"id": 6195759, "quality": "sd", "file_type": "video/mp4", "width": 240, "height": 426, "fps": 24.0, "link": "https://videos.pexels.com/video-files/14618955/14618955-sd_240_426_24fps.mp4", "size": 167098}, {"id": 6195760, "quality": "uhd", "file_type": "video/mp4", "width": 1440, "height": 2560, "fps": 24.0, "link": "https://videos.pexels.com/video-files/14618955/14618955-uhd_1440_2560_24fps.mp4", "size": 2871593}], "video_pictures": [{"id": 15655384, "nr": 0, "picture": "https://images.pexels.com/videos/14618955/pictures/preview-0.jpeg"}, {"id": 15655385, "nr": 1, "picture": "https://images.pexels.com/videos/14618955/pictures/preview-1.jpeg"}, {"id": 15655386, "nr": 2, "picture": "https://images.pexels.com/videos/14618955/pictures/preview-2.jpeg"}, {"id": 15655387, "nr": 3, "picture": "https://images.pexels.com/videos/14618955/pictures/preview-3.jpeg"}, {"id": 15655388, "nr": 4, "picture": "https://images.pexels.com/videos/14618955/pictures/preview-4.jpeg"}, {"id": 15655389, "nr": 5, "picture": "https://images.pexels.com/videos/14618955/pictures/preview-5.jpeg"}, {"id": 15655390, "nr": 6, "picture": "https://images.pexels.com/videos/14618955/pictures/preview-6.jpeg"}, {"id": 15655393, "nr": 7, "picture": "https://images.pexels.com/videos/14618955/pictures/preview-7.jpeg"}, {"id": 15655396, "nr": 8, "picture": "https://images.pexels.com/videos/14618955/pictures/preview-8.jpeg"}, {"id": 15655398, "nr": 9, "picture": "https://images.pexels.com/videos/14618955/pictures/preview-9.jpeg"}, {"id": 15655402, "nr": 10, "picture": "https://images.pexels.com/videos/14618955/pictures/preview-10.jpeg"}, {"id": 15655404, "nr": 11, "picture": "https://images.pexels.com/videos/14618955/pictures/preview-11.jpeg"}, {"id": 15655408, "nr": 12, "picture": "https://images.pexels.com/videos/14618955/pictures/preview-12.jpeg"}, {"id": 15655411, "nr": 13, "picture": "https://images.pexels.com/videos/14618955/pictures/preview-13.jpeg"}, {"id": 15655413, "nr": 14, "picture": "https://images.pexels.com/videos/14618955/pictures/preview-14.jpeg"}]}, {"id": 6314621, "width": 2160, "height": 3840, "duration": 10, "full_res": null, "tags": [], "url": "https://www.pexels.com/video/blurry-shot-of-christmas-lights-6314621/", "image": "https://images.pexels.com/videos/6314621/pexels-photo-6314621.jpeg?auto=compress&cs=tinysrgb&fit=crop&h=1200&w=630", "avg_color": null, "user": {"id": 6928101, "name": "Uriel Mont", "url": "https://www.pexels.com/@uriel-mont"}, "video_files": [{"id": 10004628, "quality": "uhd", "file_type": "video/mp4", "width": 1440, "height": 2560, "fps": 23.97599983215332, "link": "https://videos.pexels.com/video-files/6314621/6314621-uhd_1440_2560_24fps.mp4", "size": 5585858}, {"id": 10004682, "quality": "hd", "file_type": "video/mp4", "width": 720, "height": 1280, "fps": 23.97599983215332, "link": "https://videos.pexels.com/video-files/6314621/6314621-hd_720_1280_24fps.mp4", "size": 1502981}, {"id": 10004752, "quality": "sd", "file_type": "video/mp4", "width": 360, "height": 640, "fps": 23.97599983215332, "link": "https://videos.pexels.com/video-files/6314621/6314621-sd_360_640_24fps.mp4", "size": 518597}, {"id": 10004812, "quality": "sd", "file_type": "video/mp4", "width": 540, "height": 960, "fps": 23.97599983215332, "link": "https://videos.pexels.com/video-files/6314621/6314621-sd_540_960_24fps.mp4", "size": 914863}, {"id": 10004837, "quality": "sd", "file_type": "video/mp4", "width": 240, "height": 426, "fps": 23.97599983215332, "link": "https://videos.pexels.com/video-files/6314621/6314621-sd_240_426_24fps.mp4", "size": 365326}, {"id": 10004852, "quality": "hd", "file_type": "video/mp4", "width": 1080, "height": 1920, "fps": 23.97599983215332, "link": "https://videos.pexels.com/video-files/6314621/6314621-hd_1080_1920_24fps.mp4", "size": 3256343}, {"id": 10004861, "quality": "uhd", "file_type": "video/mp4", "width": 2160, "height": 3840, "fps": 23.97599983215332, "link": "https://videos.pexels.com/video-files/6314621/6314621-uhd_2160_3840_24fps.mp4", "size": 16967842}], "video_pictures": [{"id": 4281088, "nr": 0, "picture": "https://images.pexels.com/videos/6314621/pictures/preview-0.jpeg"}, {"id": 4281097, "nr": 1, "picture": "https://images.pexels.com/videos/6314621/pictures/preview-1.jpeg"}, {"id": 4281105, "nr": 2, "picture": "https://images.pexels.com/videos/6314621/pictures/preview-2.jpeg"}, {"id": 4281109, "nr": 3, "picture": "https://images.pexels.com/videos/6314621/pictures/preview-3.jpeg"}, {"id": 4281115, "nr": 4, "picture": "https://images.pexels.com/videos/6314621/pictures/preview-4.jpeg"}, {"id": 4281125, "nr": 5, "picture": "https://images.pexels.com/videos/6314621/pictures/preview-5.jpeg"}, {"id": 4281131, "nr": 6, "picture": "https://images.pexels.com/videos/6314621/pictures/preview-6.jpeg"}, {"id": 4281138, "nr": 7, "picture": "https://images.pexels.com/videos/6314621/pictures/preview-7.jpeg"}, {"id": 4281146, "nr": 8, "picture": "https://images.pexels.com/videos/6314621/pictures/preview-8.jpeg"}, {"id": 4281153, "nr": 9, "picture": "https://images.pexels.com/videos/6314621/pictures/preview-9.jpeg"}, {"id": 4281161, "nr": 10, "picture": "https://images.pexels.com/videos/6314621/pictures/preview-10.jpeg"}, {"id": 4281169, "nr": 11, "picture": "https://images.pexels.com/videos/6314621/pictures/preview-11.jpeg"}, {"id": 4281180, "nr": 12, "picture": "https://images.pexels.com/videos/6314621/pictures/preview-12.jpeg"}, {"id": 4281184, "nr": 13, "picture": "https://images.pexels.com/videos/6314621/pictures/preview-13.jpeg"}, {"id": 4281190, "nr": 14, "picture": "https://images.pexels.com/videos/6314621/pictures/preview-14.jpeg"}]}, {"id": 6395999, "width": 1080, "height": 1920, "duration": 15, "full_res": null, "tags": [], "url": "https://www.pexels.com/video/people-with-sparklers-clinking-glasses-6395999/", "image": "https://images.pexels.com/videos/6395999/pexels-photo-6395999.jpeg?auto=compress&cs=tinysrgb&fit=crop&h=1200&w=630", "avg_color": null, "user": {"id": 2297095, "name": "Pavel Danilyuk", "url": "https://www.pexels.com/@pavel-danilyuk"}, "video_files": [{"id": 10028255, "quality": "sd", "file_type": "video/mp4", "width": 240, "height": 426, "fps": 25.0, "link": "https://videos.pexels.com/video-files/6395999/6395999-sd_240_426_25fps.mp4", "size": 612670}, {"id": 10028429, "quality": "hd", "file_type": "video/mp4", "width": 1080, "height": 1920, "fps": 25.0, "link": "https://videos.pexels.com/video-files/6395999/6395999-hd_1080_1920_25fps.mp4", "size": 10802657}, {"id": 10028746, "quality": "sd", "file_type": "video/mp4", "width": 360, "height": 640, "fps": 25.0, "link": "https://videos.pexels.com/video-files/6395999/6395999-sd_360_640_25fps.mp4", "size": 1005633}, {"id": 10028888, "quality": "hd", "file_type": "video/mp4", "width": 720, "height": 1280, "fps": 25.0, "link": "https://videos.pexels.com/video-files/6395999/6395999-hd_720_1280_25fps.mp4", "size": 5341008}, {"id": 10028965, "quality": "sd", "file_type": "video/mp4", "width": 540, "height": 960, "fps": 25.0, "link": "https://videos.pexels.com/video-files/6395999/6395999-sd_540_960_25fps.mp4", "size": 2769737}], "video_pictures": [{"id": 4392960, "nr": 0, "picture": "https://images.pexels.com/videos/6395999/pictures/preview-0.jpeg"}, {"id": 4392964, "nr": 1, "picture": "https://images.pexels.com/videos/6395999/pictures/preview-1.jpeg"}, {"id": 4392968, "nr": 2, "picture": "https://images.pexels.com/videos/6395999/pictures/preview-2.jpeg"}, {"id": 4392972, "nr": 3, "picture": "https://images.pexels.com/videos/6395999/pictures/preview-3.jpeg"}, {"id": 4392976, "nr": 4, "picture": "https://images.pexels.com/videos/6395999/pictures/preview-4.jpeg"}, {"id": 4392980, "nr": 5, "picture": "https://images.pexels.com/videos/6395999/pictures/preview-5.jpeg"}, {"id": 4392984, "nr": 6, "picture": "https://images.pexels.com/videos/6395999/pictures/preview-6.jpeg"}, {"id": 4392988, "nr": 7, "picture": "https://images.pexels.com/videos/6395999/pictures/preview-7.jpeg"}, {"id": 4392992, "nr": 8, "picture": "https://images.pexels.com/videos/6395999/pictures/preview-8.jpeg"}, {"id": 4392996, "nr": 9, "picture": "https://images.pexels.com/videos/6395999/pictures/preview-9.jpeg"}, {"id": 4392999, "nr": 10, "picture": "https://images.pexels.com/videos/6395999/pictures/preview-10.jpeg"}, {"id": 4393002, "nr": 11, "picture": "https://images.pexels.com/videos/6395999/pictures/preview-11.jpeg"}, {"id": 4393006, "nr": 12, "picture": "https://images.pexels.com/videos/6395999/pictures/preview-12.jpeg"}, {"id": 4393013, "nr": 13, "picture": "https://images.pexels.com/videos/6395999/pictures/preview-13.jpeg"}, {"id": 4393018, "nr": 14, "picture": "https://images.pexels.com/videos/6395999/pictures/preview-14.jpeg"}]}, {"id": 4806404, "width": 1080, "height": 1920, "duration": 14, "full_res": null, "tags": [], "url": "https://www.pexels.com/video/video-of-fireworks-during-night-4806404/", "image": "https://images.pexels.com/videos/4806404/4th-of-july-fireworks-independence-day-phone-screen-saver-4806404.jpeg?auto=compress&cs=tinysrgb&fit=crop&h=1200&w=630", "avg_color": null, "user": {"id": 3186464, "name": "Richard Dean Earl", "url": "https://www.pexels.com/@richard-dean-earl-3186464"}, "video_files": [{"id": 9566157, "quality": "sd", "file_type": "video/mp4", "width": 240, "height": 426, "fps": 29.969999313354492, "link": "https://videos.pexels.com/video-files/4806404/4806404-sd_240_426_30fps.mp4", "size": 708254}, {"id": 9566182, "quality": "sd", "file_type": "video/mp4", "width": 360, "height": 640, "fps": 29.969999313354492, "link": "https://videos.pexels.com/video-files/4806404/4806404-sd_360_640_30fps.mp4", "size": 1178347}, {"id": 9566198, "quality": "hd", "file_type": "video/mp4", "width": 1080, "height": 1920, "fps": 29.969999313354492, "link": "https://videos.pexels.com/video-files/4806404/4806404-hd_1080_1920_30fps.mp4", "size": 10794124}, {"id": 9566228, "quality": "sd", "file_type": "video/mp4", "width": 540, "height": 960, "fps": 29.969999313354492, "link": "https://videos.pexels.com/video-files/4806404/4806404-sd_540_960_30fps.mp4", "size": 3129539}, {"id": 9566247, "quality": "hd", "file_type": "video/mp4", "width": 720, "height": 1280, "fps": 29.969999313354492, "link": "https://videos.pexels.com/video-files/4806404/4806404-hd_720_1280_30fps.mp4", "size": 5622022}], "video_pictures": [{"id": 1952959, "nr": 0, "picture": "https://images.pexels.com/videos/4806404/pictures/preview-0.jpeg"}, {"id": 1952960, "nr": 1, "picture": "https://images.pexels.com/videos/4806404/pictures/preview-1.jpeg"}, {"id": 1952961, "nr": 2, "picture": "https://images.pexels.com/videos/4806404/pictures/preview-2.jpeg"}, {"id": 1952962, "nr": 3, "picture": "https://images.pexels.com/videos/4806404/pictures/preview-3.jpeg"}, {"id": 1952963, "nr": 4, "picture": "https://images.pexels.com/videos/4806404/pictures/preview-4.jpeg"}, {"id": 1952964, "nr": 5, "picture": "https://images.pexels.com/videos/4806404/pictures/preview-5.jpeg"}, {"id": 1952965, "nr": 6, "picture": "https://images.pexels.com/videos/4806404/pictures/preview-6.jpeg"}, {"id": 1952966, "nr": 7, "picture": "https://images.pexels.com/videos/4806404/pictures/preview-7.jpeg"}, {"id": 1952967, "nr": 8, "picture": "https://images.pexels.com/videos/4806404/pictures/preview-8.jpeg"}, {"id": 1952968, "nr": 9, "picture": "https://images.pexels.com/videos/4806404/pictures/preview-9.jpeg"}, {"id": 1952969, "nr": 10, "picture": "https://images.pexels.com/videos/4806404/pictures/preview-10.jpeg"}, {"id": 1952970, "nr": 11, "picture": "https://images.pexels.com/videos/4806404/pictures/preview-11.jpeg"}, {"id": 1952971, "nr": 12, "picture": "https://images.pexels.com/videos/4806404/pictures/preview-12.jpeg"}, {"id": 1952972, "nr": 13, "picture": "https://images.pexels.com/videos/4806404/pictures/preview-13.jpeg"}, {"id": 1952973, "nr": 14, "picture": "https://images.pexels.com/videos/4806404/pictures/preview-14.jpeg"}]}, {"id": 19798255, "width": 2160, "height": 3840, "duration": 14, "full_res": null, "tags": [], "url": "https://www.pexels.com/video/a-2024-calendar-on-a-desk-19798255/", "image": "https://images.pexels.com/videos/19798255/2024-agenda-book-color-19798255.jpeg?auto=compress&cs=tinysrgb&fit=crop&h=1200&w=630", "avg_color": null, "user": {"id": 177885845, "name": "Ali  Alc\u00e1ntara", "url": "https://www.pexels.com/@alialcantara"}, "video_files": [{"id": 8684537, "quality": "sd", "file_type": "video/mp4", "width": 240, "height": 426, "fps": 24.0, "link": "https://videos.pexels.com/video-files/19798255/19798255-sd_240_426_24fps.mp4", "size": 593403}, {"id": 8684538, "quality": "hd", "file_type": "video/mp4", "width": 720, "height": 1280, "fps": 24.0, "link": "https://videos.pexels.com/video-files/19798255/19798255-hd_720_1280_24fps.mp4", "size": 1717264}, {"id": 8684541, "quality": "uhd", "file_type": "video/mp4", "width": 2160, "height": 3840, "fps": 24.0, "link": "https://videos.pexels.com/video-files/19798255/19798255-uhd_2160_3840_24fps.mp4", "size": 20835621}, {"id": 8684544, "quality": "sd", "file_type": "video/mp4", "width": 360, "height": 640, "fps": 24.0, "link": "https://videos.pexels.com/video-files/19798255/19798255-sd_360_640_24fps.mp4", "size": 805219}, {"id": 8684546, "quality": "uhd", "file_type": "video/mp4", "width": 1440, "height": 2560, "fps": 24.0, "link": "https://videos.pexels.com/video-files/19798255/19798255-uhd_1440_2560_24fps.mp4", "size": 6343782}, {"id": 8684549, "quality": "sd", "file_type": "video/mp4", "width": 540, "height": 960, "fps": 24.0, "link": "https://videos.pexels.com/video-files/19798255/19798255-sd_540_960_24fps.mp4", "size": 1233997}, {"id": 8684551, "quality": "hd", "file_type": "video/mp4", "width": 1080, "height": 1920, "fps": 24.0, "link": "https://videos.pexels.com/video-files/19798255/19798255-hd_1080_1920_24fps.mp4", "size": 3631657}], "video_pictures": [{"id": 20663679, "nr": 0, "picture": "https://images.pexels.com/videos/19798255/pictures/preview-0.jpeg"}, {"id": 20663704, "nr": 1, "picture": "https://images.pexels.com/videos/19798255/pictures/preview-1.jpeg"}, {"id": 20663738, "nr": 2, "picture": "https://images.pexels.com/videos/19798255/pictures/preview-2.jpeg"}, {"id": 20663776, "nr": 3, "picture": "https://images.pexels.com/videos/19798255/pictures/preview-3.jpeg"}, {"id": 20663813, "nr": 4, "picture": "https://images.pexels.com/videos/19798255/pictures/preview-4.jpeg"}, {"id": 20663838, "nr": 5, "picture": "https://images.pexels.com/videos/19798255/pictures/preview-5.jpeg"}, {"id": 20663861, "nr": 6, "picture": "https://images.pexels.com/videos/19798255/pictures/preview-6.jpeg"}, {"id": 20663891, "nr": 7, "picture": "https://images.pexels.com/videos/19798255/pictures/preview-7.jpeg"}, {"id": 20663911, "nr": 8, "picture": "https://images.pexels.com/videos/19798255/pictures/preview-8.jpeg"}, {"id": 20663938, "nr": 9, "picture": "https://images.pexels.com/videos/19798255/pictures/preview-9.jpeg"}, {"id": 20663962, "nr": 10, "picture": "https://images.pexels.com/videos/19798255/pictures/preview-10.jpeg"}, {"id": 20663990, "nr": 11, "picture": "https://images.pexels.com/videos/19798255/pictures/preview-11.jpeg"}, {"id": 20664005, "nr": 12, "picture": "https://images.pexels.com/videos/19798255/pictures/preview-12.jpeg"}, {"id": 20664021, "nr": 13, "picture": "https://images.pexels.com/videos/19798255/pictures/preview-13.jpeg"}, {"id": 20664034, "nr": 14, "picture": "https://images.pexels.com/videos/19798255/pictures/preview-14.jpeg"}]}], "total_results": 1055, "next_page": "https://api.pexels.com/v1/videos/search/?orientation=portrait&page=2&per_page=8&query=2000+years", "url": "https://api-server.pexels.com/search/videos/2000%20years/"}, "timestamp": "2024-12-28T22:42:48.746259"}
