{"query": "green thumb", "response": {"page": 1, "per_page": 8, "videos": [{"id": 7782542, "width": 1080, "height": 1920, "duration": 8, "full_res": null, "tags": [], "url": "https://www.pexels.com/video/kids-planting-seeds-7782542/", "image": "https://images.pexels.com/videos/7782542/agriculture-ball-shaped-compost-countryside-7782542.jpeg?auto=compress&cs=tinysrgb&fit=crop&h=1200&w=630", "avg_color": null, "user": {"id": 3149039, "name": "RDNE Stock project", "url": "https://www.pexels.com/@rdne"}, "video_files": [{"id": 10576669, "quality": "hd", "file_type": "video/mp4", "width": 1080, "height": 1920, "fps": 30.0, "link": "https://videos.pexels.com/video-files/7782542/7782542-hd_1080_1920_30fps.mp4", "size": 4603009}, {"id": 10576682, "quality": "hd", "file_type": "video/mp4", "width": 720, "height": 1280, "fps": 30.0, "link": "https://videos.pexels.com/video-files/7782542/7782542-hd_720_1280_30fps.mp4", "size": 2277097}, {"id": 10576693, "quality": "sd", "file_type": "video/mp4", "width": 240, "height": 426, "fps": 30.0, "link": "https://videos.pexels.com/video-files/7782542/7782542-sd_240_426_30fps.mp4", "size": 328674}, {"id": 10576703, "quality": "sd", "file_type": "video/mp4", "width": 540, "height": 960, "fps": 30.0, "link": "https://videos.pexels.com/video-files/7782542/7782542-sd_540_960_30fps.mp4", "size": 1338868}, {"id": 10576726, "quality": "sd", "file_type": "video/mp4", "width": 360, "height": 640, "fps": 30.0, "link": "https://videos.pexels.com/video-files/7782542/7782542-sd_360_640_30fps.mp4", "size": 446550}], "video_pictures": [{"id": 7048911, "nr": 0, "picture": "https://images.pexels.com/videos/7782542/pictures/preview-0.jpeg"}, {"id": 7048923, "nr": 1, "picture": "https://images.pexels.com/videos/7782542/pictures/preview-1.jpeg"}, {"id": 7048936, "nr": 2, "picture": "https://images.pexels.com/videos/7782542/pictures/preview-2.jpeg"}, {"id": 7048953, "nr": 3, "picture": "https://images.pexels.com/videos/7782542/pictures/preview-3.jpeg"}, {"id": 7048963, "nr": 4, "picture": "https://images.pexels.com/videos/7782542/pictures/preview-4.jpeg"}, {"id": 7048981, "nr": 5, "picture": "https://images.pexels.com/videos/7782542/pictures/preview-5.jpeg"}, {"id": 7048997, "nr": 6, "picture": "https://images.pexels.com/videos/7782542/pictures/preview-6.jpeg"}, {"id": 7049010, "nr": 7, "picture": "https://images.pexels.com/videos/7782542/pictures/preview-7.jpeg"}, {"id": 7049021, "nr": 8, "picture": "https://images.pexels.com/videos/7782542/pictures/preview-8.jpeg"}, {"id": 7049032, "nr": 9, "picture": "https://images.pexels.com/videos/7782542/pictures/preview-9.jpeg"}, {"id": 7049043, "nr": 10, "picture": "https://images.pexels.com/videos/7782542/pictures/preview-10.jpeg"}, {"id": 7049051, "nr": 11, "picture": "https://images.pexels.com/videos/7782542/pictures/preview-11.jpeg"}, {"id": 7049061, "nr": 12, "picture": "https://images.pexels.com/videos/7782542/pictures/preview-12.jpeg"}, {"id": 7049069, "nr": 13, "picture": "https://images.pexels.com/videos/7782542/pictures/preview-13.jpeg"}, {"id": 7049077, "nr": 14, "picture": "https://images.pexels.com/videos/7782542/pictures/preview-14.jpeg"}]}, {"id": 8511017, "width": 2160, "height": 3840, "duration": 19, "full_res": null, "tags": [], "url": "https://www.pexels.com/video/person-watering-the-plants-8511017/", "image": "https://images.pexels.com/videos/8511017/apartment-bachelorette-best-friends-breakfast-8511017.jpeg?auto=compress&cs=tinysrgb&fit=crop&h=1200&w=630", "avg_color": null, "user": {"id": 2441340, "name": "Anastasia  Shuraeva", "url": "https://www.pexels.com/@anastasia-shuraeva"}, "video_files": [{"id": 10866147, "quality": "uhd", "file_type": "video/mp4", "width": 1440, "height": 2560, "fps": 25.0, "link": "https://videos.pexels.com/video-files/8511017/8511017-uhd_1440_2560_25fps.mp4", "size": 15676826}, {"id": 10866234, "quality": "sd", "file_type": "video/mp4", "width": 240, "height": 426, "fps": 25.0, "link": "https://videos.pexels.com/video-files/8511017/8511017-sd_240_426_25fps.mp4", "size": 786181}, {"id": 10866289, "quality": "hd", "file_type": "video/mp4", "width": 1080, "height": 1920, "fps": 25.0, "link": "https://videos.pexels.com/video-files/8511017/8511017-hd_1080_1920_25fps.mp4", "size": 8139348}, {"id": 10866383, "quality": "hd", "file_type": "video/mp4", "width": 720, "height": 1280, "fps": 25.0, "link": "https://videos.pexels.com/video-files/8511017/8511017-hd_720_1280_25fps.mp4", "size": 4250498}, {"id": 10866433, "quality": "uhd", "file_type": "video/mp4", "width": 2160, "height": 3840, "fps": 25.0, "link": "https://videos.pexels.com/video-files/8511017/8511017-uhd_2160_3840_25fps.mp4", "size": 43298575}, {"id": 10866501, "quality": "sd", "file_type": "video/mp4", "width": 540, "height": 960, "fps": 25.0, "link": "https://videos.pexels.com/video-files/8511017/8511017-sd_540_960_25fps.mp4", "size": 2404517}, {"id": 10866535, "quality": "sd", "file_type": "video/mp4", "width": 360, "height": 640, "fps": 25.0, "link": "https://videos.pexels.com/video-files/8511017/8511017-sd_360_640_25fps.mp4", "size": 1139871}], "video_pictures": [{"id": 8399045, "nr": 0, "picture": "https://images.pexels.com/videos/8511017/pictures/preview-0.jpeg"}, {"id": 8399061, "nr": 1, "picture": "https://images.pexels.com/videos/8511017/pictures/preview-1.jpeg"}, {"id": 8399084, "nr": 2, "picture": "https://images.pexels.com/videos/8511017/pictures/preview-2.jpeg"}, {"id": 8399104, "nr": 3, "picture": "https://images.pexels.com/videos/8511017/pictures/preview-3.jpeg"}, {"id": 8399120, "nr": 4, "picture": "https://images.pexels.com/videos/8511017/pictures/preview-4.jpeg"}, {"id": 8399140, "nr": 5, "picture": "https://images.pexels.com/videos/8511017/pictures/preview-5.jpeg"}, {"id": 8399155, "nr": 6, "picture": "https://images.pexels.com/videos/8511017/pictures/preview-6.jpeg"}, {"id": 8399169, "nr": 7, "picture": "https://images.pexels.com/videos/8511017/pictures/preview-7.jpeg"}, {"id": 8399185, "nr": 8, "picture": "https://images.pexels.com/videos/8511017/pictures/preview-8.jpeg"}, {"id": 8399195, "nr": 9, "picture": "https://images.pexels.com/videos/8511017/pictures/preview-9.jpeg"}, {"id": 8399209, "nr": 10, "picture": "https://images.pexels.com/videos/8511017/pictures/preview-10.jpeg"}, {"id": 8399221, "nr": 11, "picture": "https://images.pexels.com/videos/8511017/pictures/preview-11.jpeg"}, {"id": 8399229, "nr": 12, "picture": "https://images.pexels.com/videos/8511017/pictures/preview-12.jpeg"}, {"id": 8399236, "nr": 13, "picture": "https://images.pexels.com/videos/8511017/pictures/preview-13.jpeg"}, {"id": 8399241, "nr": 14, "picture": "https://images.pexels.com/videos/8511017/pictures/preview-14.jpeg"}]}, {"id": 7714871, "width": 2160, "height": 3840, "duration": 10, "full_res": null, "tags": [], "url": "https://www.pexels.com/video/a-person-planting-7714871/", "image": "https://images.pexels.com/videos/7714871/adult-agriculture-ball-shaped-compost-7714871.jpeg?auto=compress&cs=tinysrgb&fit=crop&h=1200&w=630", "avg_color": null, "user": {"id": 48519361, "name": "Greta Hoffman", "url": "https://www.pexels.com/@greta-hoffman"}, "video_files": [{"id": 10564618, "quality": "sd", "file_type": "video/mp4", "width": 240, "height": 426, "fps": 23.97599983215332, "link": "https://videos.pexels.com/video-files/7714871/7714871-sd_240_426_24fps.mp4", "size": 429777}, {"id": 10564794, "quality": "hd", "file_type": "video/mp4", "width": 720, "height": 1280, "fps": 23.97599983215332, "link": "https://videos.pexels.com/video-files/7714871/7714871-hd_720_1280_24fps.mp4", "size": 3501286}, {"id": 10564913, "quality": "hd", "file_type": "video/mp4", "width": 1080, "height": 1920, "fps": 23.97599983215332, "link": "https://videos.pexels.com/video-files/7714871/7714871-hd_1080_1920_24fps.mp4", "size": 6777233}, {"id": 10564938, "quality": "sd", "file_type": "video/mp4", "width": 360, "height": 640, "fps": 23.97599983215332, "link": "https://videos.pexels.com/video-files/7714871/7714871-sd_360_640_24fps.mp4", "size": 650600}, {"id": 10565063, "quality": "uhd", "file_type": "video/mp4", "width": 1440, "height": 2560, "fps": 23.97599983215332, "link": "https://videos.pexels.com/video-files/7714871/7714871-uhd_1440_2560_24fps.mp4", "size": 16112928}, {"id": 10565177, "quality": "uhd", "file_type": "video/mp4", "width": 2160, "height": 3840, "fps": 23.97599983215332, "link": "https://videos.pexels.com/video-files/7714871/7714871-uhd_2160_3840_24fps.mp4", "size": 30235297}, {"id": 10565238, "quality": "sd", "file_type": "video/mp4", "width": 540, "height": 960, "fps": 23.97599983215332, "link": "https://videos.pexels.com/video-files/7714871/7714871-sd_540_960_24fps.mp4", "size": 1771995}], "video_pictures": [{"id": 6976366, "nr": 0, "picture": "https://images.pexels.com/videos/7714871/pictures/preview-0.jpeg"}, {"id": 6976372, "nr": 1, "picture": "https://images.pexels.com/videos/7714871/pictures/preview-1.jpeg"}, {"id": 6976379, "nr": 2, "picture": "https://images.pexels.com/videos/7714871/pictures/preview-2.jpeg"}, {"id": 6976386, "nr": 3, "picture": "https://images.pexels.com/videos/7714871/pictures/preview-3.jpeg"}, {"id": 6976402, "nr": 4, "picture": "https://images.pexels.com/videos/7714871/pictures/preview-4.jpeg"}, {"id": 6976415, "nr": 5, "picture": "https://images.pexels.com/videos/7714871/pictures/preview-5.jpeg"}, {"id": 6976425, "nr": 6, "picture": "https://images.pexels.com/videos/7714871/pictures/preview-6.jpeg"}, {"id": 6976434, "nr": 7, "picture": "https://images.pexels.com/videos/7714871/pictures/preview-7.jpeg"}, {"id": 6976446, "nr": 8, "picture": "https://images.pexels.com/videos/7714871/pictures/preview-8.jpeg"}, {"id": 6976459, "nr": 9, "picture": "https://images.pexels.com/videos/7714871/pictures/preview-9.jpeg"}, {"id": 6976473, "nr": 10, "picture": "https://images.pexels.com/videos/7714871/pictures/preview-10.jpeg"}, {"id": 6976487, "nr": 11, "picture": "https://images.pexels.com/videos/7714871/pictures/preview-11.jpeg"}, {"id": 6976500, "nr": 12, "picture": "https://images.pexels.com/videos/7714871/pictures/preview-12.jpeg"}, {"id": 6976511, "nr": 13, "picture": "https://images.pexels.com/videos/7714871/pictures/preview-13.jpeg"}, {"id": 6976527, "nr": 14, "picture": "https://images.pexels.com/videos/7714871/pictures/preview-14.jpeg"}]}, {"id": 10041403, "width": 1080, "height": 1920, "duration": 18, "full_res": null, "tags": [], "url": "https://www.pexels.com/video/a-person-bending-down-while-planting-on-soil-10041403/", "image": "https://images.pexels.com/videos/10041403/pexels-photo-10041403.jpeg?auto=compress&cs=tinysrgb&fit=crop&h=1200&w=630", "avg_color": null, "user": {"id": 11924337, "name": "Los Muertos Crew", "url": "https://www.pexels.com/@cristian-rojas"}, "video_files": [{"id": 11201359, "quality": "hd", "file_type": "video/mp4", "width": 1080, "height": 1920, "fps": 23.97599983215332, "link": "https://videos.pexels.com/video-files/10041403/10041403-hd_1080_1920_24fps.mp4", "size": 10859957}, {"id": 11201491, "quality": "sd", "file_type": "video/mp4", "width": 540, "height": 960, "fps": 23.97599983215332, "link": "https://videos.pexels.com/video-files/10041403/10041403-sd_540_960_24fps.mp4", "size": 2871591}, {"id": 11201590, "quality": "hd", "file_type": "video/mp4", "width": 720, "height": 1280, "fps": 23.97599983215332, "link": "https://videos.pexels.com/video-files/10041403/10041403-hd_720_1280_24fps.mp4", "size": 5399407}, {"id": 11201688, "quality": "sd", "file_type": "video/mp4", "width": 240, "height": 426, "fps": 23.97599983215332, "link": "https://videos.pexels.com/video-files/10041403/10041403-sd_240_426_24fps.mp4", "size": 781727}, {"id": 11201792, "quality": "sd", "file_type": "video/mp4", "width": 360, "height": 640, "fps": 23.97599983215332, "link": "https://videos.pexels.com/video-files/10041403/10041403-sd_360_640_24fps.mp4", "size": 1052879}], "video_pictures": [{"id": 10510624, "nr": 0, "picture": "https://images.pexels.com/videos/10041403/pictures/preview-0.jpeg"}, {"id": 10510642, "nr": 1, "picture": "https://images.pexels.com/videos/10041403/pictures/preview-1.jpeg"}, {"id": 10510661, "nr": 2, "picture": "https://images.pexels.com/videos/10041403/pictures/preview-2.jpeg"}, {"id": 10510671, "nr": 3, "picture": "https://images.pexels.com/videos/10041403/pictures/preview-3.jpeg"}, {"id": 10510691, "nr": 4, "picture": "https://images.pexels.com/videos/10041403/pictures/preview-4.jpeg"}, {"id": 10510705, "nr": 5, "picture": "https://images.pexels.com/videos/10041403/pictures/preview-5.jpeg"}, {"id": 10510715, "nr": 6, "picture": "https://images.pexels.com/videos/10041403/pictures/preview-6.jpeg"}, {"id": 10510737, "nr": 7, "picture": "https://images.pexels.com/videos/10041403/pictures/preview-7.jpeg"}, {"id": 10510754, "nr": 8, "picture": "https://images.pexels.com/videos/10041403/pictures/preview-8.jpeg"}, {"id": 10510789, "nr": 9, "picture": "https://images.pexels.com/videos/10041403/pictures/preview-9.jpeg"}, {"id": 10510805, "nr": 10, "picture": "https://images.pexels.com/videos/10041403/pictures/preview-10.jpeg"}, {"id": 10510828, "nr": 11, "picture": "https://images.pexels.com/videos/10041403/pictures/preview-11.jpeg"}, {"id": 10510840, "nr": 12, "picture": "https://images.pexels.com/videos/10041403/pictures/preview-12.jpeg"}, {"id": 10510844, "nr": 13, "picture": "https://images.pexels.com/videos/10041403/pictures/preview-13.jpeg"}, {"id": 10510845, "nr": 14, "picture": "https://images.pexels.com/videos/10041403/pictures/preview-14.jpeg"}]}, {"id": 9707284, "width": 2160, "height": 4096, "duration": 17, "full_res": null, "tags": [], "url": "https://www.pexels.com/video/many-plants-on-table-being-watered-9707284/", "image": "https://images.pexels.com/videos/9707284/pexels-photo-9707284.jpeg?auto=compress&cs=tinysrgb&fit=crop&h=1200&w=630", "avg_color": null, "user": {"id": 1437723, "name": "cottonbro studio", "url": "https://www.pexels.com/@cottonbro"}, "video_files": [{"id": 11158510, "quality": "sd", "file_type": "video/mp4", "width": 506, "height": 960, "fps": 25.0, "link": "https://videos.pexels.com/video-files/9707284/9707284-sd_506_960_25fps.mp4", "size": 974797}, {"id": 11158556, "quality": "uhd", "file_type": "video/mp4", "width": 1440, "height": 2732, "fps": 25.0, "link": "https://videos.pexels.com/video-files/9707284/9707284-uhd_1440_2732_25fps.mp4", "size": 7855425}, {"id": 11158569, "quality": "sd", "file_type": "video/mp4", "width": 338, "height": 640, "fps": 25.0, "link": "https://videos.pexels.com/video-files/9707284/9707284-sd_338_640_25fps.mp4", "size": 471121}, {"id": 11158596, "quality": "hd", "file_type": "video/mp4", "width": 720, "height": 1366, "fps": 25.0, "link": "https://videos.pexels.com/video-files/9707284/9707284-hd_720_1366_25fps.mp4", "size": 1898842}, {"id": 11158633, "quality": "uhd", "file_type": "video/mp4", "width": 2160, "height": 4096, "fps": 25.0, "link": "https://videos.pexels.com/video-files/9707284/9707284-uhd_2160_4096_25fps.mp4", "size": 21388174}, {"id": 11158684, "quality": "hd", "file_type": "video/mp4", "width": 1080, "height": 2048, "fps": 25.0, "link": "https://videos.pexels.com/video-files/9707284/9707284-hd_1080_2048_25fps.mp4", "size": 4515301}, {"id": 11158720, "quality": "sd", "file_type": "video/mp4", "width": 226, "height": 426, "fps": 25.0, "link": "https://videos.pexels.com/video-files/9707284/9707284-sd_226_426_25fps.mp4", "size": 238594}], "video_pictures": [{"id": 10056610, "nr": 0, "picture": "https://images.pexels.com/videos/9707284/pictures/preview-0.jpeg"}, {"id": 10056618, "nr": 1, "picture": "https://images.pexels.com/videos/9707284/pictures/preview-1.jpeg"}, {"id": 10056628, "nr": 2, "picture": "https://images.pexels.com/videos/9707284/pictures/preview-2.jpeg"}, {"id": 10056640, "nr": 3, "picture": "https://images.pexels.com/videos/9707284/pictures/preview-3.jpeg"}, {"id": 10056647, "nr": 4, "picture": "https://images.pexels.com/videos/9707284/pictures/preview-4.jpeg"}, {"id": 10056657, "nr": 5, "picture": "https://images.pexels.com/videos/9707284/pictures/preview-5.jpeg"}, {"id": 10056668, "nr": 6, "picture": "https://images.pexels.com/videos/9707284/pictures/preview-6.jpeg"}, {"id": 10056678, "nr": 7, "picture": "https://images.pexels.com/videos/9707284/pictures/preview-7.jpeg"}, {"id": 10056687, "nr": 8, "picture": "https://images.pexels.com/videos/9707284/pictures/preview-8.jpeg"}, {"id": 10056696, "nr": 9, "picture": "https://images.pexels.com/videos/9707284/pictures/preview-9.jpeg"}, {"id": 10056703, "nr": 10, "picture": "https://images.pexels.com/videos/9707284/pictures/preview-10.jpeg"}, {"id": 10056712, "nr": 11, "picture": "https://images.pexels.com/videos/9707284/pictures/preview-11.jpeg"}, {"id": 10056720, "nr": 12, "picture": "https://images.pexels.com/videos/9707284/pictures/preview-12.jpeg"}, {"id": 10056727, "nr": 13, "picture": "https://images.pexels.com/videos/9707284/pictures/preview-13.jpeg"}, {"id": 10056733, "nr": 14, "picture": "https://images.pexels.com/videos/9707284/pictures/preview-14.jpeg"}]}, {"id": 9707287, "width": 2160, "height": 4096, "duration": 13, "full_res": null, "tags": [], "url": "https://www.pexels.com/video/plants-on-table-being-watered-9707287/", "image": "https://images.pexels.com/videos/9707287/pexels-photo-9707287.jpeg?auto=compress&cs=tinysrgb&fit=crop&h=1200&w=630", "avg_color": null, "user": {"id": 1437723, "name": "cottonbro studio", "url": "https://www.pexels.com/@cottonbro"}, "video_files": [{"id": 11158230, "quality": "hd", "file_type": "video/mp4", "width": 1080, "height": 2048, "fps": 25.0, "link": "https://videos.pexels.com/video-files/9707287/9707287-hd_1080_2048_25fps.mp4", "size": 4157574}, {"id": 11158265, "quality": "uhd", "file_type": "video/mp4", "width": 2160, "height": 4096, "fps": 25.0, "link": "https://videos.pexels.com/video-files/9707287/9707287-uhd_2160_4096_25fps.mp4", "size": 17773774}, {"id": 11158340, "quality": "sd", "file_type": "video/mp4", "width": 338, "height": 640, "fps": 25.0, "link": "https://videos.pexels.com/video-files/9707287/9707287-sd_338_640_25fps.mp4", "size": 484938}, {"id": 11158361, "quality": "uhd", "file_type": "video/mp4", "width": 1440, "height": 2732, "fps": 25.0, "link": "https://videos.pexels.com/video-files/9707287/9707287-uhd_1440_2732_25fps.mp4", "size": 6835800}, {"id": 11158454, "quality": "sd", "file_type": "video/mp4", "width": 226, "height": 426, "fps": 25.0, "link": "https://videos.pexels.com/video-files/9707287/9707287-sd_226_426_25fps.mp4", "size": 263473}, {"id": 11158505, "quality": "sd", "file_type": "video/mp4", "width": 506, "height": 960, "fps": 25.0, "link": "https://videos.pexels.com/video-files/9707287/9707287-sd_506_960_25fps.mp4", "size": 1025777}, {"id": 11158562, "quality": "hd", "file_type": "video/mp4", "width": 720, "height": 1366, "fps": 25.0, "link": "https://videos.pexels.com/video-files/9707287/9707287-hd_720_1366_25fps.mp4", "size": 1870165}], "video_pictures": [{"id": 10056611, "nr": 0, "picture": "https://images.pexels.com/videos/9707287/pictures/preview-0.jpeg"}, {"id": 10056620, "nr": 1, "picture": "https://images.pexels.com/videos/9707287/pictures/preview-1.jpeg"}, {"id": 10056630, "nr": 2, "picture": "https://images.pexels.com/videos/9707287/pictures/preview-2.jpeg"}, {"id": 10056641, "nr": 3, "picture": "https://images.pexels.com/videos/9707287/pictures/preview-3.jpeg"}, {"id": 10056652, "nr": 4, "picture": "https://images.pexels.com/videos/9707287/pictures/preview-4.jpeg"}, {"id": 10056660, "nr": 5, "picture": "https://images.pexels.com/videos/9707287/pictures/preview-5.jpeg"}, {"id": 10056670, "nr": 6, "picture": "https://images.pexels.com/videos/9707287/pictures/preview-6.jpeg"}, {"id": 10056680, "nr": 7, "picture": "https://images.pexels.com/videos/9707287/pictures/preview-7.jpeg"}, {"id": 10056690, "nr": 8, "picture": "https://images.pexels.com/videos/9707287/pictures/preview-8.jpeg"}, {"id": 10056697, "nr": 9, "picture": "https://images.pexels.com/videos/9707287/pictures/preview-9.jpeg"}, {"id": 10056706, "nr": 10, "picture": "https://images.pexels.com/videos/9707287/pictures/preview-10.jpeg"}, {"id": 10056714, "nr": 11, "picture": "https://images.pexels.com/videos/9707287/pictures/preview-11.jpeg"}, {"id": 10056721, "nr": 12, "picture": "https://images.pexels.com/videos/9707287/pictures/preview-12.jpeg"}, {"id": 10056728, "nr": 13, "picture": "https://images.pexels.com/videos/9707287/pictures/preview-13.jpeg"}, {"id": 10056734, "nr": 14, "picture": "https://images.pexels.com/videos/9707287/pictures/preview-14.jpeg"}]}, {"id": 4503296, "width": 2160, "height": 4096, "duration": 54, "full_res": null, "tags": [], "url": "https://www.pexels.com/video/a-woman-is-sitting-on-the-floor-with-a-potted-plant-4503296/", "image": "https://images.pexels.com/videos/4503296/pexels-photo-4503296.jpeg?auto=compress&cs=tinysrgb&fit=crop&h=1200&w=630", "avg_color": null, "user": {"id": 1437723, "name": "cottonbro studio", "url": "https://www.pexels.com/@cottonbro"}, "video_files": [{"id": 9382737, "quality": "uhd", "file_type": "video/mp4", "width": 1440, "height": 2732, "fps": 25.0, "link": "https://videos.pexels.com/video-files/4503296/4503296-uhd_1440_2732_25fps.mp4", "size": 41524613}, {"id": 9382738, "quality": "sd", "file_type": "video/mp4", "width": 506, "height": 960, "fps": 25.0, "link": "https://videos.pexels.com/video-files/4503296/4503296-sd_506_960_25fps.mp4", "size": 7770110}, {"id": 9382739, "quality": "sd", "file_type": "video/mp4", "width": 338, "height": 640, "fps": 25.0, "link": "https://videos.pexels.com/video-files/4503296/4503296-sd_338_640_25fps.mp4", "size": 3268923}, {"id": 9382740, "quality": "uhd", "file_type": "video/mp4", "width": 2160, "height": 4096, "fps": 25.0, "link": "https://videos.pexels.com/video-files/4503296/4503296-uhd_2160_4096_25fps.mp4", "size": 105050350}, {"id": 9382741, "quality": "hd", "file_type": "video/mp4", "width": 720, "height": 1366, "fps": 50.0, "link": "https://videos.pexels.com/video-files/4503296/4503296-hd_720_1366_50fps.mp4", "size": 14227560}, {"id": 9382742, "quality": "hd", "file_type": "video/mp4", "width": 1080, "height": 2048, "fps": 25.0, "link": "https://videos.pexels.com/video-files/4503296/4503296-hd_1080_2048_25fps.mp4", "size": 25759564}, {"id": 9382743, "quality": "sd", "file_type": "video/mp4", "width": 226, "height": 426, "fps": 25.0, "link": "https://videos.pexels.com/video-files/4503296/4503296-sd_226_426_25fps.mp4", "size": 2064661}], "video_pictures": [{"id": 1599019, "nr": 0, "picture": "https://images.pexels.com/videos/4503296/pictures/preview-0.jpeg"}, {"id": 1599020, "nr": 1, "picture": "https://images.pexels.com/videos/4503296/pictures/preview-1.jpeg"}, {"id": 1599021, "nr": 2, "picture": "https://images.pexels.com/videos/4503296/pictures/preview-2.jpeg"}, {"id": 1599022, "nr": 3, "picture": "https://images.pexels.com/videos/4503296/pictures/preview-3.jpeg"}, {"id": 1599023, "nr": 4, "picture": "https://images.pexels.com/videos/4503296/pictures/preview-4.jpeg"}, {"id": 1599024, "nr": 5, "picture": "https://images.pexels.com/videos/4503296/pictures/preview-5.jpeg"}, {"id": 1599025, "nr": 6, "picture": "https://images.pexels.com/videos/4503296/pictures/preview-6.jpeg"}, {"id": 1599026, "nr": 7, "picture": "https://images.pexels.com/videos/4503296/pictures/preview-7.jpeg"}, {"id": 1599027, "nr": 8, "picture": "https://images.pexels.com/videos/4503296/pictures/preview-8.jpeg"}, {"id": 1599028, "nr": 9, "picture": "https://images.pexels.com/videos/4503296/pictures/preview-9.jpeg"}, {"id": 1599029, "nr": 10, "picture": "https://images.pexels.com/videos/4503296/pictures/preview-10.jpeg"}, {"id": 1599030, "nr": 11, "picture": "https://images.pexels.com/videos/4503296/pictures/preview-11.jpeg"}, {"id": 1599031, "nr": 12, "picture": "https://images.pexels.com/videos/4503296/pictures/preview-12.jpeg"}, {"id": 1599032, "nr": 13, "picture": "https://images.pexels.com/videos/4503296/pictures/preview-13.jpeg"}, {"id": 1599033, "nr": 14, "picture": "https://images.pexels.com/videos/4503296/pictures/preview-14.jpeg"}]}, {"id": 4503298, "width": 2160, "height": 4096, "duration": 41, "full_res": null, "tags": [], "url": "https://www.pexels.com/video/a-woman-is-sitting-on-the-floor-in-a-room-with-plants-4503298/", "image": "https://images.pexels.com/videos/4503298/pexels-photo-4503298.jpeg?auto=compress&cs=tinysrgb&fit=crop&h=1200&w=630", "avg_color": null, "user": {"id": 1437723, "name": "cottonbro studio", "url": "https://www.pexels.com/@cottonbro"}, "video_files": [{"id": 9382355, "quality": "sd", "file_type": "video/mp4", "width": 506, "height": 960, "fps": 25.0, "link": "https://videos.pexels.com/video-files/4503298/4503298-sd_506_960_25fps.mp4", "size": 5800761}, {"id": 9382410, "quality": "hd", "file_type": "video/mp4", "width": 720, "height": 1366, "fps": 50.0, "link": "https://videos.pexels.com/video-files/4503298/4503298-hd_720_1366_50fps.mp4", "size": 10710960}, {"id": 9382483, "quality": "uhd", "file_type": "video/mp4", "width": 2160, "height": 4096, "fps": 25.0, "link": "https://videos.pexels.com/video-files/4503298/4503298-uhd_2160_4096_25fps.mp4", "size": 91439028}, {"id": 9382572, "quality": "sd", "file_type": "video/mp4", "width": 226, "height": 426, "fps": 25.0, "link": "https://videos.pexels.com/video-files/4503298/4503298-sd_226_426_25fps.mp4", "size": 1541400}, {"id": 9382619, "quality": "uhd", "file_type": "video/mp4", "width": 1440, "height": 2732, "fps": 25.0, "link": "https://videos.pexels.com/video-files/4503298/4503298-uhd_1440_2732_25fps.mp4", "size": 34834235}, {"id": 9382630, "quality": "hd", "file_type": "video/mp4", "width": 1080, "height": 2048, "fps": 25.0, "link": "https://videos.pexels.com/video-files/4503298/4503298-hd_1080_2048_25fps.mp4", "size": 20193096}, {"id": 9382641, "quality": "sd", "file_type": "video/mp4", "width": 338, "height": 640, "fps": 25.0, "link": "https://videos.pexels.com/video-files/4503298/4503298-sd_338_640_25fps.mp4", "size": 2463271}], "video_pictures": [{"id": 1598989, "nr": 0, "picture": "https://images.pexels.com/videos/4503298/pictures/preview-0.jpeg"}, {"id": 1598990, "nr": 1, "picture": "https://images.pexels.com/videos/4503298/pictures/preview-1.jpeg"}, {"id": 1598991, "nr": 2, "picture": "https://images.pexels.com/videos/4503298/pictures/preview-2.jpeg"}, {"id": 1598992, "nr": 3, "picture": "https://images.pexels.com/videos/4503298/pictures/preview-3.jpeg"}, {"id": 1598993, "nr": 4, "picture": "https://images.pexels.com/videos/4503298/pictures/preview-4.jpeg"}, {"id": 1598995, "nr": 5, "picture": "https://images.pexels.com/videos/4503298/pictures/preview-5.jpeg"}, {"id": 1598996, "nr": 6, "picture": "https://images.pexels.com/videos/4503298/pictures/preview-6.jpeg"}, {"id": 1598997, "nr": 7, "picture": "https://images.pexels.com/videos/4503298/pictures/preview-7.jpeg"}, {"id": 1598998, "nr": 8, "picture": "https://images.pexels.com/videos/4503298/pictures/preview-8.jpeg"}, {"id": 1598999, "nr": 9, "picture": "https://images.pexels.com/videos/4503298/pictures/preview-9.jpeg"}, {"id": 1599001, "nr": 10, "picture": "https://images.pexels.com/videos/4503298/pictures/preview-10.jpeg"}, {"id": 1599002, "nr": 11, "picture": "https://images.pexels.com/videos/4503298/pictures/preview-11.jpeg"}, {"id": 1599004, "nr": 12, "picture": "https://images.pexels.com/videos/4503298/pictures/preview-12.jpeg"}, {"id": 1599006, "nr": 13, "picture": "https://images.pexels.com/videos/4503298/pictures/preview-13.jpeg"}, {"id": 1599008, "nr": 14, "picture": "https://images.pexels.com/videos/4503298/pictures/preview-14.jpeg"}]}], "total_results": 8000, "next_page": "https://api.pexels.com/v1/videos/search/?orientation=portrait&page=2&per_page=8&query=green+thumb", "url": "https://api-server.pexels.com/search/videos/green%20thumb/"}, "timestamp": "2024-12-28T23:03:38.962750"}
