{"query": "gradual water", "response": {"page": 1, "per_page": 8, "videos": [{"id": 29958658, "width": 2160, "height": 3840, "duration": 7, "full_res": null, "tags": [], "url": "https://www.pexels.com/video/peaceful-beach-sunset-with-gentle-waves-29958658/", "image": "https://images.pexels.com/videos/29958658/boat-on-the-beach-29958658.jpeg?auto=compress&cs=tinysrgb&fit=crop&h=1200&w=630", "avg_color": null, "user": {"id": 1871636033, "name": "Fl\u00e1vio Nascimento", "url": "https://www.pexels.com/@flavionascimento"}, "video_files": [{"id": 12856278, "quality": null, "file_type": "video/mp4", "width": 360, "height": 640, "fps": 59.939998626708984, "link": "https://videos.pexels.com/video-files/29958658/12856278_360_640_60fps.mp4", "size": 1848122}, {"id": 12856279, "quality": null, "file_type": "video/mp4", "width": 540, "height": 960, "fps": 59.939998626708984, "link": "https://videos.pexels.com/video-files/29958658/12856279_540_960_60fps.mp4", "size": 4244455}, {"id": 12856280, "quality": null, "file_type": "video/mp4", "width": 720, "height": 1280, "fps": 59.939998626708984, "link": "https://videos.pexels.com/video-files/29958658/12856280_720_1280_60fps.mp4", "size": 6800137}, {"id": 12856281, "quality": null, "file_type": "video/mp4", "width": 1080, "height": 1920, "fps": 59.939998626708984, "link": "https://videos.pexels.com/video-files/29958658/12856281_1080_1920_60fps.mp4", "size": 14471659}, {"id": 12856282, "quality": null, "file_type": "video/mp4", "width": 1440, "height": 2560, "fps": 59.939998626708984, "link": "https://videos.pexels.com/video-files/29958658/12856282_1440_2560_60fps.mp4", "size": 24327557}, {"id": 12856283, "quality": null, "file_type": "video/mp4", "width": 2160, "height": 3840, "fps": 59.939998626708984, "link": "https://videos.pexels.com/video-files/29958658/12856283_2160_3840_60fps.mp4", "size": 45810227}], "video_pictures": [{"id": 24318230, "nr": 0, "picture": "https://images.pexels.com/videos/29958658/pictures/preview-0.jpg"}, {"id": 24318231, "nr": 1, "picture": "https://images.pexels.com/videos/29958658/pictures/preview-1.jpg"}, {"id": 24318232, "nr": 2, "picture": "https://images.pexels.com/videos/29958658/pictures/preview-2.jpg"}, {"id": 24318233, "nr": 3, "picture": "https://images.pexels.com/videos/29958658/pictures/preview-3.jpg"}, {"id": 24318234, "nr": 4, "picture": "https://images.pexels.com/videos/29958658/pictures/preview-4.jpg"}, {"id": 24318235, "nr": 5, "picture": "https://images.pexels.com/videos/29958658/pictures/preview-5.jpg"}]}, {"id": 29958644, "width": 2160, "height": 3840, "duration": 9, "full_res": null, "tags": [], "url": "https://www.pexels.com/video/serene-sunset-over-calm-ocean-waters-29958644/", "image": "https://images.pexels.com/videos/29958644/sunset-on-the-beach-29958644.jpeg?auto=compress&cs=tinysrgb&fit=crop&h=1200&w=630", "avg_color": null, "user": {"id": 1871636033, "name": "Fl\u00e1vio Nascimento", "url": "https://www.pexels.com/@flavionascimento"}, "video_files": [{"id": 12856256, "quality": null, "file_type": "video/mp4", "width": 360, "height": 640, "fps": 59.939998626708984, "link": "https://videos.pexels.com/video-files/29958644/12856256_360_640_60fps.mp4", "size": 4308701}, {"id": 12856257, "quality": null, "file_type": "video/mp4", "width": 540, "height": 960, "fps": 59.939998626708984, "link": "https://videos.pexels.com/video-files/29958644/12856257_540_960_60fps.mp4", "size": 9081403}, {"id": 12856258, "quality": null, "file_type": "video/mp4", "width": 720, "height": 1280, "fps": 59.939998626708984, "link": "https://videos.pexels.com/video-files/29958644/12856258_720_1280_60fps.mp4", "size": 15746780}, {"id": 12856259, "quality": null, "file_type": "video/mp4", "width": 1080, "height": 1920, "fps": 59.939998626708984, "link": "https://videos.pexels.com/video-files/29958644/12856259_1080_1920_60fps.mp4", "size": 32522257}, {"id": 12856260, "quality": null, "file_type": "video/mp4", "width": 1440, "height": 2560, "fps": 59.939998626708984, "link": "https://videos.pexels.com/video-files/29958644/12856260_1440_2560_60fps.mp4", "size": 52420709}, {"id": 12856261, "quality": null, "file_type": "video/mp4", "width": 2160, "height": 3840, "fps": 59.939998626708984, "link": "https://videos.pexels.com/video-files/29958644/12856261_2160_3840_60fps.mp4", "size": 84448139}], "video_pictures": [{"id": 24318145, "nr": 0, "picture": "https://images.pexels.com/videos/29958644/pictures/preview-0.jpg"}, {"id": 24318146, "nr": 1, "picture": "https://images.pexels.com/videos/29958644/pictures/preview-1.jpg"}, {"id": 24318147, "nr": 2, "picture": "https://images.pexels.com/videos/29958644/pictures/preview-2.jpg"}, {"id": 24318148, "nr": 3, "picture": "https://images.pexels.com/videos/29958644/pictures/preview-3.jpg"}, {"id": 24318149, "nr": 4, "picture": "https://images.pexels.com/videos/29958644/pictures/preview-4.jpg"}, {"id": 24318150, "nr": 5, "picture": "https://images.pexels.com/videos/29958644/pictures/preview-5.jpg"}, {"id": 24318151, "nr": 6, "picture": "https://images.pexels.com/videos/29958644/pictures/preview-6.jpg"}, {"id": 24318152, "nr": 7, "picture": "https://images.pexels.com/videos/29958644/pictures/preview-7.jpg"}]}, {"id": 29958599, "width": 2160, "height": 3840, "duration": 12, "full_res": null, "tags": [], "url": "https://www.pexels.com/video/sunset-beach-scene-with-swimmers-and-pier-29958599/", "image": "https://images.pexels.com/videos/29958599/english-bridge-29958599.jpeg?auto=compress&cs=tinysrgb&fit=crop&h=1200&w=630", "avg_color": null, "user": {"id": 1871636033, "name": "Fl\u00e1vio Nascimento", "url": "https://www.pexels.com/@flavionascimento"}, "video_files": [{"id": 12856250, "quality": null, "file_type": "video/mp4", "width": 360, "height": 640, "fps": 24.0, "link": "https://videos.pexels.com/video-files/29958599/12856250_360_640_24fps.mp4", "size": 4372558}, {"id": 12856251, "quality": null, "file_type": "video/mp4", "width": 540, "height": 960, "fps": 24.0, "link": "https://videos.pexels.com/video-files/29958599/12856251_540_960_24fps.mp4", "size": 9674129}, {"id": 12856252, "quality": null, "file_type": "video/mp4", "width": 720, "height": 1280, "fps": 24.0, "link": "https://videos.pexels.com/video-files/29958599/12856252_720_1280_24fps.mp4", "size": 17935624}, {"id": 12856253, "quality": null, "file_type": "video/mp4", "width": 1080, "height": 1920, "fps": 24.0, "link": "https://videos.pexels.com/video-files/29958599/12856253_1080_1920_24fps.mp4", "size": 37232557}, {"id": 12856254, "quality": null, "file_type": "video/mp4", "width": 1440, "height": 2560, "fps": 24.0, "link": "https://videos.pexels.com/video-files/29958599/12856254_1440_2560_24fps.mp4", "size": 61416842}, {"id": 12856255, "quality": null, "file_type": "video/mp4", "width": 2160, "height": 3840, "fps": 24.0, "link": "https://videos.pexels.com/video-files/29958599/12856255_2160_3840_24fps.mp4", "size": 94942763}], "video_pictures": [{"id": 24318134, "nr": 0, "picture": "https://images.pexels.com/videos/29958599/pictures/preview-0.jpg"}, {"id": 24318135, "nr": 1, "picture": "https://images.pexels.com/videos/29958599/pictures/preview-1.jpg"}, {"id": 24318136, "nr": 2, "picture": "https://images.pexels.com/videos/29958599/pictures/preview-2.jpg"}, {"id": 24318137, "nr": 3, "picture": "https://images.pexels.com/videos/29958599/pictures/preview-3.jpg"}, {"id": 24318138, "nr": 4, "picture": "https://images.pexels.com/videos/29958599/pictures/preview-4.jpg"}, {"id": 24318139, "nr": 5, "picture": "https://images.pexels.com/videos/29958599/pictures/preview-5.jpg"}, {"id": 24318140, "nr": 6, "picture": "https://images.pexels.com/videos/29958599/pictures/preview-6.jpg"}, {"id": 24318141, "nr": 7, "picture": "https://images.pexels.com/videos/29958599/pictures/preview-7.jpg"}, {"id": 24318142, "nr": 8, "picture": "https://images.pexels.com/videos/29958599/pictures/preview-8.jpg"}, {"id": 24318143, "nr": 9, "picture": "https://images.pexels.com/videos/29958599/pictures/preview-9.jpg"}, {"id": 24318144, "nr": 10, "picture": "https://images.pexels.com/videos/29958599/pictures/preview-10.jpg"}]}, {"id": 29958254, "width": 1080, "height": 1920, "duration": 16, "full_res": null, "tags": [], "url": "https://www.pexels.com/video/two-cats-relaxing-by-a-tranquil-pool-29958254/", "image": "https://images.pexels.com/videos/29958254/biskuviler-su-iciyor-29958254.jpeg?auto=compress&cs=tinysrgb&fit=crop&h=1200&w=630", "avg_color": null, "user": {"id": 85164826, "name": "K\u00fcbra \u015eahin", "url": "https://www.pexels.com/@kubiko"}, "video_files": [{"id": 12856269, "quality": null, "file_type": "video/mp4", "width": 360, "height": 640, "fps": 29.969999313354492, "link": "https://videos.pexels.com/video-files/29958254/12856269_360_640_30fps.mp4", "size": 5871164}, {"id": 12856271, "quality": null, "file_type": "video/mp4", "width": 540, "height": 960, "fps": 29.969999313354492, "link": "https://videos.pexels.com/video-files/29958254/12856271_540_960_30fps.mp4", "size": 11189362}, {"id": 12856273, "quality": null, "file_type": "video/mp4", "width": 720, "height": 1280, "fps": 29.969999313354492, "link": "https://videos.pexels.com/video-files/29958254/12856273_720_1280_30fps.mp4", "size": 17556266}, {"id": 12856275, "quality": null, "file_type": "video/mp4", "width": 1080, "height": 1920, "fps": 29.969999313354492, "link": "https://videos.pexels.com/video-files/29958254/12856275_1080_1920_30fps.mp4", "size": 30474255}], "video_pictures": [{"id": 24318163, "nr": 0, "picture": "https://images.pexels.com/videos/29958254/pictures/preview-0.jpg"}, {"id": 24318164, "nr": 1, "picture": "https://images.pexels.com/videos/29958254/pictures/preview-1.jpg"}, {"id": 24318165, "nr": 2, "picture": "https://images.pexels.com/videos/29958254/pictures/preview-2.jpg"}, {"id": 24318166, "nr": 3, "picture": "https://images.pexels.com/videos/29958254/pictures/preview-3.jpg"}, {"id": 24318167, "nr": 4, "picture": "https://images.pexels.com/videos/29958254/pictures/preview-4.jpg"}, {"id": 24318168, "nr": 5, "picture": "https://images.pexels.com/videos/29958254/pictures/preview-5.jpg"}, {"id": 24318169, "nr": 6, "picture": "https://images.pexels.com/videos/29958254/pictures/preview-6.jpg"}, {"id": 24318170, "nr": 7, "picture": "https://images.pexels.com/videos/29958254/pictures/preview-7.jpg"}, {"id": 24318171, "nr": 8, "picture": "https://images.pexels.com/videos/29958254/pictures/preview-8.jpg"}, {"id": 24318172, "nr": 9, "picture": "https://images.pexels.com/videos/29958254/pictures/preview-9.jpg"}, {"id": 24318173, "nr": 10, "picture": "https://images.pexels.com/videos/29958254/pictures/preview-10.jpg"}, {"id": 24318174, "nr": 11, "picture": "https://images.pexels.com/videos/29958254/pictures/preview-11.jpg"}, {"id": 24318175, "nr": 12, "picture": "https://images.pexels.com/videos/29958254/pictures/preview-12.jpg"}, {"id": 24318176, "nr": 13, "picture": "https://images.pexels.com/videos/29958254/pictures/preview-13.jpg"}, {"id": 24318177, "nr": 14, "picture": "https://images.pexels.com/videos/29958254/pictures/preview-14.jpg"}]}, {"id": 29956535, "width": 1080, "height": 1920, "duration": 22, "full_res": null, "tags": [], "url": "https://www.pexels.com/video/tranquil-beach-waves-and-remote-island-scene-29956535/", "image": "https://images.pexels.com/videos/29956535/backgroun-billboard-light-natural-29956535.jpeg?auto=compress&cs=tinysrgb&fit=crop&h=1200&w=630", "avg_color": null, "user": {"id": 1753274721, "name": "Criss Paranhos", "url": "https://www.pexels.com/@crissparanhos"}, "video_files": [{"id": 12855831, "quality": null, "file_type": "video/mp4", "width": 360, "height": 640, "fps": 59.939998626708984, "link": "https://videos.pexels.com/video-files/29956535/12855831_360_640_60fps.mp4", "size": 4502706}, {"id": 12855832, "quality": null, "file_type": "video/mp4", "width": 540, "height": 960, "fps": 59.939998626708984, "link": "https://videos.pexels.com/video-files/29956535/12855832_540_960_60fps.mp4", "size": 10051764}, {"id": 12855833, "quality": null, "file_type": "video/mp4", "width": 720, "height": 1280, "fps": 59.939998626708984, "link": "https://videos.pexels.com/video-files/29956535/12855833_720_1280_60fps.mp4", "size": 16741458}, {"id": 12855834, "quality": null, "file_type": "video/mp4", "width": 1080, "height": 1920, "fps": 59.939998626708984, "link": "https://videos.pexels.com/video-files/29956535/12855834_1080_1920_60fps.mp4", "size": 35874115}], "video_pictures": [{"id": 24317199, "nr": 0, "picture": "https://images.pexels.com/videos/29956535/pictures/preview-0.jpg"}, {"id": 24317200, "nr": 1, "picture": "https://images.pexels.com/videos/29956535/pictures/preview-1.jpg"}, {"id": 24317201, "nr": 2, "picture": "https://images.pexels.com/videos/29956535/pictures/preview-2.jpg"}, {"id": 24317202, "nr": 3, "picture": "https://images.pexels.com/videos/29956535/pictures/preview-3.jpg"}, {"id": 24317203, "nr": 4, "picture": "https://images.pexels.com/videos/29956535/pictures/preview-4.jpg"}, {"id": 24317204, "nr": 5, "picture": "https://images.pexels.com/videos/29956535/pictures/preview-5.jpg"}, {"id": 24317205, "nr": 6, "picture": "https://images.pexels.com/videos/29956535/pictures/preview-6.jpg"}, {"id": 24317206, "nr": 7, "picture": "https://images.pexels.com/videos/29956535/pictures/preview-7.jpg"}, {"id": 24317207, "nr": 8, "picture": "https://images.pexels.com/videos/29956535/pictures/preview-8.jpg"}, {"id": 24317208, "nr": 9, "picture": "https://images.pexels.com/videos/29956535/pictures/preview-9.jpg"}, {"id": 24317209, "nr": 10, "picture": "https://images.pexels.com/videos/29956535/pictures/preview-10.jpg"}, {"id": 24317210, "nr": 11, "picture": "https://images.pexels.com/videos/29956535/pictures/preview-11.jpg"}, {"id": 24317211, "nr": 12, "picture": "https://images.pexels.com/videos/29956535/pictures/preview-12.jpg"}, {"id": 24317212, "nr": 13, "picture": "https://images.pexels.com/videos/29956535/pictures/preview-13.jpg"}, {"id": 24317213, "nr": 14, "picture": "https://images.pexels.com/videos/29956535/pictures/preview-14.jpg"}]}, {"id": 29956113, "width": 2160, "height": 3840, "duration": 35, "full_res": null, "tags": [], "url": "https://www.pexels.com/video/aerial-view-of-ocean-rock-formation-29956113/", "image": "https://images.pexels.com/videos/29956113/bay-bridge-29956113.jpeg?auto=compress&cs=tinysrgb&fit=crop&h=1200&w=630", "avg_color": null, "user": {"id": 907961520, "name": "Julien Riedel", "url": "https://www.pexels.com/@julien-riedel-907961520"}, "video_files": [{"id": 12855747, "quality": null, "file_type": "video/mp4", "width": 360, "height": 640, "fps": 59.939998626708984, "link": "https://videos.pexels.com/video-files/29956113/12855747_360_640_60fps.mp4", "size": 24118222}, {"id": 12855748, "quality": null, "file_type": "video/mp4", "width": 540, "height": 960, "fps": 59.939998626708984, "link": "https://videos.pexels.com/video-files/29956113/12855748_540_960_60fps.mp4", "size": 48876177}, {"id": 12855749, "quality": null, "file_type": "video/mp4", "width": 720, "height": 1280, "fps": 59.939998626708984, "link": "https://videos.pexels.com/video-files/29956113/12855749_720_1280_60fps.mp4", "size": 84015369}, {"id": 12855750, "quality": null, "file_type": "video/mp4", "width": 1080, "height": 1920, "fps": 59.939998626708984, "link": "https://videos.pexels.com/video-files/29956113/12855750_1080_1920_60fps.mp4", "size": 163962701}, {"id": 12855751, "quality": null, "file_type": "video/mp4", "width": 1440, "height": 2560, "fps": 59.939998626708984, "link": "https://videos.pexels.com/video-files/29956113/12855751_1440_2560_60fps.mp4", "size": 253359310}, {"id": 12855752, "quality": null, "file_type": "video/mp4", "width": 2160, "height": 3840, "fps": 59.939998626708984, "link": "https://videos.pexels.com/video-files/29956113/12855752_2160_3840_60fps.mp4", "size": 370829608}], "video_pictures": [{"id": 24316978, "nr": 0, "picture": "https://images.pexels.com/videos/29956113/pictures/preview-0.jpg"}, {"id": 24316979, "nr": 1, "picture": "https://images.pexels.com/videos/29956113/pictures/preview-1.jpg"}, {"id": 24316980, "nr": 2, "picture": "https://images.pexels.com/videos/29956113/pictures/preview-2.jpg"}, {"id": 24316981, "nr": 3, "picture": "https://images.pexels.com/videos/29956113/pictures/preview-3.jpg"}, {"id": 24316982, "nr": 4, "picture": "https://images.pexels.com/videos/29956113/pictures/preview-4.jpg"}, {"id": 24316983, "nr": 5, "picture": "https://images.pexels.com/videos/29956113/pictures/preview-5.jpg"}, {"id": 24316984, "nr": 6, "picture": "https://images.pexels.com/videos/29956113/pictures/preview-6.jpg"}, {"id": 24316985, "nr": 7, "picture": "https://images.pexels.com/videos/29956113/pictures/preview-7.jpg"}, {"id": 24316986, "nr": 8, "picture": "https://images.pexels.com/videos/29956113/pictures/preview-8.jpg"}, {"id": 24316987, "nr": 9, "picture": "https://images.pexels.com/videos/29956113/pictures/preview-9.jpg"}, {"id": 24316988, "nr": 10, "picture": "https://images.pexels.com/videos/29956113/pictures/preview-10.jpg"}, {"id": 24316989, "nr": 11, "picture": "https://images.pexels.com/videos/29956113/pictures/preview-11.jpg"}, {"id": 24316990, "nr": 12, "picture": "https://images.pexels.com/videos/29956113/pictures/preview-12.jpg"}, {"id": 24316991, "nr": 13, "picture": "https://images.pexels.com/videos/29956113/pictures/preview-13.jpg"}, {"id": 24316992, "nr": 14, "picture": "https://images.pexels.com/videos/29956113/pictures/preview-14.jpg"}]}, {"id": 29946664, "width": 1080, "height": 1920, "duration": 27, "full_res": null, "tags": [], "url": "https://www.pexels.com/video/scenic-harbor-view-with-boats-docked-29946664/", "image": "https://images.pexels.com/videos/29946664/pexels-photo-29946664.jpeg?auto=compress&cs=tinysrgb&fit=crop&h=1200&w=630", "avg_color": null, "user": {"id": 1470236, "name": "lemapuche breton", "url": "https://www.pexels.com/@lemapuche-breton-1470236"}, "video_files": [{"id": 12851987, "quality": null, "file_type": "video/mp4", "width": 360, "height": 640, "fps": 59.939998626708984, "link": "https://videos.pexels.com/video-files/29946664/12851987_360_640_60fps.mp4", "size": 8853350}, {"id": 12851988, "quality": null, "file_type": "video/mp4", "width": 540, "height": 960, "fps": 59.939998626708984, "link": "https://videos.pexels.com/video-files/29946664/12851988_540_960_60fps.mp4", "size": 17722752}, {"id": 12851989, "quality": null, "file_type": "video/mp4", "width": 720, "height": 1280, "fps": 59.939998626708984, "link": "https://videos.pexels.com/video-files/29946664/12851989_720_1280_60fps.mp4", "size": 27678344}, {"id": 12851990, "quality": null, "file_type": "video/mp4", "width": 1080, "height": 1920, "fps": 59.939998626708984, "link": "https://videos.pexels.com/video-files/29946664/12851990_1080_1920_60fps.mp4", "size": 51003596}], "video_pictures": [{"id": 24307731, "nr": 0, "picture": "https://images.pexels.com/videos/29946664/pictures/preview-0.jpg"}, {"id": 24307732, "nr": 1, "picture": "https://images.pexels.com/videos/29946664/pictures/preview-1.jpg"}, {"id": 24307733, "nr": 2, "picture": "https://images.pexels.com/videos/29946664/pictures/preview-2.jpg"}, {"id": 24307734, "nr": 3, "picture": "https://images.pexels.com/videos/29946664/pictures/preview-3.jpg"}, {"id": 24307735, "nr": 4, "picture": "https://images.pexels.com/videos/29946664/pictures/preview-4.jpg"}, {"id": 24307736, "nr": 5, "picture": "https://images.pexels.com/videos/29946664/pictures/preview-5.jpg"}, {"id": 24307737, "nr": 6, "picture": "https://images.pexels.com/videos/29946664/pictures/preview-6.jpg"}, {"id": 24307738, "nr": 7, "picture": "https://images.pexels.com/videos/29946664/pictures/preview-7.jpg"}, {"id": 24307739, "nr": 8, "picture": "https://images.pexels.com/videos/29946664/pictures/preview-8.jpg"}, {"id": 24307740, "nr": 9, "picture": "https://images.pexels.com/videos/29946664/pictures/preview-9.jpg"}, {"id": 24307741, "nr": 10, "picture": "https://images.pexels.com/videos/29946664/pictures/preview-10.jpg"}, {"id": 24307742, "nr": 11, "picture": "https://images.pexels.com/videos/29946664/pictures/preview-11.jpg"}, {"id": 24307743, "nr": 12, "picture": "https://images.pexels.com/videos/29946664/pictures/preview-12.jpg"}, {"id": 24307744, "nr": 13, "picture": "https://images.pexels.com/videos/29946664/pictures/preview-13.jpg"}, {"id": 24307745, "nr": 14, "picture": "https://images.pexels.com/videos/29946664/pictures/preview-14.jpg"}]}, {"id": 29963648, "width": 1080, "height": 1920, "duration": 39, "full_res": null, "tags": [], "url": "https://www.pexels.com/video/tranquil-sailing-on-a-sunny-winter-day-29963648/", "image": "https://images.pexels.com/videos/29963648/action-sport-baltic-sea-bearded-man-dream-scape-29963648.jpeg?auto=compress&cs=tinysrgb&fit=crop&h=1200&w=630", "avg_color": null, "user": {"id": 767004860, "name": "\u0410\u043d\u0442\u043e\u043d \u0413\u0430\u0440\u0443\u0441\u0442\u043e\u0432\u0438\u0447", "url": "https://www.pexels.com/@767004860"}, "video_files": [{"id": 12859125, "quality": null, "file_type": "video/mp4", "width": 360, "height": 640, "fps": 25.0, "link": "https://videos.pexels.com/video-files/29963648/12859125_360_640_25fps.mp4", "size": 17762894}, {"id": 12859127, "quality": null, "file_type": "video/mp4", "width": 540, "height": 960, "fps": 25.0, "link": "https://videos.pexels.com/video-files/29963648/12859127_540_960_25fps.mp4", "size": 38747607}, {"id": 12859129, "quality": null, "file_type": "video/mp4", "width": 720, "height": 1280, "fps": 25.0, "link": "https://videos.pexels.com/video-files/29963648/12859129_720_1280_25fps.mp4", "size": 65662818}, {"id": 12859131, "quality": null, "file_type": "video/mp4", "width": 1080, "height": 1920, "fps": 25.0, "link": "https://videos.pexels.com/video-files/29963648/12859131_1080_1920_25fps.mp4", "size": 132838672}], "video_pictures": [{"id": 24324976, "nr": 0, "picture": "https://images.pexels.com/videos/29963648/pictures/preview-0.jpg"}, {"id": 24324980, "nr": 1, "picture": "https://images.pexels.com/videos/29963648/pictures/preview-1.jpg"}, {"id": 24324986, "nr": 2, "picture": "https://images.pexels.com/videos/29963648/pictures/preview-2.jpg"}, {"id": 24324990, "nr": 3, "picture": "https://images.pexels.com/videos/29963648/pictures/preview-3.jpg"}, {"id": 24324996, "nr": 4, "picture": "https://images.pexels.com/videos/29963648/pictures/preview-4.jpg"}, {"id": 24325001, "nr": 5, "picture": "https://images.pexels.com/videos/29963648/pictures/preview-5.jpg"}, {"id": 24325006, "nr": 6, "picture": "https://images.pexels.com/videos/29963648/pictures/preview-6.jpg"}, {"id": 24325011, "nr": 7, "picture": "https://images.pexels.com/videos/29963648/pictures/preview-7.jpg"}, {"id": 24325016, "nr": 8, "picture": "https://images.pexels.com/videos/29963648/pictures/preview-8.jpg"}, {"id": 24325022, "nr": 9, "picture": "https://images.pexels.com/videos/29963648/pictures/preview-9.jpg"}, {"id": 24325024, "nr": 10, "picture": "https://images.pexels.com/videos/29963648/pictures/preview-10.jpg"}, {"id": 24325028, "nr": 11, "picture": "https://images.pexels.com/videos/29963648/pictures/preview-11.jpg"}, {"id": 24325032, "nr": 12, "picture": "https://images.pexels.com/videos/29963648/pictures/preview-12.jpg"}, {"id": 24325036, "nr": 13, "picture": "https://images.pexels.com/videos/29963648/pictures/preview-13.jpg"}, {"id": 24325039, "nr": 14, "picture": "https://images.pexels.com/videos/29963648/pictures/preview-14.jpg"}]}], "total_results": 8000, "next_page": "https://api.pexels.com/v1/videos/search/?orientation=portrait&page=2&per_page=8&query=gradual+water", "url": "https://api-server.pexels.com/search/videos/gradual%20water/"}, "timestamp": "2024-12-28T22:42:11.767169"}
