{"query": "talking plants", "response": {"page": 1, "per_page": 8, "videos": [{"id": 8557555, "width": 2160, "height": 3840, "duration": 10, "full_res": null, "tags": [], "url": "https://www.pexels.com/video/a-man-and-a-woman-arguing-by-a-window-8557555/", "image": "https://images.pexels.com/videos/8557555/pexels-photo-8557555.jpeg?auto=compress&cs=tinysrgb&fit=crop&h=1200&w=630", "avg_color": null, "user": {"id": 20455562, "name": "Timur Weber", "url": "https://www.pexels.com/@timur-weber"}, "video_files": [{"id": 10894179, "quality": "uhd", "file_type": "video/mp4", "width": 2160, "height": 3840, "fps": 23.97599983215332, "link": "https://videos.pexels.com/video-files/8557555/8557555-uhd_2160_3840_24fps.mp4", "size": 23287553}, {"id": 10894261, "quality": "hd", "file_type": "video/mp4", "width": 1080, "height": 1920, "fps": 23.97599983215332, "link": "https://videos.pexels.com/video-files/8557555/8557555-hd_1080_1920_24fps.mp4", "size": 5248214}, {"id": 10894365, "quality": "hd", "file_type": "video/mp4", "width": 720, "height": 1280, "fps": 23.97599983215332, "link": "https://videos.pexels.com/video-files/8557555/8557555-hd_720_1280_24fps.mp4", "size": 2721213}, {"id": 10894426, "quality": "sd", "file_type": "video/mp4", "width": 540, "height": 960, "fps": 23.97599983215332, "link": "https://videos.pexels.com/video-files/8557555/8557555-sd_540_960_24fps.mp4", "size": 1592721}, {"id": 10894463, "quality": "sd", "file_type": "video/mp4", "width": 360, "height": 640, "fps": 23.97599983215332, "link": "https://videos.pexels.com/video-files/8557555/8557555-sd_360_640_24fps.mp4", "size": 636732}, {"id": 10894549, "quality": "uhd", "file_type": "video/mp4", "width": 1440, "height": 2560, "fps": 23.97599983215332, "link": "https://videos.pexels.com/video-files/8557555/8557555-uhd_1440_2560_24fps.mp4", "size": 9596843}, {"id": 10894618, "quality": "sd", "file_type": "video/mp4", "width": 240, "height": 426, "fps": 23.97599983215332, "link": "https://videos.pexels.com/video-files/8557555/8557555-sd_240_426_24fps.mp4", "size": 433004}], "video_pictures": [{"id": 8500352, "nr": 0, "picture": "https://images.pexels.com/videos/8557555/pictures/preview-0.jpeg"}, {"id": 8500377, "nr": 1, "picture": "https://images.pexels.com/videos/8557555/pictures/preview-1.jpeg"}, {"id": 8500404, "nr": 2, "picture": "https://images.pexels.com/videos/8557555/pictures/preview-2.jpeg"}, {"id": 8500427, "nr": 3, "picture": "https://images.pexels.com/videos/8557555/pictures/preview-3.jpeg"}, {"id": 8500464, "nr": 4, "picture": "https://images.pexels.com/videos/8557555/pictures/preview-4.jpeg"}, {"id": 8500497, "nr": 5, "picture": "https://images.pexels.com/videos/8557555/pictures/preview-5.jpeg"}, {"id": 8500520, "nr": 6, "picture": "https://images.pexels.com/videos/8557555/pictures/preview-6.jpeg"}, {"id": 8500541, "nr": 7, "picture": "https://images.pexels.com/videos/8557555/pictures/preview-7.jpeg"}, {"id": 8500565, "nr": 8, "picture": "https://images.pexels.com/videos/8557555/pictures/preview-8.jpeg"}, {"id": 8500586, "nr": 9, "picture": "https://images.pexels.com/videos/8557555/pictures/preview-9.jpeg"}, {"id": 8500618, "nr": 10, "picture": "https://images.pexels.com/videos/8557555/pictures/preview-10.jpeg"}, {"id": 8500649, "nr": 11, "picture": "https://images.pexels.com/videos/8557555/pictures/preview-11.jpeg"}, {"id": 8500668, "nr": 12, "picture": "https://images.pexels.com/videos/8557555/pictures/preview-12.jpeg"}, {"id": 8500688, "nr": 13, "picture": "https://images.pexels.com/videos/8557555/pictures/preview-13.jpeg"}, {"id": 8500719, "nr": 14, "picture": "https://images.pexels.com/videos/8557555/pictures/preview-14.jpeg"}]}, {"id": 7871668, "width": 2160, "height": 3840, "duration": 10, "full_res": null, "tags": [], "url": "https://www.pexels.com/video/a-woman-and-her-daughter-talking-while-looking-at-the-leaves-7871668/", "image": "https://images.pexels.com/videos/7871668/adult-afro-calamity-child-7871668.jpeg?auto=compress&cs=tinysrgb&fit=crop&h=1200&w=630", "avg_color": null, "user": {"id": 48519387, "name": "Barbara Olsen", "url": "https://www.pexels.com/@barbara-olsen"}, "video_files": [{"id": 10603218, "quality": "sd", "file_type": "video/mp4", "width": 540, "height": 960, "fps": 23.97599983215332, "link": "https://videos.pexels.com/video-files/7871668/7871668-sd_540_960_24fps.mp4", "size": 1705402}, {"id": 10603321, "quality": "sd", "file_type": "video/mp4", "width": 360, "height": 640, "fps": 23.97599983215332, "link": "https://videos.pexels.com/video-files/7871668/7871668-sd_360_640_24fps.mp4", "size": 634944}, {"id": 10603451, "quality": "uhd", "file_type": "video/mp4", "width": 1440, "height": 2560, "fps": 23.97599983215332, "link": "https://videos.pexels.com/video-files/7871668/7871668-uhd_1440_2560_24fps.mp4", "size": 15362891}, {"id": 10603578, "quality": "sd", "file_type": "video/mp4", "width": 240, "height": 426, "fps": 23.97599983215332, "link": "https://videos.pexels.com/video-files/7871668/7871668-sd_240_426_24fps.mp4", "size": 430606}, {"id": 10603711, "quality": "hd", "file_type": "video/mp4", "width": 1080, "height": 1920, "fps": 23.97599983215332, "link": "https://videos.pexels.com/video-files/7871668/7871668-hd_1080_1920_24fps.mp4", "size": 6474029}, {"id": 10603804, "quality": "uhd", "file_type": "video/mp4", "width": 2160, "height": 3840, "fps": 23.97599983215332, "link": "https://videos.pexels.com/video-files/7871668/7871668-uhd_2160_3840_24fps.mp4", "size": 30173306}, {"id": 10603871, "quality": "hd", "file_type": "video/mp4", "width": 720, "height": 1280, "fps": 23.97599983215332, "link": "https://videos.pexels.com/video-files/7871668/7871668-hd_720_1280_24fps.mp4", "size": 3356389}], "video_pictures": [{"id": 7194455, "nr": 0, "picture": "https://images.pexels.com/videos/7871668/pictures/preview-0.jpeg"}, {"id": 7194471, "nr": 1, "picture": "https://images.pexels.com/videos/7871668/pictures/preview-1.jpeg"}, {"id": 7194489, "nr": 2, "picture": "https://images.pexels.com/videos/7871668/pictures/preview-2.jpeg"}, {"id": 7194499, "nr": 3, "picture": "https://images.pexels.com/videos/7871668/pictures/preview-3.jpeg"}, {"id": 7194511, "nr": 4, "picture": "https://images.pexels.com/videos/7871668/pictures/preview-4.jpeg"}, {"id": 7194525, "nr": 5, "picture": "https://images.pexels.com/videos/7871668/pictures/preview-5.jpeg"}, {"id": 7194535, "nr": 6, "picture": "https://images.pexels.com/videos/7871668/pictures/preview-6.jpeg"}, {"id": 7194543, "nr": 7, "picture": "https://images.pexels.com/videos/7871668/pictures/preview-7.jpeg"}, {"id": 7194556, "nr": 8, "picture": "https://images.pexels.com/videos/7871668/pictures/preview-8.jpeg"}, {"id": 7194568, "nr": 9, "picture": "https://images.pexels.com/videos/7871668/pictures/preview-9.jpeg"}, {"id": 7194581, "nr": 10, "picture": "https://images.pexels.com/videos/7871668/pictures/preview-10.jpeg"}, {"id": 7194598, "nr": 11, "picture": "https://images.pexels.com/videos/7871668/pictures/preview-11.jpeg"}, {"id": 7194607, "nr": 12, "picture": "https://images.pexels.com/videos/7871668/pictures/preview-12.jpeg"}, {"id": 7194618, "nr": 13, "picture": "https://images.pexels.com/videos/7871668/pictures/preview-13.jpeg"}, {"id": 7194629, "nr": 14, "picture": "https://images.pexels.com/videos/7871668/pictures/preview-14.jpeg"}]}, {"id": 8164205, "width": 2160, "height": 4096, "duration": 23, "full_res": null, "tags": [], "url": "https://www.pexels.com/video/a-couple-eating-at-the-park-8164205/", "image": "https://images.pexels.com/videos/8164205/pexels-photo-8164205.jpeg?auto=compress&cs=tinysrgb&fit=crop&h=1200&w=630", "avg_color": null, "user": {"id": 30039676, "name": "MART  PRODUCTION", "url": "https://www.pexels.com/@mart-production"}, "video_files": [{"id": 10725350, "quality": "sd", "file_type": "video/mp4", "width": 226, "height": 426, "fps": 25.0, "link": "https://videos.pexels.com/video-files/8164205/8164205-sd_226_426_25fps.mp4", "size": 891329}, {"id": 10725428, "quality": "sd", "file_type": "video/mp4", "width": 506, "height": 960, "fps": 25.0, "link": "https://videos.pexels.com/video-files/8164205/8164205-sd_506_960_25fps.mp4", "size": 2739000}, {"id": 10725497, "quality": "hd", "file_type": "video/mp4", "width": 720, "height": 1366, "fps": 25.0, "link": "https://videos.pexels.com/video-files/8164205/8164205-hd_720_1366_25fps.mp4", "size": 5414834}, {"id": 10725568, "quality": "uhd", "file_type": "video/mp4", "width": 2160, "height": 4096, "fps": 25.0, "link": "https://videos.pexels.com/video-files/8164205/8164205-uhd_2160_4096_25fps.mp4", "size": 43898545}, {"id": 10725627, "quality": "hd", "file_type": "video/mp4", "width": 1080, "height": 2048, "fps": 25.0, "link": "https://videos.pexels.com/video-files/8164205/8164205-hd_1080_2048_25fps.mp4", "size": 10517074}, {"id": 10725674, "quality": "uhd", "file_type": "video/mp4", "width": 1440, "height": 2732, "fps": 25.0, "link": "https://videos.pexels.com/video-files/8164205/8164205-uhd_1440_2732_25fps.mp4", "size": 20771340}, {"id": 10725709, "quality": "sd", "file_type": "video/mp4", "width": 338, "height": 640, "fps": 25.0, "link": "https://videos.pexels.com/video-files/8164205/8164205-sd_338_640_25fps.mp4", "size": 1259798}], "video_pictures": [{"id": 7737700, "nr": 0, "picture": "https://images.pexels.com/videos/8164205/pictures/preview-0.jpeg"}, {"id": 7737714, "nr": 1, "picture": "https://images.pexels.com/videos/8164205/pictures/preview-1.jpeg"}, {"id": 7737738, "nr": 2, "picture": "https://images.pexels.com/videos/8164205/pictures/preview-2.jpeg"}, {"id": 7737778, "nr": 3, "picture": "https://images.pexels.com/videos/8164205/pictures/preview-3.jpeg"}, {"id": 7737829, "nr": 4, "picture": "https://images.pexels.com/videos/8164205/pictures/preview-4.jpeg"}, {"id": 7737868, "nr": 5, "picture": "https://images.pexels.com/videos/8164205/pictures/preview-5.jpeg"}, {"id": 7737903, "nr": 6, "picture": "https://images.pexels.com/videos/8164205/pictures/preview-6.jpeg"}, {"id": 7737931, "nr": 7, "picture": "https://images.pexels.com/videos/8164205/pictures/preview-7.jpeg"}, {"id": 7737958, "nr": 8, "picture": "https://images.pexels.com/videos/8164205/pictures/preview-8.jpeg"}, {"id": 7737985, "nr": 9, "picture": "https://images.pexels.com/videos/8164205/pictures/preview-9.jpeg"}, {"id": 7738004, "nr": 10, "picture": "https://images.pexels.com/videos/8164205/pictures/preview-10.jpeg"}, {"id": 7738036, "nr": 11, "picture": "https://images.pexels.com/videos/8164205/pictures/preview-11.jpeg"}, {"id": 7738059, "nr": 12, "picture": "https://images.pexels.com/videos/8164205/pictures/preview-12.jpeg"}, {"id": 7738081, "nr": 13, "picture": "https://images.pexels.com/videos/8164205/pictures/preview-13.jpeg"}, {"id": 7738106, "nr": 14, "picture": "https://images.pexels.com/videos/8164205/pictures/preview-14.jpeg"}]}, {"id": 8136203, "width": 1080, "height": 1920, "duration": 13, "full_res": null, "tags": [], "url": "https://www.pexels.com/video/a-woman-having-an-argument-while-video-calling-using-a-laptop-8136203/", "image": "https://images.pexels.com/videos/8136203/adult-art-book-series-child-8136203.jpeg?auto=compress&cs=tinysrgb&fit=crop&h=1200&w=630", "avg_color": null, "user": {"id": 57404688, "name": "ANTONI SHKRABA production", "url": "https://www.pexels.com/@anthonyshkraba-production"}, "video_files": [{"id": 10714704, "quality": "hd", "file_type": "video/mp4", "width": 720, "height": 1280, "fps": 50.0, "link": "https://videos.pexels.com/video-files/8136203/8136203-hd_720_1280_50fps.mp4", "size": 3949396}, {"id": 10714779, "quality": "sd", "file_type": "video/mp4", "width": 240, "height": 426, "fps": 25.0, "link": "https://videos.pexels.com/video-files/8136203/8136203-sd_240_426_25fps.mp4", "size": 541461}, {"id": 10714854, "quality": "sd", "file_type": "video/mp4", "width": 540, "height": 960, "fps": 25.0, "link": "https://videos.pexels.com/video-files/8136203/8136203-sd_540_960_25fps.mp4", "size": 2020253}, {"id": 10714930, "quality": "sd", "file_type": "video/mp4", "width": 360, "height": 640, "fps": 25.0, "link": "https://videos.pexels.com/video-files/8136203/8136203-sd_360_640_25fps.mp4", "size": 833213}, {"id": 10714973, "quality": "hd", "file_type": "video/mp4", "width": 1080, "height": 1920, "fps": 25.0, "link": "https://videos.pexels.com/video-files/8136203/8136203-hd_1080_1920_25fps.mp4", "size": 7955712}], "video_pictures": [{"id": 7689713, "nr": 0, "picture": "https://images.pexels.com/videos/8136203/pictures/preview-0.jpeg"}, {"id": 7689715, "nr": 1, "picture": "https://images.pexels.com/videos/8136203/pictures/preview-1.jpeg"}, {"id": 7689717, "nr": 2, "picture": "https://images.pexels.com/videos/8136203/pictures/preview-2.jpeg"}, {"id": 7689719, "nr": 3, "picture": "https://images.pexels.com/videos/8136203/pictures/preview-3.jpeg"}, {"id": 7689721, "nr": 4, "picture": "https://images.pexels.com/videos/8136203/pictures/preview-4.jpeg"}, {"id": 7689722, "nr": 5, "picture": "https://images.pexels.com/videos/8136203/pictures/preview-5.jpeg"}, {"id": 7689723, "nr": 6, "picture": "https://images.pexels.com/videos/8136203/pictures/preview-6.jpeg"}, {"id": 7689724, "nr": 7, "picture": "https://images.pexels.com/videos/8136203/pictures/preview-7.jpeg"}, {"id": 7689725, "nr": 8, "picture": "https://images.pexels.com/videos/8136203/pictures/preview-8.jpeg"}, {"id": 7689728, "nr": 9, "picture": "https://images.pexels.com/videos/8136203/pictures/preview-9.jpeg"}, {"id": 7689731, "nr": 10, "picture": "https://images.pexels.com/videos/8136203/pictures/preview-10.jpeg"}, {"id": 7689734, "nr": 11, "picture": "https://images.pexels.com/videos/8136203/pictures/preview-11.jpeg"}, {"id": 7689737, "nr": 12, "picture": "https://images.pexels.com/videos/8136203/pictures/preview-12.jpeg"}, {"id": 7689741, "nr": 13, "picture": "https://images.pexels.com/videos/8136203/pictures/preview-13.jpeg"}, {"id": 7689744, "nr": 14, "picture": "https://images.pexels.com/videos/8136203/pictures/preview-14.jpeg"}]}, {"id": 6948555, "width": 2160, "height": 3840, "duration": 10, "full_res": null, "tags": [], "url": "https://www.pexels.com/video/a-female-host-recording-a-podcast-6948555/", "image": "https://images.pexels.com/videos/6948555/pexels-photo-6948555.jpeg?auto=compress&cs=tinysrgb&fit=crop&h=1200&w=630", "avg_color": null, "user": {"id": 19162611, "name": "George Milton", "url": "https://www.pexels.com/@george-milton"}, "video_files": [{"id": 10239925, "quality": "sd", "file_type": "video/mp4", "width": 360, "height": 640, "fps": 23.97599983215332, "link": "https://videos.pexels.com/video-files/6948555/6948555-sd_360_640_24fps.mp4", "size": 581916}, {"id": 10239985, "quality": "hd", "file_type": "video/mp4", "width": 1080, "height": 1920, "fps": 23.97599983215332, "link": "https://videos.pexels.com/video-files/6948555/6948555-hd_1080_1920_24fps.mp4", "size": 5416386}, {"id": 10240131, "quality": "hd", "file_type": "video/mp4", "width": 720, "height": 1280, "fps": 23.97599983215332, "link": "https://videos.pexels.com/video-files/6948555/6948555-hd_720_1280_24fps.mp4", "size": 2896725}, {"id": 10240146, "quality": "sd", "file_type": "video/mp4", "width": 540, "height": 960, "fps": 23.97599983215332, "link": "https://videos.pexels.com/video-files/6948555/6948555-sd_540_960_24fps.mp4", "size": 1546742}, {"id": 10240247, "quality": "sd", "file_type": "video/mp4", "width": 240, "height": 426, "fps": 23.97599983215332, "link": "https://videos.pexels.com/video-files/6948555/6948555-sd_240_426_24fps.mp4", "size": 388840}, {"id": 10240392, "quality": "uhd", "file_type": "video/mp4", "width": 1440, "height": 2560, "fps": 23.97599983215332, "link": "https://videos.pexels.com/video-files/6948555/6948555-uhd_1440_2560_24fps.mp4", "size": 10607936}, {"id": 10240474, "quality": "uhd", "file_type": "video/mp4", "width": 2160, "height": 3840, "fps": 23.97599983215332, "link": "https://videos.pexels.com/video-files/6948555/6948555-uhd_2160_3840_24fps.mp4", "size": 22754082}], "video_pictures": [{"id": 5421559, "nr": 0, "picture": "https://images.pexels.com/videos/6948555/pictures/preview-0.jpeg"}, {"id": 5421578, "nr": 1, "picture": "https://images.pexels.com/videos/6948555/pictures/preview-1.jpeg"}, {"id": 5421602, "nr": 2, "picture": "https://images.pexels.com/videos/6948555/pictures/preview-2.jpeg"}, {"id": 5421645, "nr": 3, "picture": "https://images.pexels.com/videos/6948555/pictures/preview-3.jpeg"}, {"id": 5421698, "nr": 4, "picture": "https://images.pexels.com/videos/6948555/pictures/preview-4.jpeg"}, {"id": 5421738, "nr": 5, "picture": "https://images.pexels.com/videos/6948555/pictures/preview-5.jpeg"}, {"id": 5421770, "nr": 6, "picture": "https://images.pexels.com/videos/6948555/pictures/preview-6.jpeg"}, {"id": 5421807, "nr": 7, "picture": "https://images.pexels.com/videos/6948555/pictures/preview-7.jpeg"}, {"id": 5421842, "nr": 8, "picture": "https://images.pexels.com/videos/6948555/pictures/preview-8.jpeg"}, {"id": 5421880, "nr": 9, "picture": "https://images.pexels.com/videos/6948555/pictures/preview-9.jpeg"}, {"id": 5421926, "nr": 10, "picture": "https://images.pexels.com/videos/6948555/pictures/preview-10.jpeg"}, {"id": 5421961, "nr": 11, "picture": "https://images.pexels.com/videos/6948555/pictures/preview-11.jpeg"}, {"id": 5421986, "nr": 12, "picture": "https://images.pexels.com/videos/6948555/pictures/preview-12.jpeg"}, {"id": 5422013, "nr": 13, "picture": "https://images.pexels.com/videos/6948555/pictures/preview-13.jpeg"}, {"id": 5422036, "nr": 14, "picture": "https://images.pexels.com/videos/6948555/pictures/preview-14.jpeg"}]}, {"id": 8370549, "width": 1080, "height": 1920, "duration": 14, "full_res": null, "tags": [], "url": "https://www.pexels.com/video/a-man-explaining-a-diagram-about-cryptocurrency-8370549/", "image": "https://images.pexels.com/videos/8370549/adult-banking-binary-options-bitcoin-8370549.jpeg?auto=compress&cs=tinysrgb&fit=crop&h=1200&w=630", "avg_color": null, "user": {"id": 3149039, "name": "RDNE Stock project", "url": "https://www.pexels.com/@rdne"}, "video_files": [{"id": 10799742, "quality": "sd", "file_type": "video/mp4", "width": 360, "height": 640, "fps": 30.0, "link": "https://videos.pexels.com/video-files/8370549/8370549-sd_360_640_30fps.mp4", "size": 789178}, {"id": 10799786, "quality": "sd", "file_type": "video/mp4", "width": 240, "height": 426, "fps": 30.0, "link": "https://videos.pexels.com/video-files/8370549/8370549-sd_240_426_30fps.mp4", "size": 578783}, {"id": 10799830, "quality": "hd", "file_type": "video/mp4", "width": 720, "height": 1280, "fps": 30.0, "link": "https://videos.pexels.com/video-files/8370549/8370549-hd_720_1280_30fps.mp4", "size": 3665363}, {"id": 10799897, "quality": "sd", "file_type": "video/mp4", "width": 540, "height": 960, "fps": 30.0, "link": "https://videos.pexels.com/video-files/8370549/8370549-sd_540_960_30fps.mp4", "size": 2016577}, {"id": 10799935, "quality": "hd", "file_type": "video/mp4", "width": 1080, "height": 1920, "fps": 30.0, "link": "https://videos.pexels.com/video-files/8370549/8370549-hd_1080_1920_30fps.mp4", "size": 7999368}], "video_pictures": [{"id": 8111772, "nr": 0, "picture": "https://images.pexels.com/videos/8370549/pictures/preview-0.jpeg"}, {"id": 8111778, "nr": 1, "picture": "https://images.pexels.com/videos/8370549/pictures/preview-1.jpeg"}, {"id": 8111782, "nr": 2, "picture": "https://images.pexels.com/videos/8370549/pictures/preview-2.jpeg"}, {"id": 8111786, "nr": 3, "picture": "https://images.pexels.com/videos/8370549/pictures/preview-3.jpeg"}, {"id": 8111794, "nr": 4, "picture": "https://images.pexels.com/videos/8370549/pictures/preview-4.jpeg"}, {"id": 8111801, "nr": 5, "picture": "https://images.pexels.com/videos/8370549/pictures/preview-5.jpeg"}, {"id": 8111808, "nr": 6, "picture": "https://images.pexels.com/videos/8370549/pictures/preview-6.jpeg"}, {"id": 8111815, "nr": 7, "picture": "https://images.pexels.com/videos/8370549/pictures/preview-7.jpeg"}, {"id": 8111821, "nr": 8, "picture": "https://images.pexels.com/videos/8370549/pictures/preview-8.jpeg"}, {"id": 8111825, "nr": 9, "picture": "https://images.pexels.com/videos/8370549/pictures/preview-9.jpeg"}, {"id": 8111833, "nr": 10, "picture": "https://images.pexels.com/videos/8370549/pictures/preview-10.jpeg"}, {"id": 8111837, "nr": 11, "picture": "https://images.pexels.com/videos/8370549/pictures/preview-11.jpeg"}, {"id": 8111842, "nr": 12, "picture": "https://images.pexels.com/videos/8370549/pictures/preview-12.jpeg"}, {"id": 8111846, "nr": 13, "picture": "https://images.pexels.com/videos/8370549/pictures/preview-13.jpeg"}, {"id": 8111850, "nr": 14, "picture": "https://images.pexels.com/videos/8370549/pictures/preview-14.jpeg"}]}, {"id": 6201670, "width": 2160, "height": 3840, "duration": 7, "full_res": null, "tags": [], "url": "https://www.pexels.com/video/baristas-hanging-out-outside-the-coffee-shop-6201670/", "image": "https://images.pexels.com/videos/6201670/pexels-photo-6201670.jpeg?auto=compress&cs=tinysrgb&fit=crop&h=1200&w=630", "avg_color": null, "user": {"id": 6928007, "name": "Tim Douglas", "url": "https://www.pexels.com/@tim-douglas"}, "video_files": [{"id": 9956783, "quality": "sd", "file_type": "video/mp4", "width": 540, "height": 960, "fps": 24.0, "link": "https://videos.pexels.com/video-files/6201670/6201670-sd_540_960_24fps.mp4", "size": 1318683}, {"id": 9956852, "quality": "uhd", "file_type": "video/mp4", "width": 2160, "height": 3840, "fps": 24.0, "link": "https://videos.pexels.com/video-files/6201670/6201670-uhd_2160_3840_24fps.mp4", "size": 21182811}, {"id": 9956895, "quality": "sd", "file_type": "video/mp4", "width": 360, "height": 640, "fps": 24.0, "link": "https://videos.pexels.com/video-files/6201670/6201670-sd_360_640_24fps.mp4", "size": 446061}, {"id": 9956981, "quality": "uhd", "file_type": "video/mp4", "width": 1440, "height": 2560, "fps": 24.0, "link": "https://videos.pexels.com/video-files/6201670/6201670-uhd_1440_2560_24fps.mp4", "size": 11112331}, {"id": 9957129, "quality": "hd", "file_type": "video/mp4", "width": 1080, "height": 1920, "fps": 24.0, "link": "https://videos.pexels.com/video-files/6201670/6201670-hd_1080_1920_24fps.mp4", "size": 4438340}, {"id": 9957209, "quality": "hd", "file_type": "video/mp4", "width": 720, "height": 1280, "fps": 24.0, "link": "https://videos.pexels.com/video-files/6201670/6201670-hd_720_1280_24fps.mp4", "size": 2236853}, {"id": 9957308, "quality": "sd", "file_type": "video/mp4", "width": 240, "height": 426, "fps": 24.0, "link": "https://videos.pexels.com/video-files/6201670/6201670-sd_240_426_24fps.mp4", "size": 273334}], "video_pictures": [{"id": 4067571, "nr": 0, "picture": "https://images.pexels.com/videos/6201670/pictures/preview-0.jpeg"}, {"id": 4067583, "nr": 1, "picture": "https://images.pexels.com/videos/6201670/pictures/preview-1.jpeg"}, {"id": 4067605, "nr": 2, "picture": "https://images.pexels.com/videos/6201670/pictures/preview-2.jpeg"}, {"id": 4067635, "nr": 3, "picture": "https://images.pexels.com/videos/6201670/pictures/preview-3.jpeg"}, {"id": 4067670, "nr": 4, "picture": "https://images.pexels.com/videos/6201670/pictures/preview-4.jpeg"}, {"id": 4067712, "nr": 5, "picture": "https://images.pexels.com/videos/6201670/pictures/preview-5.jpeg"}, {"id": 4067761, "nr": 6, "picture": "https://images.pexels.com/videos/6201670/pictures/preview-6.jpeg"}, {"id": 4067814, "nr": 7, "picture": "https://images.pexels.com/videos/6201670/pictures/preview-7.jpeg"}, {"id": 4067868, "nr": 8, "picture": "https://images.pexels.com/videos/6201670/pictures/preview-8.jpeg"}, {"id": 4067902, "nr": 9, "picture": "https://images.pexels.com/videos/6201670/pictures/preview-9.jpeg"}, {"id": 4067923, "nr": 10, "picture": "https://images.pexels.com/videos/6201670/pictures/preview-10.jpeg"}, {"id": 4067965, "nr": 11, "picture": "https://images.pexels.com/videos/6201670/pictures/preview-11.jpeg"}, {"id": 4067994, "nr": 12, "picture": "https://images.pexels.com/videos/6201670/pictures/preview-12.jpeg"}, {"id": 4068028, "nr": 13, "picture": "https://images.pexels.com/videos/6201670/pictures/preview-13.jpeg"}, {"id": 4068059, "nr": 14, "picture": "https://images.pexels.com/videos/6201670/pictures/preview-14.jpeg"}]}, {"id": 6829936, "width": 2160, "height": 3840, "duration": 16, "full_res": null, "tags": [], "url": "https://www.pexels.com/video/lovely-couple-looking-at-each-other-6829936/", "image": "https://images.pexels.com/videos/6829936/couple-diverse-garden-holding-hands-6829936.jpeg?auto=compress&cs=tinysrgb&fit=crop&h=1200&w=630", "avg_color": null, "user": {"id": 2416479, "name": "Marcus Aurelius", "url": "https://www.pexels.com/@marcus-aurelius"}, "video_files": [{"id": 10195717, "quality": "sd", "file_type": "video/mp4", "width": 540, "height": 960, "fps": 25.0, "link": "https://videos.pexels.com/video-files/6829936/6829936-sd_540_960_25fps.mp4", "size": 1927193}, {"id": 10195722, "quality": "hd", "file_type": "video/mp4", "width": 720, "height": 1280, "fps": 25.0, "link": "https://videos.pexels.com/video-files/6829936/6829936-hd_720_1280_25fps.mp4", "size": 3213239}, {"id": 10195732, "quality": "uhd", "file_type": "video/mp4", "width": 2160, "height": 3840, "fps": 25.0, "link": "https://videos.pexels.com/video-files/6829936/6829936-uhd_2160_3840_25fps.mp4", "size": 19151719}, {"id": 10195742, "quality": "hd", "file_type": "video/mp4", "width": 1080, "height": 1920, "fps": 25.0, "link": "https://videos.pexels.com/video-files/6829936/6829936-hd_1080_1920_25fps.mp4", "size": 5600415}, {"id": 10195753, "quality": "uhd", "file_type": "video/mp4", "width": 1440, "height": 2560, "fps": 25.0, "link": "https://videos.pexels.com/video-files/6829936/6829936-uhd_1440_2560_25fps.mp4", "size": 8907721}, {"id": 10195764, "quality": "sd", "file_type": "video/mp4", "width": 240, "height": 426, "fps": 25.0, "link": "https://videos.pexels.com/video-files/6829936/6829936-sd_240_426_25fps.mp4", "size": 568390}, {"id": 10195776, "quality": "sd", "file_type": "video/mp4", "width": 360, "height": 640, "fps": 25.0, "link": "https://videos.pexels.com/video-files/6829936/6829936-sd_360_640_25fps.mp4", "size": 900859}], "video_pictures": [{"id": 5199286, "nr": 0, "picture": "https://images.pexels.com/videos/6829936/pictures/preview-0.jpeg"}, {"id": 5199291, "nr": 1, "picture": "https://images.pexels.com/videos/6829936/pictures/preview-1.jpeg"}, {"id": 5199299, "nr": 2, "picture": "https://images.pexels.com/videos/6829936/pictures/preview-2.jpeg"}, {"id": 5199314, "nr": 3, "picture": "https://images.pexels.com/videos/6829936/pictures/preview-3.jpeg"}, {"id": 5199317, "nr": 4, "picture": "https://images.pexels.com/videos/6829936/pictures/preview-4.jpeg"}, {"id": 5199321, "nr": 5, "picture": "https://images.pexels.com/videos/6829936/pictures/preview-5.jpeg"}, {"id": 5199324, "nr": 6, "picture": "https://images.pexels.com/videos/6829936/pictures/preview-6.jpeg"}, {"id": 5199329, "nr": 7, "picture": "https://images.pexels.com/videos/6829936/pictures/preview-7.jpeg"}, {"id": 5199332, "nr": 8, "picture": "https://images.pexels.com/videos/6829936/pictures/preview-8.jpeg"}, {"id": 5199336, "nr": 9, "picture": "https://images.pexels.com/videos/6829936/pictures/preview-9.jpeg"}, {"id": 5199341, "nr": 10, "picture": "https://images.pexels.com/videos/6829936/pictures/preview-10.jpeg"}, {"id": 5199343, "nr": 11, "picture": "https://images.pexels.com/videos/6829936/pictures/preview-11.jpeg"}, {"id": 5199348, "nr": 12, "picture": "https://images.pexels.com/videos/6829936/pictures/preview-12.jpeg"}, {"id": 5199352, "nr": 13, "picture": "https://images.pexels.com/videos/6829936/pictures/preview-13.jpeg"}, {"id": 5199354, "nr": 14, "picture": "https://images.pexels.com/videos/6829936/pictures/preview-14.jpeg"}]}], "total_results": 8000, "next_page": "https://api.pexels.com/v1/videos/search/?orientation=portrait&page=2&per_page=8&query=talking+plants", "url": "https://api-server.pexels.com/search/videos/talking%20plants/"}, "timestamp": "2024-12-28T22:42:01.859732"}
