{"query": "apple tree orchard", "response": {"page": 1, "per_page": 8, "videos": [{"id": 5527798, "width": 2160, "height": 3840, "duration": 9, "full_res": null, "tags": [], "url": "https://www.pexels.com/video/picking-apples-from-the-tree-5527798/", "image": "https://images.pexels.com/videos/5527798/pexels-photo-5527798.jpeg?auto=compress&cs=tinysrgb&fit=crop&h=1200&w=630", "avg_color": null, "user": {"id": 3651179, "name": "Zen Chung", "url": "https://www.pexels.com/@zen-chung"}, "video_files": [{"id": 9720002, "quality": "hd", "file_type": "video/mp4", "width": 720, "height": 1280, "fps": 23.97599983215332, "link": "https://videos.pexels.com/video-files/5527798/5527798-hd_720_1280_24fps.mp4", "size": 2998448}, {"id": 9720091, "quality": "sd", "file_type": "video/mp4", "width": 540, "height": 960, "fps": 23.97599983215332, "link": "https://videos.pexels.com/video-files/5527798/5527798-sd_540_960_24fps.mp4", "size": 1890108}, {"id": 9720163, "quality": "sd", "file_type": "video/mp4", "width": 360, "height": 640, "fps": 23.97599983215332, "link": "https://videos.pexels.com/video-files/5527798/5527798-sd_360_640_24fps.mp4", "size": 689357}, {"id": 9720232, "quality": "sd", "file_type": "video/mp4", "width": 240, "height": 426, "fps": 23.97599983215332, "link": "https://videos.pexels.com/video-files/5527798/5527798-sd_240_426_24fps.mp4", "size": 409048}, {"id": 9720384, "quality": "uhd", "file_type": "video/mp4", "width": 1440, "height": 2560, "fps": 23.97599983215332, "link": "https://videos.pexels.com/video-files/5527798/5527798-uhd_1440_2560_24fps.mp4", "size": 13990438}, {"id": 9720475, "quality": "hd", "file_type": "video/mp4", "width": 1080, "height": 1920, "fps": 23.97599983215332, "link": "https://videos.pexels.com/video-files/5527798/5527798-hd_1080_1920_24fps.mp4", "size": 5822910}, {"id": 9720696, "quality": "uhd", "file_type": "video/mp4", "width": 2160, "height": 3840, "fps": 23.97599983215332, "link": "https://videos.pexels.com/video-files/5527798/5527798-uhd_2160_3840_24fps.mp4", "size": 25309486}], "video_pictures": [{"id": 2948890, "nr": 0, "picture": "https://images.pexels.com/videos/5527798/pictures/preview-0.jpeg"}, {"id": 2948901, "nr": 1, "picture": "https://images.pexels.com/videos/5527798/pictures/preview-1.jpeg"}, {"id": 2948918, "nr": 2, "picture": "https://images.pexels.com/videos/5527798/pictures/preview-2.jpeg"}, {"id": 2948930, "nr": 3, "picture": "https://images.pexels.com/videos/5527798/pictures/preview-3.jpeg"}, {"id": 2948949, "nr": 4, "picture": "https://images.pexels.com/videos/5527798/pictures/preview-4.jpeg"}, {"id": 2948972, "nr": 5, "picture": "https://images.pexels.com/videos/5527798/pictures/preview-5.jpeg"}, {"id": 2949001, "nr": 6, "picture": "https://images.pexels.com/videos/5527798/pictures/preview-6.jpeg"}, {"id": 2949024, "nr": 7, "picture": "https://images.pexels.com/videos/5527798/pictures/preview-7.jpeg"}, {"id": 2949041, "nr": 8, "picture": "https://images.pexels.com/videos/5527798/pictures/preview-8.jpeg"}, {"id": 2949066, "nr": 9, "picture": "https://images.pexels.com/videos/5527798/pictures/preview-9.jpeg"}, {"id": 2949093, "nr": 10, "picture": "https://images.pexels.com/videos/5527798/pictures/preview-10.jpeg"}, {"id": 2949148, "nr": 11, "picture": "https://images.pexels.com/videos/5527798/pictures/preview-11.jpeg"}, {"id": 2949222, "nr": 12, "picture": "https://images.pexels.com/videos/5527798/pictures/preview-12.jpeg"}, {"id": 2949285, "nr": 13, "picture": "https://images.pexels.com/videos/5527798/pictures/preview-13.jpeg"}, {"id": 2949437, "nr": 14, "picture": "https://images.pexels.com/videos/5527798/pictures/preview-14.jpeg"}]}, {"id": 5527139, "width": 2160, "height": 3840, "duration": 9, "full_res": null, "tags": [], "url": "https://www.pexels.com/video/fresh-green-apples-on-a-tree-5527139/", "image": "https://images.pexels.com/videos/5527139/pexels-photo-5527139.jpeg?auto=compress&cs=tinysrgb&fit=crop&h=1200&w=630", "avg_color": null, "user": {"id": 3651179, "name": "Zen Chung", "url": "https://www.pexels.com/@zen-chung"}, "video_files": [{"id": 9719296, "quality": "uhd", "file_type": "video/mp4", "width": 1440, "height": 2560, "fps": 23.97599983215332, "link": "https://videos.pexels.com/video-files/5527139/5527139-uhd_1440_2560_24fps.mp4", "size": 13751933}, {"id": 9719327, "quality": "sd", "file_type": "video/mp4", "width": 540, "height": 960, "fps": 23.97599983215332, "link": "https://videos.pexels.com/video-files/5527139/5527139-sd_540_960_24fps.mp4", "size": 1831529}, {"id": 9719345, "quality": "hd", "file_type": "video/mp4", "width": 720, "height": 1280, "fps": 23.97599983215332, "link": "https://videos.pexels.com/video-files/5527139/5527139-hd_720_1280_24fps.mp4", "size": 2993137}, {"id": 9719378, "quality": "sd", "file_type": "video/mp4", "width": 240, "height": 426, "fps": 23.97599983215332, "link": "https://videos.pexels.com/video-files/5527139/5527139-sd_240_426_24fps.mp4", "size": 384308}, {"id": 9719410, "quality": "hd", "file_type": "video/mp4", "width": 1080, "height": 1920, "fps": 23.97599983215332, "link": "https://videos.pexels.com/video-files/5527139/5527139-hd_1080_1920_24fps.mp4", "size": 5699003}, {"id": 9719433, "quality": "sd", "file_type": "video/mp4", "width": 360, "height": 640, "fps": 23.97599983215332, "link": "https://videos.pexels.com/video-files/5527139/5527139-sd_360_640_24fps.mp4", "size": 653369}, {"id": 9719451, "quality": "uhd", "file_type": "video/mp4", "width": 2160, "height": 3840, "fps": 23.97599983215332, "link": "https://videos.pexels.com/video-files/5527139/5527139-uhd_2160_3840_24fps.mp4", "size": 24668005}], "video_pictures": [{"id": 2944798, "nr": 0, "picture": "https://images.pexels.com/videos/5527139/pictures/preview-0.jpeg"}, {"id": 2944817, "nr": 1, "picture": "https://images.pexels.com/videos/5527139/pictures/preview-1.jpeg"}, {"id": 2944834, "nr": 2, "picture": "https://images.pexels.com/videos/5527139/pictures/preview-2.jpeg"}, {"id": 2944850, "nr": 3, "picture": "https://images.pexels.com/videos/5527139/pictures/preview-3.jpeg"}, {"id": 2944867, "nr": 4, "picture": "https://images.pexels.com/videos/5527139/pictures/preview-4.jpeg"}, {"id": 2944891, "nr": 5, "picture": "https://images.pexels.com/videos/5527139/pictures/preview-5.jpeg"}, {"id": 2944907, "nr": 6, "picture": "https://images.pexels.com/videos/5527139/pictures/preview-6.jpeg"}, {"id": 2944920, "nr": 7, "picture": "https://images.pexels.com/videos/5527139/pictures/preview-7.jpeg"}, {"id": 2944928, "nr": 8, "picture": "https://images.pexels.com/videos/5527139/pictures/preview-8.jpeg"}, {"id": 2944947, "nr": 9, "picture": "https://images.pexels.com/videos/5527139/pictures/preview-9.jpeg"}, {"id": 2944963, "nr": 10, "picture": "https://images.pexels.com/videos/5527139/pictures/preview-10.jpeg"}, {"id": 2944981, "nr": 11, "picture": "https://images.pexels.com/videos/5527139/pictures/preview-11.jpeg"}, {"id": 2944997, "nr": 12, "picture": "https://images.pexels.com/videos/5527139/pictures/preview-12.jpeg"}, {"id": 2945006, "nr": 13, "picture": "https://images.pexels.com/videos/5527139/pictures/preview-13.jpeg"}, {"id": 2945018, "nr": 14, "picture": "https://images.pexels.com/videos/5527139/pictures/preview-14.jpeg"}]}, {"id": 5528378, "width": 2160, "height": 3840, "duration": 10, "full_res": null, "tags": [], "url": "https://www.pexels.com/video/women-picking-ripe-apples-from-the-apple-tree-5528378/", "image": "https://images.pexels.com/videos/5528378/pexels-photo-5528378.jpeg?auto=compress&cs=tinysrgb&fit=crop&h=1200&w=630", "avg_color": null, "user": {"id": 3651179, "name": "Zen Chung", "url": "https://www.pexels.com/@zen-chung"}, "video_files": [{"id": 9720142, "quality": "sd", "file_type": "video/mp4", "width": 240, "height": 426, "fps": 23.97599983215332, "link": "https://videos.pexels.com/video-files/5528378/5528378-sd_240_426_24fps.mp4", "size": 461756}, {"id": 9720242, "quality": "sd", "file_type": "video/mp4", "width": 540, "height": 960, "fps": 23.97599983215332, "link": "https://videos.pexels.com/video-files/5528378/5528378-sd_540_960_24fps.mp4", "size": 2120528}, {"id": 9720363, "quality": "uhd", "file_type": "video/mp4", "width": 2160, "height": 3840, "fps": 23.97599983215332, "link": "https://videos.pexels.com/video-files/5528378/5528378-uhd_2160_3840_24fps.mp4", "size": 31753074}, {"id": 9720536, "quality": "hd", "file_type": "video/mp4", "width": 720, "height": 1280, "fps": 23.97599983215332, "link": "https://videos.pexels.com/video-files/5528378/5528378-hd_720_1280_24fps.mp4", "size": 3857635}, {"id": 9720601, "quality": "sd", "file_type": "video/mp4", "width": 360, "height": 640, "fps": 23.97599983215332, "link": "https://videos.pexels.com/video-files/5528378/5528378-sd_360_640_24fps.mp4", "size": 777215}, {"id": 9720705, "quality": "hd", "file_type": "video/mp4", "width": 1080, "height": 1920, "fps": 23.97599983215332, "link": "https://videos.pexels.com/video-files/5528378/5528378-hd_1080_1920_24fps.mp4", "size": 7442466}, {"id": 9720851, "quality": "uhd", "file_type": "video/mp4", "width": 1440, "height": 2560, "fps": 23.97599983215332, "link": "https://videos.pexels.com/video-files/5528378/5528378-uhd_1440_2560_24fps.mp4", "size": 14943534}], "video_pictures": [{"id": 2952099, "nr": 0, "picture": "https://images.pexels.com/videos/5528378/pictures/preview-0.jpeg"}, {"id": 2952102, "nr": 1, "picture": "https://images.pexels.com/videos/5528378/pictures/preview-1.jpeg"}, {"id": 2952104, "nr": 2, "picture": "https://images.pexels.com/videos/5528378/pictures/preview-2.jpeg"}, {"id": 2952108, "nr": 3, "picture": "https://images.pexels.com/videos/5528378/pictures/preview-3.jpeg"}, {"id": 2952111, "nr": 4, "picture": "https://images.pexels.com/videos/5528378/pictures/preview-4.jpeg"}, {"id": 2952115, "nr": 5, "picture": "https://images.pexels.com/videos/5528378/pictures/preview-5.jpeg"}, {"id": 2952116, "nr": 6, "picture": "https://images.pexels.com/videos/5528378/pictures/preview-6.jpeg"}, {"id": 2952117, "nr": 7, "picture": "https://images.pexels.com/videos/5528378/pictures/preview-7.jpeg"}, {"id": 2952118, "nr": 8, "picture": "https://images.pexels.com/videos/5528378/pictures/preview-8.jpeg"}, {"id": 2952119, "nr": 9, "picture": "https://images.pexels.com/videos/5528378/pictures/preview-9.jpeg"}, {"id": 2952120, "nr": 10, "picture": "https://images.pexels.com/videos/5528378/pictures/preview-10.jpeg"}, {"id": 2952121, "nr": 11, "picture": "https://images.pexels.com/videos/5528378/pictures/preview-11.jpeg"}, {"id": 2952122, "nr": 12, "picture": "https://images.pexels.com/videos/5528378/pictures/preview-12.jpeg"}, {"id": 2952124, "nr": 13, "picture": "https://images.pexels.com/videos/5528378/pictures/preview-13.jpeg"}, {"id": 2952127, "nr": 14, "picture": "https://images.pexels.com/videos/5528378/pictures/preview-14.jpeg"}]}, {"id": 5527795, "width": 2160, "height": 3840, "duration": 10, "full_res": null, "tags": [], "url": "https://www.pexels.com/video/a-girl-picking-apples-5527795/", "image": "https://images.pexels.com/videos/5527795/pexels-photo-5527795.jpeg?auto=compress&cs=tinysrgb&fit=crop&h=1200&w=630", "avg_color": null, "user": {"id": 3651179, "name": "Zen Chung", "url": "https://www.pexels.com/@zen-chung"}, "video_files": [{"id": 9721154, "quality": "uhd", "file_type": "video/mp4", "width": 1440, "height": 2560, "fps": 23.97599983215332, "link": "https://videos.pexels.com/video-files/5527795/5527795-uhd_1440_2560_24fps.mp4", "size": 16036999}, {"id": 9721294, "quality": "sd", "file_type": "video/mp4", "width": 240, "height": 426, "fps": 23.97599983215332, "link": "https://videos.pexels.com/video-files/5527795/5527795-sd_240_426_24fps.mp4", "size": 501979}, {"id": 9721712, "quality": "sd", "file_type": "video/mp4", "width": 540, "height": 960, "fps": 23.97599983215332, "link": "https://videos.pexels.com/video-files/5527795/5527795-sd_540_960_24fps.mp4", "size": 2159283}, {"id": 9721811, "quality": "uhd", "file_type": "video/mp4", "width": 2160, "height": 3840, "fps": 23.97599983215332, "link": "https://videos.pexels.com/video-files/5527795/5527795-uhd_2160_3840_24fps.mp4", "size": 29989458}, {"id": 9721840, "quality": "hd", "file_type": "video/mp4", "width": 1080, "height": 1920, "fps": 23.97599983215332, "link": "https://videos.pexels.com/video-files/5527795/5527795-hd_1080_1920_24fps.mp4", "size": 7192607}, {"id": 9722011, "quality": "sd", "file_type": "video/mp4", "width": 360, "height": 640, "fps": 23.97599983215332, "link": "https://videos.pexels.com/video-files/5527795/5527795-sd_360_640_24fps.mp4", "size": 826447}, {"id": 9722253, "quality": "hd", "file_type": "video/mp4", "width": 720, "height": 1280, "fps": 23.97599983215332, "link": "https://videos.pexels.com/video-files/5527795/5527795-hd_720_1280_24fps.mp4", "size": 3892882}], "video_pictures": [{"id": 2950530, "nr": 0, "picture": "https://images.pexels.com/videos/5527795/pictures/preview-0.jpeg"}, {"id": 2950536, "nr": 1, "picture": "https://images.pexels.com/videos/5527795/pictures/preview-1.jpeg"}, {"id": 2950543, "nr": 2, "picture": "https://images.pexels.com/videos/5527795/pictures/preview-2.jpeg"}, {"id": 2950551, "nr": 3, "picture": "https://images.pexels.com/videos/5527795/pictures/preview-3.jpeg"}, {"id": 2950560, "nr": 4, "picture": "https://images.pexels.com/videos/5527795/pictures/preview-4.jpeg"}, {"id": 2950571, "nr": 5, "picture": "https://images.pexels.com/videos/5527795/pictures/preview-5.jpeg"}, {"id": 2950577, "nr": 6, "picture": "https://images.pexels.com/videos/5527795/pictures/preview-6.jpeg"}, {"id": 2950585, "nr": 7, "picture": "https://images.pexels.com/videos/5527795/pictures/preview-7.jpeg"}, {"id": 2950599, "nr": 8, "picture": "https://images.pexels.com/videos/5527795/pictures/preview-8.jpeg"}, {"id": 2950607, "nr": 9, "picture": "https://images.pexels.com/videos/5527795/pictures/preview-9.jpeg"}, {"id": 2950618, "nr": 10, "picture": "https://images.pexels.com/videos/5527795/pictures/preview-10.jpeg"}, {"id": 2950631, "nr": 11, "picture": "https://images.pexels.com/videos/5527795/pictures/preview-11.jpeg"}, {"id": 2950637, "nr": 12, "picture": "https://images.pexels.com/videos/5527795/pictures/preview-12.jpeg"}, {"id": 2950645, "nr": 13, "picture": "https://images.pexels.com/videos/5527795/pictures/preview-13.jpeg"}, {"id": 2950650, "nr": 14, "picture": "https://images.pexels.com/videos/5527795/pictures/preview-14.jpeg"}]}, {"id": 5527125, "width": 2160, "height": 3840, "duration": 8, "full_res": null, "tags": [], "url": "https://www.pexels.com/video/young-girl-harvesting-apples-with-her-mother-5527125/", "image": "https://images.pexels.com/videos/5527125/pexels-photo-5527125.jpeg?auto=compress&cs=tinysrgb&fit=crop&h=1200&w=630", "avg_color": null, "user": {"id": 3651179, "name": "Zen Chung", "url": "https://www.pexels.com/@zen-chung"}, "video_files": [{"id": 9719396, "quality": "uhd", "file_type": "video/mp4", "width": 1440, "height": 2560, "fps": 23.97599983215332, "link": "https://videos.pexels.com/video-files/5527125/5527125-uhd_1440_2560_24fps.mp4", "size": 11899877}, {"id": 9719462, "quality": "hd", "file_type": "video/mp4", "width": 720, "height": 1280, "fps": 23.97599983215332, "link": "https://videos.pexels.com/video-files/5527125/5527125-hd_720_1280_24fps.mp4", "size": 2646775}, {"id": 9719484, "quality": "sd", "file_type": "video/mp4", "width": 240, "height": 426, "fps": 23.97599983215332, "link": "https://videos.pexels.com/video-files/5527125/5527125-sd_240_426_24fps.mp4", "size": 356564}, {"id": 9719542, "quality": "sd", "file_type": "video/mp4", "width": 540, "height": 960, "fps": 23.97599983215332, "link": "https://videos.pexels.com/video-files/5527125/5527125-sd_540_960_24fps.mp4", "size": 1678817}, {"id": 9719715, "quality": "sd", "file_type": "video/mp4", "width": 360, "height": 640, "fps": 23.97599983215332, "link": "https://videos.pexels.com/video-files/5527125/5527125-sd_360_640_24fps.mp4", "size": 602932}, {"id": 9719864, "quality": "uhd", "file_type": "video/mp4", "width": 2160, "height": 3840, "fps": 23.97599983215332, "link": "https://videos.pexels.com/video-files/5527125/5527125-uhd_2160_3840_24fps.mp4", "size": 21909714}, {"id": 9720081, "quality": "hd", "file_type": "video/mp4", "width": 1080, "height": 1920, "fps": 23.97599983215332, "link": "https://videos.pexels.com/video-files/5527125/5527125-hd_1080_1920_24fps.mp4", "size": 4997058}], "video_pictures": [{"id": 2944777, "nr": 0, "picture": "https://images.pexels.com/videos/5527125/pictures/preview-0.jpeg"}, {"id": 2944791, "nr": 1, "picture": "https://images.pexels.com/videos/5527125/pictures/preview-1.jpeg"}, {"id": 2944805, "nr": 2, "picture": "https://images.pexels.com/videos/5527125/pictures/preview-2.jpeg"}, {"id": 2944825, "nr": 3, "picture": "https://images.pexels.com/videos/5527125/pictures/preview-3.jpeg"}, {"id": 2944844, "nr": 4, "picture": "https://images.pexels.com/videos/5527125/pictures/preview-4.jpeg"}, {"id": 2944866, "nr": 5, "picture": "https://images.pexels.com/videos/5527125/pictures/preview-5.jpeg"}, {"id": 2944887, "nr": 6, "picture": "https://images.pexels.com/videos/5527125/pictures/preview-6.jpeg"}, {"id": 2944906, "nr": 7, "picture": "https://images.pexels.com/videos/5527125/pictures/preview-7.jpeg"}, {"id": 2944919, "nr": 8, "picture": "https://images.pexels.com/videos/5527125/pictures/preview-8.jpeg"}, {"id": 2944931, "nr": 9, "picture": "https://images.pexels.com/videos/5527125/pictures/preview-9.jpeg"}, {"id": 2944950, "nr": 10, "picture": "https://images.pexels.com/videos/5527125/pictures/preview-10.jpeg"}, {"id": 2944967, "nr": 11, "picture": "https://images.pexels.com/videos/5527125/pictures/preview-11.jpeg"}, {"id": 2944983, "nr": 12, "picture": "https://images.pexels.com/videos/5527125/pictures/preview-12.jpeg"}, {"id": 2945017, "nr": 13, "picture": "https://images.pexels.com/videos/5527125/pictures/preview-13.jpeg"}, {"id": 2945032, "nr": 14, "picture": "https://images.pexels.com/videos/5527125/pictures/preview-14.jpeg"}]}, {"id": 5527126, "width": 2160, "height": 3840, "duration": 13, "full_res": null, "tags": [], "url": "https://www.pexels.com/video/young-girl-harvesting-apples-with-her-mother-5527126/", "image": "https://images.pexels.com/videos/5527126/pexels-photo-5527126.jpeg?auto=compress&cs=tinysrgb&fit=crop&h=1200&w=630", "avg_color": null, "user": {"id": 3651179, "name": "Zen Chung", "url": "https://www.pexels.com/@zen-chung"}, "video_files": [{"id": 9719491, "quality": "sd", "file_type": "video/mp4", "width": 360, "height": 640, "fps": 23.97599983215332, "link": "https://videos.pexels.com/video-files/5527126/5527126-sd_360_640_24fps.mp4", "size": 984252}, {"id": 9719553, "quality": "uhd", "file_type": "video/mp4", "width": 1440, "height": 2560, "fps": 23.97599983215332, "link": "https://videos.pexels.com/video-files/5527126/5527126-uhd_1440_2560_24fps.mp4", "size": 21080384}, {"id": 9719644, "quality": "uhd", "file_type": "video/mp4", "width": 2160, "height": 3840, "fps": 23.97599983215332, "link": "https://videos.pexels.com/video-files/5527126/5527126-uhd_2160_3840_24fps.mp4", "size": 38215313}, {"id": 9719749, "quality": "hd", "file_type": "video/mp4", "width": 720, "height": 1280, "fps": 23.97599983215332, "link": "https://videos.pexels.com/video-files/5527126/5527126-hd_720_1280_24fps.mp4", "size": 4812947}, {"id": 9719939, "quality": "sd", "file_type": "video/mp4", "width": 540, "height": 960, "fps": 23.97599983215332, "link": "https://videos.pexels.com/video-files/5527126/5527126-sd_540_960_24fps.mp4", "size": 2550773}, {"id": 9720044, "quality": "hd", "file_type": "video/mp4", "width": 1080, "height": 1920, "fps": 23.97599983215332, "link": "https://videos.pexels.com/video-files/5527126/5527126-hd_1080_1920_24fps.mp4", "size": 8873199}, {"id": 9720231, "quality": "sd", "file_type": "video/mp4", "width": 240, "height": 426, "fps": 23.97599983215332, "link": "https://videos.pexels.com/video-files/5527126/5527126-sd_240_426_24fps.mp4", "size": 587432}], "video_pictures": [{"id": 2944868, "nr": 0, "picture": "https://images.pexels.com/videos/5527126/pictures/preview-0.jpeg"}, {"id": 2944881, "nr": 1, "picture": "https://images.pexels.com/videos/5527126/pictures/preview-1.jpeg"}, {"id": 2944900, "nr": 2, "picture": "https://images.pexels.com/videos/5527126/pictures/preview-2.jpeg"}, {"id": 2944912, "nr": 3, "picture": "https://images.pexels.com/videos/5527126/pictures/preview-3.jpeg"}, {"id": 2944930, "nr": 4, "picture": "https://images.pexels.com/videos/5527126/pictures/preview-4.jpeg"}, {"id": 2944945, "nr": 5, "picture": "https://images.pexels.com/videos/5527126/pictures/preview-5.jpeg"}, {"id": 2944964, "nr": 6, "picture": "https://images.pexels.com/videos/5527126/pictures/preview-6.jpeg"}, {"id": 2944979, "nr": 7, "picture": "https://images.pexels.com/videos/5527126/pictures/preview-7.jpeg"}, {"id": 2944996, "nr": 8, "picture": "https://images.pexels.com/videos/5527126/pictures/preview-8.jpeg"}, {"id": 2945008, "nr": 9, "picture": "https://images.pexels.com/videos/5527126/pictures/preview-9.jpeg"}, {"id": 2945023, "nr": 10, "picture": "https://images.pexels.com/videos/5527126/pictures/preview-10.jpeg"}, {"id": 2945033, "nr": 11, "picture": "https://images.pexels.com/videos/5527126/pictures/preview-11.jpeg"}, {"id": 2945040, "nr": 12, "picture": "https://images.pexels.com/videos/5527126/pictures/preview-12.jpeg"}, {"id": 2945044, "nr": 13, "picture": "https://images.pexels.com/videos/5527126/pictures/preview-13.jpeg"}, {"id": 2945047, "nr": 14, "picture": "https://images.pexels.com/videos/5527126/pictures/preview-14.jpeg"}]}, {"id": 5527323, "width": 2160, "height": 3840, "duration": 10, "full_res": null, "tags": [], "url": "https://www.pexels.com/video/a-girl-picking-apples-5527323/", "image": "https://images.pexels.com/videos/5527323/pexels-photo-5527323.jpeg?auto=compress&cs=tinysrgb&fit=crop&h=1200&w=630", "avg_color": null, "user": {"id": 3651179, "name": "Zen Chung", "url": "https://www.pexels.com/@zen-chung"}, "video_files": [{"id": 9719666, "quality": "sd", "file_type": "video/mp4", "width": 240, "height": 426, "fps": 23.97599983215332, "link": "https://videos.pexels.com/video-files/5527323/5527323-sd_240_426_24fps.mp4", "size": 489209}, {"id": 9719699, "quality": "hd", "file_type": "video/mp4", "width": 720, "height": 1280, "fps": 23.97599983215332, "link": "https://videos.pexels.com/video-files/5527323/5527323-hd_720_1280_24fps.mp4", "size": 3402415}, {"id": 9719725, "quality": "uhd", "file_type": "video/mp4", "width": 1440, "height": 2560, "fps": 23.97599983215332, "link": "https://videos.pexels.com/video-files/5527323/5527323-uhd_1440_2560_24fps.mp4", "size": 15019844}, {"id": 9719745, "quality": "uhd", "file_type": "video/mp4", "width": 2160, "height": 3840, "fps": 23.97599983215332, "link": "https://videos.pexels.com/video-files/5527323/5527323-uhd_2160_3840_24fps.mp4", "size": 31827061}, {"id": 9719779, "quality": "hd", "file_type": "video/mp4", "width": 1080, "height": 1920, "fps": 23.97599983215332, "link": "https://videos.pexels.com/video-files/5527323/5527323-hd_1080_1920_24fps.mp4", "size": 6432470}, {"id": 9719827, "quality": "sd", "file_type": "video/mp4", "width": 360, "height": 640, "fps": 23.97599983215332, "link": "https://videos.pexels.com/video-files/5527323/5527323-sd_360_640_24fps.mp4", "size": 824920}, {"id": 9719857, "quality": "sd", "file_type": "video/mp4", "width": 540, "height": 960, "fps": 23.97599983215332, "link": "https://videos.pexels.com/video-files/5527323/5527323-sd_540_960_24fps.mp4", "size": 2264218}], "video_pictures": [{"id": 2945345, "nr": 0, "picture": "https://images.pexels.com/videos/5527323/pictures/preview-0.jpeg"}, {"id": 2945350, "nr": 1, "picture": "https://images.pexels.com/videos/5527323/pictures/preview-1.jpeg"}, {"id": 2945363, "nr": 2, "picture": "https://images.pexels.com/videos/5527323/pictures/preview-2.jpeg"}, {"id": 2945379, "nr": 3, "picture": "https://images.pexels.com/videos/5527323/pictures/preview-3.jpeg"}, {"id": 2945402, "nr": 4, "picture": "https://images.pexels.com/videos/5527323/pictures/preview-4.jpeg"}, {"id": 2945429, "nr": 5, "picture": "https://images.pexels.com/videos/5527323/pictures/preview-5.jpeg"}, {"id": 2945447, "nr": 6, "picture": "https://images.pexels.com/videos/5527323/pictures/preview-6.jpeg"}, {"id": 2945465, "nr": 7, "picture": "https://images.pexels.com/videos/5527323/pictures/preview-7.jpeg"}, {"id": 2945487, "nr": 8, "picture": "https://images.pexels.com/videos/5527323/pictures/preview-8.jpeg"}, {"id": 2945505, "nr": 9, "picture": "https://images.pexels.com/videos/5527323/pictures/preview-9.jpeg"}, {"id": 2945533, "nr": 10, "picture": "https://images.pexels.com/videos/5527323/pictures/preview-10.jpeg"}, {"id": 2945556, "nr": 11, "picture": "https://images.pexels.com/videos/5527323/pictures/preview-11.jpeg"}, {"id": 2945595, "nr": 12, "picture": "https://images.pexels.com/videos/5527323/pictures/preview-12.jpeg"}, {"id": 2945691, "nr": 13, "picture": "https://images.pexels.com/videos/5527323/pictures/preview-13.jpeg"}, {"id": 2945780, "nr": 14, "picture": "https://images.pexels.com/videos/5527323/pictures/preview-14.jpeg"}]}, {"id": 5527324, "width": 2160, "height": 3840, "duration": 7, "full_res": null, "tags": [], "url": "https://www.pexels.com/video/women-harvesting-apples-5527324/", "image": "https://images.pexels.com/videos/5527324/pexels-photo-5527324.jpeg?auto=compress&cs=tinysrgb&fit=crop&h=1200&w=630", "avg_color": null, "user": {"id": 3651179, "name": "Zen Chung", "url": "https://www.pexels.com/@zen-chung"}, "video_files": [{"id": 9719680, "quality": "uhd", "file_type": "video/mp4", "width": 1440, "height": 2560, "fps": 23.97599983215332, "link": "https://videos.pexels.com/video-files/5527324/5527324-uhd_1440_2560_24fps.mp4", "size": 10734630}, {"id": 9719731, "quality": "sd", "file_type": "video/mp4", "width": 360, "height": 640, "fps": 23.97599983215332, "link": "https://videos.pexels.com/video-files/5527324/5527324-sd_360_640_24fps.mp4", "size": 545915}, {"id": 9719769, "quality": "hd", "file_type": "video/mp4", "width": 720, "height": 1280, "fps": 23.97599983215332, "link": "https://videos.pexels.com/video-files/5527324/5527324-hd_720_1280_24fps.mp4", "size": 2384440}, {"id": 9719813, "quality": "uhd", "file_type": "video/mp4", "width": 2160, "height": 3840, "fps": 23.97599983215332, "link": "https://videos.pexels.com/video-files/5527324/5527324-uhd_2160_3840_24fps.mp4", "size": 19545989}, {"id": 9719867, "quality": "hd", "file_type": "video/mp4", "width": 1080, "height": 1920, "fps": 23.97599983215332, "link": "https://videos.pexels.com/video-files/5527324/5527324-hd_1080_1920_24fps.mp4", "size": 4579787}, {"id": 9719887, "quality": "sd", "file_type": "video/mp4", "width": 240, "height": 426, "fps": 23.97599983215332, "link": "https://videos.pexels.com/video-files/5527324/5527324-sd_240_426_24fps.mp4", "size": 318454}, {"id": 9719915, "quality": "sd", "file_type": "video/mp4", "width": 540, "height": 960, "fps": 23.97599983215332, "link": "https://videos.pexels.com/video-files/5527324/5527324-sd_540_960_24fps.mp4", "size": 1506969}], "video_pictures": [{"id": 2945349, "nr": 0, "picture": "https://images.pexels.com/videos/5527324/pictures/preview-0.jpeg"}, {"id": 2945358, "nr": 1, "picture": "https://images.pexels.com/videos/5527324/pictures/preview-1.jpeg"}, {"id": 2945376, "nr": 2, "picture": "https://images.pexels.com/videos/5527324/pictures/preview-2.jpeg"}, {"id": 2945395, "nr": 3, "picture": "https://images.pexels.com/videos/5527324/pictures/preview-3.jpeg"}, {"id": 2945423, "nr": 4, "picture": "https://images.pexels.com/videos/5527324/pictures/preview-4.jpeg"}, {"id": 2945439, "nr": 5, "picture": "https://images.pexels.com/videos/5527324/pictures/preview-5.jpeg"}, {"id": 2945464, "nr": 6, "picture": "https://images.pexels.com/videos/5527324/pictures/preview-6.jpeg"}, {"id": 2945490, "nr": 7, "picture": "https://images.pexels.com/videos/5527324/pictures/preview-7.jpeg"}, {"id": 2945514, "nr": 8, "picture": "https://images.pexels.com/videos/5527324/pictures/preview-8.jpeg"}, {"id": 2945528, "nr": 9, "picture": "https://images.pexels.com/videos/5527324/pictures/preview-9.jpeg"}, {"id": 2945543, "nr": 10, "picture": "https://images.pexels.com/videos/5527324/pictures/preview-10.jpeg"}, {"id": 2945564, "nr": 11, "picture": "https://images.pexels.com/videos/5527324/pictures/preview-11.jpeg"}, {"id": 2945596, "nr": 12, "picture": "https://images.pexels.com/videos/5527324/pictures/preview-12.jpeg"}, {"id": 2945649, "nr": 13, "picture": "https://images.pexels.com/videos/5527324/pictures/preview-13.jpeg"}, {"id": 2945750, "nr": 14, "picture": "https://images.pexels.com/videos/5527324/pictures/preview-14.jpeg"}]}], "total_results": 8000, "next_page": "https://api.pexels.com/v1/videos/search/?orientation=portrait&page=2&per_page=8&query=apple+tree+orchard", "url": "https://api-server.pexels.com/search/videos/apple%20tree%20orchard/"}, "timestamp": "2024-12-28T22:42:49.872555"}
