{"query": "lemon tree fruit", "response": {"page": 1, "per_page": 8, "videos": [{"id": 8541112, "width": 1080, "height": 1920, "duration": 17, "full_res": null, "tags": [], "url": "https://www.pexels.com/video/a-woman-holding-an-organic-lemonade-juice-and-a-poster-8541112/", "image": "https://images.pexels.com/videos/8541112/adult-agriculture-child-daylight-8541112.jpeg?auto=compress&cs=tinysrgb&fit=crop&h=1200&w=630", "avg_color": null, "user": {"id": 3149039, "name": "RDNE Stock project", "url": "https://www.pexels.com/@rdne"}, "video_files": [{"id": 10887658, "quality": "sd", "file_type": "video/mp4", "width": 240, "height": 426, "fps": 30.0, "link": "https://videos.pexels.com/video-files/8541112/8541112-sd_240_426_30fps.mp4", "size": 703609}, {"id": 10887679, "quality": "hd", "file_type": "video/mp4", "width": 1080, "height": 1920, "fps": 30.0, "link": "https://videos.pexels.com/video-files/8541112/8541112-hd_1080_1920_30fps.mp4", "size": 9735139}, {"id": 10887703, "quality": "sd", "file_type": "video/mp4", "width": 540, "height": 960, "fps": 30.0, "link": "https://videos.pexels.com/video-files/8541112/8541112-sd_540_960_30fps.mp4", "size": 2550702}, {"id": 10887721, "quality": "hd", "file_type": "video/mp4", "width": 720, "height": 1280, "fps": 30.0, "link": "https://videos.pexels.com/video-files/8541112/8541112-hd_720_1280_30fps.mp4", "size": 4498444}, {"id": 10887756, "quality": "sd", "file_type": "video/mp4", "width": 360, "height": 640, "fps": 30.0, "link": "https://videos.pexels.com/video-files/8541112/8541112-sd_360_640_30fps.mp4", "size": 942208}], "video_pictures": [{"id": 8468501, "nr": 0, "picture": "https://images.pexels.com/videos/8541112/pictures/preview-0.jpeg"}, {"id": 8468516, "nr": 1, "picture": "https://images.pexels.com/videos/8541112/pictures/preview-1.jpeg"}, {"id": 8468530, "nr": 2, "picture": "https://images.pexels.com/videos/8541112/pictures/preview-2.jpeg"}, {"id": 8468546, "nr": 3, "picture": "https://images.pexels.com/videos/8541112/pictures/preview-3.jpeg"}, {"id": 8468564, "nr": 4, "picture": "https://images.pexels.com/videos/8541112/pictures/preview-4.jpeg"}, {"id": 8468586, "nr": 5, "picture": "https://images.pexels.com/videos/8541112/pictures/preview-5.jpeg"}, {"id": 8468604, "nr": 6, "picture": "https://images.pexels.com/videos/8541112/pictures/preview-6.jpeg"}, {"id": 8468623, "nr": 7, "picture": "https://images.pexels.com/videos/8541112/pictures/preview-7.jpeg"}, {"id": 8468640, "nr": 8, "picture": "https://images.pexels.com/videos/8541112/pictures/preview-8.jpeg"}, {"id": 8468663, "nr": 9, "picture": "https://images.pexels.com/videos/8541112/pictures/preview-9.jpeg"}, {"id": 8468683, "nr": 10, "picture": "https://images.pexels.com/videos/8541112/pictures/preview-10.jpeg"}, {"id": 8468707, "nr": 11, "picture": "https://images.pexels.com/videos/8541112/pictures/preview-11.jpeg"}, {"id": 8468729, "nr": 12, "picture": "https://images.pexels.com/videos/8541112/pictures/preview-12.jpeg"}, {"id": 8468747, "nr": 13, "picture": "https://images.pexels.com/videos/8541112/pictures/preview-13.jpeg"}, {"id": 8468769, "nr": 14, "picture": "https://images.pexels.com/videos/8541112/pictures/preview-14.jpeg"}]}, {"id": 8186377, "width": 1080, "height": 1920, "duration": 11, "full_res": null, "tags": [], "url": "https://www.pexels.com/video/close-up-shot-of-a-fruit-drink-8186377/", "image": "https://images.pexels.com/videos/8186377/beach-beach-holiday-berries-blackberry-8186377.jpeg?auto=compress&cs=tinysrgb&fit=crop&h=1200&w=630", "avg_color": null, "user": {"id": 10715715, "name": "Kindel Media", "url": "https://www.pexels.com/@kindelmedia"}, "video_files": [{"id": 10734527, "quality": "hd", "file_type": "video/mp4", "width": 1080, "height": 1920, "fps": 30.0, "link": "https://videos.pexels.com/video-files/8186377/8186377-hd_1080_1920_30fps.mp4", "size": 5886429}, {"id": 10734660, "quality": "sd", "file_type": "video/mp4", "width": 540, "height": 960, "fps": 30.0, "link": "https://videos.pexels.com/video-files/8186377/8186377-sd_540_960_30fps.mp4", "size": 1411791}, {"id": 10734761, "quality": "sd", "file_type": "video/mp4", "width": 360, "height": 640, "fps": 30.0, "link": "https://videos.pexels.com/video-files/8186377/8186377-sd_360_640_30fps.mp4", "size": 612468}, {"id": 10734829, "quality": "hd", "file_type": "video/mp4", "width": 720, "height": 1280, "fps": 30.0, "link": "https://videos.pexels.com/video-files/8186377/8186377-hd_720_1280_30fps.mp4", "size": 2391188}], "video_pictures": [{"id": 7782766, "nr": 0, "picture": "https://images.pexels.com/videos/8186377/pictures/preview-0.jpeg"}, {"id": 7782768, "nr": 1, "picture": "https://images.pexels.com/videos/8186377/pictures/preview-1.jpeg"}, {"id": 7782769, "nr": 2, "picture": "https://images.pexels.com/videos/8186377/pictures/preview-2.jpeg"}, {"id": 7782770, "nr": 3, "picture": "https://images.pexels.com/videos/8186377/pictures/preview-3.jpeg"}, {"id": 7782771, "nr": 4, "picture": "https://images.pexels.com/videos/8186377/pictures/preview-4.jpeg"}, {"id": 7782773, "nr": 5, "picture": "https://images.pexels.com/videos/8186377/pictures/preview-5.jpeg"}, {"id": 7782774, "nr": 6, "picture": "https://images.pexels.com/videos/8186377/pictures/preview-6.jpeg"}, {"id": 7782775, "nr": 7, "picture": "https://images.pexels.com/videos/8186377/pictures/preview-7.jpeg"}, {"id": 7782776, "nr": 8, "picture": "https://images.pexels.com/videos/8186377/pictures/preview-8.jpeg"}, {"id": 7782777, "nr": 9, "picture": "https://images.pexels.com/videos/8186377/pictures/preview-9.jpeg"}, {"id": 7782779, "nr": 10, "picture": "https://images.pexels.com/videos/8186377/pictures/preview-10.jpeg"}, {"id": 7782780, "nr": 11, "picture": "https://images.pexels.com/videos/8186377/pictures/preview-11.jpeg"}, {"id": 7782781, "nr": 12, "picture": "https://images.pexels.com/videos/8186377/pictures/preview-12.jpeg"}, {"id": 7782784, "nr": 13, "picture": "https://images.pexels.com/videos/8186377/pictures/preview-13.jpeg"}, {"id": 7782787, "nr": 14, "picture": "https://images.pexels.com/videos/8186377/pictures/preview-14.jpeg"}]}, {"id": 8540472, "width": 1080, "height": 1920, "duration": 12, "full_res": null, "tags": [], "url": "https://www.pexels.com/video/fresh-lemon-juice-on-a-glass-bottle-8540472/", "image": "https://images.pexels.com/videos/8540472/agriculture-blur-christmas-cold-8540472.jpeg?auto=compress&cs=tinysrgb&fit=crop&h=1200&w=630", "avg_color": null, "user": {"id": 3149039, "name": "RDNE Stock project", "url": "https://www.pexels.com/@rdne"}, "video_files": [{"id": 10886932, "quality": "sd", "file_type": "video/mp4", "width": 540, "height": 960, "fps": 30.0, "link": "https://videos.pexels.com/video-files/8540472/8540472-sd_540_960_30fps.mp4", "size": 1049784}, {"id": 10887001, "quality": "sd", "file_type": "video/mp4", "width": 360, "height": 640, "fps": 30.0, "link": "https://videos.pexels.com/video-files/8540472/8540472-sd_360_640_30fps.mp4", "size": 478252}, {"id": 10887073, "quality": "hd", "file_type": "video/mp4", "width": 720, "height": 1280, "fps": 30.0, "link": "https://videos.pexels.com/video-files/8540472/8540472-hd_720_1280_30fps.mp4", "size": 1723943}, {"id": 10887114, "quality": "hd", "file_type": "video/mp4", "width": 1080, "height": 1920, "fps": 30.0, "link": "https://videos.pexels.com/video-files/8540472/8540472-hd_1080_1920_30fps.mp4", "size": 4433514}, {"id": 10887162, "quality": "sd", "file_type": "video/mp4", "width": 240, "height": 426, "fps": 30.0, "link": "https://videos.pexels.com/video-files/8540472/8540472-sd_240_426_30fps.mp4", "size": 280228}], "video_pictures": [{"id": 8468938, "nr": 0, "picture": "https://images.pexels.com/videos/8540472/pictures/preview-0.jpeg"}, {"id": 8468957, "nr": 1, "picture": "https://images.pexels.com/videos/8540472/pictures/preview-1.jpeg"}, {"id": 8468977, "nr": 2, "picture": "https://images.pexels.com/videos/8540472/pictures/preview-2.jpeg"}, {"id": 8469002, "nr": 3, "picture": "https://images.pexels.com/videos/8540472/pictures/preview-3.jpeg"}, {"id": 8469031, "nr": 4, "picture": "https://images.pexels.com/videos/8540472/pictures/preview-4.jpeg"}, {"id": 8469050, "nr": 5, "picture": "https://images.pexels.com/videos/8540472/pictures/preview-5.jpeg"}, {"id": 8469071, "nr": 6, "picture": "https://images.pexels.com/videos/8540472/pictures/preview-6.jpeg"}, {"id": 8469098, "nr": 7, "picture": "https://images.pexels.com/videos/8540472/pictures/preview-7.jpeg"}, {"id": 8469114, "nr": 8, "picture": "https://images.pexels.com/videos/8540472/pictures/preview-8.jpeg"}, {"id": 8469137, "nr": 9, "picture": "https://images.pexels.com/videos/8540472/pictures/preview-9.jpeg"}, {"id": 8469156, "nr": 10, "picture": "https://images.pexels.com/videos/8540472/pictures/preview-10.jpeg"}, {"id": 8469173, "nr": 11, "picture": "https://images.pexels.com/videos/8540472/pictures/preview-11.jpeg"}, {"id": 8469189, "nr": 12, "picture": "https://images.pexels.com/videos/8540472/pictures/preview-12.jpeg"}, {"id": 8469205, "nr": 13, "picture": "https://images.pexels.com/videos/8540472/pictures/preview-13.jpeg"}, {"id": 8469221, "nr": 14, "picture": "https://images.pexels.com/videos/8540472/pictures/preview-14.jpeg"}]}, {"id": 5430749, "width": 1080, "height": 1920, "duration": 29, "full_res": null, "tags": [], "url": "https://www.pexels.com/video/pouring-mulled-wine-on-a-glass-cup-with-cinnamon-sticks-and-lemon-slices-5430749/", "image": "https://images.pexels.com/videos/5430749/pexels-photo-5430749.jpeg?auto=compress&cs=tinysrgb&fit=crop&h=1200&w=630", "avg_color": null, "user": {"id": 3511482, "name": "Polina Kovaleva", "url": "https://www.pexels.com/@polina-kovaleva"}, "video_files": [{"id": 9699386, "quality": "sd", "file_type": "video/mp4", "width": 360, "height": 640, "fps": 25.0, "link": "https://videos.pexels.com/video-files/5430749/5430749-sd_360_640_25fps.mp4", "size": 1646592}, {"id": 9699472, "quality": "sd", "file_type": "video/mp4", "width": 540, "height": 960, "fps": 25.0, "link": "https://videos.pexels.com/video-files/5430749/5430749-sd_540_960_25fps.mp4", "size": 4557388}, {"id": 9699674, "quality": "hd", "file_type": "video/mp4", "width": 1080, "height": 1920, "fps": 25.0, "link": "https://videos.pexels.com/video-files/5430749/5430749-hd_1080_1920_25fps.mp4", "size": 20044445}, {"id": 9699906, "quality": "hd", "file_type": "video/mp4", "width": 720, "height": 1280, "fps": 50.0, "link": "https://videos.pexels.com/video-files/5430749/5430749-hd_720_1280_50fps.mp4", "size": 9845143}, {"id": 9700048, "quality": "sd", "file_type": "video/mp4", "width": 240, "height": 426, "fps": 25.0, "link": "https://videos.pexels.com/video-files/5430749/5430749-sd_240_426_25fps.mp4", "size": 877774}], "video_pictures": [{"id": 2819864, "nr": 0, "picture": "https://images.pexels.com/videos/5430749/pictures/preview-0.jpeg"}, {"id": 2819873, "nr": 1, "picture": "https://images.pexels.com/videos/5430749/pictures/preview-1.jpeg"}, {"id": 2819887, "nr": 2, "picture": "https://images.pexels.com/videos/5430749/pictures/preview-2.jpeg"}, {"id": 2819901, "nr": 3, "picture": "https://images.pexels.com/videos/5430749/pictures/preview-3.jpeg"}, {"id": 2819911, "nr": 4, "picture": "https://images.pexels.com/videos/5430749/pictures/preview-4.jpeg"}, {"id": 2819922, "nr": 5, "picture": "https://images.pexels.com/videos/5430749/pictures/preview-5.jpeg"}, {"id": 2819930, "nr": 6, "picture": "https://images.pexels.com/videos/5430749/pictures/preview-6.jpeg"}, {"id": 2819942, "nr": 7, "picture": "https://images.pexels.com/videos/5430749/pictures/preview-7.jpeg"}, {"id": 2819947, "nr": 8, "picture": "https://images.pexels.com/videos/5430749/pictures/preview-8.jpeg"}, {"id": 2819957, "nr": 9, "picture": "https://images.pexels.com/videos/5430749/pictures/preview-9.jpeg"}, {"id": 2819963, "nr": 10, "picture": "https://images.pexels.com/videos/5430749/pictures/preview-10.jpeg"}, {"id": 2819968, "nr": 11, "picture": "https://images.pexels.com/videos/5430749/pictures/preview-11.jpeg"}, {"id": 2819975, "nr": 12, "picture": "https://images.pexels.com/videos/5430749/pictures/preview-12.jpeg"}, {"id": 2819982, "nr": 13, "picture": "https://images.pexels.com/videos/5430749/pictures/preview-13.jpeg"}, {"id": 2819989, "nr": 14, "picture": "https://images.pexels.com/videos/5430749/pictures/preview-14.jpeg"}]}, {"id": 5876044, "width": 2160, "height": 4096, "duration": 32, "full_res": null, "tags": [], "url": "https://www.pexels.com/video/vertical-video-of-falling-lemon-slices-5876044/", "image": "https://images.pexels.com/videos/5876044/pexels-photo-5876044.jpeg?auto=compress&cs=tinysrgb&fit=crop&h=1200&w=630", "avg_color": null, "user": {"id": 1437723, "name": "cottonbro studio", "url": "https://www.pexels.com/@cottonbro"}, "video_files": [{"id": 9834865, "quality": "hd", "file_type": "video/mp4", "width": 720, "height": 1366, "fps": 25.0, "link": "https://videos.pexels.com/video-files/5876044/5876044-hd_720_1366_25fps.mp4", "size": 4528963}, {"id": 9834978, "quality": "uhd", "file_type": "video/mp4", "width": 2160, "height": 4096, "fps": 25.0, "link": "https://videos.pexels.com/video-files/5876044/5876044-uhd_2160_4096_25fps.mp4", "size": 52922584}, {"id": 9835053, "quality": "sd", "file_type": "video/mp4", "width": 338, "height": 640, "fps": 25.0, "link": "https://videos.pexels.com/video-files/5876044/5876044-sd_338_640_25fps.mp4", "size": 1068428}, {"id": 9835157, "quality": "uhd", "file_type": "video/mp4", "width": 1440, "height": 2732, "fps": 25.0, "link": "https://videos.pexels.com/video-files/5876044/5876044-uhd_1440_2732_25fps.mp4", "size": 16962474}, {"id": 9835254, "quality": "hd", "file_type": "video/mp4", "width": 1080, "height": 2048, "fps": 25.0, "link": "https://videos.pexels.com/video-files/5876044/5876044-hd_1080_2048_25fps.mp4", "size": 10354144}, {"id": 9835360, "quality": "sd", "file_type": "video/mp4", "width": 226, "height": 426, "fps": 25.0, "link": "https://videos.pexels.com/video-files/5876044/5876044-sd_226_426_25fps.mp4", "size": 563683}, {"id": 9835461, "quality": "sd", "file_type": "video/mp4", "width": 506, "height": 960, "fps": 25.0, "link": "https://videos.pexels.com/video-files/5876044/5876044-sd_506_960_25fps.mp4", "size": 2368531}], "video_pictures": [{"id": 3505859, "nr": 0, "picture": "https://images.pexels.com/videos/5876044/pictures/preview-0.jpeg"}, {"id": 3505866, "nr": 1, "picture": "https://images.pexels.com/videos/5876044/pictures/preview-1.jpeg"}, {"id": 3505882, "nr": 2, "picture": "https://images.pexels.com/videos/5876044/pictures/preview-2.jpeg"}, {"id": 3505908, "nr": 3, "picture": "https://images.pexels.com/videos/5876044/pictures/preview-3.jpeg"}, {"id": 3505925, "nr": 4, "picture": "https://images.pexels.com/videos/5876044/pictures/preview-4.jpeg"}, {"id": 3505941, "nr": 5, "picture": "https://images.pexels.com/videos/5876044/pictures/preview-5.jpeg"}, {"id": 3505952, "nr": 6, "picture": "https://images.pexels.com/videos/5876044/pictures/preview-6.jpeg"}, {"id": 3505965, "nr": 7, "picture": "https://images.pexels.com/videos/5876044/pictures/preview-7.jpeg"}, {"id": 3505977, "nr": 8, "picture": "https://images.pexels.com/videos/5876044/pictures/preview-8.jpeg"}, {"id": 3505989, "nr": 9, "picture": "https://images.pexels.com/videos/5876044/pictures/preview-9.jpeg"}, {"id": 3505998, "nr": 10, "picture": "https://images.pexels.com/videos/5876044/pictures/preview-10.jpeg"}, {"id": 3506009, "nr": 11, "picture": "https://images.pexels.com/videos/5876044/pictures/preview-11.jpeg"}, {"id": 3506020, "nr": 12, "picture": "https://images.pexels.com/videos/5876044/pictures/preview-12.jpeg"}, {"id": 3506027, "nr": 13, "picture": "https://images.pexels.com/videos/5876044/pictures/preview-13.jpeg"}, {"id": 3506036, "nr": 14, "picture": "https://images.pexels.com/videos/5876044/pictures/preview-14.jpeg"}]}, {"id": 6663995, "width": 2363, "height": 4096, "duration": 44, "full_res": null, "tags": [], "url": "https://www.pexels.com/video/squeezing-a-slice-of-fruit-6663995/", "image": "https://images.pexels.com/videos/6663995/pexels-photo-6663995.jpeg?auto=compress&cs=tinysrgb&fit=crop&h=1200&w=630", "avg_color": null, "user": {"id": 2678846, "name": "ROMAN ODINTSOV", "url": "https://www.pexels.com/@roman-odintsov"}, "video_files": [{"id": 10129078, "quality": "hd", "file_type": "video/mp4", "width": 720, "height": 1248, "fps": 29.969999313354492, "link": "https://videos.pexels.com/video-files/6663995/6663995-hd_720_1248_30fps.mp4", "size": 5264170}, {"id": 10129132, "quality": "sd", "file_type": "video/mp4", "width": 360, "height": 624, "fps": 29.969999313354492, "link": "https://videos.pexels.com/video-files/6663995/6663995-sd_360_624_30fps.mp4", "size": 2099040}, {"id": 10129201, "quality": "uhd", "file_type": "video/mp4", "width": 2160, "height": 3744, "fps": 29.969999313354492, "link": "https://videos.pexels.com/video-files/6663995/uhd_30fps.mp4", "size": 35913068}, {"id": 10129240, "quality": "hd", "file_type": "video/mp4", "width": 1080, "height": 1872, "fps": 29.969999313354492, "link": "https://videos.pexels.com/video-files/6663995/6663995-hd_1080_1872_30fps.mp4", "size": 9798076}, {"id": 10129294, "quality": "uhd", "file_type": "video/mp4", "width": 1440, "height": 2496, "fps": 29.969999313354492, "link": "https://videos.pexels.com/video-files/6663995/uhd_30fps.mp4", "size": 15789680}, {"id": 10129337, "quality": "sd", "file_type": "video/mp4", "width": 240, "height": 416, "fps": 29.969999313354492, "link": "https://videos.pexels.com/video-files/6663995/6663995-sd_240_416_30fps.mp4", "size": 1098475}, {"id": 10129401, "quality": "sd", "file_type": "video/mp4", "width": 540, "height": 936, "fps": 29.969999313354492, "link": "https://videos.pexels.com/video-files/6663995/6663995-sd_540_936_30fps.mp4", "size": 3922181}], "video_pictures": [{"id": 4889934, "nr": 0, "picture": "https://images.pexels.com/videos/6663995/pictures/preview-0.jpeg"}, {"id": 4889935, "nr": 1, "picture": "https://images.pexels.com/videos/6663995/pictures/preview-1.jpeg"}, {"id": 4889936, "nr": 2, "picture": "https://images.pexels.com/videos/6663995/pictures/preview-2.jpeg"}, {"id": 4889938, "nr": 3, "picture": "https://images.pexels.com/videos/6663995/pictures/preview-3.jpeg"}, {"id": 4889940, "nr": 4, "picture": "https://images.pexels.com/videos/6663995/pictures/preview-4.jpeg"}, {"id": 4889941, "nr": 5, "picture": "https://images.pexels.com/videos/6663995/pictures/preview-5.jpeg"}, {"id": 4889943, "nr": 6, "picture": "https://images.pexels.com/videos/6663995/pictures/preview-6.jpeg"}, {"id": 4889944, "nr": 7, "picture": "https://images.pexels.com/videos/6663995/pictures/preview-7.jpeg"}, {"id": 4889945, "nr": 8, "picture": "https://images.pexels.com/videos/6663995/pictures/preview-8.jpeg"}, {"id": 4889947, "nr": 9, "picture": "https://images.pexels.com/videos/6663995/pictures/preview-9.jpeg"}, {"id": 4889950, "nr": 10, "picture": "https://images.pexels.com/videos/6663995/pictures/preview-10.jpeg"}, {"id": 4889952, "nr": 11, "picture": "https://images.pexels.com/videos/6663995/pictures/preview-11.jpeg"}, {"id": 4889954, "nr": 12, "picture": "https://images.pexels.com/videos/6663995/pictures/preview-12.jpeg"}, {"id": 4889957, "nr": 13, "picture": "https://images.pexels.com/videos/6663995/pictures/preview-13.jpeg"}, {"id": 4889959, "nr": 14, "picture": "https://images.pexels.com/videos/6663995/pictures/preview-14.jpeg"}]}, {"id": 5645136, "width": 1080, "height": 1920, "duration": 26, "full_res": null, "tags": [], "url": "https://www.pexels.com/video/a-person-cutting-lemon-into-slices-using-a-knife-5645136/", "image": "https://images.pexels.com/videos/5645136/pexels-photo-5645136.jpeg?auto=compress&cs=tinysrgb&fit=crop&h=1200&w=630", "avg_color": null, "user": {"id": 3511482, "name": "Polina Kovaleva", "url": "https://www.pexels.com/@polina-kovaleva"}, "video_files": [{"id": 9752481, "quality": "sd", "file_type": "video/mp4", "width": 240, "height": 426, "fps": 25.0, "link": "https://videos.pexels.com/video-files/5645136/5645136-sd_240_426_25fps.mp4", "size": 930988}, {"id": 9752540, "quality": "hd", "file_type": "video/mp4", "width": 1080, "height": 1920, "fps": 25.0, "link": "https://videos.pexels.com/video-files/5645136/5645136-hd_1080_1920_25fps.mp4", "size": 15847856}, {"id": 9752659, "quality": "sd", "file_type": "video/mp4", "width": 360, "height": 640, "fps": 25.0, "link": "https://videos.pexels.com/video-files/5645136/5645136-sd_360_640_25fps.mp4", "size": 1460465}, {"id": 9752763, "quality": "hd", "file_type": "video/mp4", "width": 720, "height": 1280, "fps": 25.0, "link": "https://videos.pexels.com/video-files/5645136/5645136-hd_720_1280_25fps.mp4", "size": 7401617}, {"id": 9752892, "quality": "sd", "file_type": "video/mp4", "width": 540, "height": 960, "fps": 25.0, "link": "https://videos.pexels.com/video-files/5645136/5645136-sd_540_960_25fps.mp4", "size": 3841963}], "video_pictures": [{"id": 3133126, "nr": 0, "picture": "https://images.pexels.com/videos/5645136/pictures/preview-0.jpeg"}, {"id": 3133130, "nr": 1, "picture": "https://images.pexels.com/videos/5645136/pictures/preview-1.jpeg"}, {"id": 3133133, "nr": 2, "picture": "https://images.pexels.com/videos/5645136/pictures/preview-2.jpeg"}, {"id": 3133137, "nr": 3, "picture": "https://images.pexels.com/videos/5645136/pictures/preview-3.jpeg"}, {"id": 3133140, "nr": 4, "picture": "https://images.pexels.com/videos/5645136/pictures/preview-4.jpeg"}, {"id": 3133142, "nr": 5, "picture": "https://images.pexels.com/videos/5645136/pictures/preview-5.jpeg"}, {"id": 3133145, "nr": 6, "picture": "https://images.pexels.com/videos/5645136/pictures/preview-6.jpeg"}, {"id": 3133147, "nr": 7, "picture": "https://images.pexels.com/videos/5645136/pictures/preview-7.jpeg"}, {"id": 3133150, "nr": 8, "picture": "https://images.pexels.com/videos/5645136/pictures/preview-8.jpeg"}, {"id": 3133155, "nr": 9, "picture": "https://images.pexels.com/videos/5645136/pictures/preview-9.jpeg"}, {"id": 3133158, "nr": 10, "picture": "https://images.pexels.com/videos/5645136/pictures/preview-10.jpeg"}, {"id": 3133161, "nr": 11, "picture": "https://images.pexels.com/videos/5645136/pictures/preview-11.jpeg"}, {"id": 3133164, "nr": 12, "picture": "https://images.pexels.com/videos/5645136/pictures/preview-12.jpeg"}, {"id": 3133167, "nr": 13, "picture": "https://images.pexels.com/videos/5645136/pictures/preview-13.jpeg"}, {"id": 3133169, "nr": 14, "picture": "https://images.pexels.com/videos/5645136/pictures/preview-14.jpeg"}]}, {"id": 9001900, "width": 1080, "height": 1920, "duration": 9, "full_res": null, "tags": [], "url": "https://www.pexels.com/video/a-woman-drinking-a-glass-of-water-with-lemon-9001900/", "image": "https://images.pexels.com/videos/9001900/baking-breakfast-cooking-dawn-9001900.jpeg?auto=compress&cs=tinysrgb&fit=crop&h=1200&w=630", "avg_color": null, "user": {"id": 2638647, "name": "olia danilevich", "url": "https://www.pexels.com/@olia-danilevich"}, "video_files": [{"id": 11040739, "quality": "sd", "file_type": "video/mp4", "width": 540, "height": 960, "fps": 25.0, "link": "https://videos.pexels.com/video-files/9001900/9001900-sd_540_960_25fps.mp4", "size": 1963520}, {"id": 11040808, "quality": "hd", "file_type": "video/mp4", "width": 720, "height": 1280, "fps": 25.0, "link": "https://videos.pexels.com/video-files/9001900/9001900-hd_720_1280_25fps.mp4", "size": 3089268}, {"id": 11040929, "quality": "sd", "file_type": "video/mp4", "width": 360, "height": 640, "fps": 25.0, "link": "https://videos.pexels.com/video-files/9001900/9001900-sd_360_640_25fps.mp4", "size": 699425}, {"id": 11041086, "quality": "hd", "file_type": "video/mp4", "width": 1080, "height": 1920, "fps": 25.0, "link": "https://videos.pexels.com/video-files/9001900/9001900-hd_1080_1920_25fps.mp4", "size": 6027330}], "video_pictures": [{"id": 9197906, "nr": 0, "picture": "https://images.pexels.com/videos/9001900/pictures/preview-0.jpeg"}, {"id": 9197918, "nr": 1, "picture": "https://images.pexels.com/videos/9001900/pictures/preview-1.jpeg"}, {"id": 9197928, "nr": 2, "picture": "https://images.pexels.com/videos/9001900/pictures/preview-2.jpeg"}, {"id": 9197943, "nr": 3, "picture": "https://images.pexels.com/videos/9001900/pictures/preview-3.jpeg"}, {"id": 9197961, "nr": 4, "picture": "https://images.pexels.com/videos/9001900/pictures/preview-4.jpeg"}, {"id": 9197978, "nr": 5, "picture": "https://images.pexels.com/videos/9001900/pictures/preview-5.jpeg"}, {"id": 9197997, "nr": 6, "picture": "https://images.pexels.com/videos/9001900/pictures/preview-6.jpeg"}, {"id": 9198013, "nr": 7, "picture": "https://images.pexels.com/videos/9001900/pictures/preview-7.jpeg"}, {"id": 9198028, "nr": 8, "picture": "https://images.pexels.com/videos/9001900/pictures/preview-8.jpeg"}, {"id": 9198044, "nr": 9, "picture": "https://images.pexels.com/videos/9001900/pictures/preview-9.jpeg"}, {"id": 9198057, "nr": 10, "picture": "https://images.pexels.com/videos/9001900/pictures/preview-10.jpeg"}, {"id": 9198073, "nr": 11, "picture": "https://images.pexels.com/videos/9001900/pictures/preview-11.jpeg"}, {"id": 9198084, "nr": 12, "picture": "https://images.pexels.com/videos/9001900/pictures/preview-12.jpeg"}, {"id": 9198093, "nr": 13, "picture": "https://images.pexels.com/videos/9001900/pictures/preview-13.jpeg"}, {"id": 9198102, "nr": 14, "picture": "https://images.pexels.com/videos/9001900/pictures/preview-14.jpeg"}]}], "total_results": 8000, "next_page": "https://api.pexels.com/v1/videos/search/?orientation=portrait&page=2&per_page=8&query=lemon+tree+fruit", "url": "https://api-server.pexels.com/search/videos/lemon%20tree%20fruit/"}, "timestamp": "2024-12-28T23:03:42.689440"}
