{"query": "tomato plant", "response": {"page": 1, "per_page": 8, "videos": [{"id": 5561410, "width": 2160, "height": 4096, "duration": 27, "full_res": null, "tags": [], "url": "https://www.pexels.com/video/young-woman-in-greenhouse-checking-tomato-plants-5561410/", "image": "https://images.pexels.com/videos/5561410/pexels-photo-5561410.jpeg?auto=compress&cs=tinysrgb&fit=crop&h=1200&w=630", "avg_color": null, "user": {"id": 1437723, "name": "cottonbro studio", "url": "https://www.pexels.com/@cottonbro"}, "video_files": [{"id": 9731897, "quality": "uhd", "file_type": "video/mp4", "width": 2160, "height": 4096, "fps": 25.0, "link": "https://videos.pexels.com/video-files/5561410/5561410-uhd_2160_4096_25fps.mp4", "size": 68380536}, {"id": 9731961, "quality": "sd", "file_type": "video/mp4", "width": 338, "height": 640, "fps": 25.0, "link": "https://videos.pexels.com/video-files/5561410/5561410-sd_338_640_25fps.mp4", "size": 1700657}, {"id": 9732021, "quality": "hd", "file_type": "video/mp4", "width": 720, "height": 1366, "fps": 25.0, "link": "https://videos.pexels.com/video-files/5561410/5561410-hd_720_1366_25fps.mp4", "size": 9010867}, {"id": 9732083, "quality": "sd", "file_type": "video/mp4", "width": 506, "height": 960, "fps": 25.0, "link": "https://videos.pexels.com/video-files/5561410/5561410-sd_506_960_25fps.mp4", "size": 4634029}, {"id": 9732133, "quality": "hd", "file_type": "video/mp4", "width": 1080, "height": 2048, "fps": 25.0, "link": "https://videos.pexels.com/video-files/5561410/5561410-hd_1080_2048_25fps.mp4", "size": 17949986}, {"id": 9732205, "quality": "uhd", "file_type": "video/mp4", "width": 1440, "height": 2732, "fps": 25.0, "link": "https://videos.pexels.com/video-files/5561410/5561410-uhd_1440_2732_25fps.mp4", "size": 36290861}, {"id": 9732235, "quality": "sd", "file_type": "video/mp4", "width": 226, "height": 426, "fps": 25.0, "link": "https://videos.pexels.com/video-files/5561410/5561410-sd_226_426_25fps.mp4", "size": 1035588}], "video_pictures": [{"id": 3006845, "nr": 0, "picture": "https://images.pexels.com/videos/5561410/pictures/preview-0.jpeg"}, {"id": 3006849, "nr": 1, "picture": "https://images.pexels.com/videos/5561410/pictures/preview-1.jpeg"}, {"id": 3006857, "nr": 2, "picture": "https://images.pexels.com/videos/5561410/pictures/preview-2.jpeg"}, {"id": 3006858, "nr": 3, "picture": "https://images.pexels.com/videos/5561410/pictures/preview-3.jpeg"}, {"id": 3006862, "nr": 4, "picture": "https://images.pexels.com/videos/5561410/pictures/preview-4.jpeg"}, {"id": 3006865, "nr": 5, "picture": "https://images.pexels.com/videos/5561410/pictures/preview-5.jpeg"}, {"id": 3006872, "nr": 6, "picture": "https://images.pexels.com/videos/5561410/pictures/preview-6.jpeg"}, {"id": 3006878, "nr": 7, "picture": "https://images.pexels.com/videos/5561410/pictures/preview-7.jpeg"}, {"id": 3006883, "nr": 8, "picture": "https://images.pexels.com/videos/5561410/pictures/preview-8.jpeg"}, {"id": 3006889, "nr": 9, "picture": "https://images.pexels.com/videos/5561410/pictures/preview-9.jpeg"}, {"id": 3006896, "nr": 10, "picture": "https://images.pexels.com/videos/5561410/pictures/preview-10.jpeg"}, {"id": 3006903, "nr": 11, "picture": "https://images.pexels.com/videos/5561410/pictures/preview-11.jpeg"}, {"id": 3006908, "nr": 12, "picture": "https://images.pexels.com/videos/5561410/pictures/preview-12.jpeg"}, {"id": 3006918, "nr": 13, "picture": "https://images.pexels.com/videos/5561410/pictures/preview-13.jpeg"}, {"id": 3006925, "nr": 14, "picture": "https://images.pexels.com/videos/5561410/pictures/preview-14.jpeg"}]}, {"id": 3943415, "width": 2160, "height": 4096, "duration": 33, "full_res": null, "tags": [], "url": "https://www.pexels.com/video/healthy-red-art-hand-3943415/", "image": "https://images.pexels.com/videos/3943415/agressive-art-berry-composition-3943415.jpeg?auto=compress&cs=tinysrgb&fit=crop&h=1200&w=630", "avg_color": null, "user": {"id": 1437723, "name": "cottonbro studio", "url": "https://www.pexels.com/@cottonbro"}, "video_files": [{"id": 9336518, "quality": "hd", "file_type": "video/mp4", "width": 720, "height": 1366, "fps": 50.0, "link": "https://videos.pexels.com/video-files/3943415/3943415-hd_720_1366_50fps.mp4", "size": 6088720}, {"id": 9336579, "quality": "sd", "file_type": "video/mp4", "width": 338, "height": 640, "fps": 25.0, "link": "https://videos.pexels.com/video-files/3943415/3943415-sd_338_640_25fps.mp4", "size": 995784}, {"id": 9336642, "quality": "hd", "file_type": "video/mp4", "width": 1080, "height": 2048, "fps": 25.0, "link": "https://videos.pexels.com/video-files/3943415/3943415-hd_1080_2048_25fps.mp4", "size": 15975781}, {"id": 9336722, "quality": "uhd", "file_type": "video/mp4", "width": 2160, "height": 4096, "fps": 25.0, "link": "https://videos.pexels.com/video-files/3943415/3943415-uhd_2160_4096_25fps.mp4", "size": 101453453}, {"id": 9336766, "quality": "sd", "file_type": "video/mp4", "width": 226, "height": 426, "fps": 25.0, "link": "https://videos.pexels.com/video-files/3943415/3943415-sd_226_426_25fps.mp4", "size": 577030}, {"id": 9336849, "quality": "uhd", "file_type": "video/mp4", "width": 1440, "height": 2732, "fps": 25.0, "link": "https://videos.pexels.com/video-files/3943415/3943415-uhd_1440_2732_25fps.mp4", "size": 34413184}, {"id": 9336919, "quality": "sd", "file_type": "video/mp4", "width": 506, "height": 960, "fps": 25.0, "link": "https://videos.pexels.com/video-files/3943415/3943415-sd_506_960_25fps.mp4", "size": 2326053}], "video_pictures": [{"id": 1008730, "nr": 0, "picture": "https://images.pexels.com/videos/3943415/pictures/preview-0.jpeg"}, {"id": 1008734, "nr": 1, "picture": "https://images.pexels.com/videos/3943415/pictures/preview-1.jpeg"}, {"id": 1008741, "nr": 2, "picture": "https://images.pexels.com/videos/3943415/pictures/preview-2.jpeg"}, {"id": 1008746, "nr": 3, "picture": "https://images.pexels.com/videos/3943415/pictures/preview-3.jpeg"}, {"id": 1008750, "nr": 4, "picture": "https://images.pexels.com/videos/3943415/pictures/preview-4.jpeg"}, {"id": 1008754, "nr": 5, "picture": "https://images.pexels.com/videos/3943415/pictures/preview-5.jpeg"}, {"id": 1008755, "nr": 6, "picture": "https://images.pexels.com/videos/3943415/pictures/preview-6.jpeg"}, {"id": 1008756, "nr": 7, "picture": "https://images.pexels.com/videos/3943415/pictures/preview-7.jpeg"}, {"id": 1008757, "nr": 8, "picture": "https://images.pexels.com/videos/3943415/pictures/preview-8.jpeg"}, {"id": 1008758, "nr": 9, "picture": "https://images.pexels.com/videos/3943415/pictures/preview-9.jpeg"}, {"id": 1008759, "nr": 10, "picture": "https://images.pexels.com/videos/3943415/pictures/preview-10.jpeg"}, {"id": 1008760, "nr": 11, "picture": "https://images.pexels.com/videos/3943415/pictures/preview-11.jpeg"}, {"id": 1008761, "nr": 12, "picture": "https://images.pexels.com/videos/3943415/pictures/preview-12.jpeg"}, {"id": 1008762, "nr": 13, "picture": "https://images.pexels.com/videos/3943415/pictures/preview-13.jpeg"}, {"id": 1008763, "nr": 14, "picture": "https://images.pexels.com/videos/3943415/pictures/preview-14.jpeg"}]}, {"id": 3943416, "width": 2160, "height": 4096, "duration": 8, "full_res": null, "tags": [], "url": "https://www.pexels.com/video/tossing-and-catching-a-fresh-tomato-in-the-air-3943416/", "image": "https://images.pexels.com/videos/3943416/agressive-art-berry-catch-3943416.jpeg?auto=compress&cs=tinysrgb&fit=crop&h=1200&w=630", "avg_color": null, "user": {"id": 1437723, "name": "cottonbro studio", "url": "https://www.pexels.com/@cottonbro"}, "video_files": [{"id": 9336287, "quality": "uhd", "file_type": "video/mp4", "width": 2160, "height": 4096, "fps": 25.0, "link": "https://videos.pexels.com/video-files/3943416/3943416-uhd_2160_4096_25fps.mp4", "size": 20498308}, {"id": 9336545, "quality": "uhd", "file_type": "video/mp4", "width": 1440, "height": 2732, "fps": 25.0, "link": "https://videos.pexels.com/video-files/3943416/3943416-uhd_1440_2732_25fps.mp4", "size": 12042982}, {"id": 9336674, "quality": "hd", "file_type": "video/mp4", "width": 720, "height": 1366, "fps": 50.0, "link": "https://videos.pexels.com/video-files/3943416/3943416-hd_720_1366_50fps.mp4", "size": 2342840}, {"id": 9336823, "quality": "sd", "file_type": "video/mp4", "width": 506, "height": 960, "fps": 25.0, "link": "https://videos.pexels.com/video-files/3943416/3943416-sd_506_960_25fps.mp4", "size": 1380846}, {"id": 9336921, "quality": "sd", "file_type": "video/mp4", "width": 338, "height": 640, "fps": 25.0, "link": "https://videos.pexels.com/video-files/3943416/3943416-sd_338_640_25fps.mp4", "size": 462701}, {"id": 9337243, "quality": "hd", "file_type": "video/mp4", "width": 1080, "height": 2048, "fps": 25.0, "link": "https://videos.pexels.com/video-files/3943416/3943416-hd_1080_2048_25fps.mp4", "size": 4901950}, {"id": 9337475, "quality": "sd", "file_type": "video/mp4", "width": 226, "height": 426, "fps": 25.0, "link": "https://videos.pexels.com/video-files/3943416/3943416-sd_226_426_25fps.mp4", "size": 283332}], "video_pictures": [{"id": 1008683, "nr": 0, "picture": "https://images.pexels.com/videos/3943416/pictures/preview-0.jpeg"}, {"id": 1008688, "nr": 1, "picture": "https://images.pexels.com/videos/3943416/pictures/preview-1.jpeg"}, {"id": 1008693, "nr": 2, "picture": "https://images.pexels.com/videos/3943416/pictures/preview-2.jpeg"}, {"id": 1008700, "nr": 3, "picture": "https://images.pexels.com/videos/3943416/pictures/preview-3.jpeg"}, {"id": 1008708, "nr": 4, "picture": "https://images.pexels.com/videos/3943416/pictures/preview-4.jpeg"}, {"id": 1008711, "nr": 5, "picture": "https://images.pexels.com/videos/3943416/pictures/preview-5.jpeg"}, {"id": 1008715, "nr": 6, "picture": "https://images.pexels.com/videos/3943416/pictures/preview-6.jpeg"}, {"id": 1008717, "nr": 7, "picture": "https://images.pexels.com/videos/3943416/pictures/preview-7.jpeg"}, {"id": 1008721, "nr": 8, "picture": "https://images.pexels.com/videos/3943416/pictures/preview-8.jpeg"}, {"id": 1008725, "nr": 9, "picture": "https://images.pexels.com/videos/3943416/pictures/preview-9.jpeg"}, {"id": 1008728, "nr": 10, "picture": "https://images.pexels.com/videos/3943416/pictures/preview-10.jpeg"}, {"id": 1008731, "nr": 11, "picture": "https://images.pexels.com/videos/3943416/pictures/preview-11.jpeg"}, {"id": 1008736, "nr": 12, "picture": "https://images.pexels.com/videos/3943416/pictures/preview-12.jpeg"}, {"id": 1008740, "nr": 13, "picture": "https://images.pexels.com/videos/3943416/pictures/preview-13.jpeg"}, {"id": 1008743, "nr": 14, "picture": "https://images.pexels.com/videos/3943416/pictures/preview-14.jpeg"}]}, {"id": 7601418, "width": 1080, "height": 1920, "duration": 10, "full_res": null, "tags": [], "url": "https://www.pexels.com/video/close-up-video-of-spices-7601418/", "image": "https://images.pexels.com/videos/7601418/pexels-photo-7601418.jpeg?auto=compress&cs=tinysrgb&fit=crop&h=1200&w=630", "avg_color": null, "user": {"id": 11924337, "name": "Los Muertos Crew", "url": "https://www.pexels.com/@cristian-rojas"}, "video_files": [{"id": 10498029, "quality": "sd", "file_type": "video/mp4", "width": 240, "height": 426, "fps": 23.97599983215332, "link": "https://videos.pexels.com/video-files/7601418/7601418-sd_240_426_24fps.mp4", "size": 414473}, {"id": 10498080, "quality": "sd", "file_type": "video/mp4", "width": 360, "height": 640, "fps": 23.97599983215332, "link": "https://videos.pexels.com/video-files/7601418/7601418-sd_360_640_24fps.mp4", "size": 565900}, {"id": 10498275, "quality": "hd", "file_type": "video/mp4", "width": 720, "height": 1280, "fps": 23.97599983215332, "link": "https://videos.pexels.com/video-files/7601418/7601418-hd_720_1280_24fps.mp4", "size": 2279011}, {"id": 10498408, "quality": "hd", "file_type": "video/mp4", "width": 1080, "height": 1920, "fps": 23.97599983215332, "link": "https://videos.pexels.com/video-files/7601418/7601418-hd_1080_1920_24fps.mp4", "size": 4884824}, {"id": 10498516, "quality": "sd", "file_type": "video/mp4", "width": 540, "height": 960, "fps": 23.97599983215332, "link": "https://videos.pexels.com/video-files/7601418/7601418-sd_540_960_24fps.mp4", "size": 1377381}], "video_pictures": [{"id": 6715448, "nr": 0, "picture": "https://images.pexels.com/videos/7601418/pictures/preview-0.jpeg"}, {"id": 6715451, "nr": 1, "picture": "https://images.pexels.com/videos/7601418/pictures/preview-1.jpeg"}, {"id": 6715457, "nr": 2, "picture": "https://images.pexels.com/videos/7601418/pictures/preview-2.jpeg"}, {"id": 6715463, "nr": 3, "picture": "https://images.pexels.com/videos/7601418/pictures/preview-3.jpeg"}, {"id": 6715474, "nr": 4, "picture": "https://images.pexels.com/videos/7601418/pictures/preview-4.jpeg"}, {"id": 6715486, "nr": 5, "picture": "https://images.pexels.com/videos/7601418/pictures/preview-5.jpeg"}, {"id": 6715496, "nr": 6, "picture": "https://images.pexels.com/videos/7601418/pictures/preview-6.jpeg"}, {"id": 6715507, "nr": 7, "picture": "https://images.pexels.com/videos/7601418/pictures/preview-7.jpeg"}, {"id": 6715519, "nr": 8, "picture": "https://images.pexels.com/videos/7601418/pictures/preview-8.jpeg"}, {"id": 6715532, "nr": 9, "picture": "https://images.pexels.com/videos/7601418/pictures/preview-9.jpeg"}, {"id": 6715547, "nr": 10, "picture": "https://images.pexels.com/videos/7601418/pictures/preview-10.jpeg"}, {"id": 6715563, "nr": 11, "picture": "https://images.pexels.com/videos/7601418/pictures/preview-11.jpeg"}, {"id": 6715576, "nr": 12, "picture": "https://images.pexels.com/videos/7601418/pictures/preview-12.jpeg"}, {"id": 6715592, "nr": 13, "picture": "https://images.pexels.com/videos/7601418/pictures/preview-13.jpeg"}, {"id": 6715607, "nr": 14, "picture": "https://images.pexels.com/videos/7601418/pictures/preview-14.jpeg"}]}, {"id": 6520461, "width": 2363, "height": 4096, "duration": 7, "full_res": null, "tags": [], "url": "https://www.pexels.com/video/close-up-of-unripe-tomatoes-6520461/", "image": "https://images.pexels.com/videos/6520461/pexels-photo-6520461.jpeg?auto=compress&cs=tinysrgb&fit=crop&h=1200&w=630", "avg_color": null, "user": {"id": 2678846, "name": "ROMAN ODINTSOV", "url": "https://www.pexels.com/@roman-odintsov"}, "video_files": [{"id": 10064065, "quality": "hd", "file_type": "video/mp4", "width": 720, "height": 1248, "fps": 29.969999313354492, "link": "https://videos.pexels.com/video-files/6520461/6520461-hd_720_1248_30fps.mp4", "size": 2435705}, {"id": 10064200, "quality": "sd", "file_type": "video/mp4", "width": 240, "height": 416, "fps": 29.969999313354492, "link": "https://videos.pexels.com/video-files/6520461/6520461-sd_240_416_30fps.mp4", "size": 311628}, {"id": 10064224, "quality": "hd", "file_type": "video/mp4", "width": 1080, "height": 1872, "fps": 29.969999313354492, "link": "https://videos.pexels.com/video-files/6520461/6520461-hd_1080_1872_30fps.mp4", "size": 4666423}, {"id": 10064249, "quality": "sd", "file_type": "video/mp4", "width": 540, "height": 936, "fps": 29.969999313354492, "link": "https://videos.pexels.com/video-files/6520461/6520461-sd_540_936_30fps.mp4", "size": 1480704}, {"id": 10064276, "quality": "uhd", "file_type": "video/mp4", "width": 2160, "height": 3744, "fps": 29.969999313354492, "link": "https://videos.pexels.com/video-files/6520461/6520461-uhd_2160_3744_30fps.mp4", "size": 20112219}, {"id": 10064315, "quality": "uhd", "file_type": "video/mp4", "width": 1440, "height": 2496, "fps": 29.969999313354492, "link": "https://videos.pexels.com/video-files/6520461/6520461-uhd_1440_2496_30fps.mp4", "size": 11273564}, {"id": 10064340, "quality": "sd", "file_type": "video/mp4", "width": 360, "height": 624, "fps": 29.969999313354492, "link": "https://videos.pexels.com/video-files/6520461/6520461-sd_360_624_30fps.mp4", "size": 535214}], "video_pictures": [{"id": 4572544, "nr": 0, "picture": "https://images.pexels.com/videos/6520461/pictures/preview-0.jpeg"}, {"id": 4572553, "nr": 1, "picture": "https://images.pexels.com/videos/6520461/pictures/preview-1.jpeg"}, {"id": 4572565, "nr": 2, "picture": "https://images.pexels.com/videos/6520461/pictures/preview-2.jpeg"}, {"id": 4572578, "nr": 3, "picture": "https://images.pexels.com/videos/6520461/pictures/preview-3.jpeg"}, {"id": 4572589, "nr": 4, "picture": "https://images.pexels.com/videos/6520461/pictures/preview-4.jpeg"}, {"id": 4572608, "nr": 5, "picture": "https://images.pexels.com/videos/6520461/pictures/preview-5.jpeg"}, {"id": 4572616, "nr": 6, "picture": "https://images.pexels.com/videos/6520461/pictures/preview-6.jpeg"}, {"id": 4572626, "nr": 7, "picture": "https://images.pexels.com/videos/6520461/pictures/preview-7.jpeg"}, {"id": 4572637, "nr": 8, "picture": "https://images.pexels.com/videos/6520461/pictures/preview-8.jpeg"}, {"id": 4572644, "nr": 9, "picture": "https://images.pexels.com/videos/6520461/pictures/preview-9.jpeg"}, {"id": 4572652, "nr": 10, "picture": "https://images.pexels.com/videos/6520461/pictures/preview-10.jpeg"}, {"id": 4572658, "nr": 11, "picture": "https://images.pexels.com/videos/6520461/pictures/preview-11.jpeg"}, {"id": 4572670, "nr": 12, "picture": "https://images.pexels.com/videos/6520461/pictures/preview-12.jpeg"}, {"id": 4572680, "nr": 13, "picture": "https://images.pexels.com/videos/6520461/pictures/preview-13.jpeg"}, {"id": 4572691, "nr": 14, "picture": "https://images.pexels.com/videos/6520461/pictures/preview-14.jpeg"}]}, {"id": 5417653, "width": 2160, "height": 3840, "duration": 10, "full_res": null, "tags": [], "url": "https://www.pexels.com/video/a-person-cutting-tomatoes-5417653/", "image": "https://images.pexels.com/videos/5417653/pexels-photo-5417653.jpeg?auto=compress&cs=tinysrgb&fit=crop&h=1200&w=630", "avg_color": null, "user": {"id": 3518023, "name": "Amina Filkins", "url": "https://www.pexels.com/@amina-filkins"}, "video_files": [{"id": 9694114, "quality": "hd", "file_type": "video/mp4", "width": 1080, "height": 1920, "fps": 23.97599983215332, "link": "https://videos.pexels.com/video-files/5417653/5417653-hd_1080_1920_24fps.mp4", "size": 4481662}, {"id": 9694137, "quality": "uhd", "file_type": "video/mp4", "width": 1440, "height": 2560, "fps": 23.97599983215332, "link": "https://videos.pexels.com/video-files/5417653/5417653-uhd_1440_2560_24fps.mp4", "size": 7424372}, {"id": 9694174, "quality": "sd", "file_type": "video/mp4", "width": 540, "height": 960, "fps": 23.97599983215332, "link": "https://videos.pexels.com/video-files/5417653/5417653-sd_540_960_24fps.mp4", "size": 1412081}, {"id": 9694183, "quality": "hd", "file_type": "video/mp4", "width": 720, "height": 1280, "fps": 23.97599983215332, "link": "https://videos.pexels.com/video-files/5417653/5417653-hd_720_1280_24fps.mp4", "size": 2067032}, {"id": 9694201, "quality": "uhd", "file_type": "video/mp4", "width": 2160, "height": 3840, "fps": 23.97599983215332, "link": "https://videos.pexels.com/video-files/5417653/5417653-uhd_2160_3840_24fps.mp4", "size": 18921248}, {"id": 9694244, "quality": "sd", "file_type": "video/mp4", "width": 240, "height": 426, "fps": 23.97599983215332, "link": "https://videos.pexels.com/video-files/5417653/5417653-sd_240_426_24fps.mp4", "size": 404851}, {"id": 9694299, "quality": "sd", "file_type": "video/mp4", "width": 360, "height": 640, "fps": 23.97599983215332, "link": "https://videos.pexels.com/video-files/5417653/5417653-sd_360_640_24fps.mp4", "size": 756840}], "video_pictures": [{"id": 2795640, "nr": 0, "picture": "https://images.pexels.com/videos/5417653/pictures/preview-0.jpeg"}, {"id": 2795645, "nr": 1, "picture": "https://images.pexels.com/videos/5417653/pictures/preview-1.jpeg"}, {"id": 2795649, "nr": 2, "picture": "https://images.pexels.com/videos/5417653/pictures/preview-2.jpeg"}, {"id": 2795654, "nr": 3, "picture": "https://images.pexels.com/videos/5417653/pictures/preview-3.jpeg"}, {"id": 2795661, "nr": 4, "picture": "https://images.pexels.com/videos/5417653/pictures/preview-4.jpeg"}, {"id": 2795665, "nr": 5, "picture": "https://images.pexels.com/videos/5417653/pictures/preview-5.jpeg"}, {"id": 2795668, "nr": 6, "picture": "https://images.pexels.com/videos/5417653/pictures/preview-6.jpeg"}, {"id": 2795670, "nr": 7, "picture": "https://images.pexels.com/videos/5417653/pictures/preview-7.jpeg"}, {"id": 2795672, "nr": 8, "picture": "https://images.pexels.com/videos/5417653/pictures/preview-8.jpeg"}, {"id": 2795675, "nr": 9, "picture": "https://images.pexels.com/videos/5417653/pictures/preview-9.jpeg"}, {"id": 2795679, "nr": 10, "picture": "https://images.pexels.com/videos/5417653/pictures/preview-10.jpeg"}, {"id": 2795683, "nr": 11, "picture": "https://images.pexels.com/videos/5417653/pictures/preview-11.jpeg"}, {"id": 2795684, "nr": 12, "picture": "https://images.pexels.com/videos/5417653/pictures/preview-12.jpeg"}, {"id": 2795687, "nr": 13, "picture": "https://images.pexels.com/videos/5417653/pictures/preview-13.jpeg"}, {"id": 2795690, "nr": 14, "picture": "https://images.pexels.com/videos/5417653/pictures/preview-14.jpeg"}]}, {"id": 27783765, "width": 1080, "height": 1920, "duration": 15, "full_res": null, "tags": [], "url": "https://www.pexels.com/video/harvesting-kale-from-summer-garden-august-20242024-27783765/", "image": "https://images.pexels.com/videos/27783765/cherry-tomatoes-fresh-salad-fresh-vegetables-red-tomatoes-27783765.jpeg?auto=compress&cs=tinysrgb&fit=crop&h=1200&w=630", "avg_color": null, "user": {"id": 426034979, "name": "Anamika Basak", "url": "https://www.pexels.com/@anamika-basak-426034979"}, "video_files": [{"id": 12223695, "quality": null, "file_type": "video/mp4", "width": 360, "height": 640, "fps": 120.0, "link": "https://videos.pexels.com/video-files/27783765/12223695_360_640_120fps.mp4", "size": 9534442}, {"id": 12223696, "quality": null, "file_type": "video/mp4", "width": 540, "height": 960, "fps": 120.0, "link": "https://videos.pexels.com/video-files/27783765/12223696_540_960_120fps.mp4", "size": 15506415}, {"id": 12223697, "quality": null, "file_type": "video/mp4", "width": 720, "height": 1280, "fps": 120.0, "link": "https://videos.pexels.com/video-files/27783765/12223697_720_1280_120fps.mp4", "size": 23088955}, {"id": 12223698, "quality": null, "file_type": "video/mp4", "width": 1080, "height": 1920, "fps": 120.0, "link": "https://videos.pexels.com/video-files/27783765/12223698_1080_1920_120fps.mp4", "size": 31086686}], "video_pictures": [{"id": 22655329, "nr": 0, "picture": "https://images.pexels.com/videos/27783765/pictures/preview-0.jpg"}, {"id": 22655330, "nr": 1, "picture": "https://images.pexels.com/videos/27783765/pictures/preview-1.jpg"}, {"id": 22655331, "nr": 2, "picture": "https://images.pexels.com/videos/27783765/pictures/preview-2.jpg"}, {"id": 22655332, "nr": 3, "picture": "https://images.pexels.com/videos/27783765/pictures/preview-3.jpg"}, {"id": 22655333, "nr": 4, "picture": "https://images.pexels.com/videos/27783765/pictures/preview-4.jpg"}, {"id": 22655334, "nr": 5, "picture": "https://images.pexels.com/videos/27783765/pictures/preview-5.jpg"}, {"id": 22655335, "nr": 6, "picture": "https://images.pexels.com/videos/27783765/pictures/preview-6.jpg"}, {"id": 22655336, "nr": 7, "picture": "https://images.pexels.com/videos/27783765/pictures/preview-7.jpg"}, {"id": 22655337, "nr": 8, "picture": "https://images.pexels.com/videos/27783765/pictures/preview-8.jpg"}, {"id": 22655338, "nr": 9, "picture": "https://images.pexels.com/videos/27783765/pictures/preview-9.jpg"}, {"id": 22655339, "nr": 10, "picture": "https://images.pexels.com/videos/27783765/pictures/preview-10.jpg"}, {"id": 22655340, "nr": 11, "picture": "https://images.pexels.com/videos/27783765/pictures/preview-11.jpg"}, {"id": 22655341, "nr": 12, "picture": "https://images.pexels.com/videos/27783765/pictures/preview-12.jpg"}, {"id": 22655342, "nr": 13, "picture": "https://images.pexels.com/videos/27783765/pictures/preview-13.jpg"}]}, {"id": 4323005, "width": 2160, "height": 4096, "duration": 9, "full_res": null, "tags": [], "url": "https://www.pexels.com/video/a-man-with-dreadlocks-eating-a-sandwich-4323005/", "image": "https://images.pexels.com/videos/4323005/pexels-photo-4323005.jpeg?auto=compress&cs=tinysrgb&fit=crop&h=1200&w=630", "avg_color": null, "user": {"id": 1437723, "name": "cottonbro studio", "url": "https://www.pexels.com/@cottonbro"}, "video_files": [{"id": 9379506, "quality": "hd", "file_type": "video/mp4", "width": 720, "height": 1366, "fps": 50.0, "link": "https://videos.pexels.com/video-files/4323005/4323005-hd_720_1366_50fps.mp4", "size": 2947435}, {"id": 9379665, "quality": "sd", "file_type": "video/mp4", "width": 338, "height": 640, "fps": 25.0, "link": "https://videos.pexels.com/video-files/4323005/4323005-sd_338_640_25fps.mp4", "size": 665657}, {"id": 9379785, "quality": "hd", "file_type": "video/mp4", "width": 1080, "height": 2048, "fps": 25.0, "link": "https://videos.pexels.com/video-files/4323005/4323005-hd_1080_2048_25fps.mp4", "size": 5614466}, {"id": 9379889, "quality": "sd", "file_type": "video/mp4", "width": 506, "height": 960, "fps": 25.0, "link": "https://videos.pexels.com/video-files/4323005/4323005-sd_506_960_25fps.mp4", "size": 1827289}, {"id": 9379944, "quality": "sd", "file_type": "video/mp4", "width": 226, "height": 426, "fps": 25.0, "link": "https://videos.pexels.com/video-files/4323005/4323005-sd_226_426_25fps.mp4", "size": 388794}, {"id": 9380141, "quality": "uhd", "file_type": "video/mp4", "width": 1440, "height": 2732, "fps": 25.0, "link": "https://videos.pexels.com/video-files/4323005/4323005-uhd_1440_2732_25fps.mp4", "size": 13525288}, {"id": 9380220, "quality": "uhd", "file_type": "video/mp4", "width": 2160, "height": 4096, "fps": 25.0, "link": "https://videos.pexels.com/video-files/4323005/4323005-uhd_2160_4096_25fps.mp4", "size": 25101262}], "video_pictures": [{"id": 1392593, "nr": 0, "picture": "https://images.pexels.com/videos/4323005/pictures/preview-0.jpeg"}, {"id": 1392607, "nr": 1, "picture": "https://images.pexels.com/videos/4323005/pictures/preview-1.jpeg"}, {"id": 1392620, "nr": 2, "picture": "https://images.pexels.com/videos/4323005/pictures/preview-2.jpeg"}, {"id": 1392633, "nr": 3, "picture": "https://images.pexels.com/videos/4323005/pictures/preview-3.jpeg"}, {"id": 1392648, "nr": 4, "picture": "https://images.pexels.com/videos/4323005/pictures/preview-4.jpeg"}, {"id": 1392665, "nr": 5, "picture": "https://images.pexels.com/videos/4323005/pictures/preview-5.jpeg"}, {"id": 1392683, "nr": 6, "picture": "https://images.pexels.com/videos/4323005/pictures/preview-6.jpeg"}, {"id": 1392695, "nr": 7, "picture": "https://images.pexels.com/videos/4323005/pictures/preview-7.jpeg"}, {"id": 1392706, "nr": 8, "picture": "https://images.pexels.com/videos/4323005/pictures/preview-8.jpeg"}, {"id": 1392719, "nr": 9, "picture": "https://images.pexels.com/videos/4323005/pictures/preview-9.jpeg"}, {"id": 1392730, "nr": 10, "picture": "https://images.pexels.com/videos/4323005/pictures/preview-10.jpeg"}, {"id": 1392744, "nr": 11, "picture": "https://images.pexels.com/videos/4323005/pictures/preview-11.jpeg"}, {"id": 1392757, "nr": 12, "picture": "https://images.pexels.com/videos/4323005/pictures/preview-12.jpeg"}, {"id": 1392764, "nr": 13, "picture": "https://images.pexels.com/videos/4323005/pictures/preview-13.jpeg"}, {"id": 1392769, "nr": 14, "picture": "https://images.pexels.com/videos/4323005/pictures/preview-14.jpeg"}]}], "total_results": 8000, "next_page": "https://api.pexels.com/v1/videos/search/?orientation=portrait&page=2&per_page=8&query=tomato+plant", "url": "https://api-server.pexels.com/search/videos/tomato%20plant/"}, "timestamp": "2024-12-28T22:37:02.793714"}
