{"query": "soothing music", "response": {"page": 1, "per_page": 8, "videos": [{"id": 6688142, "width": 2160, "height": 3840, "duration": 19, "full_res": null, "tags": [], "url": "https://www.pexels.com/video/a-person-listening-to-music-using-a-wireless-headphones-6688142/", "image": "https://images.pexels.com/videos/6688142/pexels-photo-6688142.jpeg?auto=compress&cs=tinysrgb&fit=crop&h=1200&w=630", "avg_color": null, "user": {"id": 1437723, "name": "cottonbro studio", "url": "https://www.pexels.com/@cottonbro"}, "video_files": [{"id": 10148351, "quality": "uhd", "file_type": "video/mp4", "width": 1440, "height": 2560, "fps": 25.0, "link": "https://videos.pexels.com/video-files/6688142/6688142-uhd_1440_2560_25fps.mp4", "size": 11545653}, {"id": 10148475, "quality": "sd", "file_type": "video/mp4", "width": 540, "height": 960, "fps": 25.0, "link": "https://videos.pexels.com/video-files/6688142/6688142-sd_540_960_25fps.mp4", "size": 1678566}, {"id": 10148576, "quality": "sd", "file_type": "video/mp4", "width": 360, "height": 640, "fps": 25.0, "link": "https://videos.pexels.com/video-files/6688142/6688142-sd_360_640_25fps.mp4", "size": 913215}, {"id": 10148701, "quality": "hd", "file_type": "video/mp4", "width": 720, "height": 1280, "fps": 50.0, "link": "https://videos.pexels.com/video-files/6688142/6688142-hd_720_1280_50fps.mp4", "size": 3061510}, {"id": 10148885, "quality": "uhd", "file_type": "video/mp4", "width": 2160, "height": 3840, "fps": 25.0, "link": "https://videos.pexels.com/video-files/6688142/6688142-uhd_2160_3840_25fps.mp4", "size": 32555525}, {"id": 10148987, "quality": "hd", "file_type": "video/mp4", "width": 1080, "height": 1920, "fps": 25.0, "link": "https://videos.pexels.com/video-files/6688142/6688142-hd_1080_1920_25fps.mp4", "size": 6269372}, {"id": 10149038, "quality": "sd", "file_type": "video/mp4", "width": 240, "height": 426, "fps": 25.0, "link": "https://videos.pexels.com/video-files/6688142/6688142-sd_240_426_25fps.mp4", "size": 520483}], "video_pictures": [{"id": 4938728, "nr": 0, "picture": "https://images.pexels.com/videos/6688142/pictures/preview-0.jpeg"}, {"id": 4938746, "nr": 1, "picture": "https://images.pexels.com/videos/6688142/pictures/preview-1.jpeg"}, {"id": 4938771, "nr": 2, "picture": "https://images.pexels.com/videos/6688142/pictures/preview-2.jpeg"}, {"id": 4938801, "nr": 3, "picture": "https://images.pexels.com/videos/6688142/pictures/preview-3.jpeg"}, {"id": 4938814, "nr": 4, "picture": "https://images.pexels.com/videos/6688142/pictures/preview-4.jpeg"}, {"id": 4938843, "nr": 5, "picture": "https://images.pexels.com/videos/6688142/pictures/preview-5.jpeg"}, {"id": 4938861, "nr": 6, "picture": "https://images.pexels.com/videos/6688142/pictures/preview-6.jpeg"}, {"id": 4938874, "nr": 7, "picture": "https://images.pexels.com/videos/6688142/pictures/preview-7.jpeg"}, {"id": 4938891, "nr": 8, "picture": "https://images.pexels.com/videos/6688142/pictures/preview-8.jpeg"}, {"id": 4938904, "nr": 9, "picture": "https://images.pexels.com/videos/6688142/pictures/preview-9.jpeg"}, {"id": 4938911, "nr": 10, "picture": "https://images.pexels.com/videos/6688142/pictures/preview-10.jpeg"}, {"id": 4938920, "nr": 11, "picture": "https://images.pexels.com/videos/6688142/pictures/preview-11.jpeg"}, {"id": 4938930, "nr": 12, "picture": "https://images.pexels.com/videos/6688142/pictures/preview-12.jpeg"}, {"id": 4938945, "nr": 13, "picture": "https://images.pexels.com/videos/6688142/pictures/preview-13.jpeg"}, {"id": 4938953, "nr": 14, "picture": "https://images.pexels.com/videos/6688142/pictures/preview-14.jpeg"}]}, {"id": 7525829, "width": 1080, "height": 1920, "duration": 10, "full_res": null, "tags": [], "url": "https://www.pexels.com/video/a-man-playing-a-tank-drum-7525829/", "image": "https://images.pexels.com/videos/7525829/access-adult-artisan-business-7525829.jpeg?auto=compress&cs=tinysrgb&fit=crop&h=1200&w=630", "avg_color": null, "user": {"id": 2570462, "name": "Antoni Shkraba", "url": "https://www.pexels.com/@shkrabaanthony"}, "video_files": [{"id": 10460876, "quality": "hd", "file_type": "video/mp4", "width": 720, "height": 1280, "fps": 50.0, "link": "https://videos.pexels.com/video-files/7525829/7525829-hd_720_1280_50fps.mp4", "size": 2921744}, {"id": 10460936, "quality": "sd", "file_type": "video/mp4", "width": 240, "height": 426, "fps": 25.0, "link": "https://videos.pexels.com/video-files/7525829/7525829-sd_240_426_25fps.mp4", "size": 446918}, {"id": 10460978, "quality": "hd", "file_type": "video/mp4", "width": 1080, "height": 1920, "fps": 25.0, "link": "https://videos.pexels.com/video-files/7525829/7525829-hd_1080_1920_25fps.mp4", "size": 6284605}, {"id": 10461114, "quality": "sd", "file_type": "video/mp4", "width": 540, "height": 960, "fps": 25.0, "link": "https://videos.pexels.com/video-files/7525829/7525829-sd_540_960_25fps.mp4", "size": 1456863}, {"id": 10461321, "quality": "sd", "file_type": "video/mp4", "width": 360, "height": 640, "fps": 25.0, "link": "https://videos.pexels.com/video-files/7525829/7525829-sd_360_640_25fps.mp4", "size": 640062}], "video_pictures": [{"id": 6547615, "nr": 0, "picture": "https://images.pexels.com/videos/7525829/pictures/preview-0.jpeg"}, {"id": 6547620, "nr": 1, "picture": "https://images.pexels.com/videos/7525829/pictures/preview-1.jpeg"}, {"id": 6547624, "nr": 2, "picture": "https://images.pexels.com/videos/7525829/pictures/preview-2.jpeg"}, {"id": 6547630, "nr": 3, "picture": "https://images.pexels.com/videos/7525829/pictures/preview-3.jpeg"}, {"id": 6547637, "nr": 4, "picture": "https://images.pexels.com/videos/7525829/pictures/preview-4.jpeg"}, {"id": 6547645, "nr": 5, "picture": "https://images.pexels.com/videos/7525829/pictures/preview-5.jpeg"}, {"id": 6547652, "nr": 6, "picture": "https://images.pexels.com/videos/7525829/pictures/preview-6.jpeg"}, {"id": 6547659, "nr": 7, "picture": "https://images.pexels.com/videos/7525829/pictures/preview-7.jpeg"}, {"id": 6547663, "nr": 8, "picture": "https://images.pexels.com/videos/7525829/pictures/preview-8.jpeg"}, {"id": 6547670, "nr": 9, "picture": "https://images.pexels.com/videos/7525829/pictures/preview-9.jpeg"}, {"id": 6547672, "nr": 10, "picture": "https://images.pexels.com/videos/7525829/pictures/preview-10.jpeg"}, {"id": 6547676, "nr": 11, "picture": "https://images.pexels.com/videos/7525829/pictures/preview-11.jpeg"}, {"id": 6547678, "nr": 12, "picture": "https://images.pexels.com/videos/7525829/pictures/preview-12.jpeg"}, {"id": 6547690, "nr": 13, "picture": "https://images.pexels.com/videos/7525829/pictures/preview-13.jpeg"}, {"id": 6547693, "nr": 14, "picture": "https://images.pexels.com/videos/7525829/pictures/preview-14.jpeg"}]}, {"id": 6186728, "width": 2160, "height": 3840, "duration": 15, "full_res": null, "tags": [], "url": "https://www.pexels.com/video/professional-massage-6186728/", "image": "https://images.pexels.com/videos/6186728/pexels-photo-6186728.jpeg?auto=compress&cs=tinysrgb&fit=crop&h=1200&w=630", "avg_color": null, "user": {"id": 3088726, "name": "Tima Miroshnichenko", "url": "https://www.pexels.com/@tima-miroshnichenko"}, "video_files": [{"id": 9951560, "quality": "sd", "file_type": "video/mp4", "width": 540, "height": 960, "fps": 25.0, "link": "https://videos.pexels.com/video-files/6186728/6186728-sd_540_960_25fps.mp4", "size": 2221472}, {"id": 9951601, "quality": "uhd", "file_type": "video/mp4", "width": 2160, "height": 3840, "fps": 25.0, "link": "https://videos.pexels.com/video-files/6186728/6186728-uhd_2160_3840_25fps.mp4", "size": 36048418}, {"id": 9951675, "quality": "sd", "file_type": "video/mp4", "width": 240, "height": 426, "fps": 25.0, "link": "https://videos.pexels.com/video-files/6186728/6186728-sd_240_426_25fps.mp4", "size": 581531}, {"id": 9951711, "quality": "hd", "file_type": "video/mp4", "width": 720, "height": 1280, "fps": 25.0, "link": "https://videos.pexels.com/video-files/6186728/6186728-hd_720_1280_25fps.mp4", "size": 3684575}, {"id": 9951755, "quality": "uhd", "file_type": "video/mp4", "width": 1440, "height": 2560, "fps": 25.0, "link": "https://videos.pexels.com/video-files/6186728/6186728-uhd_1440_2560_25fps.mp4", "size": 13697777}, {"id": 9951787, "quality": "sd", "file_type": "video/mp4", "width": 360, "height": 640, "fps": 25.0, "link": "https://videos.pexels.com/video-files/6186728/6186728-sd_360_640_25fps.mp4", "size": 933977}, {"id": 9951824, "quality": "hd", "file_type": "video/mp4", "width": 1080, "height": 1920, "fps": 25.0, "link": "https://videos.pexels.com/video-files/6186728/6186728-hd_1080_1920_25fps.mp4", "size": 7419381}], "video_pictures": [{"id": 4039888, "nr": 0, "picture": "https://images.pexels.com/videos/6186728/pictures/preview-0.jpeg"}, {"id": 4039890, "nr": 1, "picture": "https://images.pexels.com/videos/6186728/pictures/preview-1.jpeg"}, {"id": 4039891, "nr": 2, "picture": "https://images.pexels.com/videos/6186728/pictures/preview-2.jpeg"}, {"id": 4039893, "nr": 3, "picture": "https://images.pexels.com/videos/6186728/pictures/preview-3.jpeg"}, {"id": 4039896, "nr": 4, "picture": "https://images.pexels.com/videos/6186728/pictures/preview-4.jpeg"}, {"id": 4039899, "nr": 5, "picture": "https://images.pexels.com/videos/6186728/pictures/preview-5.jpeg"}, {"id": 4039901, "nr": 6, "picture": "https://images.pexels.com/videos/6186728/pictures/preview-6.jpeg"}, {"id": 4039905, "nr": 7, "picture": "https://images.pexels.com/videos/6186728/pictures/preview-7.jpeg"}, {"id": 4039907, "nr": 8, "picture": "https://images.pexels.com/videos/6186728/pictures/preview-8.jpeg"}, {"id": 4039910, "nr": 9, "picture": "https://images.pexels.com/videos/6186728/pictures/preview-9.jpeg"}, {"id": 4039920, "nr": 10, "picture": "https://images.pexels.com/videos/6186728/pictures/preview-10.jpeg"}, {"id": 4039925, "nr": 11, "picture": "https://images.pexels.com/videos/6186728/pictures/preview-11.jpeg"}, {"id": 4039932, "nr": 12, "picture": "https://images.pexels.com/videos/6186728/pictures/preview-12.jpeg"}, {"id": 4039938, "nr": 13, "picture": "https://images.pexels.com/videos/6186728/pictures/preview-13.jpeg"}, {"id": 4039944, "nr": 14, "picture": "https://images.pexels.com/videos/6186728/pictures/preview-14.jpeg"}]}, {"id": 6187890, "width": 2160, "height": 3840, "duration": 13, "full_res": null, "tags": [], "url": "https://www.pexels.com/video/a-masseuse-stretching-a-woman-6187890/", "image": "https://images.pexels.com/videos/6187890/pexels-photo-6187890.jpeg?auto=compress&cs=tinysrgb&fit=crop&h=1200&w=630", "avg_color": null, "user": {"id": 3088726, "name": "Tima Miroshnichenko", "url": "https://www.pexels.com/@tima-miroshnichenko"}, "video_files": [{"id": 9951749, "quality": "sd", "file_type": "video/mp4", "width": 240, "height": 426, "fps": 25.0, "link": "https://videos.pexels.com/video-files/6187890/6187890-sd_240_426_25fps.mp4", "size": 338225}, {"id": 9951795, "quality": "sd", "file_type": "video/mp4", "width": 540, "height": 960, "fps": 25.0, "link": "https://videos.pexels.com/video-files/6187890/6187890-sd_540_960_25fps.mp4", "size": 1172013}, {"id": 9951833, "quality": "hd", "file_type": "video/mp4", "width": 720, "height": 1280, "fps": 25.0, "link": "https://videos.pexels.com/video-files/6187890/6187890-hd_720_1280_25fps.mp4", "size": 1996492}, {"id": 9951861, "quality": "uhd", "file_type": "video/mp4", "width": 1440, "height": 2560, "fps": 25.0, "link": "https://videos.pexels.com/video-files/6187890/6187890-uhd_1440_2560_25fps.mp4", "size": 8287436}, {"id": 9951903, "quality": "hd", "file_type": "video/mp4", "width": 1080, "height": 1920, "fps": 25.0, "link": "https://videos.pexels.com/video-files/6187890/6187890-hd_1080_1920_25fps.mp4", "size": 4343585}, {"id": 9951976, "quality": "uhd", "file_type": "video/mp4", "width": 2160, "height": 3840, "fps": 25.0, "link": "https://videos.pexels.com/video-files/6187890/6187890-uhd_2160_3840_25fps.mp4", "size": 25825038}, {"id": 9952044, "quality": "sd", "file_type": "video/mp4", "width": 360, "height": 640, "fps": 25.0, "link": "https://videos.pexels.com/video-files/6187890/6187890-sd_360_640_25fps.mp4", "size": 631170}], "video_pictures": [{"id": 4042974, "nr": 0, "picture": "https://images.pexels.com/videos/6187890/pictures/preview-0.jpeg"}, {"id": 4042976, "nr": 1, "picture": "https://images.pexels.com/videos/6187890/pictures/preview-1.jpeg"}, {"id": 4042978, "nr": 2, "picture": "https://images.pexels.com/videos/6187890/pictures/preview-2.jpeg"}, {"id": 4042982, "nr": 3, "picture": "https://images.pexels.com/videos/6187890/pictures/preview-3.jpeg"}, {"id": 4042985, "nr": 4, "picture": "https://images.pexels.com/videos/6187890/pictures/preview-4.jpeg"}, {"id": 4042988, "nr": 5, "picture": "https://images.pexels.com/videos/6187890/pictures/preview-5.jpeg"}, {"id": 4042991, "nr": 6, "picture": "https://images.pexels.com/videos/6187890/pictures/preview-6.jpeg"}, {"id": 4042995, "nr": 7, "picture": "https://images.pexels.com/videos/6187890/pictures/preview-7.jpeg"}, {"id": 4042999, "nr": 8, "picture": "https://images.pexels.com/videos/6187890/pictures/preview-8.jpeg"}, {"id": 4043003, "nr": 9, "picture": "https://images.pexels.com/videos/6187890/pictures/preview-9.jpeg"}, {"id": 4043006, "nr": 10, "picture": "https://images.pexels.com/videos/6187890/pictures/preview-10.jpeg"}, {"id": 4043010, "nr": 11, "picture": "https://images.pexels.com/videos/6187890/pictures/preview-11.jpeg"}, {"id": 4043015, "nr": 12, "picture": "https://images.pexels.com/videos/6187890/pictures/preview-12.jpeg"}, {"id": 4043018, "nr": 13, "picture": "https://images.pexels.com/videos/6187890/pictures/preview-13.jpeg"}, {"id": 4043022, "nr": 14, "picture": "https://images.pexels.com/videos/6187890/pictures/preview-14.jpeg"}]}, {"id": 7525795, "width": 1080, "height": 1920, "duration": 10, "full_res": null, "tags": [], "url": "https://www.pexels.com/video/women-playing-handpan-drums-7525795/", "image": "https://images.pexels.com/videos/7525795/adult-art-brunette-chair-7525795.jpeg?auto=compress&cs=tinysrgb&fit=crop&h=1200&w=630", "avg_color": null, "user": {"id": 2570462, "name": "Antoni Shkraba", "url": "https://www.pexels.com/@shkrabaanthony"}, "video_files": [{"id": 10460736, "quality": "sd", "file_type": "video/mp4", "width": 360, "height": 640, "fps": 25.0, "link": "https://videos.pexels.com/video-files/7525795/7525795-sd_360_640_25fps.mp4", "size": 629998}, {"id": 10460822, "quality": "sd", "file_type": "video/mp4", "width": 240, "height": 426, "fps": 25.0, "link": "https://videos.pexels.com/video-files/7525795/7525795-sd_240_426_25fps.mp4", "size": 431973}, {"id": 10460921, "quality": "sd", "file_type": "video/mp4", "width": 540, "height": 960, "fps": 25.0, "link": "https://videos.pexels.com/video-files/7525795/7525795-sd_540_960_25fps.mp4", "size": 1672277}, {"id": 10460986, "quality": "hd", "file_type": "video/mp4", "width": 1080, "height": 1920, "fps": 25.0, "link": "https://videos.pexels.com/video-files/7525795/7525795-hd_1080_1920_25fps.mp4", "size": 6172078}, {"id": 10461065, "quality": "hd", "file_type": "video/mp4", "width": 720, "height": 1280, "fps": 50.0, "link": "https://videos.pexels.com/video-files/7525795/7525795-hd_720_1280_50fps.mp4", "size": 3536514}], "video_pictures": [{"id": 6546566, "nr": 0, "picture": "https://images.pexels.com/videos/7525795/pictures/preview-0.jpeg"}, {"id": 6546571, "nr": 1, "picture": "https://images.pexels.com/videos/7525795/pictures/preview-1.jpeg"}, {"id": 6546576, "nr": 2, "picture": "https://images.pexels.com/videos/7525795/pictures/preview-2.jpeg"}, {"id": 6546580, "nr": 3, "picture": "https://images.pexels.com/videos/7525795/pictures/preview-3.jpeg"}, {"id": 6546588, "nr": 4, "picture": "https://images.pexels.com/videos/7525795/pictures/preview-4.jpeg"}, {"id": 6546602, "nr": 5, "picture": "https://images.pexels.com/videos/7525795/pictures/preview-5.jpeg"}, {"id": 6546614, "nr": 6, "picture": "https://images.pexels.com/videos/7525795/pictures/preview-6.jpeg"}, {"id": 6546626, "nr": 7, "picture": "https://images.pexels.com/videos/7525795/pictures/preview-7.jpeg"}, {"id": 6546641, "nr": 8, "picture": "https://images.pexels.com/videos/7525795/pictures/preview-8.jpeg"}, {"id": 6546657, "nr": 9, "picture": "https://images.pexels.com/videos/7525795/pictures/preview-9.jpeg"}, {"id": 6546673, "nr": 10, "picture": "https://images.pexels.com/videos/7525795/pictures/preview-10.jpeg"}, {"id": 6546692, "nr": 11, "picture": "https://images.pexels.com/videos/7525795/pictures/preview-11.jpeg"}, {"id": 6546711, "nr": 12, "picture": "https://images.pexels.com/videos/7525795/pictures/preview-12.jpeg"}, {"id": 6546730, "nr": 13, "picture": "https://images.pexels.com/videos/7525795/pictures/preview-13.jpeg"}, {"id": 6546748, "nr": 14, "picture": "https://images.pexels.com/videos/7525795/pictures/preview-14.jpeg"}]}, {"id": 4774831, "width": 1080, "height": 1920, "duration": 19, "full_res": null, "tags": [], "url": "https://www.pexels.com/video/video-of-holding-vinyl-record-4774831/", "image": "https://images.pexels.com/videos/4774831/african-american-afro-afroamerican-bath-4774831.jpeg?auto=compress&cs=tinysrgb&fit=crop&h=1200&w=630", "avg_color": null, "user": {"id": 2297095, "name": "Pavel Danilyuk", "url": "https://www.pexels.com/@pavel-danilyuk"}, "video_files": [{"id": 9564049, "quality": "hd", "file_type": "video/mp4", "width": 1080, "height": 1920, "fps": 29.969999313354492, "link": "https://videos.pexels.com/video-files/4774831/4774831-hd_1080_1920_30fps.mp4", "size": 13534460}, {"id": 9564066, "quality": "sd", "file_type": "video/mp4", "width": 240, "height": 426, "fps": 29.969999313354492, "link": "https://videos.pexels.com/video-files/4774831/4774831-sd_240_426_30fps.mp4", "size": 645180}, {"id": 9564193, "quality": "hd", "file_type": "video/mp4", "width": 720, "height": 1280, "fps": 29.969999313354492, "link": "https://videos.pexels.com/video-files/4774831/4774831-hd_720_1280_30fps.mp4", "size": 5184578}, {"id": 9564287, "quality": "sd", "file_type": "video/mp4", "width": 360, "height": 640, "fps": 29.969999313354492, "link": "https://videos.pexels.com/video-files/4774831/4774831-sd_360_640_30fps.mp4", "size": 1161716}, {"id": 9564331, "quality": "sd", "file_type": "video/mp4", "width": 540, "height": 960, "fps": 29.969999313354492, "link": "https://videos.pexels.com/video-files/4774831/4774831-sd_540_960_30fps.mp4", "size": 2636771}], "video_pictures": [{"id": 1920977, "nr": 0, "picture": "https://images.pexels.com/videos/4774831/pictures/preview-0.jpeg"}, {"id": 1920980, "nr": 1, "picture": "https://images.pexels.com/videos/4774831/pictures/preview-1.jpeg"}, {"id": 1920981, "nr": 2, "picture": "https://images.pexels.com/videos/4774831/pictures/preview-2.jpeg"}, {"id": 1920982, "nr": 3, "picture": "https://images.pexels.com/videos/4774831/pictures/preview-3.jpeg"}, {"id": 1920983, "nr": 4, "picture": "https://images.pexels.com/videos/4774831/pictures/preview-4.jpeg"}, {"id": 1920984, "nr": 5, "picture": "https://images.pexels.com/videos/4774831/pictures/preview-5.jpeg"}, {"id": 1920985, "nr": 6, "picture": "https://images.pexels.com/videos/4774831/pictures/preview-6.jpeg"}, {"id": 1920986, "nr": 7, "picture": "https://images.pexels.com/videos/4774831/pictures/preview-7.jpeg"}, {"id": 1920987, "nr": 8, "picture": "https://images.pexels.com/videos/4774831/pictures/preview-8.jpeg"}, {"id": 1920988, "nr": 9, "picture": "https://images.pexels.com/videos/4774831/pictures/preview-9.jpeg"}, {"id": 1920989, "nr": 10, "picture": "https://images.pexels.com/videos/4774831/pictures/preview-10.jpeg"}, {"id": 1920990, "nr": 11, "picture": "https://images.pexels.com/videos/4774831/pictures/preview-11.jpeg"}, {"id": 1920991, "nr": 12, "picture": "https://images.pexels.com/videos/4774831/pictures/preview-12.jpeg"}, {"id": 1920992, "nr": 13, "picture": "https://images.pexels.com/videos/4774831/pictures/preview-13.jpeg"}, {"id": 1920993, "nr": 14, "picture": "https://images.pexels.com/videos/4774831/pictures/preview-14.jpeg"}]}, {"id": 6944104, "width": 1080, "height": 1920, "duration": 18, "full_res": null, "tags": [], "url": "https://www.pexels.com/video/a-woman-playing-a-tank-drum-6944104/", "image": "https://images.pexels.com/videos/6944104/agate-alternative-alternative-medicine-aspirations-6944104.jpeg?auto=compress&cs=tinysrgb&fit=crop&h=1200&w=630", "avg_color": null, "user": {"id": 11437196, "name": "Mikhail Nilov", "url": "https://www.pexels.com/@mikhail-nilov"}, "video_files": [{"id": 10237142, "quality": "sd", "file_type": "video/mp4", "width": 360, "height": 640, "fps": 25.0, "link": "https://videos.pexels.com/video-files/6944104/6944104-sd_360_640_25fps.mp4", "size": 1128895}, {"id": 10237166, "quality": "sd", "file_type": "video/mp4", "width": 540, "height": 960, "fps": 25.0, "link": "https://videos.pexels.com/video-files/6944104/6944104-sd_540_960_25fps.mp4", "size": 3135479}, {"id": 10237210, "quality": "sd", "file_type": "video/mp4", "width": 240, "height": 426, "fps": 25.0, "link": "https://videos.pexels.com/video-files/6944104/6944104-sd_240_426_25fps.mp4", "size": 705370}, {"id": 10237263, "quality": "hd", "file_type": "video/mp4", "width": 720, "height": 1280, "fps": 25.0, "link": "https://videos.pexels.com/video-files/6944104/6944104-hd_720_1280_25fps.mp4", "size": 5370103}, {"id": 10237314, "quality": "hd", "file_type": "video/mp4", "width": 1080, "height": 1920, "fps": 25.0, "link": "https://videos.pexels.com/video-files/6944104/6944104-hd_1080_1920_25fps.mp4", "size": 12513174}], "video_pictures": [{"id": 5410610, "nr": 0, "picture": "https://images.pexels.com/videos/6944104/pictures/preview-0.jpeg"}, {"id": 5410612, "nr": 1, "picture": "https://images.pexels.com/videos/6944104/pictures/preview-1.jpeg"}, {"id": 5410633, "nr": 2, "picture": "https://images.pexels.com/videos/6944104/pictures/preview-2.jpeg"}, {"id": 5410642, "nr": 3, "picture": "https://images.pexels.com/videos/6944104/pictures/preview-3.jpeg"}, {"id": 5410648, "nr": 4, "picture": "https://images.pexels.com/videos/6944104/pictures/preview-4.jpeg"}, {"id": 5410659, "nr": 5, "picture": "https://images.pexels.com/videos/6944104/pictures/preview-5.jpeg"}, {"id": 5410663, "nr": 6, "picture": "https://images.pexels.com/videos/6944104/pictures/preview-6.jpeg"}, {"id": 5410669, "nr": 7, "picture": "https://images.pexels.com/videos/6944104/pictures/preview-7.jpeg"}, {"id": 5410676, "nr": 8, "picture": "https://images.pexels.com/videos/6944104/pictures/preview-8.jpeg"}, {"id": 5410683, "nr": 9, "picture": "https://images.pexels.com/videos/6944104/pictures/preview-9.jpeg"}, {"id": 5410692, "nr": 10, "picture": "https://images.pexels.com/videos/6944104/pictures/preview-10.jpeg"}, {"id": 5410699, "nr": 11, "picture": "https://images.pexels.com/videos/6944104/pictures/preview-11.jpeg"}, {"id": 5410705, "nr": 12, "picture": "https://images.pexels.com/videos/6944104/pictures/preview-12.jpeg"}, {"id": 5410715, "nr": 13, "picture": "https://images.pexels.com/videos/6944104/pictures/preview-13.jpeg"}, {"id": 5410721, "nr": 14, "picture": "https://images.pexels.com/videos/6944104/pictures/preview-14.jpeg"}]}, {"id": 5418697, "width": 1080, "height": 1920, "duration": 4, "full_res": null, "tags": [], "url": "https://www.pexels.com/video/a-woman-wearing-headphones-5418697/", "image": "https://images.pexels.com/videos/5418697/autumn-cozy-home-fall-fall-aesthetics-5418697.jpeg?auto=compress&cs=tinysrgb&fit=crop&h=1200&w=630", "avg_color": null, "user": {"id": 2104565, "name": "Polina Tankilevitch", "url": "https://www.pexels.com/@polina-tankilevitch"}, "video_files": [{"id": 9694877, "quality": "hd", "file_type": "video/mp4", "width": 1080, "height": 1920, "fps": 25.0, "link": "https://videos.pexels.com/video-files/5418697/5418697-hd_1080_1920_25fps.mp4", "size": 2847689}, {"id": 9694916, "quality": "sd", "file_type": "video/mp4", "width": 360, "height": 640, "fps": 25.0, "link": "https://videos.pexels.com/video-files/5418697/5418697-sd_360_640_25fps.mp4", "size": 315514}, {"id": 9694970, "quality": "sd", "file_type": "video/mp4", "width": 540, "height": 960, "fps": 25.0, "link": "https://videos.pexels.com/video-files/5418697/5418697-sd_540_960_25fps.mp4", "size": 880012}, {"id": 9695034, "quality": "hd", "file_type": "video/mp4", "width": 720, "height": 1280, "fps": 25.0, "link": "https://videos.pexels.com/video-files/5418697/5418697-hd_720_1280_25fps.mp4", "size": 1559791}, {"id": 9695077, "quality": "sd", "file_type": "video/mp4", "width": 240, "height": 426, "fps": 25.0, "link": "https://videos.pexels.com/video-files/5418697/5418697-sd_240_426_25fps.mp4", "size": 186848}], "video_pictures": [{"id": 2802761, "nr": 0, "picture": "https://images.pexels.com/videos/5418697/pictures/preview-0.jpeg"}, {"id": 2802768, "nr": 1, "picture": "https://images.pexels.com/videos/5418697/pictures/preview-1.jpeg"}, {"id": 2802775, "nr": 2, "picture": "https://images.pexels.com/videos/5418697/pictures/preview-2.jpeg"}, {"id": 2802784, "nr": 3, "picture": "https://images.pexels.com/videos/5418697/pictures/preview-3.jpeg"}, {"id": 2802792, "nr": 4, "picture": "https://images.pexels.com/videos/5418697/pictures/preview-4.jpeg"}, {"id": 2802801, "nr": 5, "picture": "https://images.pexels.com/videos/5418697/pictures/preview-5.jpeg"}, {"id": 2802809, "nr": 6, "picture": "https://images.pexels.com/videos/5418697/pictures/preview-6.jpeg"}, {"id": 2802817, "nr": 7, "picture": "https://images.pexels.com/videos/5418697/pictures/preview-7.jpeg"}, {"id": 2802824, "nr": 8, "picture": "https://images.pexels.com/videos/5418697/pictures/preview-8.jpeg"}, {"id": 2802841, "nr": 9, "picture": "https://images.pexels.com/videos/5418697/pictures/preview-9.jpeg"}, {"id": 2802851, "nr": 10, "picture": "https://images.pexels.com/videos/5418697/pictures/preview-10.jpeg"}, {"id": 2802866, "nr": 11, "picture": "https://images.pexels.com/videos/5418697/pictures/preview-11.jpeg"}, {"id": 2802879, "nr": 12, "picture": "https://images.pexels.com/videos/5418697/pictures/preview-12.jpeg"}, {"id": 2802889, "nr": 13, "picture": "https://images.pexels.com/videos/5418697/pictures/preview-13.jpeg"}, {"id": 2802902, "nr": 14, "picture": "https://images.pexels.com/videos/5418697/pictures/preview-14.jpeg"}]}], "total_results": 6508, "next_page": "https://api.pexels.com/v1/videos/search/?orientation=portrait&page=2&per_page=8&query=soothing+music", "url": "https://api-server.pexels.com/search/videos/soothing%20music/"}, "timestamp": "2024-12-28T22:42:03.856356"}
