{"query": "plant counting", "response": {"page": 1, "per_page": 8, "videos": [{"id": 12908872, "width": 2160, "height": 3840, "duration": 10, "full_res": null, "tags": [], "url": "https://www.pexels.com/video/woman-counting-eggs-in-kitchen-12908872/", "image": "https://images.pexels.com/videos/12908872/pexels-photo-12908872.jpeg?auto=compress&cs=tinysrgb&fit=crop&h=1200&w=630", "avg_color": null, "user": {"id": 264153375, "name": "Mizuno K", "url": "https://www.pexels.com/@mizunokozuki"}, "video_files": [{"id": 5667821, "quality": "sd", "file_type": "video/mp4", "width": 360, "height": 640, "fps": 23.97599983215332, "link": "https://videos.pexels.com/video-files/12908872/12908872-sd_360_640_24fps.mp4", "size": 581053}, {"id": 5667822, "quality": "hd", "file_type": "video/mp4", "width": 1080, "height": 1920, "fps": 23.97599983215332, "link": "https://videos.pexels.com/video-files/12908872/12908872-hd_1080_1920_24fps.mp4", "size": 4831318}, {"id": 5667823, "quality": "sd", "file_type": "video/mp4", "width": 540, "height": 960, "fps": 23.97599983215332, "link": "https://videos.pexels.com/video-files/12908872/12908872-sd_540_960_24fps.mp4", "size": 1222314}, {"id": 5667824, "quality": "hd", "file_type": "video/mp4", "width": 720, "height": 1280, "fps": 23.97599983215332, "link": "https://videos.pexels.com/video-files/12908872/12908872-hd_720_1280_24fps.mp4", "size": 2049937}, {"id": 5667825, "quality": "uhd", "file_type": "video/mp4", "width": 2160, "height": 3840, "fps": 23.97599983215332, "link": "https://videos.pexels.com/video-files/12908872/12908872-uhd_2160_3840_24fps.mp4", "size": 20956638}, {"id": 5667826, "quality": "sd", "file_type": "video/mp4", "width": 240, "height": 426, "fps": 23.97599983215332, "link": "https://videos.pexels.com/video-files/12908872/12908872-sd_240_426_24fps.mp4", "size": 319136}, {"id": 5667827, "quality": "uhd", "file_type": "video/mp4", "width": 1440, "height": 2560, "fps": 23.97599983215332, "link": "https://videos.pexels.com/video-files/12908872/12908872-uhd_1440_2560_24fps.mp4", "size": 8345038}], "video_pictures": [{"id": 14108335, "nr": 0, "picture": "https://images.pexels.com/videos/12908872/pictures/preview-0.jpeg"}, {"id": 14108354, "nr": 1, "picture": "https://images.pexels.com/videos/12908872/pictures/preview-1.jpeg"}, {"id": 14108371, "nr": 2, "picture": "https://images.pexels.com/videos/12908872/pictures/preview-2.jpeg"}, {"id": 14108389, "nr": 3, "picture": "https://images.pexels.com/videos/12908872/pictures/preview-3.jpeg"}, {"id": 14108408, "nr": 4, "picture": "https://images.pexels.com/videos/12908872/pictures/preview-4.jpeg"}, {"id": 14108432, "nr": 5, "picture": "https://images.pexels.com/videos/12908872/pictures/preview-5.jpeg"}, {"id": 14108445, "nr": 6, "picture": "https://images.pexels.com/videos/12908872/pictures/preview-6.jpeg"}, {"id": 14108463, "nr": 7, "picture": "https://images.pexels.com/videos/12908872/pictures/preview-7.jpeg"}, {"id": 14108481, "nr": 8, "picture": "https://images.pexels.com/videos/12908872/pictures/preview-8.jpeg"}, {"id": 14108494, "nr": 9, "picture": "https://images.pexels.com/videos/12908872/pictures/preview-9.jpeg"}, {"id": 14108508, "nr": 10, "picture": "https://images.pexels.com/videos/12908872/pictures/preview-10.jpeg"}, {"id": 14108526, "nr": 11, "picture": "https://images.pexels.com/videos/12908872/pictures/preview-11.jpeg"}, {"id": 14108537, "nr": 12, "picture": "https://images.pexels.com/videos/12908872/pictures/preview-12.jpeg"}, {"id": 14108546, "nr": 13, "picture": "https://images.pexels.com/videos/12908872/pictures/preview-13.jpeg"}, {"id": 14108564, "nr": 14, "picture": "https://images.pexels.com/videos/12908872/pictures/preview-14.jpeg"}]}, {"id": 29918277, "width": 1080, "height": 1920, "duration": 19, "full_res": null, "tags": [], "url": "https://www.pexels.com/video/gentle-hand-movements-over-calm-pond-29918277/", "image": "https://images.pexels.com/videos/29918277/pexels-photo-29918277.jpeg?auto=compress&cs=tinysrgb&fit=crop&h=1200&w=630", "avg_color": null, "user": {"id": 568114, "name": "viresh studio", "url": "https://www.pexels.com/@weddingphotography"}, "video_files": [{"id": 12841517, "quality": null, "file_type": "video/mp4", "width": 360, "height": 640, "fps": 25.0, "link": "https://videos.pexels.com/video-files/29918277/12841517_360_640_25fps.mp4", "size": 804293}, {"id": 12841520, "quality": null, "file_type": "video/mp4", "width": 540, "height": 960, "fps": 25.0, "link": "https://videos.pexels.com/video-files/29918277/12841520_540_960_25fps.mp4", "size": 1754341}, {"id": 12841521, "quality": null, "file_type": "video/mp4", "width": 720, "height": 1280, "fps": 25.0, "link": "https://videos.pexels.com/video-files/29918277/12841521_720_1280_25fps.mp4", "size": 3134510}, {"id": 12841522, "quality": null, "file_type": "video/mp4", "width": 1080, "height": 1920, "fps": 25.0, "link": "https://videos.pexels.com/video-files/29918277/12841522_1080_1920_25fps.mp4", "size": 9199601}], "video_pictures": [{"id": 24282216, "nr": 0, "picture": "https://images.pexels.com/videos/29918277/pictures/preview-0.jpg"}, {"id": 24282217, "nr": 1, "picture": "https://images.pexels.com/videos/29918277/pictures/preview-1.jpg"}, {"id": 24282218, "nr": 2, "picture": "https://images.pexels.com/videos/29918277/pictures/preview-2.jpg"}, {"id": 24282219, "nr": 3, "picture": "https://images.pexels.com/videos/29918277/pictures/preview-3.jpg"}, {"id": 24282220, "nr": 4, "picture": "https://images.pexels.com/videos/29918277/pictures/preview-4.jpg"}, {"id": 24282221, "nr": 5, "picture": "https://images.pexels.com/videos/29918277/pictures/preview-5.jpg"}, {"id": 24282222, "nr": 6, "picture": "https://images.pexels.com/videos/29918277/pictures/preview-6.jpg"}, {"id": 24282223, "nr": 7, "picture": "https://images.pexels.com/videos/29918277/pictures/preview-7.jpg"}, {"id": 24282224, "nr": 8, "picture": "https://images.pexels.com/videos/29918277/pictures/preview-8.jpg"}, {"id": 24282225, "nr": 9, "picture": "https://images.pexels.com/videos/29918277/pictures/preview-9.jpg"}, {"id": 24282226, "nr": 10, "picture": "https://images.pexels.com/videos/29918277/pictures/preview-10.jpg"}, {"id": 24282227, "nr": 11, "picture": "https://images.pexels.com/videos/29918277/pictures/preview-11.jpg"}, {"id": 24282228, "nr": 12, "picture": "https://images.pexels.com/videos/29918277/pictures/preview-12.jpg"}, {"id": 24282229, "nr": 13, "picture": "https://images.pexels.com/videos/29918277/pictures/preview-13.jpg"}, {"id": 24282230, "nr": 14, "picture": "https://images.pexels.com/videos/29918277/pictures/preview-14.jpg"}]}, {"id": 6578138, "width": 2363, "height": 4096, "duration": 18, "full_res": null, "tags": [], "url": "https://www.pexels.com/video/blurry-video-of-the-sunset-6578138/", "image": "https://images.pexels.com/videos/6578138/pexels-photo-6578138.jpeg?auto=compress&cs=tinysrgb&fit=crop&h=1200&w=630", "avg_color": null, "user": {"id": 2678846, "name": "ROMAN ODINTSOV", "url": "https://www.pexels.com/@roman-odintsov"}, "video_files": [{"id": 10087301, "quality": "uhd", "file_type": "video/mp4", "width": 2160, "height": 3744, "fps": 29.969999313354492, "link": "https://videos.pexels.com/video-files/6578138/6578138-uhd_2160_3744_30fps.mp4", "size": 19719998}, {"id": 10087359, "quality": "hd", "file_type": "video/mp4", "width": 720, "height": 1248, "fps": 29.969999313354492, "link": "https://videos.pexels.com/video-files/6578138/6578138-hd_720_1248_30fps.mp4", "size": 2161221}, {"id": 10087397, "quality": "sd", "file_type": "video/mp4", "width": 540, "height": 936, "fps": 29.969999313354492, "link": "https://videos.pexels.com/video-files/6578138/6578138-sd_540_936_30fps.mp4", "size": 1640881}, {"id": 10087426, "quality": "hd", "file_type": "video/mp4", "width": 1080, "height": 1872, "fps": 29.969999313354492, "link": "https://videos.pexels.com/video-files/6578138/6578138-hd_1080_1872_30fps.mp4", "size": 4911137}, {"id": 10087460, "quality": "sd", "file_type": "video/mp4", "width": 360, "height": 624, "fps": 29.969999313354492, "link": "https://videos.pexels.com/video-files/6578138/6578138-sd_360_624_30fps.mp4", "size": 896236}, {"id": 10087487, "quality": "sd", "file_type": "video/mp4", "width": 240, "height": 416, "fps": 29.969999313354492, "link": "https://videos.pexels.com/video-files/6578138/6578138-sd_240_416_30fps.mp4", "size": 424025}, {"id": 10087521, "quality": "uhd", "file_type": "video/mp4", "width": 1440, "height": 2496, "fps": 29.969999313354492, "link": "https://videos.pexels.com/video-files/6578138/6578138-uhd_1440_2496_30fps.mp4", "size": 8262433}], "video_pictures": [{"id": 4695549, "nr": 0, "picture": "https://images.pexels.com/videos/6578138/pictures/preview-0.jpeg"}, {"id": 4695553, "nr": 1, "picture": "https://images.pexels.com/videos/6578138/pictures/preview-1.jpeg"}, {"id": 4695556, "nr": 2, "picture": "https://images.pexels.com/videos/6578138/pictures/preview-2.jpeg"}, {"id": 4695561, "nr": 3, "picture": "https://images.pexels.com/videos/6578138/pictures/preview-3.jpeg"}, {"id": 4695563, "nr": 4, "picture": "https://images.pexels.com/videos/6578138/pictures/preview-4.jpeg"}, {"id": 4695569, "nr": 5, "picture": "https://images.pexels.com/videos/6578138/pictures/preview-5.jpeg"}, {"id": 4695575, "nr": 6, "picture": "https://images.pexels.com/videos/6578138/pictures/preview-6.jpeg"}, {"id": 4695577, "nr": 7, "picture": "https://images.pexels.com/videos/6578138/pictures/preview-7.jpeg"}, {"id": 4695583, "nr": 8, "picture": "https://images.pexels.com/videos/6578138/pictures/preview-8.jpeg"}, {"id": 4695588, "nr": 9, "picture": "https://images.pexels.com/videos/6578138/pictures/preview-9.jpeg"}, {"id": 4695594, "nr": 10, "picture": "https://images.pexels.com/videos/6578138/pictures/preview-10.jpeg"}, {"id": 4695600, "nr": 11, "picture": "https://images.pexels.com/videos/6578138/pictures/preview-11.jpeg"}, {"id": 4695606, "nr": 12, "picture": "https://images.pexels.com/videos/6578138/pictures/preview-12.jpeg"}, {"id": 4695612, "nr": 13, "picture": "https://images.pexels.com/videos/6578138/pictures/preview-13.jpeg"}, {"id": 4695618, "nr": 14, "picture": "https://images.pexels.com/videos/6578138/pictures/preview-14.jpeg"}]}, {"id": 6800638, "width": 1080, "height": 1920, "duration": 8, "full_res": null, "tags": [], "url": "https://www.pexels.com/video/a-book-and-a-flower-on-a-picnic-blanket-6800638/", "image": "https://images.pexels.com/videos/6800638/aesthetic-book-leisure-picnic-6800638.jpeg?auto=compress&cs=tinysrgb&fit=crop&h=1200&w=630", "avg_color": null, "user": {"id": 2946790, "name": "Leeloo The First", "url": "https://www.pexels.com/@leeloothefirst"}, "video_files": [{"id": 10182629, "quality": "sd", "file_type": "video/mp4", "width": 360, "height": 640, "fps": 29.969999313354492, "link": "https://videos.pexels.com/video-files/6800638/6800638-sd_360_640_30fps.mp4", "size": 569174}, {"id": 10182635, "quality": "hd", "file_type": "video/mp4", "width": 720, "height": 1280, "fps": 29.969999313354492, "link": "https://videos.pexels.com/video-files/6800638/6800638-hd_720_1280_30fps.mp4", "size": 2495985}, {"id": 10182646, "quality": "sd", "file_type": "video/mp4", "width": 240, "height": 426, "fps": 29.969999313354492, "link": "https://videos.pexels.com/video-files/6800638/6800638-sd_240_426_30fps.mp4", "size": 333742}, {"id": 10182655, "quality": "hd", "file_type": "video/mp4", "width": 1080, "height": 1920, "fps": 29.969999313354492, "link": "https://videos.pexels.com/video-files/6800638/6800638-hd_1080_1920_30fps.mp4", "size": 4807067}, {"id": 10182666, "quality": "sd", "file_type": "video/mp4", "width": 540, "height": 960, "fps": 29.969999313354492, "link": "https://videos.pexels.com/video-files/6800638/6800638-sd_540_960_30fps.mp4", "size": 1599121}], "video_pictures": [{"id": 5145661, "nr": 0, "picture": "https://images.pexels.com/videos/6800638/pictures/preview-0.jpeg"}, {"id": 5145662, "nr": 1, "picture": "https://images.pexels.com/videos/6800638/pictures/preview-1.jpeg"}, {"id": 5145663, "nr": 2, "picture": "https://images.pexels.com/videos/6800638/pictures/preview-2.jpeg"}, {"id": 5145664, "nr": 3, "picture": "https://images.pexels.com/videos/6800638/pictures/preview-3.jpeg"}, {"id": 5145666, "nr": 4, "picture": "https://images.pexels.com/videos/6800638/pictures/preview-4.jpeg"}, {"id": 5145667, "nr": 5, "picture": "https://images.pexels.com/videos/6800638/pictures/preview-5.jpeg"}, {"id": 5145668, "nr": 6, "picture": "https://images.pexels.com/videos/6800638/pictures/preview-6.jpeg"}, {"id": 5145671, "nr": 7, "picture": "https://images.pexels.com/videos/6800638/pictures/preview-7.jpeg"}, {"id": 5145672, "nr": 8, "picture": "https://images.pexels.com/videos/6800638/pictures/preview-8.jpeg"}, {"id": 5145674, "nr": 9, "picture": "https://images.pexels.com/videos/6800638/pictures/preview-9.jpeg"}, {"id": 5145675, "nr": 10, "picture": "https://images.pexels.com/videos/6800638/pictures/preview-10.jpeg"}, {"id": 5145677, "nr": 11, "picture": "https://images.pexels.com/videos/6800638/pictures/preview-11.jpeg"}, {"id": 5145678, "nr": 12, "picture": "https://images.pexels.com/videos/6800638/pictures/preview-12.jpeg"}, {"id": 5145680, "nr": 13, "picture": "https://images.pexels.com/videos/6800638/pictures/preview-13.jpeg"}, {"id": 5145681, "nr": 14, "picture": "https://images.pexels.com/videos/6800638/pictures/preview-14.jpeg"}]}, {"id": 4536559, "width": 1080, "height": 1920, "duration": 30, "full_res": null, "tags": [], "url": "https://www.pexels.com/video/flowers-rain-motion-green-4536559/", "image": "https://images.pexels.com/videos/4536559/animated-background-beautiful-background-flowers-green-4536559.jpeg?auto=compress&cs=tinysrgb&fit=crop&h=1200&w=630", "avg_color": null, "user": {"id": 2297095, "name": "Pavel Danilyuk", "url": "https://www.pexels.com/@pavel-danilyuk"}, "video_files": [{"id": 9366368, "quality": "hd", "file_type": "video/mp4", "width": 1080, "height": 1920, "fps": 29.969999313354492, "link": "https://videos.pexels.com/video-files/4536559/4536559-hd_1080_1920_30fps.mp4", "size": 21403990}, {"id": 9366409, "quality": "sd", "file_type": "video/mp4", "width": 540, "height": 960, "fps": 29.969999313354492, "link": "https://videos.pexels.com/video-files/4536559/4536559-sd_540_960_30fps.mp4", "size": 5847214}, {"id": 9366504, "quality": "sd", "file_type": "video/mp4", "width": 240, "height": 426, "fps": 29.969999313354492, "link": "https://videos.pexels.com/video-files/4536559/4536559-sd_240_426_30fps.mp4", "size": 1251005}, {"id": 9366545, "quality": "hd", "file_type": "video/mp4", "width": 720, "height": 1280, "fps": 29.969999313354492, "link": "https://videos.pexels.com/video-files/4536559/4536559-hd_720_1280_30fps.mp4", "size": 10567870}, {"id": 9366577, "quality": "sd", "file_type": "video/mp4", "width": 360, "height": 640, "fps": 29.969999313354492, "link": "https://videos.pexels.com/video-files/4536559/4536559-sd_360_640_30fps.mp4", "size": 1988798}], "video_pictures": [{"id": 1638599, "nr": 0, "picture": "https://images.pexels.com/videos/4536559/pictures/preview-0.jpeg"}, {"id": 1638652, "nr": 1, "picture": "https://images.pexels.com/videos/4536559/pictures/preview-1.jpeg"}, {"id": 1638670, "nr": 2, "picture": "https://images.pexels.com/videos/4536559/pictures/preview-2.jpeg"}, {"id": 1638691, "nr": 3, "picture": "https://images.pexels.com/videos/4536559/pictures/preview-3.jpeg"}, {"id": 1638711, "nr": 4, "picture": "https://images.pexels.com/videos/4536559/pictures/preview-4.jpeg"}, {"id": 1638727, "nr": 5, "picture": "https://images.pexels.com/videos/4536559/pictures/preview-5.jpeg"}, {"id": 1638750, "nr": 6, "picture": "https://images.pexels.com/videos/4536559/pictures/preview-6.jpeg"}, {"id": 1638765, "nr": 7, "picture": "https://images.pexels.com/videos/4536559/pictures/preview-7.jpeg"}, {"id": 1638782, "nr": 8, "picture": "https://images.pexels.com/videos/4536559/pictures/preview-8.jpeg"}, {"id": 1638799, "nr": 9, "picture": "https://images.pexels.com/videos/4536559/pictures/preview-9.jpeg"}, {"id": 1638817, "nr": 10, "picture": "https://images.pexels.com/videos/4536559/pictures/preview-10.jpeg"}, {"id": 1638834, "nr": 11, "picture": "https://images.pexels.com/videos/4536559/pictures/preview-11.jpeg"}, {"id": 1638845, "nr": 12, "picture": "https://images.pexels.com/videos/4536559/pictures/preview-12.jpeg"}, {"id": 1638851, "nr": 13, "picture": "https://images.pexels.com/videos/4536559/pictures/preview-13.jpeg"}, {"id": 1638858, "nr": 14, "picture": "https://images.pexels.com/videos/4536559/pictures/preview-14.jpeg"}]}, {"id": 6177737, "width": 1080, "height": 1920, "duration": 10, "full_res": null, "tags": [], "url": "https://www.pexels.com/video/person-opening-laptop-and-working-on-it-6177737/", "image": "https://images.pexels.com/videos/6177737/pexels-photo-6177737.jpeg?auto=compress&cs=tinysrgb&fit=crop&h=1200&w=630", "avg_color": null, "user": {"id": 3716105, "name": "Cup of  Couple", "url": "https://www.pexels.com/@cup-of-couple"}, "video_files": [{"id": 9943964, "quality": "sd", "file_type": "video/mp4", "width": 360, "height": 640, "fps": 23.97599983215332, "link": "https://videos.pexels.com/video-files/6177737/6177737-sd_360_640_24fps.mp4", "size": 745061}, {"id": 9943999, "quality": "hd", "file_type": "video/mp4", "width": 720, "height": 1280, "fps": 23.97599983215332, "link": "https://videos.pexels.com/video-files/6177737/6177737-hd_720_1280_24fps.mp4", "size": 3428962}, {"id": 9944053, "quality": "hd", "file_type": "video/mp4", "width": 1080, "height": 1920, "fps": 23.97599983215332, "link": "https://videos.pexels.com/video-files/6177737/6177737-hd_1080_1920_24fps.mp4", "size": 6531661}, {"id": 9944068, "quality": "sd", "file_type": "video/mp4", "width": 540, "height": 960, "fps": 23.97599983215332, "link": "https://videos.pexels.com/video-files/6177737/6177737-sd_540_960_24fps.mp4", "size": 2069365}, {"id": 9944150, "quality": "sd", "file_type": "video/mp4", "width": 240, "height": 426, "fps": 23.97599983215332, "link": "https://videos.pexels.com/video-files/6177737/6177737-sd_240_426_24fps.mp4", "size": 433821}], "video_pictures": [{"id": 4015914, "nr": 0, "picture": "https://images.pexels.com/videos/6177737/pictures/preview-0.jpeg"}, {"id": 4015916, "nr": 1, "picture": "https://images.pexels.com/videos/6177737/pictures/preview-1.jpeg"}, {"id": 4015926, "nr": 2, "picture": "https://images.pexels.com/videos/6177737/pictures/preview-2.jpeg"}, {"id": 4015928, "nr": 3, "picture": "https://images.pexels.com/videos/6177737/pictures/preview-3.jpeg"}, {"id": 4015931, "nr": 4, "picture": "https://images.pexels.com/videos/6177737/pictures/preview-4.jpeg"}, {"id": 4015932, "nr": 5, "picture": "https://images.pexels.com/videos/6177737/pictures/preview-5.jpeg"}, {"id": 4015934, "nr": 6, "picture": "https://images.pexels.com/videos/6177737/pictures/preview-6.jpeg"}, {"id": 4015935, "nr": 7, "picture": "https://images.pexels.com/videos/6177737/pictures/preview-7.jpeg"}, {"id": 4015937, "nr": 8, "picture": "https://images.pexels.com/videos/6177737/pictures/preview-8.jpeg"}, {"id": 4015938, "nr": 9, "picture": "https://images.pexels.com/videos/6177737/pictures/preview-9.jpeg"}, {"id": 4015940, "nr": 10, "picture": "https://images.pexels.com/videos/6177737/pictures/preview-10.jpeg"}, {"id": 4015942, "nr": 11, "picture": "https://images.pexels.com/videos/6177737/pictures/preview-11.jpeg"}, {"id": 4015944, "nr": 12, "picture": "https://images.pexels.com/videos/6177737/pictures/preview-12.jpeg"}, {"id": 4015946, "nr": 13, "picture": "https://images.pexels.com/videos/6177737/pictures/preview-13.jpeg"}, {"id": 4015949, "nr": 14, "picture": "https://images.pexels.com/videos/6177737/pictures/preview-14.jpeg"}]}, {"id": 7814674, "width": 2160, "height": 3840, "duration": 10, "full_res": null, "tags": [], "url": "https://www.pexels.com/video/roses-in-a-vase-7814674/", "image": "https://images.pexels.com/videos/7814674/pexels-photo-7814674.jpeg?auto=compress&cs=tinysrgb&fit=crop&h=1200&w=630", "avg_color": null, "user": {"id": 10955896, "name": "Anna Nekrashevich", "url": "https://www.pexels.com/@anna-nekrashevich"}, "video_files": [{"id": 10585631, "quality": "hd", "file_type": "video/mp4", "width": 1080, "height": 1920, "fps": 30.0, "link": "https://videos.pexels.com/video-files/7814674/7814674-hd_1080_1920_30fps.mp4", "size": 6110977}, {"id": 10585720, "quality": "sd", "file_type": "video/mp4", "width": 360, "height": 640, "fps": 30.0, "link": "https://videos.pexels.com/video-files/7814674/7814674-sd_360_640_30fps.mp4", "size": 574819}, {"id": 10585817, "quality": "hd", "file_type": "video/mp4", "width": 720, "height": 1280, "fps": 30.0, "link": "https://videos.pexels.com/video-files/7814674/7814674-hd_720_1280_30fps.mp4", "size": 2974951}, {"id": 10585908, "quality": "uhd", "file_type": "video/mp4", "width": 2160, "height": 3840, "fps": 30.0, "link": "https://videos.pexels.com/video-files/7814674/7814674-uhd_2160_3840_30fps.mp4", "size": 28197246}, {"id": 10586096, "quality": "sd", "file_type": "video/mp4", "width": 540, "height": 960, "fps": 30.0, "link": "https://videos.pexels.com/video-files/7814674/7814674-sd_540_960_30fps.mp4", "size": 1675171}, {"id": 10586252, "quality": "sd", "file_type": "video/mp4", "width": 240, "height": 426, "fps": 30.0, "link": "https://videos.pexels.com/video-files/7814674/7814674-sd_240_426_30fps.mp4", "size": 119858}, {"id": 10586329, "quality": "uhd", "file_type": "video/mp4", "width": 1440, "height": 2560, "fps": 30.0, "link": "https://videos.pexels.com/video-files/7814674/7814674-uhd_1440_2560_30fps.mp4", "size": 15107034}], "video_pictures": [{"id": 7098888, "nr": 0, "picture": "https://images.pexels.com/videos/7814674/pictures/preview-0.jpeg"}, {"id": 7098902, "nr": 1, "picture": "https://images.pexels.com/videos/7814674/pictures/preview-1.jpeg"}, {"id": 7098923, "nr": 2, "picture": "https://images.pexels.com/videos/7814674/pictures/preview-2.jpeg"}, {"id": 7098944, "nr": 3, "picture": "https://images.pexels.com/videos/7814674/pictures/preview-3.jpeg"}, {"id": 7098969, "nr": 4, "picture": "https://images.pexels.com/videos/7814674/pictures/preview-4.jpeg"}, {"id": 7098991, "nr": 5, "picture": "https://images.pexels.com/videos/7814674/pictures/preview-5.jpeg"}, {"id": 7099008, "nr": 6, "picture": "https://images.pexels.com/videos/7814674/pictures/preview-6.jpeg"}, {"id": 7099025, "nr": 7, "picture": "https://images.pexels.com/videos/7814674/pictures/preview-7.jpeg"}, {"id": 7099042, "nr": 8, "picture": "https://images.pexels.com/videos/7814674/pictures/preview-8.jpeg"}, {"id": 7099061, "nr": 9, "picture": "https://images.pexels.com/videos/7814674/pictures/preview-9.jpeg"}, {"id": 7099083, "nr": 10, "picture": "https://images.pexels.com/videos/7814674/pictures/preview-10.jpeg"}, {"id": 7099099, "nr": 11, "picture": "https://images.pexels.com/videos/7814674/pictures/preview-11.jpeg"}, {"id": 7099109, "nr": 12, "picture": "https://images.pexels.com/videos/7814674/pictures/preview-12.jpeg"}, {"id": 7099118, "nr": 13, "picture": "https://images.pexels.com/videos/7814674/pictures/preview-13.jpeg"}, {"id": 7099124, "nr": 14, "picture": "https://images.pexels.com/videos/7814674/pictures/preview-14.jpeg"}]}, {"id": 8233938, "width": 2160, "height": 4096, "duration": 13, "full_res": null, "tags": [], "url": "https://www.pexels.com/video/a-small-flower-near-whitewater-8233938/", "image": "https://images.pexels.com/videos/8233938/pexels-photo-8233938.jpeg?auto=compress&cs=tinysrgb&fit=crop&h=1200&w=630", "avg_color": null, "user": {"id": 2678846, "name": "ROMAN ODINTSOV", "url": "https://www.pexels.com/@roman-odintsov"}, "video_files": [{"id": 10753056, "quality": "sd", "file_type": "video/mp4", "width": 226, "height": 426, "fps": 25.0, "link": "https://videos.pexels.com/video-files/8233938/8233938-sd_226_426_25fps.mp4", "size": 456955}, {"id": 10753134, "quality": "uhd", "file_type": "video/mp4", "width": 1440, "height": 2732, "fps": 25.0, "link": "https://videos.pexels.com/video-files/8233938/8233938-uhd_1440_2732_25fps.mp4", "size": 12638404}, {"id": 10753153, "quality": "hd", "file_type": "video/mp4", "width": 1080, "height": 2048, "fps": 25.0, "link": "https://videos.pexels.com/video-files/8233938/8233938-hd_1080_2048_25fps.mp4", "size": 7076891}, {"id": 10753204, "quality": "hd", "file_type": "video/mp4", "width": 720, "height": 1366, "fps": 25.0, "link": "https://videos.pexels.com/video-files/8233938/8233938-hd_720_1366_25fps.mp4", "size": 2969360}, {"id": 10753214, "quality": "uhd", "file_type": "video/mp4", "width": 2160, "height": 4096, "fps": 25.0, "link": "https://videos.pexels.com/video-files/8233938/8233938-uhd_2160_4096_25fps.mp4", "size": 32160133}, {"id": 10753234, "quality": "sd", "file_type": "video/mp4", "width": 506, "height": 960, "fps": 25.0, "link": "https://videos.pexels.com/video-files/8233938/8233938-sd_506_960_25fps.mp4", "size": 1556064}, {"id": 10753242, "quality": "sd", "file_type": "video/mp4", "width": 338, "height": 640, "fps": 25.0, "link": "https://videos.pexels.com/video-files/8233938/8233938-sd_338_640_25fps.mp4", "size": 713597}], "video_pictures": [{"id": 7865458, "nr": 0, "picture": "https://images.pexels.com/videos/8233938/pictures/preview-0.jpeg"}, {"id": 7865473, "nr": 1, "picture": "https://images.pexels.com/videos/8233938/pictures/preview-1.jpeg"}, {"id": 7865488, "nr": 2, "picture": "https://images.pexels.com/videos/8233938/pictures/preview-2.jpeg"}, {"id": 7865509, "nr": 3, "picture": "https://images.pexels.com/videos/8233938/pictures/preview-3.jpeg"}, {"id": 7865533, "nr": 4, "picture": "https://images.pexels.com/videos/8233938/pictures/preview-4.jpeg"}, {"id": 7865554, "nr": 5, "picture": "https://images.pexels.com/videos/8233938/pictures/preview-5.jpeg"}, {"id": 7865577, "nr": 6, "picture": "https://images.pexels.com/videos/8233938/pictures/preview-6.jpeg"}, {"id": 7865614, "nr": 7, "picture": "https://images.pexels.com/videos/8233938/pictures/preview-7.jpeg"}, {"id": 7865648, "nr": 8, "picture": "https://images.pexels.com/videos/8233938/pictures/preview-8.jpeg"}, {"id": 7865672, "nr": 9, "picture": "https://images.pexels.com/videos/8233938/pictures/preview-9.jpeg"}, {"id": 7865703, "nr": 10, "picture": "https://images.pexels.com/videos/8233938/pictures/preview-10.jpeg"}, {"id": 7865727, "nr": 11, "picture": "https://images.pexels.com/videos/8233938/pictures/preview-11.jpeg"}, {"id": 7865757, "nr": 12, "picture": "https://images.pexels.com/videos/8233938/pictures/preview-12.jpeg"}, {"id": 7865776, "nr": 13, "picture": "https://images.pexels.com/videos/8233938/pictures/preview-13.jpeg"}, {"id": 7865796, "nr": 14, "picture": "https://images.pexels.com/videos/8233938/pictures/preview-14.jpeg"}]}], "total_results": 8000, "next_page": "https://api.pexels.com/v1/videos/search/?orientation=portrait&page=2&per_page=8&query=plant+counting", "url": "https://api-server.pexels.com/search/videos/plant%20counting/"}, "timestamp": "2024-12-28T22:37:03.951081"}
