{"query": "plant nutrition", "response": {"page": 1, "per_page": 8, "videos": [{"id": 4443523, "width": 1080, "height": 1920, "duration": 3, "full_res": null, "tags": [], "url": "https://www.pexels.com/video/a-person-taking-fresh-strawberry-from-the-fridge-4443523/", "image": "https://images.pexels.com/videos/4443523/detox-fruits-healthy-juice-4443523.jpeg?auto=compress&cs=tinysrgb&fit=crop&h=1200&w=630", "avg_color": null, "user": {"id": 2104565, "name": "Polina Tankilevitch", "url": "https://www.pexels.com/@polina-tankilevitch"}, "video_files": [{"id": 9520890, "quality": "sd", "file_type": "video/mp4", "width": 360, "height": 640, "fps": 25.0, "link": "https://videos.pexels.com/video-files/4443523/4443523-sd_360_640_25fps.mp4", "size": 232830}, {"id": 9520930, "quality": "hd", "file_type": "video/mp4", "width": 720, "height": 1280, "fps": 25.0, "link": "https://videos.pexels.com/video-files/4443523/4443523-hd_720_1280_25fps.mp4", "size": 1099024}, {"id": 9520987, "quality": "sd", "file_type": "video/mp4", "width": 240, "height": 426, "fps": 25.0, "link": "https://videos.pexels.com/video-files/4443523/4443523-sd_240_426_25fps.mp4", "size": 139770}, {"id": 9521030, "quality": "hd", "file_type": "video/mp4", "width": 1080, "height": 1920, "fps": 25.0, "link": "https://videos.pexels.com/video-files/4443523/4443523-hd_1080_1920_25fps.mp4", "size": 2093026}, {"id": 9521125, "quality": "sd", "file_type": "video/mp4", "width": 540, "height": 960, "fps": 25.0, "link": "https://videos.pexels.com/video-files/4443523/4443523-sd_540_960_25fps.mp4", "size": 643525}], "video_pictures": [{"id": 1521668, "nr": 0, "picture": "https://images.pexels.com/videos/4443523/pictures/preview-0.jpeg"}, {"id": 1521680, "nr": 1, "picture": "https://images.pexels.com/videos/4443523/pictures/preview-1.jpeg"}, {"id": 1521691, "nr": 2, "picture": "https://images.pexels.com/videos/4443523/pictures/preview-2.jpeg"}, {"id": 1521697, "nr": 3, "picture": "https://images.pexels.com/videos/4443523/pictures/preview-3.jpeg"}, {"id": 1521702, "nr": 4, "picture": "https://images.pexels.com/videos/4443523/pictures/preview-4.jpeg"}, {"id": 1521707, "nr": 5, "picture": "https://images.pexels.com/videos/4443523/pictures/preview-5.jpeg"}, {"id": 1521713, "nr": 6, "picture": "https://images.pexels.com/videos/4443523/pictures/preview-6.jpeg"}, {"id": 1521718, "nr": 7, "picture": "https://images.pexels.com/videos/4443523/pictures/preview-7.jpeg"}, {"id": 1521723, "nr": 8, "picture": "https://images.pexels.com/videos/4443523/pictures/preview-8.jpeg"}, {"id": 1521729, "nr": 9, "picture": "https://images.pexels.com/videos/4443523/pictures/preview-9.jpeg"}, {"id": 1521735, "nr": 10, "picture": "https://images.pexels.com/videos/4443523/pictures/preview-10.jpeg"}, {"id": 1521739, "nr": 11, "picture": "https://images.pexels.com/videos/4443523/pictures/preview-11.jpeg"}, {"id": 1521742, "nr": 12, "picture": "https://images.pexels.com/videos/4443523/pictures/preview-12.jpeg"}, {"id": 1521746, "nr": 13, "picture": "https://images.pexels.com/videos/4443523/pictures/preview-13.jpeg"}, {"id": 1521749, "nr": 14, "picture": "https://images.pexels.com/videos/4443523/pictures/preview-14.jpeg"}]}, {"id": 7456507, "width": 2160, "height": 3840, "duration": 11, "full_res": null, "tags": [], "url": "https://www.pexels.com/video/close-up-view-of-carrots-7456507/", "image": "https://images.pexels.com/videos/7456507/agricultural-agriculture-amily-batch-7456507.jpeg?auto=compress&cs=tinysrgb&fit=crop&h=1200&w=630", "avg_color": null, "user": {"id": 10715715, "name": "Kindel Media", "url": "https://www.pexels.com/@kindelmedia"}, "video_files": [{"id": 10436795, "quality": "hd", "file_type": "video/mp4", "width": 1080, "height": 1920, "fps": 30.0, "link": "https://videos.pexels.com/video-files/7456507/7456507-hd_1080_1920_30fps.mp4", "size": 4391379}, {"id": 10436844, "quality": "uhd", "file_type": "video/mp4", "width": 1440, "height": 2560, "fps": 30.0, "link": "https://videos.pexels.com/video-files/7456507/7456507-uhd_1440_2560_30fps.mp4", "size": 7827395}, {"id": 10436889, "quality": "uhd", "file_type": "video/mp4", "width": 2160, "height": 3840, "fps": 30.0, "link": "https://videos.pexels.com/video-files/7456507/7456507-uhd_2160_3840_30fps.mp4", "size": 24799651}, {"id": 10436923, "quality": "sd", "file_type": "video/mp4", "width": 360, "height": 640, "fps": 30.0, "link": "https://videos.pexels.com/video-files/7456507/7456507-sd_360_640_30fps.mp4", "size": 751744}, {"id": 10436950, "quality": "sd", "file_type": "video/mp4", "width": 540, "height": 960, "fps": 30.0, "link": "https://videos.pexels.com/video-files/7456507/7456507-sd_540_960_30fps.mp4", "size": 1503071}, {"id": 10437002, "quality": "hd", "file_type": "video/mp4", "width": 720, "height": 1280, "fps": 30.0, "link": "https://videos.pexels.com/video-files/7456507/7456507-hd_720_1280_30fps.mp4", "size": 2115590}], "video_pictures": [{"id": 6426089, "nr": 0, "picture": "https://images.pexels.com/videos/7456507/pictures/preview-0.jpeg"}, {"id": 6426093, "nr": 1, "picture": "https://images.pexels.com/videos/7456507/pictures/preview-1.jpeg"}, {"id": 6426097, "nr": 2, "picture": "https://images.pexels.com/videos/7456507/pictures/preview-2.jpeg"}, {"id": 6426103, "nr": 3, "picture": "https://images.pexels.com/videos/7456507/pictures/preview-3.jpeg"}, {"id": 6426106, "nr": 4, "picture": "https://images.pexels.com/videos/7456507/pictures/preview-4.jpeg"}, {"id": 6426109, "nr": 5, "picture": "https://images.pexels.com/videos/7456507/pictures/preview-5.jpeg"}, {"id": 6426112, "nr": 6, "picture": "https://images.pexels.com/videos/7456507/pictures/preview-6.jpeg"}, {"id": 6426115, "nr": 7, "picture": "https://images.pexels.com/videos/7456507/pictures/preview-7.jpeg"}, {"id": 6426117, "nr": 8, "picture": "https://images.pexels.com/videos/7456507/pictures/preview-8.jpeg"}, {"id": 6426119, "nr": 9, "picture": "https://images.pexels.com/videos/7456507/pictures/preview-9.jpeg"}, {"id": 6426122, "nr": 10, "picture": "https://images.pexels.com/videos/7456507/pictures/preview-10.jpeg"}, {"id": 6426123, "nr": 11, "picture": "https://images.pexels.com/videos/7456507/pictures/preview-11.jpeg"}, {"id": 6426125, "nr": 12, "picture": "https://images.pexels.com/videos/7456507/pictures/preview-12.jpeg"}, {"id": 6426127, "nr": 13, "picture": "https://images.pexels.com/videos/7456507/pictures/preview-13.jpeg"}, {"id": 6426129, "nr": 14, "picture": "https://images.pexels.com/videos/7456507/pictures/preview-14.jpeg"}]}, {"id": 7213753, "width": 2160, "height": 3840, "duration": 12, "full_res": null, "tags": [], "url": "https://www.pexels.com/video/mockup-of-pea-sprouts-7213753/", "image": "https://images.pexels.com/videos/7213753/pexels-photo-7213753.jpeg?auto=compress&cs=tinysrgb&fit=crop&h=1200&w=630", "avg_color": null, "user": {"id": 10955896, "name": "Anna Nekrashevich", "url": "https://www.pexels.com/@anna-nekrashevich"}, "video_files": [{"id": 10345897, "quality": "hd", "file_type": "video/mp4", "width": 1080, "height": 1920, "fps": 30.0, "link": "https://videos.pexels.com/video-files/7213753/7213753-hd_1080_1920_30fps.mp4", "size": 4966887}, {"id": 10345972, "quality": "sd", "file_type": "video/mp4", "width": 240, "height": 426, "fps": 30.0, "link": "https://videos.pexels.com/video-files/7213753/7213753-sd_240_426_30fps.mp4", "size": 437999}, {"id": 10346051, "quality": "sd", "file_type": "video/mp4", "width": 360, "height": 640, "fps": 30.0, "link": "https://videos.pexels.com/video-files/7213753/7213753-sd_360_640_30fps.mp4", "size": 597568}, {"id": 10346148, "quality": "uhd", "file_type": "video/mp4", "width": 1440, "height": 2560, "fps": 30.0, "link": "https://videos.pexels.com/video-files/7213753/7213753-uhd_1440_2560_30fps.mp4", "size": 8921907}, {"id": 10346257, "quality": "hd", "file_type": "video/mp4", "width": 720, "height": 1280, "fps": 30.0, "link": "https://videos.pexels.com/video-files/7213753/7213753-hd_720_1280_30fps.mp4", "size": 2401501}, {"id": 10346383, "quality": "sd", "file_type": "video/mp4", "width": 540, "height": 960, "fps": 30.0, "link": "https://videos.pexels.com/video-files/7213753/7213753-sd_540_960_30fps.mp4", "size": 1384173}, {"id": 10346510, "quality": "uhd", "file_type": "video/mp4", "width": 2160, "height": 3840, "fps": 30.0, "link": "https://videos.pexels.com/video-files/7213753/7213753-uhd_2160_3840_30fps.mp4", "size": 20612454}], "video_pictures": [{"id": 5970931, "nr": 0, "picture": "https://images.pexels.com/videos/7213753/pictures/preview-0.jpeg"}, {"id": 5970937, "nr": 1, "picture": "https://images.pexels.com/videos/7213753/pictures/preview-1.jpeg"}, {"id": 5970944, "nr": 2, "picture": "https://images.pexels.com/videos/7213753/pictures/preview-2.jpeg"}, {"id": 5970955, "nr": 3, "picture": "https://images.pexels.com/videos/7213753/pictures/preview-3.jpeg"}, {"id": 5970965, "nr": 4, "picture": "https://images.pexels.com/videos/7213753/pictures/preview-4.jpeg"}, {"id": 5970978, "nr": 5, "picture": "https://images.pexels.com/videos/7213753/pictures/preview-5.jpeg"}, {"id": 5970987, "nr": 6, "picture": "https://images.pexels.com/videos/7213753/pictures/preview-6.jpeg"}, {"id": 5970998, "nr": 7, "picture": "https://images.pexels.com/videos/7213753/pictures/preview-7.jpeg"}, {"id": 5971013, "nr": 8, "picture": "https://images.pexels.com/videos/7213753/pictures/preview-8.jpeg"}, {"id": 5971028, "nr": 9, "picture": "https://images.pexels.com/videos/7213753/pictures/preview-9.jpeg"}, {"id": 5971039, "nr": 10, "picture": "https://images.pexels.com/videos/7213753/pictures/preview-10.jpeg"}, {"id": 5971048, "nr": 11, "picture": "https://images.pexels.com/videos/7213753/pictures/preview-11.jpeg"}, {"id": 5971057, "nr": 12, "picture": "https://images.pexels.com/videos/7213753/pictures/preview-12.jpeg"}, {"id": 5971066, "nr": 13, "picture": "https://images.pexels.com/videos/7213753/pictures/preview-13.jpeg"}, {"id": 5971073, "nr": 14, "picture": "https://images.pexels.com/videos/7213753/pictures/preview-14.jpeg"}]}, {"id": 8107666, "width": 2160, "height": 4096, "duration": 23, "full_res": null, "tags": [], "url": "https://www.pexels.com/video/a-close-up-of-kidney-beans-in-a-bowl-8107666/", "image": "https://images.pexels.com/videos/8107666/pexels-photo-8107666.jpeg?auto=compress&cs=tinysrgb&fit=crop&h=1200&w=630", "avg_color": null, "user": {"id": 30039676, "name": "MART  PRODUCTION", "url": "https://www.pexels.com/@mart-production"}, "video_files": [{"id": 10702318, "quality": "sd", "file_type": "video/mp4", "width": 338, "height": 640, "fps": 25.0, "link": "https://videos.pexels.com/video-files/8107666/8107666-sd_338_640_25fps.mp4", "size": 1084090}, {"id": 10702447, "quality": "sd", "file_type": "video/mp4", "width": 506, "height": 960, "fps": 25.0, "link": "https://videos.pexels.com/video-files/8107666/8107666-sd_506_960_25fps.mp4", "size": 1937041}, {"id": 10702549, "quality": "sd", "file_type": "video/mp4", "width": 226, "height": 426, "fps": 25.0, "link": "https://videos.pexels.com/video-files/8107666/8107666-sd_226_426_25fps.mp4", "size": 749002}, {"id": 10702651, "quality": "uhd", "file_type": "video/mp4", "width": 1440, "height": 2732, "fps": 25.0, "link": "https://videos.pexels.com/video-files/8107666/8107666-uhd_1440_2732_25fps.mp4", "size": 11502202}, {"id": 10702700, "quality": "hd", "file_type": "video/mp4", "width": 720, "height": 1366, "fps": 25.0, "link": "https://videos.pexels.com/video-files/8107666/8107666-hd_720_1366_25fps.mp4", "size": 3345745}, {"id": 10702788, "quality": "uhd", "file_type": "video/mp4", "width": 2160, "height": 4096, "fps": 25.0, "link": "https://videos.pexels.com/video-files/8107666/8107666-uhd_2160_4096_25fps.mp4", "size": 29471682}, {"id": 10702871, "quality": "hd", "file_type": "video/mp4", "width": 1080, "height": 2048, "fps": 25.0, "link": "https://videos.pexels.com/video-files/8107666/8107666-hd_1080_2048_25fps.mp4", "size": 6624663}], "video_pictures": [{"id": 7629549, "nr": 0, "picture": "https://images.pexels.com/videos/8107666/pictures/preview-0.jpeg"}, {"id": 7629555, "nr": 1, "picture": "https://images.pexels.com/videos/8107666/pictures/preview-1.jpeg"}, {"id": 7629561, "nr": 2, "picture": "https://images.pexels.com/videos/8107666/pictures/preview-2.jpeg"}, {"id": 7629568, "nr": 3, "picture": "https://images.pexels.com/videos/8107666/pictures/preview-3.jpeg"}, {"id": 7629574, "nr": 4, "picture": "https://images.pexels.com/videos/8107666/pictures/preview-4.jpeg"}, {"id": 7629579, "nr": 5, "picture": "https://images.pexels.com/videos/8107666/pictures/preview-5.jpeg"}, {"id": 7629589, "nr": 6, "picture": "https://images.pexels.com/videos/8107666/pictures/preview-6.jpeg"}, {"id": 7629602, "nr": 7, "picture": "https://images.pexels.com/videos/8107666/pictures/preview-7.jpeg"}, {"id": 7629620, "nr": 8, "picture": "https://images.pexels.com/videos/8107666/pictures/preview-8.jpeg"}, {"id": 7629637, "nr": 9, "picture": "https://images.pexels.com/videos/8107666/pictures/preview-9.jpeg"}, {"id": 7629666, "nr": 10, "picture": "https://images.pexels.com/videos/8107666/pictures/preview-10.jpeg"}, {"id": 7629697, "nr": 11, "picture": "https://images.pexels.com/videos/8107666/pictures/preview-11.jpeg"}, {"id": 7629719, "nr": 12, "picture": "https://images.pexels.com/videos/8107666/pictures/preview-12.jpeg"}, {"id": 7629750, "nr": 13, "picture": "https://images.pexels.com/videos/8107666/pictures/preview-13.jpeg"}, {"id": 7629775, "nr": 14, "picture": "https://images.pexels.com/videos/8107666/pictures/preview-14.jpeg"}]}, {"id": 5527320, "width": 2160, "height": 3840, "duration": 10, "full_res": null, "tags": [], "url": "https://www.pexels.com/video/an-apple-tree-full-of-fruit-bearings-5527320/", "image": "https://images.pexels.com/videos/5527320/pexels-photo-5527320.jpeg?auto=compress&cs=tinysrgb&fit=crop&h=1200&w=630", "avg_color": null, "user": {"id": 3651179, "name": "Zen Chung", "url": "https://www.pexels.com/@zen-chung"}, "video_files": [{"id": 9719255, "quality": "hd", "file_type": "video/mp4", "width": 1080, "height": 1920, "fps": 23.97599983215332, "link": "https://videos.pexels.com/video-files/5527320/5527320-hd_1080_1920_24fps.mp4", "size": 7166918}, {"id": 9719306, "quality": "sd", "file_type": "video/mp4", "width": 360, "height": 640, "fps": 23.97599983215332, "link": "https://videos.pexels.com/video-files/5527320/5527320-sd_360_640_24fps.mp4", "size": 786913}, {"id": 9719363, "quality": "sd", "file_type": "video/mp4", "width": 240, "height": 426, "fps": 23.97599983215332, "link": "https://videos.pexels.com/video-files/5527320/5527320-sd_240_426_24fps.mp4", "size": 473892}, {"id": 9719442, "quality": "uhd", "file_type": "video/mp4", "width": 2160, "height": 3840, "fps": 23.97599983215332, "link": "https://videos.pexels.com/video-files/5527320/5527320-uhd_2160_3840_24fps.mp4", "size": 27637535}, {"id": 9719511, "quality": "hd", "file_type": "video/mp4", "width": 720, "height": 1280, "fps": 23.97599983215332, "link": "https://videos.pexels.com/video-files/5527320/5527320-hd_720_1280_24fps.mp4", "size": 3793913}, {"id": 9719612, "quality": "uhd", "file_type": "video/mp4", "width": 1440, "height": 2560, "fps": 23.97599983215332, "link": "https://videos.pexels.com/video-files/5527320/5527320-uhd_1440_2560_24fps.mp4", "size": 16148050}, {"id": 9719714, "quality": "sd", "file_type": "video/mp4", "width": 540, "height": 960, "fps": 23.97599983215332, "link": "https://videos.pexels.com/video-files/5527320/5527320-sd_540_960_24fps.mp4", "size": 2115781}], "video_pictures": [{"id": 2945348, "nr": 0, "picture": "https://images.pexels.com/videos/5527320/pictures/preview-0.jpeg"}, {"id": 2945357, "nr": 1, "picture": "https://images.pexels.com/videos/5527320/pictures/preview-1.jpeg"}, {"id": 2945372, "nr": 2, "picture": "https://images.pexels.com/videos/5527320/pictures/preview-2.jpeg"}, {"id": 2945394, "nr": 3, "picture": "https://images.pexels.com/videos/5527320/pictures/preview-3.jpeg"}, {"id": 2945417, "nr": 4, "picture": "https://images.pexels.com/videos/5527320/pictures/preview-4.jpeg"}, {"id": 2945442, "nr": 5, "picture": "https://images.pexels.com/videos/5527320/pictures/preview-5.jpeg"}, {"id": 2945459, "nr": 6, "picture": "https://images.pexels.com/videos/5527320/pictures/preview-6.jpeg"}, {"id": 2945475, "nr": 7, "picture": "https://images.pexels.com/videos/5527320/pictures/preview-7.jpeg"}, {"id": 2945498, "nr": 8, "picture": "https://images.pexels.com/videos/5527320/pictures/preview-8.jpeg"}, {"id": 2945520, "nr": 9, "picture": "https://images.pexels.com/videos/5527320/pictures/preview-9.jpeg"}, {"id": 2945542, "nr": 10, "picture": "https://images.pexels.com/videos/5527320/pictures/preview-10.jpeg"}, {"id": 2945572, "nr": 11, "picture": "https://images.pexels.com/videos/5527320/pictures/preview-11.jpeg"}, {"id": 2945616, "nr": 12, "picture": "https://images.pexels.com/videos/5527320/pictures/preview-12.jpeg"}, {"id": 2945679, "nr": 13, "picture": "https://images.pexels.com/videos/5527320/pictures/preview-13.jpeg"}, {"id": 2945773, "nr": 14, "picture": "https://images.pexels.com/videos/5527320/pictures/preview-14.jpeg"}]}, {"id": 3943415, "width": 2160, "height": 4096, "duration": 33, "full_res": null, "tags": [], "url": "https://www.pexels.com/video/healthy-red-art-hand-3943415/", "image": "https://images.pexels.com/videos/3943415/agressive-art-berry-composition-3943415.jpeg?auto=compress&cs=tinysrgb&fit=crop&h=1200&w=630", "avg_color": null, "user": {"id": 1437723, "name": "cottonbro studio", "url": "https://www.pexels.com/@cottonbro"}, "video_files": [{"id": 9336518, "quality": "hd", "file_type": "video/mp4", "width": 720, "height": 1366, "fps": 50.0, "link": "https://videos.pexels.com/video-files/3943415/3943415-hd_720_1366_50fps.mp4", "size": 6088720}, {"id": 9336579, "quality": "sd", "file_type": "video/mp4", "width": 338, "height": 640, "fps": 25.0, "link": "https://videos.pexels.com/video-files/3943415/3943415-sd_338_640_25fps.mp4", "size": 995784}, {"id": 9336642, "quality": "hd", "file_type": "video/mp4", "width": 1080, "height": 2048, "fps": 25.0, "link": "https://videos.pexels.com/video-files/3943415/3943415-hd_1080_2048_25fps.mp4", "size": 15975781}, {"id": 9336722, "quality": "uhd", "file_type": "video/mp4", "width": 2160, "height": 4096, "fps": 25.0, "link": "https://videos.pexels.com/video-files/3943415/3943415-uhd_2160_4096_25fps.mp4", "size": 101453453}, {"id": 9336766, "quality": "sd", "file_type": "video/mp4", "width": 226, "height": 426, "fps": 25.0, "link": "https://videos.pexels.com/video-files/3943415/3943415-sd_226_426_25fps.mp4", "size": 577030}, {"id": 9336849, "quality": "uhd", "file_type": "video/mp4", "width": 1440, "height": 2732, "fps": 25.0, "link": "https://videos.pexels.com/video-files/3943415/3943415-uhd_1440_2732_25fps.mp4", "size": 34413184}, {"id": 9336919, "quality": "sd", "file_type": "video/mp4", "width": 506, "height": 960, "fps": 25.0, "link": "https://videos.pexels.com/video-files/3943415/3943415-sd_506_960_25fps.mp4", "size": 2326053}], "video_pictures": [{"id": 1008730, "nr": 0, "picture": "https://images.pexels.com/videos/3943415/pictures/preview-0.jpeg"}, {"id": 1008734, "nr": 1, "picture": "https://images.pexels.com/videos/3943415/pictures/preview-1.jpeg"}, {"id": 1008741, "nr": 2, "picture": "https://images.pexels.com/videos/3943415/pictures/preview-2.jpeg"}, {"id": 1008746, "nr": 3, "picture": "https://images.pexels.com/videos/3943415/pictures/preview-3.jpeg"}, {"id": 1008750, "nr": 4, "picture": "https://images.pexels.com/videos/3943415/pictures/preview-4.jpeg"}, {"id": 1008754, "nr": 5, "picture": "https://images.pexels.com/videos/3943415/pictures/preview-5.jpeg"}, {"id": 1008755, "nr": 6, "picture": "https://images.pexels.com/videos/3943415/pictures/preview-6.jpeg"}, {"id": 1008756, "nr": 7, "picture": "https://images.pexels.com/videos/3943415/pictures/preview-7.jpeg"}, {"id": 1008757, "nr": 8, "picture": "https://images.pexels.com/videos/3943415/pictures/preview-8.jpeg"}, {"id": 1008758, "nr": 9, "picture": "https://images.pexels.com/videos/3943415/pictures/preview-9.jpeg"}, {"id": 1008759, "nr": 10, "picture": "https://images.pexels.com/videos/3943415/pictures/preview-10.jpeg"}, {"id": 1008760, "nr": 11, "picture": "https://images.pexels.com/videos/3943415/pictures/preview-11.jpeg"}, {"id": 1008761, "nr": 12, "picture": "https://images.pexels.com/videos/3943415/pictures/preview-12.jpeg"}, {"id": 1008762, "nr": 13, "picture": "https://images.pexels.com/videos/3943415/pictures/preview-13.jpeg"}, {"id": 1008763, "nr": 14, "picture": "https://images.pexels.com/videos/3943415/pictures/preview-14.jpeg"}]}, {"id": 3943416, "width": 2160, "height": 4096, "duration": 8, "full_res": null, "tags": [], "url": "https://www.pexels.com/video/tossing-and-catching-a-fresh-tomato-in-the-air-3943416/", "image": "https://images.pexels.com/videos/3943416/agressive-art-berry-catch-3943416.jpeg?auto=compress&cs=tinysrgb&fit=crop&h=1200&w=630", "avg_color": null, "user": {"id": 1437723, "name": "cottonbro studio", "url": "https://www.pexels.com/@cottonbro"}, "video_files": [{"id": 9336287, "quality": "uhd", "file_type": "video/mp4", "width": 2160, "height": 4096, "fps": 25.0, "link": "https://videos.pexels.com/video-files/3943416/3943416-uhd_2160_4096_25fps.mp4", "size": 20498308}, {"id": 9336545, "quality": "uhd", "file_type": "video/mp4", "width": 1440, "height": 2732, "fps": 25.0, "link": "https://videos.pexels.com/video-files/3943416/3943416-uhd_1440_2732_25fps.mp4", "size": 12042982}, {"id": 9336674, "quality": "hd", "file_type": "video/mp4", "width": 720, "height": 1366, "fps": 50.0, "link": "https://videos.pexels.com/video-files/3943416/3943416-hd_720_1366_50fps.mp4", "size": 2342840}, {"id": 9336823, "quality": "sd", "file_type": "video/mp4", "width": 506, "height": 960, "fps": 25.0, "link": "https://videos.pexels.com/video-files/3943416/3943416-sd_506_960_25fps.mp4", "size": 1380846}, {"id": 9336921, "quality": "sd", "file_type": "video/mp4", "width": 338, "height": 640, "fps": 25.0, "link": "https://videos.pexels.com/video-files/3943416/3943416-sd_338_640_25fps.mp4", "size": 462701}, {"id": 9337243, "quality": "hd", "file_type": "video/mp4", "width": 1080, "height": 2048, "fps": 25.0, "link": "https://videos.pexels.com/video-files/3943416/3943416-hd_1080_2048_25fps.mp4", "size": 4901950}, {"id": 9337475, "quality": "sd", "file_type": "video/mp4", "width": 226, "height": 426, "fps": 25.0, "link": "https://videos.pexels.com/video-files/3943416/3943416-sd_226_426_25fps.mp4", "size": 283332}], "video_pictures": [{"id": 1008683, "nr": 0, "picture": "https://images.pexels.com/videos/3943416/pictures/preview-0.jpeg"}, {"id": 1008688, "nr": 1, "picture": "https://images.pexels.com/videos/3943416/pictures/preview-1.jpeg"}, {"id": 1008693, "nr": 2, "picture": "https://images.pexels.com/videos/3943416/pictures/preview-2.jpeg"}, {"id": 1008700, "nr": 3, "picture": "https://images.pexels.com/videos/3943416/pictures/preview-3.jpeg"}, {"id": 1008708, "nr": 4, "picture": "https://images.pexels.com/videos/3943416/pictures/preview-4.jpeg"}, {"id": 1008711, "nr": 5, "picture": "https://images.pexels.com/videos/3943416/pictures/preview-5.jpeg"}, {"id": 1008715, "nr": 6, "picture": "https://images.pexels.com/videos/3943416/pictures/preview-6.jpeg"}, {"id": 1008717, "nr": 7, "picture": "https://images.pexels.com/videos/3943416/pictures/preview-7.jpeg"}, {"id": 1008721, "nr": 8, "picture": "https://images.pexels.com/videos/3943416/pictures/preview-8.jpeg"}, {"id": 1008725, "nr": 9, "picture": "https://images.pexels.com/videos/3943416/pictures/preview-9.jpeg"}, {"id": 1008728, "nr": 10, "picture": "https://images.pexels.com/videos/3943416/pictures/preview-10.jpeg"}, {"id": 1008731, "nr": 11, "picture": "https://images.pexels.com/videos/3943416/pictures/preview-11.jpeg"}, {"id": 1008736, "nr": 12, "picture": "https://images.pexels.com/videos/3943416/pictures/preview-12.jpeg"}, {"id": 1008740, "nr": 13, "picture": "https://images.pexels.com/videos/3943416/pictures/preview-13.jpeg"}, {"id": 1008743, "nr": 14, "picture": "https://images.pexels.com/videos/3943416/pictures/preview-14.jpeg"}]}, {"id": 7456506, "width": 2160, "height": 3840, "duration": 11, "full_res": null, "tags": [], "url": "https://www.pexels.com/video/fresh-bell-peppers-in-the-market-7456506/", "image": "https://images.pexels.com/videos/7456506/agricultural-agriculture-amily-batch-7456506.jpeg?auto=compress&cs=tinysrgb&fit=crop&h=1200&w=630", "avg_color": null, "user": {"id": 10715715, "name": "Kindel Media", "url": "https://www.pexels.com/@kindelmedia"}, "video_files": [{"id": 10438474, "quality": "hd", "file_type": "video/mp4", "width": 1080, "height": 1920, "fps": 30.0, "link": "https://videos.pexels.com/video-files/7456506/7456506-hd_1080_1920_30fps.mp4", "size": 5000370}, {"id": 10438644, "quality": "hd", "file_type": "video/mp4", "width": 720, "height": 1280, "fps": 30.0, "link": "https://videos.pexels.com/video-files/7456506/7456506-hd_720_1280_30fps.mp4", "size": 2534645}, {"id": 10438768, "quality": "uhd", "file_type": "video/mp4", "width": 2160, "height": 3840, "fps": 30.0, "link": "https://videos.pexels.com/video-files/7456506/7456506-uhd_2160_3840_30fps.mp4", "size": 25955419}, {"id": 10439022, "quality": "sd", "file_type": "video/mp4", "width": 540, "height": 960, "fps": 30.0, "link": "https://videos.pexels.com/video-files/7456506/7456506-sd_540_960_30fps.mp4", "size": 1718790}, {"id": 10439086, "quality": "sd", "file_type": "video/mp4", "width": 360, "height": 640, "fps": 30.0, "link": "https://videos.pexels.com/video-files/7456506/7456506-sd_360_640_30fps.mp4", "size": 764865}, {"id": 10439200, "quality": "uhd", "file_type": "video/mp4", "width": 1440, "height": 2560, "fps": 30.0, "link": "https://videos.pexels.com/video-files/7456506/7456506-uhd_1440_2560_30fps.mp4", "size": 8940857}], "video_pictures": [{"id": 6426406, "nr": 0, "picture": "https://images.pexels.com/videos/7456506/pictures/preview-0.jpeg"}, {"id": 6426409, "nr": 1, "picture": "https://images.pexels.com/videos/7456506/pictures/preview-1.jpeg"}, {"id": 6426422, "nr": 2, "picture": "https://images.pexels.com/videos/7456506/pictures/preview-2.jpeg"}, {"id": 6426432, "nr": 3, "picture": "https://images.pexels.com/videos/7456506/pictures/preview-3.jpeg"}, {"id": 6426442, "nr": 4, "picture": "https://images.pexels.com/videos/7456506/pictures/preview-4.jpeg"}, {"id": 6426453, "nr": 5, "picture": "https://images.pexels.com/videos/7456506/pictures/preview-5.jpeg"}, {"id": 6426459, "nr": 6, "picture": "https://images.pexels.com/videos/7456506/pictures/preview-6.jpeg"}, {"id": 6426467, "nr": 7, "picture": "https://images.pexels.com/videos/7456506/pictures/preview-7.jpeg"}, {"id": 6426477, "nr": 8, "picture": "https://images.pexels.com/videos/7456506/pictures/preview-8.jpeg"}, {"id": 6426494, "nr": 9, "picture": "https://images.pexels.com/videos/7456506/pictures/preview-9.jpeg"}, {"id": 6426512, "nr": 10, "picture": "https://images.pexels.com/videos/7456506/pictures/preview-10.jpeg"}, {"id": 6426527, "nr": 11, "picture": "https://images.pexels.com/videos/7456506/pictures/preview-11.jpeg"}, {"id": 6426551, "nr": 12, "picture": "https://images.pexels.com/videos/7456506/pictures/preview-12.jpeg"}, {"id": 6426564, "nr": 13, "picture": "https://images.pexels.com/videos/7456506/pictures/preview-13.jpeg"}, {"id": 6426581, "nr": 14, "picture": "https://images.pexels.com/videos/7456506/pictures/preview-14.jpeg"}]}], "total_results": 8000, "next_page": "https://api.pexels.com/v1/videos/search/?orientation=portrait&page=2&per_page=8&query=plant+nutrition", "url": "https://api-server.pexels.com/search/videos/plant%20nutrition/"}, "timestamp": "2024-12-28T22:42:52.907546"}
