{"query": "interesting fact", "response": {"page": 1, "per_page": 8, "videos": [{"id": 7640112, "width": 1080, "height": 1920, "duration": 9, "full_res": null, "tags": [], "url": "https://www.pexels.com/video/hands-pointing-at-a-man-7640112/", "image": "https://images.pexels.com/videos/7640112/adult-art-bald-beautiful-7640112.jpeg?auto=compress&cs=tinysrgb&fit=crop&h=1200&w=630", "avg_color": null, "user": {"id": 2905570, "name": "Yan Krukau", "url": "https://www.pexels.com/@yankrukov"}, "video_files": [{"id": 10509361, "quality": "sd", "file_type": "video/mp4", "width": 240, "height": 426, "fps": 25.0, "link": "https://videos.pexels.com/video-files/7640112/7640112-sd_240_426_25fps.mp4", "size": 253092}, {"id": 10509432, "quality": "sd", "file_type": "video/mp4", "width": 540, "height": 960, "fps": 25.0, "link": "https://videos.pexels.com/video-files/7640112/7640112-sd_540_960_25fps.mp4", "size": 1677279}, {"id": 10509473, "quality": "sd", "file_type": "video/mp4", "width": 360, "height": 640, "fps": 25.0, "link": "https://videos.pexels.com/video-files/7640112/7640112-sd_360_640_25fps.mp4", "size": 560471}, {"id": 10509537, "quality": "hd", "file_type": "video/mp4", "width": 1080, "height": 1920, "fps": 25.0, "link": "https://videos.pexels.com/video-files/7640112/7640112-hd_1080_1920_25fps.mp4", "size": 5831665}, {"id": 10509624, "quality": "hd", "file_type": "video/mp4", "width": 720, "height": 1280, "fps": 25.0, "link": "https://videos.pexels.com/video-files/7640112/7640112-hd_720_1280_25fps.mp4", "size": 2875284}], "video_pictures": [{"id": 6772142, "nr": 0, "picture": "https://images.pexels.com/videos/7640112/pictures/preview-0.jpeg"}, {"id": 6772150, "nr": 1, "picture": "https://images.pexels.com/videos/7640112/pictures/preview-1.jpeg"}, {"id": 6772159, "nr": 2, "picture": "https://images.pexels.com/videos/7640112/pictures/preview-2.jpeg"}, {"id": 6772169, "nr": 3, "picture": "https://images.pexels.com/videos/7640112/pictures/preview-3.jpeg"}, {"id": 6772179, "nr": 4, "picture": "https://images.pexels.com/videos/7640112/pictures/preview-4.jpeg"}, {"id": 6772188, "nr": 5, "picture": "https://images.pexels.com/videos/7640112/pictures/preview-5.jpeg"}, {"id": 6772200, "nr": 6, "picture": "https://images.pexels.com/videos/7640112/pictures/preview-6.jpeg"}, {"id": 6772210, "nr": 7, "picture": "https://images.pexels.com/videos/7640112/pictures/preview-7.jpeg"}, {"id": 6772218, "nr": 8, "picture": "https://images.pexels.com/videos/7640112/pictures/preview-8.jpeg"}, {"id": 6772225, "nr": 9, "picture": "https://images.pexels.com/videos/7640112/pictures/preview-9.jpeg"}, {"id": 6772231, "nr": 10, "picture": "https://images.pexels.com/videos/7640112/pictures/preview-10.jpeg"}, {"id": 6772238, "nr": 11, "picture": "https://images.pexels.com/videos/7640112/pictures/preview-11.jpeg"}, {"id": 6772245, "nr": 12, "picture": "https://images.pexels.com/videos/7640112/pictures/preview-12.jpeg"}, {"id": 6772250, "nr": 13, "picture": "https://images.pexels.com/videos/7640112/pictures/preview-13.jpeg"}, {"id": 6772255, "nr": 14, "picture": "https://images.pexels.com/videos/7640112/pictures/preview-14.jpeg"}]}, {"id": 6113040, "width": 2160, "height": 3840, "duration": 10, "full_res": null, "tags": [], "url": "https://www.pexels.com/video/woman-in-santa-cap-sitting-and-looking-at-mobile-phone-6113040/", "image": "https://images.pexels.com/videos/6113040/pexels-photo-6113040.jpeg?auto=compress&cs=tinysrgb&fit=crop&h=1200&w=630", "avg_color": null, "user": {"id": 6927817, "name": "Julia Larson", "url": "https://www.pexels.com/@julia-larson"}, "video_files": [{"id": 9920109, "quality": "hd", "file_type": "video/mp4", "width": 1080, "height": 1920, "fps": 23.97599983215332, "link": "https://videos.pexels.com/video-files/6113040/6113040-hd_1080_1920_24fps.mp4", "size": 5793611}, {"id": 9920227, "quality": "uhd", "file_type": "video/mp4", "width": 2160, "height": 3840, "fps": 23.97599983215332, "link": "https://videos.pexels.com/video-files/6113040/6113040-uhd_2160_3840_24fps.mp4", "size": 25504556}, {"id": 9920394, "quality": "sd", "file_type": "video/mp4", "width": 360, "height": 640, "fps": 23.97599983215332, "link": "https://videos.pexels.com/video-files/6113040/6113040-sd_360_640_24fps.mp4", "size": 756236}, {"id": 9920560, "quality": "uhd", "file_type": "video/mp4", "width": 1440, "height": 2560, "fps": 23.97599983215332, "link": "https://videos.pexels.com/video-files/6113040/6113040-uhd_1440_2560_24fps.mp4", "size": 12537792}, {"id": 9920681, "quality": "hd", "file_type": "video/mp4", "width": 720, "height": 1280, "fps": 23.97599983215332, "link": "https://videos.pexels.com/video-files/6113040/6113040-hd_720_1280_24fps.mp4", "size": 3436870}, {"id": 9920771, "quality": "sd", "file_type": "video/mp4", "width": 540, "height": 960, "fps": 23.97599983215332, "link": "https://videos.pexels.com/video-files/6113040/6113040-sd_540_960_24fps.mp4", "size": 1924554}, {"id": 9920910, "quality": "sd", "file_type": "video/mp4", "width": 240, "height": 426, "fps": 23.97599983215332, "link": "https://videos.pexels.com/video-files/6113040/6113040-sd_240_426_24fps.mp4", "size": 466666}], "video_pictures": [{"id": 3908608, "nr": 0, "picture": "https://images.pexels.com/videos/6113040/pictures/preview-0.jpeg"}, {"id": 3908620, "nr": 1, "picture": "https://images.pexels.com/videos/6113040/pictures/preview-1.jpeg"}, {"id": 3908629, "nr": 2, "picture": "https://images.pexels.com/videos/6113040/pictures/preview-2.jpeg"}, {"id": 3908639, "nr": 3, "picture": "https://images.pexels.com/videos/6113040/pictures/preview-3.jpeg"}, {"id": 3908650, "nr": 4, "picture": "https://images.pexels.com/videos/6113040/pictures/preview-4.jpeg"}, {"id": 3908660, "nr": 5, "picture": "https://images.pexels.com/videos/6113040/pictures/preview-5.jpeg"}, {"id": 3908671, "nr": 6, "picture": "https://images.pexels.com/videos/6113040/pictures/preview-6.jpeg"}, {"id": 3908681, "nr": 7, "picture": "https://images.pexels.com/videos/6113040/pictures/preview-7.jpeg"}, {"id": 3908691, "nr": 8, "picture": "https://images.pexels.com/videos/6113040/pictures/preview-8.jpeg"}, {"id": 3908704, "nr": 9, "picture": "https://images.pexels.com/videos/6113040/pictures/preview-9.jpeg"}, {"id": 3908716, "nr": 10, "picture": "https://images.pexels.com/videos/6113040/pictures/preview-10.jpeg"}, {"id": 3908729, "nr": 11, "picture": "https://images.pexels.com/videos/6113040/pictures/preview-11.jpeg"}, {"id": 3908738, "nr": 12, "picture": "https://images.pexels.com/videos/6113040/pictures/preview-12.jpeg"}, {"id": 3908746, "nr": 13, "picture": "https://images.pexels.com/videos/6113040/pictures/preview-13.jpeg"}, {"id": 3908756, "nr": 14, "picture": "https://images.pexels.com/videos/6113040/pictures/preview-14.jpeg"}]}, {"id": 6139777, "width": 2160, "height": 4096, "duration": 48, "full_res": null, "tags": [], "url": "https://www.pexels.com/video/person-flipping-pages-of-a-fairy-tale-book-6139777/", "image": "https://images.pexels.com/videos/6139777/pexels-photo-6139777.jpeg?auto=compress&cs=tinysrgb&fit=crop&h=1200&w=630", "avg_color": null, "user": {"id": 1437723, "name": "cottonbro studio", "url": "https://www.pexels.com/@cottonbro"}, "video_files": [{"id": 9932201, "quality": "sd", "file_type": "video/mp4", "width": 226, "height": 426, "fps": 25.0, "link": "https://videos.pexels.com/video-files/6139777/6139777-sd_226_426_25fps.mp4", "size": 1881716}, {"id": 9932227, "quality": "sd", "file_type": "video/mp4", "width": 506, "height": 960, "fps": 25.0, "link": "https://videos.pexels.com/video-files/6139777/6139777-sd_506_960_25fps.mp4", "size": 8347805}, {"id": 9932251, "quality": "hd", "file_type": "video/mp4", "width": 1080, "height": 2048, "fps": 25.0, "link": "https://videos.pexels.com/video-files/6139777/6139777-hd_1080_2048_25fps.mp4", "size": 30886593}, {"id": 9932275, "quality": "uhd", "file_type": "video/mp4", "width": 2160, "height": 4096, "fps": 25.0, "link": "https://videos.pexels.com/video-files/6139777/6139777-uhd_2160_4096_25fps.mp4", "size": 128374151}, {"id": 9932307, "quality": "sd", "file_type": "video/mp4", "width": 338, "height": 640, "fps": 25.0, "link": "https://videos.pexels.com/video-files/6139777/6139777-sd_338_640_25fps.mp4", "size": 3031352}, {"id": 9932337, "quality": "uhd", "file_type": "video/mp4", "width": 1440, "height": 2732, "fps": 25.0, "link": "https://videos.pexels.com/video-files/6139777/6139777-uhd_1440_2732_25fps.mp4", "size": 58648664}, {"id": 9932375, "quality": "hd", "file_type": "video/mp4", "width": 720, "height": 1366, "fps": 25.0, "link": "https://videos.pexels.com/video-files/6139777/6139777-hd_720_1366_25fps.mp4", "size": 15601924}], "video_pictures": [{"id": 3950251, "nr": 0, "picture": "https://images.pexels.com/videos/6139777/pictures/preview-0.jpeg"}, {"id": 3950253, "nr": 1, "picture": "https://images.pexels.com/videos/6139777/pictures/preview-1.jpeg"}, {"id": 3950256, "nr": 2, "picture": "https://images.pexels.com/videos/6139777/pictures/preview-2.jpeg"}, {"id": 3950258, "nr": 3, "picture": "https://images.pexels.com/videos/6139777/pictures/preview-3.jpeg"}, {"id": 3950260, "nr": 4, "picture": "https://images.pexels.com/videos/6139777/pictures/preview-4.jpeg"}, {"id": 3950263, "nr": 5, "picture": "https://images.pexels.com/videos/6139777/pictures/preview-5.jpeg"}, {"id": 3950265, "nr": 6, "picture": "https://images.pexels.com/videos/6139777/pictures/preview-6.jpeg"}, {"id": 3950267, "nr": 7, "picture": "https://images.pexels.com/videos/6139777/pictures/preview-7.jpeg"}, {"id": 3950270, "nr": 8, "picture": "https://images.pexels.com/videos/6139777/pictures/preview-8.jpeg"}, {"id": 3950274, "nr": 9, "picture": "https://images.pexels.com/videos/6139777/pictures/preview-9.jpeg"}, {"id": 3950277, "nr": 10, "picture": "https://images.pexels.com/videos/6139777/pictures/preview-10.jpeg"}, {"id": 3950279, "nr": 11, "picture": "https://images.pexels.com/videos/6139777/pictures/preview-11.jpeg"}, {"id": 3950281, "nr": 12, "picture": "https://images.pexels.com/videos/6139777/pictures/preview-12.jpeg"}, {"id": 3950283, "nr": 13, "picture": "https://images.pexels.com/videos/6139777/pictures/preview-13.jpeg"}, {"id": 3950285, "nr": 14, "picture": "https://images.pexels.com/videos/6139777/pictures/preview-14.jpeg"}]}, {"id": 6139778, "width": 2160, "height": 4096, "duration": 81, "full_res": null, "tags": [], "url": "https://www.pexels.com/video/dad-and-daughter-having-fun-while-reading-a-fairy-tale-book-6139778/", "image": "https://images.pexels.com/videos/6139778/pexels-photo-6139778.jpeg?auto=compress&cs=tinysrgb&fit=crop&h=1200&w=630", "avg_color": null, "user": {"id": 1437723, "name": "cottonbro studio", "url": "https://www.pexels.com/@cottonbro"}, "video_files": [{"id": 9933067, "quality": "uhd", "file_type": "video/mp4", "width": 2160, "height": 4096, "fps": 25.0, "link": "https://videos.pexels.com/video-files/6139778/6139778-uhd_2160_4096_25fps.mp4", "size": 169034225}, {"id": 9933158, "quality": "sd", "file_type": "video/mp4", "width": 506, "height": 960, "fps": 25.0, "link": "https://videos.pexels.com/video-files/6139778/6139778-sd_506_960_25fps.mp4", "size": 10621389}, {"id": 9933270, "quality": "sd", "file_type": "video/mp4", "width": 338, "height": 640, "fps": 25.0, "link": "https://videos.pexels.com/video-files/6139778/6139778-sd_338_640_25fps.mp4", "size": 4923026}, {"id": 9933352, "quality": "sd", "file_type": "video/mp4", "width": 226, "height": 426, "fps": 25.0, "link": "https://videos.pexels.com/video-files/6139778/6139778-sd_226_426_25fps.mp4", "size": 3104865}, {"id": 9933453, "quality": "uhd", "file_type": "video/mp4", "width": 1440, "height": 2732, "fps": 25.0, "link": "https://videos.pexels.com/video-files/6139778/6139778-uhd_1440_2732_25fps.mp4", "size": 69012052}, {"id": 9933548, "quality": "hd", "file_type": "video/mp4", "width": 1080, "height": 2048, "fps": 25.0, "link": "https://videos.pexels.com/video-files/6139778/6139778-hd_1080_2048_25fps.mp4", "size": 39936191}, {"id": 9933581, "quality": "hd", "file_type": "video/mp4", "width": 720, "height": 1366, "fps": 25.0, "link": "https://videos.pexels.com/video-files/6139778/6139778-hd_720_1366_25fps.mp4", "size": 19308742}], "video_pictures": [{"id": 3950499, "nr": 0, "picture": "https://images.pexels.com/videos/6139778/pictures/preview-0.jpeg"}, {"id": 3950501, "nr": 1, "picture": "https://images.pexels.com/videos/6139778/pictures/preview-1.jpeg"}, {"id": 3950504, "nr": 2, "picture": "https://images.pexels.com/videos/6139778/pictures/preview-2.jpeg"}, {"id": 3950507, "nr": 3, "picture": "https://images.pexels.com/videos/6139778/pictures/preview-3.jpeg"}, {"id": 3950509, "nr": 4, "picture": "https://images.pexels.com/videos/6139778/pictures/preview-4.jpeg"}, {"id": 3950512, "nr": 5, "picture": "https://images.pexels.com/videos/6139778/pictures/preview-5.jpeg"}, {"id": 3950515, "nr": 6, "picture": "https://images.pexels.com/videos/6139778/pictures/preview-6.jpeg"}, {"id": 3950517, "nr": 7, "picture": "https://images.pexels.com/videos/6139778/pictures/preview-7.jpeg"}, {"id": 3950519, "nr": 8, "picture": "https://images.pexels.com/videos/6139778/pictures/preview-8.jpeg"}, {"id": 3950521, "nr": 9, "picture": "https://images.pexels.com/videos/6139778/pictures/preview-9.jpeg"}, {"id": 3950522, "nr": 10, "picture": "https://images.pexels.com/videos/6139778/pictures/preview-10.jpeg"}, {"id": 3950523, "nr": 11, "picture": "https://images.pexels.com/videos/6139778/pictures/preview-11.jpeg"}, {"id": 3950524, "nr": 12, "picture": "https://images.pexels.com/videos/6139778/pictures/preview-12.jpeg"}, {"id": 3950525, "nr": 13, "picture": "https://images.pexels.com/videos/6139778/pictures/preview-13.jpeg"}, {"id": 3950526, "nr": 14, "picture": "https://images.pexels.com/videos/6139778/pictures/preview-14.jpeg"}]}, {"id": 4752632, "width": 2160, "height": 3840, "duration": 24, "full_res": null, "tags": [], "url": "https://www.pexels.com/video/a-couple-standing-on-the-stairs-in-a-building-4752632/", "image": "https://images.pexels.com/videos/4752632/aged-anonymous-architecture-back-view-4752632.jpeg?auto=compress&cs=tinysrgb&fit=crop&h=1200&w=630", "avg_color": null, "user": {"id": 1437723, "name": "cottonbro studio", "url": "https://www.pexels.com/@cottonbro"}, "video_files": [{"id": 9415164, "quality": "sd", "file_type": "video/mp4", "width": 360, "height": 640, "fps": 25.0, "link": "https://videos.pexels.com/video-files/4752632/4752632-sd_360_640_25fps.mp4", "size": 1306657}, {"id": 9415214, "quality": "hd", "file_type": "video/mp4", "width": 1080, "height": 1920, "fps": 25.0, "link": "https://videos.pexels.com/video-files/4752632/4752632-hd_1080_1920_25fps.mp4", "size": 12755349}, {"id": 9415294, "quality": "sd", "file_type": "video/mp4", "width": 540, "height": 960, "fps": 25.0, "link": "https://videos.pexels.com/video-files/4752632/4752632-sd_540_960_25fps.mp4", "size": 3146556}, {"id": 9415439, "quality": "uhd", "file_type": "video/mp4", "width": 1440, "height": 2560, "fps": 25.0, "link": "https://videos.pexels.com/video-files/4752632/4752632-uhd_1440_2560_25fps.mp4", "size": 26588112}, {"id": 9415522, "quality": "uhd", "file_type": "video/mp4", "width": 2160, "height": 3840, "fps": 25.0, "link": "https://videos.pexels.com/video-files/4752632/4752632-uhd_2160_3840_25fps.mp4", "size": 58671999}, {"id": 9415774, "quality": "sd", "file_type": "video/mp4", "width": 240, "height": 426, "fps": 25.0, "link": "https://videos.pexels.com/video-files/4752632/4752632-sd_240_426_25fps.mp4", "size": 859720}, {"id": 9415975, "quality": "hd", "file_type": "video/mp4", "width": 720, "height": 1280, "fps": 50.0, "link": "https://videos.pexels.com/video-files/4752632/4752632-hd_720_1280_50fps.mp4", "size": 7004500}], "video_pictures": [{"id": 1889539, "nr": 0, "picture": "https://images.pexels.com/videos/4752632/pictures/preview-0.jpeg"}, {"id": 1889540, "nr": 1, "picture": "https://images.pexels.com/videos/4752632/pictures/preview-1.jpeg"}, {"id": 1889541, "nr": 2, "picture": "https://images.pexels.com/videos/4752632/pictures/preview-2.jpeg"}, {"id": 1889543, "nr": 3, "picture": "https://images.pexels.com/videos/4752632/pictures/preview-3.jpeg"}, {"id": 1889544, "nr": 4, "picture": "https://images.pexels.com/videos/4752632/pictures/preview-4.jpeg"}, {"id": 1889546, "nr": 5, "picture": "https://images.pexels.com/videos/4752632/pictures/preview-5.jpeg"}, {"id": 1889549, "nr": 6, "picture": "https://images.pexels.com/videos/4752632/pictures/preview-6.jpeg"}, {"id": 1889552, "nr": 7, "picture": "https://images.pexels.com/videos/4752632/pictures/preview-7.jpeg"}, {"id": 1889554, "nr": 8, "picture": "https://images.pexels.com/videos/4752632/pictures/preview-8.jpeg"}, {"id": 1889556, "nr": 9, "picture": "https://images.pexels.com/videos/4752632/pictures/preview-9.jpeg"}, {"id": 1889559, "nr": 10, "picture": "https://images.pexels.com/videos/4752632/pictures/preview-10.jpeg"}, {"id": 1889560, "nr": 11, "picture": "https://images.pexels.com/videos/4752632/pictures/preview-11.jpeg"}, {"id": 1889563, "nr": 12, "picture": "https://images.pexels.com/videos/4752632/pictures/preview-12.jpeg"}, {"id": 1889565, "nr": 13, "picture": "https://images.pexels.com/videos/4752632/pictures/preview-13.jpeg"}, {"id": 1889568, "nr": 14, "picture": "https://images.pexels.com/videos/4752632/pictures/preview-14.jpeg"}]}, {"id": 6113036, "width": 2160, "height": 3840, "duration": 10, "full_res": null, "tags": [], "url": "https://www.pexels.com/video/woman-in-santa-hat-reading-book-6113036/", "image": "https://images.pexels.com/videos/6113036/pexels-photo-6113036.jpeg?auto=compress&cs=tinysrgb&fit=crop&h=1200&w=630", "avg_color": null, "user": {"id": 6927817, "name": "Julia Larson", "url": "https://www.pexels.com/@julia-larson"}, "video_files": [{"id": 9919978, "quality": "sd", "file_type": "video/mp4", "width": 240, "height": 426, "fps": 23.97599983215332, "link": "https://videos.pexels.com/video-files/6113036/6113036-sd_240_426_24fps.mp4", "size": 370612}, {"id": 9920056, "quality": "sd", "file_type": "video/mp4", "width": 540, "height": 960, "fps": 23.97599983215332, "link": "https://videos.pexels.com/video-files/6113036/6113036-sd_540_960_24fps.mp4", "size": 1589204}, {"id": 9920146, "quality": "hd", "file_type": "video/mp4", "width": 1080, "height": 1920, "fps": 23.97599983215332, "link": "https://videos.pexels.com/video-files/6113036/6113036-hd_1080_1920_24fps.mp4", "size": 5344717}, {"id": 9920264, "quality": "uhd", "file_type": "video/mp4", "width": 1440, "height": 2560, "fps": 23.97599983215332, "link": "https://videos.pexels.com/video-files/6113036/6113036-uhd_1440_2560_24fps.mp4", "size": 10566280}, {"id": 9920308, "quality": "uhd", "file_type": "video/mp4", "width": 2160, "height": 3840, "fps": 23.97599983215332, "link": "https://videos.pexels.com/video-files/6113036/6113036-uhd_2160_3840_24fps.mp4", "size": 22287624}, {"id": 9920545, "quality": "sd", "file_type": "video/mp4", "width": 360, "height": 640, "fps": 23.97599983215332, "link": "https://videos.pexels.com/video-files/6113036/6113036-sd_360_640_24fps.mp4", "size": 703109}, {"id": 9920608, "quality": "hd", "file_type": "video/mp4", "width": 720, "height": 1280, "fps": 23.97599983215332, "link": "https://videos.pexels.com/video-files/6113036/6113036-hd_720_1280_24fps.mp4", "size": 2919792}], "video_pictures": [{"id": 3908605, "nr": 0, "picture": "https://images.pexels.com/videos/6113036/pictures/preview-0.jpeg"}, {"id": 3908614, "nr": 1, "picture": "https://images.pexels.com/videos/6113036/pictures/preview-1.jpeg"}, {"id": 3908626, "nr": 2, "picture": "https://images.pexels.com/videos/6113036/pictures/preview-2.jpeg"}, {"id": 3908636, "nr": 3, "picture": "https://images.pexels.com/videos/6113036/pictures/preview-3.jpeg"}, {"id": 3908648, "nr": 4, "picture": "https://images.pexels.com/videos/6113036/pictures/preview-4.jpeg"}, {"id": 3908657, "nr": 5, "picture": "https://images.pexels.com/videos/6113036/pictures/preview-5.jpeg"}, {"id": 3908666, "nr": 6, "picture": "https://images.pexels.com/videos/6113036/pictures/preview-6.jpeg"}, {"id": 3908678, "nr": 7, "picture": "https://images.pexels.com/videos/6113036/pictures/preview-7.jpeg"}, {"id": 3908689, "nr": 8, "picture": "https://images.pexels.com/videos/6113036/pictures/preview-8.jpeg"}, {"id": 3908695, "nr": 9, "picture": "https://images.pexels.com/videos/6113036/pictures/preview-9.jpeg"}, {"id": 3908712, "nr": 10, "picture": "https://images.pexels.com/videos/6113036/pictures/preview-10.jpeg"}, {"id": 3908724, "nr": 11, "picture": "https://images.pexels.com/videos/6113036/pictures/preview-11.jpeg"}, {"id": 3908736, "nr": 12, "picture": "https://images.pexels.com/videos/6113036/pictures/preview-12.jpeg"}, {"id": 3908744, "nr": 13, "picture": "https://images.pexels.com/videos/6113036/pictures/preview-13.jpeg"}, {"id": 3908753, "nr": 14, "picture": "https://images.pexels.com/videos/6113036/pictures/preview-14.jpeg"}]}, {"id": 5894603, "width": 2160, "height": 4096, "duration": 118, "full_res": null, "tags": [], "url": "https://www.pexels.com/video/girl-playing-in-with-blocks-5894603/", "image": "https://images.pexels.com/videos/5894603/pexels-photo-5894603.jpeg?auto=compress&cs=tinysrgb&fit=crop&h=1200&w=630", "avg_color": null, "user": {"id": 1437723, "name": "cottonbro studio", "url": "https://www.pexels.com/@cottonbro"}, "video_files": [{"id": 9840059, "quality": "hd", "file_type": "video/mp4", "width": 1080, "height": 2048, "fps": 25.0, "link": "https://videos.pexels.com/video-files/5894603/5894603-hd_1080_2048_25fps.mp4", "size": 49832533}, {"id": 9840073, "quality": "hd", "file_type": "video/mp4", "width": 720, "height": 1366, "fps": 25.0, "link": "https://videos.pexels.com/video-files/5894603/5894603-hd_720_1366_25fps.mp4", "size": 25128987}, {"id": 9840096, "quality": "sd", "file_type": "video/mp4", "width": 506, "height": 960, "fps": 25.0, "link": "https://videos.pexels.com/video-files/5894603/5894603-sd_506_960_25fps.mp4", "size": 14609037}, {"id": 9840123, "quality": "sd", "file_type": "video/mp4", "width": 338, "height": 640, "fps": 25.0, "link": "https://videos.pexels.com/video-files/5894603/5894603-sd_338_640_25fps.mp4", "size": 7071704}, {"id": 9840148, "quality": "uhd", "file_type": "video/mp4", "width": 2160, "height": 4096, "fps": 25.0, "link": "https://videos.pexels.com/video-files/5894603/5894603-uhd_2160_4096_25fps.mp4", "size": 193713343}, {"id": 9840178, "quality": "sd", "file_type": "video/mp4", "width": 226, "height": 426, "fps": 25.0, "link": "https://videos.pexels.com/video-files/5894603/5894603-sd_226_426_25fps.mp4", "size": 4338972}, {"id": 9840193, "quality": "uhd", "file_type": "video/mp4", "width": 1440, "height": 2732, "fps": 25.0, "link": "https://videos.pexels.com/video-files/5894603/5894603-uhd_1440_2732_25fps.mp4", "size": 82260554}], "video_pictures": [{"id": 3535655, "nr": 0, "picture": "https://images.pexels.com/videos/5894603/pictures/preview-0.jpeg"}, {"id": 3535658, "nr": 1, "picture": "https://images.pexels.com/videos/5894603/pictures/preview-1.jpeg"}, {"id": 3535660, "nr": 2, "picture": "https://images.pexels.com/videos/5894603/pictures/preview-2.jpeg"}, {"id": 3535663, "nr": 3, "picture": "https://images.pexels.com/videos/5894603/pictures/preview-3.jpeg"}, {"id": 3535666, "nr": 4, "picture": "https://images.pexels.com/videos/5894603/pictures/preview-4.jpeg"}, {"id": 3535667, "nr": 5, "picture": "https://images.pexels.com/videos/5894603/pictures/preview-5.jpeg"}, {"id": 3535668, "nr": 6, "picture": "https://images.pexels.com/videos/5894603/pictures/preview-6.jpeg"}, {"id": 3535669, "nr": 7, "picture": "https://images.pexels.com/videos/5894603/pictures/preview-7.jpeg"}, {"id": 3535670, "nr": 8, "picture": "https://images.pexels.com/videos/5894603/pictures/preview-8.jpeg"}, {"id": 3535671, "nr": 9, "picture": "https://images.pexels.com/videos/5894603/pictures/preview-9.jpeg"}, {"id": 3535672, "nr": 10, "picture": "https://images.pexels.com/videos/5894603/pictures/preview-10.jpeg"}, {"id": 3535673, "nr": 11, "picture": "https://images.pexels.com/videos/5894603/pictures/preview-11.jpeg"}, {"id": 3535674, "nr": 12, "picture": "https://images.pexels.com/videos/5894603/pictures/preview-12.jpeg"}, {"id": 3535675, "nr": 13, "picture": "https://images.pexels.com/videos/5894603/pictures/preview-13.jpeg"}, {"id": 3535676, "nr": 14, "picture": "https://images.pexels.com/videos/5894603/pictures/preview-14.jpeg"}]}, {"id": 6929119, "width": 1080, "height": 1920, "duration": 3, "full_res": null, "tags": [], "url": "https://www.pexels.com/video/woman-sitting-on-a-chair-while-holding-a-book-6929119/", "image": "https://images.pexels.com/videos/6929119/class-student-teacher-teaching-6929119.jpeg?auto=compress&cs=tinysrgb&fit=crop&h=1200&w=630", "avg_color": null, "user": {"id": 2104565, "name": "Polina Tankilevitch", "url": "https://www.pexels.com/@polina-tankilevitch"}, "video_files": [{"id": 10229829, "quality": "hd", "file_type": "video/mp4", "width": 720, "height": 1280, "fps": 30.0, "link": "https://videos.pexels.com/video-files/6929119/6929119-hd_720_1280_30fps.mp4", "size": 1017705}, {"id": 10229908, "quality": "sd", "file_type": "video/mp4", "width": 360, "height": 640, "fps": 30.0, "link": "https://videos.pexels.com/video-files/6929119/6929119-sd_360_640_30fps.mp4", "size": 191152}, {"id": 10229963, "quality": "hd", "file_type": "video/mp4", "width": 1080, "height": 1920, "fps": 30.0, "link": "https://videos.pexels.com/video-files/6929119/6929119-hd_1080_1920_30fps.mp4", "size": 1916205}, {"id": 10229991, "quality": "sd", "file_type": "video/mp4", "width": 540, "height": 960, "fps": 30.0, "link": "https://videos.pexels.com/video-files/6929119/6929119-sd_540_960_30fps.mp4", "size": 541229}, {"id": 10230012, "quality": "sd", "file_type": "video/mp4", "width": 240, "height": 426, "fps": 30.0, "link": "https://videos.pexels.com/video-files/6929119/6929119-sd_240_426_30fps.mp4", "size": 116543}], "video_pictures": [{"id": 5376464, "nr": 0, "picture": "https://images.pexels.com/videos/6929119/pictures/preview-0.jpeg"}, {"id": 5376469, "nr": 1, "picture": "https://images.pexels.com/videos/6929119/pictures/preview-1.jpeg"}, {"id": 5376474, "nr": 2, "picture": "https://images.pexels.com/videos/6929119/pictures/preview-2.jpeg"}, {"id": 5376478, "nr": 3, "picture": "https://images.pexels.com/videos/6929119/pictures/preview-3.jpeg"}, {"id": 5376483, "nr": 4, "picture": "https://images.pexels.com/videos/6929119/pictures/preview-4.jpeg"}, {"id": 5376487, "nr": 5, "picture": "https://images.pexels.com/videos/6929119/pictures/preview-5.jpeg"}, {"id": 5376491, "nr": 6, "picture": "https://images.pexels.com/videos/6929119/pictures/preview-6.jpeg"}, {"id": 5376495, "nr": 7, "picture": "https://images.pexels.com/videos/6929119/pictures/preview-7.jpeg"}, {"id": 5376498, "nr": 8, "picture": "https://images.pexels.com/videos/6929119/pictures/preview-8.jpeg"}, {"id": 5376501, "nr": 9, "picture": "https://images.pexels.com/videos/6929119/pictures/preview-9.jpeg"}, {"id": 5376504, "nr": 10, "picture": "https://images.pexels.com/videos/6929119/pictures/preview-10.jpeg"}, {"id": 5376509, "nr": 11, "picture": "https://images.pexels.com/videos/6929119/pictures/preview-11.jpeg"}, {"id": 5376512, "nr": 12, "picture": "https://images.pexels.com/videos/6929119/pictures/preview-12.jpeg"}, {"id": 5376515, "nr": 13, "picture": "https://images.pexels.com/videos/6929119/pictures/preview-13.jpeg"}, {"id": 5376518, "nr": 14, "picture": "https://images.pexels.com/videos/6929119/pictures/preview-14.jpeg"}]}], "total_results": 514, "next_page": "https://api.pexels.com/v1/videos/search/?orientation=portrait&page=2&per_page=8&query=interesting+fact", "url": "https://api-server.pexels.com/search/videos/interesting%20fact/"}, "timestamp": "2024-12-28T22:37:05.971826"}
