{"query": "garden pests", "response": {"page": 1, "per_page": 8, "videos": [{"id": 27680622, "width": 2160, "height": 3840, "duration": 5, "full_res": null, "tags": [], "url": "https://www.pexels.com/video/girasol-27680622/", "image": "https://images.pexels.com/videos/27680622/achene-agriculture-alimentary-annual-27680622.jpeg?auto=compress&cs=tinysrgb&fit=crop&h=1200&w=630", "avg_color": null, "user": {"id": 914607983, "name": "Anecdonet.com", "url": "https://www.pexels.com/@anecdonet"}, "video_files": [{"id": 12202934, "quality": null, "file_type": "video/mp4", "width": 360, "height": 640, "fps": 60.0, "link": "https://videos.pexels.com/video-files/27680622/12202934_360_640_60fps.mp4", "size": 819354}, {"id": 12202935, "quality": null, "file_type": "video/mp4", "width": 540, "height": 960, "fps": 60.0, "link": "https://videos.pexels.com/video-files/27680622/12202935_540_960_60fps.mp4", "size": 1554448}, {"id": 12202936, "quality": null, "file_type": "video/mp4", "width": 720, "height": 1280, "fps": 60.0, "link": "https://videos.pexels.com/video-files/27680622/12202936_720_1280_60fps.mp4", "size": 2465777}, {"id": 12202937, "quality": null, "file_type": "video/mp4", "width": 1080, "height": 1920, "fps": 60.0, "link": "https://videos.pexels.com/video-files/27680622/12202937_1080_1920_60fps.mp4", "size": 4795069}, {"id": 12202938, "quality": null, "file_type": "video/mp4", "width": 1440, "height": 2560, "fps": 60.0, "link": "https://videos.pexels.com/video-files/27680622/12202938_1440_2560_60fps.mp4", "size": 7701267}, {"id": 12202939, "quality": null, "file_type": "video/mp4", "width": 2160, "height": 3840, "fps": 60.0, "link": "https://videos.pexels.com/video-files/27680622/12202939_2160_3840_60fps.mp4", "size": 14622967}], "video_pictures": [{"id": 22605980, "nr": 0, "picture": "https://images.pexels.com/videos/27680622/pictures/preview-0.jpg"}, {"id": 22605981, "nr": 1, "picture": "https://images.pexels.com/videos/27680622/pictures/preview-1.jpg"}, {"id": 22605982, "nr": 2, "picture": "https://images.pexels.com/videos/27680622/pictures/preview-2.jpg"}, {"id": 22605983, "nr": 3, "picture": "https://images.pexels.com/videos/27680622/pictures/preview-3.jpg"}]}, {"id": 4777714, "width": 2160, "height": 3840, "duration": 30, "full_res": null, "tags": [], "url": "https://www.pexels.com/video/close-up-view-of-a-ants-in-the-flowers-4777714/", "image": "https://images.pexels.com/videos/4777714/pexels-photo-4777714.jpeg?auto=compress&cs=tinysrgb&fit=crop&h=1200&w=630", "avg_color": null, "user": {"id": 937544, "name": "Jayakrishnan Krishnakumar", "url": "https://www.pexels.com/@jeguthedesigner"}, "video_files": [{"id": 9565015, "quality": "hd", "file_type": "video/mp4", "width": 720, "height": 1280, "fps": 59.940101623535156, "link": "https://videos.pexels.com/video-files/4777714/4777714-hd_720_1280_60fps.mp4", "size": 6710082}, {"id": 9565332, "quality": "sd", "file_type": "video/mp4", "width": 240, "height": 426, "fps": 29.969999313354492, "link": "https://videos.pexels.com/video-files/4777714/4777714-sd_240_426_30fps.mp4", "size": 965610}, {"id": 9565514, "quality": "sd", "file_type": "video/mp4", "width": 360, "height": 640, "fps": 29.969999313354492, "link": "https://videos.pexels.com/video-files/4777714/4777714-sd_360_640_30fps.mp4", "size": 1771355}, {"id": 9565715, "quality": "uhd", "file_type": "video/mp4", "width": 2160, "height": 3840, "fps": 59.940101623535156, "link": "https://videos.pexels.com/video-files/4777714/4777714-uhd_2160_3840_60fps.mp4", "size": 93998700}, {"id": 9565839, "quality": "sd", "file_type": "video/mp4", "width": 540, "height": 960, "fps": 29.969999313354492, "link": "https://videos.pexels.com/video-files/4777714/4777714-sd_540_960_30fps.mp4", "size": 3498513}, {"id": 9565920, "quality": "uhd", "file_type": "video/mp4", "width": 1440, "height": 2560, "fps": 29.969999313354492, "link": "https://videos.pexels.com/video-files/4777714/4777714-uhd_1440_2560_30fps.mp4", "size": 43360099}, {"id": 9565935, "quality": "hd", "file_type": "video/mp4", "width": 1080, "height": 1920, "fps": 29.969999313354492, "link": "https://videos.pexels.com/video-files/4777714/4777714-hd_1080_1920_30fps.mp4", "size": 15662966}], "video_pictures": [{"id": 1974511, "nr": 0, "picture": "https://images.pexels.com/videos/4777714/pictures/preview-0.jpeg"}, {"id": 1974870, "nr": 1, "picture": "https://images.pexels.com/videos/4777714/pictures/preview-1.jpeg"}, {"id": 1974887, "nr": 2, "picture": "https://images.pexels.com/videos/4777714/pictures/preview-2.jpeg"}, {"id": 1974903, "nr": 3, "picture": "https://images.pexels.com/videos/4777714/pictures/preview-3.jpeg"}, {"id": 1974921, "nr": 4, "picture": "https://images.pexels.com/videos/4777714/pictures/preview-4.jpeg"}, {"id": 1974936, "nr": 5, "picture": "https://images.pexels.com/videos/4777714/pictures/preview-5.jpeg"}, {"id": 1974964, "nr": 6, "picture": "https://images.pexels.com/videos/4777714/pictures/preview-6.jpeg"}, {"id": 1974991, "nr": 7, "picture": "https://images.pexels.com/videos/4777714/pictures/preview-7.jpeg"}, {"id": 1975027, "nr": 8, "picture": "https://images.pexels.com/videos/4777714/pictures/preview-8.jpeg"}, {"id": 1975047, "nr": 9, "picture": "https://images.pexels.com/videos/4777714/pictures/preview-9.jpeg"}, {"id": 1975065, "nr": 10, "picture": "https://images.pexels.com/videos/4777714/pictures/preview-10.jpeg"}, {"id": 1975081, "nr": 11, "picture": "https://images.pexels.com/videos/4777714/pictures/preview-11.jpeg"}, {"id": 1975100, "nr": 12, "picture": "https://images.pexels.com/videos/4777714/pictures/preview-12.jpeg"}, {"id": 1975115, "nr": 13, "picture": "https://images.pexels.com/videos/4777714/pictures/preview-13.jpeg"}, {"id": 1975152, "nr": 14, "picture": "https://images.pexels.com/videos/4777714/pictures/preview-14.jpeg"}]}, {"id": 28962956, "width": 1080, "height": 1920, "duration": 12, "full_res": null, "tags": [], "url": "https://www.pexels.com/video/beautiful-blooming-bougainvillea-in-fall-28962956/", "image": "https://images.pexels.com/videos/28962956/attractive-autumn-ambience-autumn-flowers-beautiful-video-28962956.jpeg?auto=compress&cs=tinysrgb&fit=crop&h=1200&w=630", "avg_color": null, "user": {"id": 1425442, "name": "Ankit Rainloure", "url": "https://www.pexels.com/@ankit-rainloure-1425442"}, "video_files": [{"id": 12529442, "quality": null, "file_type": "video/mp4", "width": 360, "height": 640, "fps": 25.0, "link": "https://videos.pexels.com/video-files/28962956/12529442_360_640_25fps.mp4", "size": 1530088}, {"id": 12529443, "quality": null, "file_type": "video/mp4", "width": 540, "height": 960, "fps": 25.0, "link": "https://videos.pexels.com/video-files/28962956/12529443_540_960_25fps.mp4", "size": 2622797}, {"id": 12529444, "quality": null, "file_type": "video/mp4", "width": 720, "height": 1280, "fps": 25.0, "link": "https://videos.pexels.com/video-files/28962956/12529444_720_1280_25fps.mp4", "size": 4186785}, {"id": 12529445, "quality": null, "file_type": "video/mp4", "width": 1080, "height": 1920, "fps": 25.0, "link": "https://videos.pexels.com/video-files/28962956/12529445_1080_1920_25fps.mp4", "size": 9047103}], "video_pictures": [{"id": 23446852, "nr": 0, "picture": "https://images.pexels.com/videos/28962956/pictures/preview-0.jpg"}, {"id": 23446853, "nr": 1, "picture": "https://images.pexels.com/videos/28962956/pictures/preview-1.jpg"}, {"id": 23446854, "nr": 2, "picture": "https://images.pexels.com/videos/28962956/pictures/preview-2.jpg"}, {"id": 23446855, "nr": 3, "picture": "https://images.pexels.com/videos/28962956/pictures/preview-3.jpg"}, {"id": 23446856, "nr": 4, "picture": "https://images.pexels.com/videos/28962956/pictures/preview-4.jpg"}, {"id": 23446857, "nr": 5, "picture": "https://images.pexels.com/videos/28962956/pictures/preview-5.jpg"}, {"id": 23446858, "nr": 6, "picture": "https://images.pexels.com/videos/28962956/pictures/preview-6.jpg"}, {"id": 23446859, "nr": 7, "picture": "https://images.pexels.com/videos/28962956/pictures/preview-7.jpg"}, {"id": 23446860, "nr": 8, "picture": "https://images.pexels.com/videos/28962956/pictures/preview-8.jpg"}, {"id": 23446861, "nr": 9, "picture": "https://images.pexels.com/videos/28962956/pictures/preview-9.jpg"}, {"id": 23446862, "nr": 10, "picture": "https://images.pexels.com/videos/28962956/pictures/preview-10.jpg"}]}, {"id": 11406753, "width": 1080, "height": 1920, "duration": 15, "full_res": null, "tags": [], "url": "https://www.pexels.com/video/ladybird-on-leaves-11406753/", "image": "https://images.pexels.com/videos/11406753/pexels-photo-11406753.jpeg?auto=compress&cs=tinysrgb&fit=crop&h=1200&w=630", "avg_color": null, "user": {"id": 49520, "name": "Feel of the  Nature", "url": "https://www.pexels.com/@feelofthenature"}, "video_files": [{"id": 4963491, "quality": "hd", "file_type": "video/mp4", "width": 1080, "height": 1920, "fps": 60.0, "link": "https://videos.pexels.com/video-files/11406753/11406753-hd_1080_1920_60fps.mp4", "size": 10385714}, {"id": 4963492, "quality": "hd", "file_type": "video/mp4", "width": 720, "height": 1280, "fps": 60.0, "link": "https://videos.pexels.com/video-files/11406753/11406753-hd_720_1280_60fps.mp4", "size": 5147794}, {"id": 4963493, "quality": "sd", "file_type": "video/mp4", "width": 240, "height": 426, "fps": 30.0, "link": "https://videos.pexels.com/video-files/11406753/11406753-sd_240_426_30fps.mp4", "size": 624054}, {"id": 4963494, "quality": "sd", "file_type": "video/mp4", "width": 360, "height": 640, "fps": 30.0, "link": "https://videos.pexels.com/video-files/11406753/11406753-sd_360_640_30fps.mp4", "size": 1085574}, {"id": 4963495, "quality": "sd", "file_type": "video/mp4", "width": 540, "height": 960, "fps": 30.0, "link": "https://videos.pexels.com/video-files/11406753/11406753-sd_540_960_30fps.mp4", "size": 2548029}], "video_pictures": [{"id": 12070060, "nr": 0, "picture": "https://images.pexels.com/videos/11406753/pictures/preview-0.jpeg"}, {"id": 12070061, "nr": 1, "picture": "https://images.pexels.com/videos/11406753/pictures/preview-1.jpeg"}, {"id": 12070062, "nr": 2, "picture": "https://images.pexels.com/videos/11406753/pictures/preview-2.jpeg"}, {"id": 12070063, "nr": 3, "picture": "https://images.pexels.com/videos/11406753/pictures/preview-3.jpeg"}, {"id": 12070064, "nr": 4, "picture": "https://images.pexels.com/videos/11406753/pictures/preview-4.jpeg"}, {"id": 12070065, "nr": 5, "picture": "https://images.pexels.com/videos/11406753/pictures/preview-5.jpeg"}, {"id": 12070066, "nr": 6, "picture": "https://images.pexels.com/videos/11406753/pictures/preview-6.jpeg"}, {"id": 12070067, "nr": 7, "picture": "https://images.pexels.com/videos/11406753/pictures/preview-7.jpeg"}, {"id": 12070068, "nr": 8, "picture": "https://images.pexels.com/videos/11406753/pictures/preview-8.jpeg"}, {"id": 12070069, "nr": 9, "picture": "https://images.pexels.com/videos/11406753/pictures/preview-9.jpeg"}, {"id": 12070070, "nr": 10, "picture": "https://images.pexels.com/videos/11406753/pictures/preview-10.jpeg"}, {"id": 12070071, "nr": 11, "picture": "https://images.pexels.com/videos/11406753/pictures/preview-11.jpeg"}, {"id": 12070072, "nr": 12, "picture": "https://images.pexels.com/videos/11406753/pictures/preview-12.jpeg"}, {"id": 12070073, "nr": 13, "picture": "https://images.pexels.com/videos/11406753/pictures/preview-13.jpeg"}, {"id": 12070074, "nr": 14, "picture": "https://images.pexels.com/videos/11406753/pictures/preview-14.jpeg"}]}, {"id": 18972748, "width": 2160, "height": 3840, "duration": 14, "full_res": null, "tags": [], "url": "https://www.pexels.com/video/alkali-bee-18972748/", "image": "https://images.pexels.com/videos/18972748/4k-video-aerial-photography-butterfly-insect-honey-bee-18972748.jpeg?auto=compress&cs=tinysrgb&fit=crop&h=1200&w=630", "avg_color": null, "user": {"id": 150087735, "name": "Arup Kamat", "url": "https://www.pexels.com/@arup-kamat-150087735"}, "video_files": [{"id": 8132958, "quality": "hd", "file_type": "video/mp4", "width": 1080, "height": 1920, "fps": 29.969999313354492, "link": "https://videos.pexels.com/video-files/18972748/18972748-hd_1080_1920_30fps.mp4", "size": 7575441}, {"id": 8132959, "quality": "sd", "file_type": "video/mp4", "width": 240, "height": 426, "fps": 29.969999313354492, "link": "https://videos.pexels.com/video-files/18972748/18972748-sd_240_426_30fps.mp4", "size": 746431}, {"id": 8132960, "quality": "hd", "file_type": "video/mp4", "width": 720, "height": 1280, "fps": 29.969999313354492, "link": "https://videos.pexels.com/video-files/18972748/18972748-hd_720_1280_30fps.mp4", "size": 3025873}, {"id": 8132961, "quality": "uhd", "file_type": "video/mp4", "width": 2160, "height": 3840, "fps": 29.969999313354492, "link": "https://videos.pexels.com/video-files/18972748/18972748-uhd_2160_3840_30fps.mp4", "size": 46992505}, {"id": 8132962, "quality": "sd", "file_type": "video/mp4", "width": 540, "height": 960, "fps": 29.969999313354492, "link": "https://videos.pexels.com/video-files/18972748/18972748-sd_540_960_30fps.mp4", "size": 1699300}, {"id": 8132963, "quality": "sd", "file_type": "video/mp4", "width": 360, "height": 640, "fps": 29.969999313354492, "link": "https://videos.pexels.com/video-files/18972748/18972748-sd_360_640_30fps.mp4", "size": 1092237}, {"id": 8132964, "quality": "uhd", "file_type": "video/mp4", "width": 1440, "height": 2560, "fps": 29.969999313354492, "link": "https://videos.pexels.com/video-files/18972748/18972748-uhd_1440_2560_30fps.mp4", "size": 23448125}], "video_pictures": [{"id": 19773277, "nr": 0, "picture": "https://images.pexels.com/videos/18972748/pictures/preview-0.jpeg"}, {"id": 19773284, "nr": 1, "picture": "https://images.pexels.com/videos/18972748/pictures/preview-1.jpeg"}, {"id": 19773291, "nr": 2, "picture": "https://images.pexels.com/videos/18972748/pictures/preview-2.jpeg"}, {"id": 19773295, "nr": 3, "picture": "https://images.pexels.com/videos/18972748/pictures/preview-3.jpeg"}, {"id": 19773298, "nr": 4, "picture": "https://images.pexels.com/videos/18972748/pictures/preview-4.jpeg"}, {"id": 19773302, "nr": 5, "picture": "https://images.pexels.com/videos/18972748/pictures/preview-5.jpeg"}, {"id": 19773306, "nr": 6, "picture": "https://images.pexels.com/videos/18972748/pictures/preview-6.jpeg"}, {"id": 19773310, "nr": 7, "picture": "https://images.pexels.com/videos/18972748/pictures/preview-7.jpeg"}, {"id": 19773315, "nr": 8, "picture": "https://images.pexels.com/videos/18972748/pictures/preview-8.jpeg"}, {"id": 19773319, "nr": 9, "picture": "https://images.pexels.com/videos/18972748/pictures/preview-9.jpeg"}, {"id": 19773323, "nr": 10, "picture": "https://images.pexels.com/videos/18972748/pictures/preview-10.jpeg"}, {"id": 19773327, "nr": 11, "picture": "https://images.pexels.com/videos/18972748/pictures/preview-11.jpeg"}, {"id": 19773331, "nr": 12, "picture": "https://images.pexels.com/videos/18972748/pictures/preview-12.jpeg"}, {"id": 19773335, "nr": 13, "picture": "https://images.pexels.com/videos/18972748/pictures/preview-13.jpeg"}, {"id": 19773338, "nr": 14, "picture": "https://images.pexels.com/videos/18972748/pictures/preview-14.jpeg"}]}, {"id": 10753946, "width": 2160, "height": 3840, "duration": 24, "full_res": null, "tags": [], "url": "https://www.pexels.com/video/close-up-on-ladybug-on-leaf-10753946/", "image": "https://images.pexels.com/videos/10753946/beetle-ladybud-red-ladybug-10753946.jpeg?auto=compress&cs=tinysrgb&fit=crop&h=1200&w=630", "avg_color": null, "user": {"id": 155315736, "name": "Lakshya  Lamba", "url": "https://www.pexels.com/@lakshya-lamba-155315736"}, "video_files": [{"id": 11273311, "quality": "uhd", "file_type": "video/mp4", "width": 1440, "height": 2560, "fps": 30.0, "link": "https://videos.pexels.com/video-files/10753946/10753946-uhd_1440_2560_30fps.mp4", "size": 31555407}, {"id": 11273347, "quality": "uhd", "file_type": "video/mp4", "width": 2160, "height": 3840, "fps": 30.0, "link": "https://videos.pexels.com/video-files/10753946/10753946-uhd_2160_3840_30fps.mp4", "size": 63350631}, {"id": 11273376, "quality": "hd", "file_type": "video/mp4", "width": 720, "height": 1280, "fps": 60.0, "link": "https://videos.pexels.com/video-files/10753946/10753946-hd_720_1280_60fps.mp4", "size": 8914500}, {"id": 11273387, "quality": "sd", "file_type": "video/mp4", "width": 240, "height": 426, "fps": 30.0, "link": "https://videos.pexels.com/video-files/10753946/10753946-sd_240_426_30fps.mp4", "size": 1073590}, {"id": 11273413, "quality": "sd", "file_type": "video/mp4", "width": 540, "height": 960, "fps": 30.0, "link": "https://videos.pexels.com/video-files/10753946/10753946-sd_540_960_30fps.mp4", "size": 4582613}, {"id": 11273449, "quality": "hd", "file_type": "video/mp4", "width": 1080, "height": 1920, "fps": 30.0, "link": "https://videos.pexels.com/video-files/10753946/10753946-hd_1080_1920_30fps.mp4", "size": 15284828}, {"id": 11273465, "quality": "sd", "file_type": "video/mp4", "width": 360, "height": 640, "fps": 30.0, "link": "https://videos.pexels.com/video-files/10753946/10753946-sd_360_640_30fps.mp4", "size": 1776842}], "video_pictures": [{"id": 11370877, "nr": 0, "picture": "https://images.pexels.com/videos/10753946/pictures/preview-0.jpeg"}, {"id": 11370879, "nr": 1, "picture": "https://images.pexels.com/videos/10753946/pictures/preview-1.jpeg"}, {"id": 11370881, "nr": 2, "picture": "https://images.pexels.com/videos/10753946/pictures/preview-2.jpeg"}, {"id": 11370883, "nr": 3, "picture": "https://images.pexels.com/videos/10753946/pictures/preview-3.jpeg"}, {"id": 11370884, "nr": 4, "picture": "https://images.pexels.com/videos/10753946/pictures/preview-4.jpeg"}, {"id": 11370886, "nr": 5, "picture": "https://images.pexels.com/videos/10753946/pictures/preview-5.jpeg"}, {"id": 11370888, "nr": 6, "picture": "https://images.pexels.com/videos/10753946/pictures/preview-6.jpeg"}, {"id": 11370890, "nr": 7, "picture": "https://images.pexels.com/videos/10753946/pictures/preview-7.jpeg"}, {"id": 11370892, "nr": 8, "picture": "https://images.pexels.com/videos/10753946/pictures/preview-8.jpeg"}, {"id": 11370894, "nr": 9, "picture": "https://images.pexels.com/videos/10753946/pictures/preview-9.jpeg"}, {"id": 11370896, "nr": 10, "picture": "https://images.pexels.com/videos/10753946/pictures/preview-10.jpeg"}, {"id": 11370898, "nr": 11, "picture": "https://images.pexels.com/videos/10753946/pictures/preview-11.jpeg"}, {"id": 11370900, "nr": 12, "picture": "https://images.pexels.com/videos/10753946/pictures/preview-12.jpeg"}, {"id": 11370901, "nr": 13, "picture": "https://images.pexels.com/videos/10753946/pictures/preview-13.jpeg"}, {"id": 11370902, "nr": 14, "picture": "https://images.pexels.com/videos/10753946/pictures/preview-14.jpeg"}]}, {"id": 18513241, "width": 1080, "height": 1920, "duration": 5, "full_res": null, "tags": [], "url": "https://www.pexels.com/video/a-fly-is-sitting-on-top-of-a-blade-of-grass-18513241/", "image": "https://images.pexels.com/videos/18513241/pexels-photo-18513241.jpeg?auto=compress&cs=tinysrgb&fit=crop&h=1200&w=630", "avg_color": null, "user": {"id": 422917312, "name": "Tuhin Afridi", "url": "https://www.pexels.com/@tuhin-afridi-422917312"}, "video_files": [{"id": 7866422, "quality": "sd", "file_type": "video/mp4", "width": 360, "height": 640, "fps": 29.969999313354492, "link": "https://videos.pexels.com/video-files/18513241/18513241-sd_360_640_30fps.mp4", "size": 385215}, {"id": 7866423, "quality": "hd", "file_type": "video/mp4", "width": 1080, "height": 1920, "fps": 29.969999313354492, "link": "https://videos.pexels.com/video-files/18513241/18513241-hd_1080_1920_30fps.mp4", "size": 3142400}, {"id": 7866424, "quality": "hd", "file_type": "video/mp4", "width": 720, "height": 1280, "fps": 29.969999313354492, "link": "https://videos.pexels.com/video-files/18513241/18513241-hd_720_1280_30fps.mp4", "size": 1065308}, {"id": 7866425, "quality": "sd", "file_type": "video/mp4", "width": 240, "height": 426, "fps": 29.969999313354492, "link": "https://videos.pexels.com/video-files/18513241/18513241-sd_240_426_30fps.mp4", "size": 269118}, {"id": 7866426, "quality": "sd", "file_type": "video/mp4", "width": 540, "height": 960, "fps": 29.969999313354492, "link": "https://videos.pexels.com/video-files/18513241/18513241-sd_540_960_30fps.mp4", "size": 646039}], "video_pictures": [{"id": 19330941, "nr": 0, "picture": "https://images.pexels.com/videos/18513241/pictures/preview-0.jpeg"}, {"id": 19330943, "nr": 1, "picture": "https://images.pexels.com/videos/18513241/pictures/preview-1.jpeg"}, {"id": 19330946, "nr": 2, "picture": "https://images.pexels.com/videos/18513241/pictures/preview-2.jpeg"}, {"id": 19330948, "nr": 3, "picture": "https://images.pexels.com/videos/18513241/pictures/preview-3.jpeg"}, {"id": 19330951, "nr": 4, "picture": "https://images.pexels.com/videos/18513241/pictures/preview-4.jpeg"}, {"id": 19330953, "nr": 5, "picture": "https://images.pexels.com/videos/18513241/pictures/preview-5.jpeg"}, {"id": 19330957, "nr": 6, "picture": "https://images.pexels.com/videos/18513241/pictures/preview-6.jpeg"}, {"id": 19330963, "nr": 7, "picture": "https://images.pexels.com/videos/18513241/pictures/preview-7.jpeg"}, {"id": 19330969, "nr": 8, "picture": "https://images.pexels.com/videos/18513241/pictures/preview-8.jpeg"}, {"id": 19330974, "nr": 9, "picture": "https://images.pexels.com/videos/18513241/pictures/preview-9.jpeg"}, {"id": 19330977, "nr": 10, "picture": "https://images.pexels.com/videos/18513241/pictures/preview-10.jpeg"}, {"id": 19330981, "nr": 11, "picture": "https://images.pexels.com/videos/18513241/pictures/preview-11.jpeg"}, {"id": 19330985, "nr": 12, "picture": "https://images.pexels.com/videos/18513241/pictures/preview-12.jpeg"}, {"id": 19330988, "nr": 13, "picture": "https://images.pexels.com/videos/18513241/pictures/preview-13.jpeg"}, {"id": 19330991, "nr": 14, "picture": "https://images.pexels.com/videos/18513241/pictures/preview-14.jpeg"}]}, {"id": 26571749, "width": 1080, "height": 1920, "duration": 16, "full_res": null, "tags": [], "url": "https://www.pexels.com/video/a-ladybug-on-a-leaf-with-the-words-what-is-the-difference-between-a-ladybug-and-a-ladybird-26571749/", "image": "https://images.pexels.com/videos/26571749/pexels-photo-26571749.jpeg?auto=compress&cs=tinysrgb&fit=crop&h=1200&w=630", "avg_color": null, "user": {"id": 49520, "name": "Feel of the  Nature", "url": "https://www.pexels.com/@feelofthenature"}, "video_files": [{"id": 11961972, "quality": null, "file_type": "video/mp4", "width": 360, "height": 640, "fps": 60.0, "link": "https://videos.pexels.com/video-files/26571749/11961972_360_640_60fps.mp4", "size": 3030712}, {"id": 11961973, "quality": null, "file_type": "video/mp4", "width": 540, "height": 960, "fps": 60.0, "link": "https://videos.pexels.com/video-files/26571749/11961973_540_960_60fps.mp4", "size": 6496386}, {"id": 11961974, "quality": null, "file_type": "video/mp4", "width": 720, "height": 1280, "fps": 60.0, "link": "https://videos.pexels.com/video-files/26571749/11961974_720_1280_60fps.mp4", "size": 10961492}, {"id": 11961975, "quality": null, "file_type": "video/mp4", "width": 1080, "height": 1920, "fps": 60.0, "link": "https://videos.pexels.com/video-files/26571749/11961975_1080_1920_60fps.mp4", "size": 24546319}], "video_pictures": [{"id": 22006303, "nr": 0, "picture": "https://images.pexels.com/videos/26571749/pictures/preview-0.jpg"}, {"id": 22006304, "nr": 1, "picture": "https://images.pexels.com/videos/26571749/pictures/preview-1.jpg"}, {"id": 22006305, "nr": 2, "picture": "https://images.pexels.com/videos/26571749/pictures/preview-2.jpg"}, {"id": 22006306, "nr": 3, "picture": "https://images.pexels.com/videos/26571749/pictures/preview-3.jpg"}, {"id": 22006307, "nr": 4, "picture": "https://images.pexels.com/videos/26571749/pictures/preview-4.jpg"}, {"id": 22006308, "nr": 5, "picture": "https://images.pexels.com/videos/26571749/pictures/preview-5.jpg"}, {"id": 22006309, "nr": 6, "picture": "https://images.pexels.com/videos/26571749/pictures/preview-6.jpg"}, {"id": 22006310, "nr": 7, "picture": "https://images.pexels.com/videos/26571749/pictures/preview-7.jpg"}, {"id": 22006311, "nr": 8, "picture": "https://images.pexels.com/videos/26571749/pictures/preview-8.jpg"}, {"id": 22006312, "nr": 9, "picture": "https://images.pexels.com/videos/26571749/pictures/preview-9.jpg"}, {"id": 22006313, "nr": 10, "picture": "https://images.pexels.com/videos/26571749/pictures/preview-10.jpg"}, {"id": 22006314, "nr": 11, "picture": "https://images.pexels.com/videos/26571749/pictures/preview-11.jpg"}, {"id": 22006315, "nr": 12, "picture": "https://images.pexels.com/videos/26571749/pictures/preview-12.jpg"}, {"id": 22006316, "nr": 13, "picture": "https://images.pexels.com/videos/26571749/pictures/preview-13.jpg"}, {"id": 22006317, "nr": 14, "picture": "https://images.pexels.com/videos/26571749/pictures/preview-14.jpg"}]}], "total_results": 5158, "next_page": "https://api.pexels.com/v1/videos/search/?orientation=portrait&page=2&per_page=8&query=garden+pests", "url": "https://api-server.pexels.com/search/videos/garden%20pests/"}, "timestamp": "2024-12-28T22:41:56.968549"}
