{"query": "not vegetables", "response": {"page": 1, "per_page": 8, "videos": [{"id": 29966860, "width": 2160, "height": 3840, "duration": 6, "full_res": null, "tags": [], "url": "https://www.pexels.com/video/delicious-beef-stir-fry-with-rice-and-vegetables-29966860/", "image": "https://images.pexels.com/videos/29966860/360-lounge-baghdad-29966860.jpeg?auto=compress&cs=tinysrgb&fit=crop&h=1200&w=630", "avg_color": null, "user": {"id": 3659120, "name": "khezez  | \u062e\u0632\u0627\u0632", "url": "https://www.pexels.com/@khezez"}, "video_files": [{"id": 12860207, "quality": null, "file_type": "video/mp4", "width": 360, "height": 640, "fps": 30.0, "link": "https://videos.pexels.com/video-files/29966860/12860207_360_640_30fps.mp4", "size": 898609}, {"id": 12860208, "quality": null, "file_type": "video/mp4", "width": 540, "height": 960, "fps": 30.0, "link": "https://videos.pexels.com/video-files/29966860/12860208_540_960_30fps.mp4", "size": 1521695}, {"id": 12860209, "quality": null, "file_type": "video/mp4", "width": 720, "height": 1280, "fps": 30.0, "link": "https://videos.pexels.com/video-files/29966860/12860209_720_1280_30fps.mp4", "size": 2265554}, {"id": 12860210, "quality": null, "file_type": "video/mp4", "width": 1080, "height": 1920, "fps": 30.0, "link": "https://videos.pexels.com/video-files/29966860/12860210_1080_1920_30fps.mp4", "size": 4722450}, {"id": 12860211, "quality": null, "file_type": "video/mp4", "width": 1440, "height": 2560, "fps": 30.0, "link": "https://videos.pexels.com/video-files/29966860/12860211_1440_2560_30fps.mp4", "size": 7918021}, {"id": 12860212, "quality": null, "file_type": "video/mp4", "width": 2160, "height": 3840, "fps": 30.0, "link": "https://videos.pexels.com/video-files/29966860/12860212_2160_3840_30fps.mp4", "size": 19982604}], "video_pictures": [{"id": 24327801, "nr": 0, "picture": "https://images.pexels.com/videos/29966860/pictures/preview-0.jpg"}, {"id": 24327802, "nr": 1, "picture": "https://images.pexels.com/videos/29966860/pictures/preview-1.jpg"}, {"id": 24327803, "nr": 2, "picture": "https://images.pexels.com/videos/29966860/pictures/preview-2.jpg"}, {"id": 24327804, "nr": 3, "picture": "https://images.pexels.com/videos/29966860/pictures/preview-3.jpg"}, {"id": 24327805, "nr": 4, "picture": "https://images.pexels.com/videos/29966860/pictures/preview-4.jpg"}]}, {"id": 9969026, "width": 1152, "height": 2048, "duration": 11, "full_res": null, "tags": [], "url": "https://www.pexels.com/video/flower-vase-on-the-wooden-table-9969026/", "image": "https://images.pexels.com/videos/9969026/pexels-photo-9969026.jpeg?auto=compress&cs=tinysrgb&fit=crop&h=1200&w=630", "avg_color": null, "user": {"id": 2278756, "name": "Vlada Karpovich", "url": "https://www.pexels.com/@vlada-karpovich"}, "video_files": [{"id": 11195664, "quality": "hd", "file_type": "video/mp4", "width": 720, "height": 1280, "fps": 25.0, "link": "https://videos.pexels.com/video-files/9969026/9969026-hd_720_1280_25fps.mp4", "size": 2470299}, {"id": 11195753, "quality": "hd", "file_type": "video/mp4", "width": 1080, "height": 1920, "fps": 25.0, "link": "https://videos.pexels.com/video-files/9969026/9969026-hd_1080_1920_25fps.mp4", "size": 4697876}, {"id": 11195901, "quality": "sd", "file_type": "video/mp4", "width": 540, "height": 960, "fps": 25.0, "link": "https://videos.pexels.com/video-files/9969026/9969026-sd_540_960_25fps.mp4", "size": 1513941}, {"id": 11195952, "quality": "sd", "file_type": "video/mp4", "width": 360, "height": 640, "fps": 25.0, "link": "https://videos.pexels.com/video-files/9969026/9969026-sd_360_640_25fps.mp4", "size": 729899}], "video_pictures": [{"id": 10412298, "nr": 0, "picture": "https://images.pexels.com/videos/9969026/pictures/preview-0.jpeg"}, {"id": 10412310, "nr": 1, "picture": "https://images.pexels.com/videos/9969026/pictures/preview-1.jpeg"}, {"id": 10412321, "nr": 2, "picture": "https://images.pexels.com/videos/9969026/pictures/preview-2.jpeg"}, {"id": 10412330, "nr": 3, "picture": "https://images.pexels.com/videos/9969026/pictures/preview-3.jpeg"}, {"id": 10412340, "nr": 4, "picture": "https://images.pexels.com/videos/9969026/pictures/preview-4.jpeg"}, {"id": 10412352, "nr": 5, "picture": "https://images.pexels.com/videos/9969026/pictures/preview-5.jpeg"}, {"id": 10412361, "nr": 6, "picture": "https://images.pexels.com/videos/9969026/pictures/preview-6.jpeg"}, {"id": 10412367, "nr": 7, "picture": "https://images.pexels.com/videos/9969026/pictures/preview-7.jpeg"}, {"id": 10412378, "nr": 8, "picture": "https://images.pexels.com/videos/9969026/pictures/preview-8.jpeg"}, {"id": 10412390, "nr": 9, "picture": "https://images.pexels.com/videos/9969026/pictures/preview-9.jpeg"}, {"id": 10412402, "nr": 10, "picture": "https://images.pexels.com/videos/9969026/pictures/preview-10.jpeg"}, {"id": 10412410, "nr": 11, "picture": "https://images.pexels.com/videos/9969026/pictures/preview-11.jpeg"}, {"id": 10412423, "nr": 12, "picture": "https://images.pexels.com/videos/9969026/pictures/preview-12.jpeg"}, {"id": 10412432, "nr": 13, "picture": "https://images.pexels.com/videos/9969026/pictures/preview-13.jpeg"}, {"id": 10412439, "nr": 14, "picture": "https://images.pexels.com/videos/9969026/pictures/preview-14.jpeg"}]}, {"id": 8416595, "width": 1080, "height": 1920, "duration": 17, "full_res": null, "tags": [], "url": "https://www.pexels.com/video/different-foods-on-a-picnic-blanket-8416595/", "image": "https://images.pexels.com/videos/8416595/cooking-cuisine-delicious-diet-8416595.jpeg?auto=compress&cs=tinysrgb&fit=crop&h=1200&w=630", "avg_color": null, "user": {"id": 30353109, "name": "SHVETS production", "url": "https://www.pexels.com/@shvets-production"}, "video_files": [{"id": 10815522, "quality": "sd", "file_type": "video/mp4", "width": 240, "height": 426, "fps": 25.0, "link": "https://videos.pexels.com/video-files/8416595/8416595-sd_240_426_25fps.mp4", "size": 733126}, {"id": 10815634, "quality": "hd", "file_type": "video/mp4", "width": 1080, "height": 1920, "fps": 25.0, "link": "https://videos.pexels.com/video-files/8416595/8416595-hd_1080_1920_25fps.mp4", "size": 8714133}, {"id": 10815701, "quality": "hd", "file_type": "video/mp4", "width": 720, "height": 1280, "fps": 25.0, "link": "https://videos.pexels.com/video-files/8416595/8416595-hd_720_1280_25fps.mp4", "size": 4568399}, {"id": 10815820, "quality": "sd", "file_type": "video/mp4", "width": 540, "height": 960, "fps": 25.0, "link": "https://videos.pexels.com/video-files/8416595/8416595-sd_540_960_25fps.mp4", "size": 2598145}, {"id": 10815868, "quality": "sd", "file_type": "video/mp4", "width": 360, "height": 640, "fps": 25.0, "link": "https://videos.pexels.com/video-files/8416595/8416595-sd_360_640_25fps.mp4", "size": 986075}], "video_pictures": [{"id": 8185255, "nr": 0, "picture": "https://images.pexels.com/videos/8416595/pictures/preview-0.jpeg"}, {"id": 8185263, "nr": 1, "picture": "https://images.pexels.com/videos/8416595/pictures/preview-1.jpeg"}, {"id": 8185274, "nr": 2, "picture": "https://images.pexels.com/videos/8416595/pictures/preview-2.jpeg"}, {"id": 8185285, "nr": 3, "picture": "https://images.pexels.com/videos/8416595/pictures/preview-3.jpeg"}, {"id": 8185296, "nr": 4, "picture": "https://images.pexels.com/videos/8416595/pictures/preview-4.jpeg"}, {"id": 8185310, "nr": 5, "picture": "https://images.pexels.com/videos/8416595/pictures/preview-5.jpeg"}, {"id": 8185322, "nr": 6, "picture": "https://images.pexels.com/videos/8416595/pictures/preview-6.jpeg"}, {"id": 8185331, "nr": 7, "picture": "https://images.pexels.com/videos/8416595/pictures/preview-7.jpeg"}, {"id": 8185343, "nr": 8, "picture": "https://images.pexels.com/videos/8416595/pictures/preview-8.jpeg"}, {"id": 8185355, "nr": 9, "picture": "https://images.pexels.com/videos/8416595/pictures/preview-9.jpeg"}, {"id": 8185366, "nr": 10, "picture": "https://images.pexels.com/videos/8416595/pictures/preview-10.jpeg"}, {"id": 8185378, "nr": 11, "picture": "https://images.pexels.com/videos/8416595/pictures/preview-11.jpeg"}, {"id": 8185392, "nr": 12, "picture": "https://images.pexels.com/videos/8416595/pictures/preview-12.jpeg"}, {"id": 8185400, "nr": 13, "picture": "https://images.pexels.com/videos/8416595/pictures/preview-13.jpeg"}, {"id": 8185411, "nr": 14, "picture": "https://images.pexels.com/videos/8416595/pictures/preview-14.jpeg"}]}, {"id": 5645107, "width": 1080, "height": 1920, "duration": 30, "full_res": null, "tags": [], "url": "https://www.pexels.com/video/top-view-of-a-person-slicing-cherry-tomatoes-using-a-knife-5645107/", "image": "https://images.pexels.com/videos/5645107/breakfast-cherry-tomatoes-clean-eating-cooking-5645107.jpeg?auto=compress&cs=tinysrgb&fit=crop&h=1200&w=630", "avg_color": null, "user": {"id": 3511482, "name": "Polina Kovaleva", "url": "https://www.pexels.com/@polina-kovaleva"}, "video_files": [{"id": 9752387, "quality": "sd", "file_type": "video/mp4", "width": 540, "height": 960, "fps": 25.0, "link": "https://videos.pexels.com/video-files/5645107/5645107-sd_540_960_25fps.mp4", "size": 4832774}, {"id": 9752476, "quality": "hd", "file_type": "video/mp4", "width": 720, "height": 1280, "fps": 25.0, "link": "https://videos.pexels.com/video-files/5645107/5645107-hd_720_1280_25fps.mp4", "size": 8613916}, {"id": 9752485, "quality": "sd", "file_type": "video/mp4", "width": 240, "height": 426, "fps": 25.0, "link": "https://videos.pexels.com/video-files/5645107/5645107-sd_240_426_25fps.mp4", "size": 1149082}, {"id": 9752534, "quality": "sd", "file_type": "video/mp4", "width": 360, "height": 640, "fps": 25.0, "link": "https://videos.pexels.com/video-files/5645107/5645107-sd_360_640_25fps.mp4", "size": 1776062}, {"id": 9752844, "quality": "hd", "file_type": "video/mp4", "width": 1080, "height": 1920, "fps": 25.0, "link": "https://videos.pexels.com/video-files/5645107/5645107-hd_1080_1920_25fps.mp4", "size": 18124583}], "video_pictures": [{"id": 3132981, "nr": 0, "picture": "https://images.pexels.com/videos/5645107/pictures/preview-0.jpeg"}, {"id": 3132982, "nr": 1, "picture": "https://images.pexels.com/videos/5645107/pictures/preview-1.jpeg"}, {"id": 3132983, "nr": 2, "picture": "https://images.pexels.com/videos/5645107/pictures/preview-2.jpeg"}, {"id": 3132984, "nr": 3, "picture": "https://images.pexels.com/videos/5645107/pictures/preview-3.jpeg"}, {"id": 3132985, "nr": 4, "picture": "https://images.pexels.com/videos/5645107/pictures/preview-4.jpeg"}, {"id": 3132986, "nr": 5, "picture": "https://images.pexels.com/videos/5645107/pictures/preview-5.jpeg"}, {"id": 3132987, "nr": 6, "picture": "https://images.pexels.com/videos/5645107/pictures/preview-6.jpeg"}, {"id": 3132988, "nr": 7, "picture": "https://images.pexels.com/videos/5645107/pictures/preview-7.jpeg"}, {"id": 3132989, "nr": 8, "picture": "https://images.pexels.com/videos/5645107/pictures/preview-8.jpeg"}, {"id": 3132990, "nr": 9, "picture": "https://images.pexels.com/videos/5645107/pictures/preview-9.jpeg"}, {"id": 3132991, "nr": 10, "picture": "https://images.pexels.com/videos/5645107/pictures/preview-10.jpeg"}, {"id": 3132992, "nr": 11, "picture": "https://images.pexels.com/videos/5645107/pictures/preview-11.jpeg"}, {"id": 3132993, "nr": 12, "picture": "https://images.pexels.com/videos/5645107/pictures/preview-12.jpeg"}, {"id": 3132994, "nr": 13, "picture": "https://images.pexels.com/videos/5645107/pictures/preview-13.jpeg"}, {"id": 3132995, "nr": 14, "picture": "https://images.pexels.com/videos/5645107/pictures/preview-14.jpeg"}]}, {"id": 12409707, "width": 2160, "height": 3840, "duration": 6, "full_res": null, "tags": [], "url": "https://www.pexels.com/video/slicing-fried-salmon-12409707/", "image": "https://images.pexels.com/videos/12409707/4k-video-gourmet-salad-12409707.jpeg?auto=compress&cs=tinysrgb&fit=crop&h=1200&w=630", "avg_color": null, "user": {"id": 3525678, "name": "\u5b87\u822a \u94b1", "url": "https://www.pexels.com/@3525678"}, "video_files": [{"id": 5411554, "quality": "uhd", "file_type": "video/mp4", "width": 1440, "height": 2560, "fps": 25.0, "link": "https://videos.pexels.com/video-files/12409707/12409707-uhd_1440_2560_25fps.mp4", "size": 8684772}, {"id": 5411555, "quality": "sd", "file_type": "video/mp4", "width": 360, "height": 640, "fps": 25.0, "link": "https://videos.pexels.com/video-files/12409707/12409707-sd_360_640_25fps.mp4", "size": 633853}, {"id": 5411556, "quality": "sd", "file_type": "video/mp4", "width": 540, "height": 960, "fps": 25.0, "link": "https://videos.pexels.com/video-files/12409707/12409707-sd_540_960_25fps.mp4", "size": 1230501}, {"id": 5411557, "quality": "sd", "file_type": "video/mp4", "width": 240, "height": 426, "fps": 25.0, "link": "https://videos.pexels.com/video-files/12409707/12409707-sd_240_426_25fps.mp4", "size": 423874}, {"id": 5411558, "quality": "hd", "file_type": "video/mp4", "width": 720, "height": 1280, "fps": 25.0, "link": "https://videos.pexels.com/video-files/12409707/12409707-hd_720_1280_25fps.mp4", "size": 2247883}, {"id": 5411559, "quality": "uhd", "file_type": "video/mp4", "width": 2160, "height": 3840, "fps": 25.0, "link": "https://videos.pexels.com/video-files/12409707/12409707-uhd_2160_3840_25fps.mp4", "size": 12769017}, {"id": 5411560, "quality": "hd", "file_type": "video/mp4", "width": 1080, "height": 1920, "fps": 25.0, "link": "https://videos.pexels.com/video-files/12409707/12409707-hd_1080_1920_25fps.mp4", "size": 5087218}], "video_pictures": [{"id": 13350617, "nr": 0, "picture": "https://images.pexels.com/videos/12409707/pictures/preview-0.jpeg"}, {"id": 13350622, "nr": 1, "picture": "https://images.pexels.com/videos/12409707/pictures/preview-1.jpeg"}, {"id": 13350628, "nr": 2, "picture": "https://images.pexels.com/videos/12409707/pictures/preview-2.jpeg"}, {"id": 13350635, "nr": 3, "picture": "https://images.pexels.com/videos/12409707/pictures/preview-3.jpeg"}, {"id": 13350642, "nr": 4, "picture": "https://images.pexels.com/videos/12409707/pictures/preview-4.jpeg"}, {"id": 13350649, "nr": 5, "picture": "https://images.pexels.com/videos/12409707/pictures/preview-5.jpeg"}, {"id": 13350656, "nr": 6, "picture": "https://images.pexels.com/videos/12409707/pictures/preview-6.jpeg"}, {"id": 13350665, "nr": 7, "picture": "https://images.pexels.com/videos/12409707/pictures/preview-7.jpeg"}, {"id": 13350675, "nr": 8, "picture": "https://images.pexels.com/videos/12409707/pictures/preview-8.jpeg"}, {"id": 13350688, "nr": 9, "picture": "https://images.pexels.com/videos/12409707/pictures/preview-9.jpeg"}, {"id": 13350697, "nr": 10, "picture": "https://images.pexels.com/videos/12409707/pictures/preview-10.jpeg"}, {"id": 13350707, "nr": 11, "picture": "https://images.pexels.com/videos/12409707/pictures/preview-11.jpeg"}, {"id": 13350714, "nr": 12, "picture": "https://images.pexels.com/videos/12409707/pictures/preview-12.jpeg"}, {"id": 13350720, "nr": 13, "picture": "https://images.pexels.com/videos/12409707/pictures/preview-13.jpeg"}, {"id": 13350725, "nr": 14, "picture": "https://images.pexels.com/videos/12409707/pictures/preview-14.jpeg"}]}, {"id": 7931711, "width": 2160, "height": 3840, "duration": 10, "full_res": null, "tags": [], "url": "https://www.pexels.com/video/a-person-making-a-shake-7931711/", "image": "https://images.pexels.com/videos/7931711/balanced-diet-breakfast-cold-cooking-7931711.jpeg?auto=compress&cs=tinysrgb&fit=crop&h=1200&w=630", "avg_color": null, "user": {"id": 48864519, "name": "Nicola Barts", "url": "https://www.pexels.com/@nicola-barts"}, "video_files": [{"id": 10618452, "quality": "sd", "file_type": "video/mp4", "width": 360, "height": 640, "fps": 23.97599983215332, "link": "https://videos.pexels.com/video-files/7931711/7931711-sd_360_640_24fps.mp4", "size": 539244}, {"id": 10618532, "quality": "sd", "file_type": "video/mp4", "width": 540, "height": 960, "fps": 23.97599983215332, "link": "https://videos.pexels.com/video-files/7931711/7931711-sd_540_960_24fps.mp4", "size": 1266144}, {"id": 10618631, "quality": "uhd", "file_type": "video/mp4", "width": 2160, "height": 3840, "fps": 23.97599983215332, "link": "https://videos.pexels.com/video-files/7931711/7931711-uhd_2160_3840_24fps.mp4", "size": 25318058}, {"id": 10618689, "quality": "sd", "file_type": "video/mp4", "width": 240, "height": 426, "fps": 23.97599983215332, "link": "https://videos.pexels.com/video-files/7931711/7931711-sd_240_426_24fps.mp4", "size": 374554}, {"id": 10618735, "quality": "hd", "file_type": "video/mp4", "width": 720, "height": 1280, "fps": 23.97599983215332, "link": "https://videos.pexels.com/video-files/7931711/7931711-hd_720_1280_24fps.mp4", "size": 2460979}, {"id": 10618832, "quality": "hd", "file_type": "video/mp4", "width": 1080, "height": 1920, "fps": 23.97599983215332, "link": "https://videos.pexels.com/video-files/7931711/7931711-hd_1080_1920_24fps.mp4", "size": 5569391}, {"id": 10618951, "quality": "uhd", "file_type": "video/mp4", "width": 1440, "height": 2560, "fps": 23.97599983215332, "link": "https://videos.pexels.com/video-files/7931711/7931711-uhd_1440_2560_24fps.mp4", "size": 11348660}], "video_pictures": [{"id": 7283773, "nr": 0, "picture": "https://images.pexels.com/videos/7931711/pictures/preview-0.jpeg"}, {"id": 7283779, "nr": 1, "picture": "https://images.pexels.com/videos/7931711/pictures/preview-1.jpeg"}, {"id": 7283802, "nr": 2, "picture": "https://images.pexels.com/videos/7931711/pictures/preview-2.jpeg"}, {"id": 7283809, "nr": 3, "picture": "https://images.pexels.com/videos/7931711/pictures/preview-3.jpeg"}, {"id": 7283824, "nr": 4, "picture": "https://images.pexels.com/videos/7931711/pictures/preview-4.jpeg"}, {"id": 7283833, "nr": 5, "picture": "https://images.pexels.com/videos/7931711/pictures/preview-5.jpeg"}, {"id": 7283843, "nr": 6, "picture": "https://images.pexels.com/videos/7931711/pictures/preview-6.jpeg"}, {"id": 7283860, "nr": 7, "picture": "https://images.pexels.com/videos/7931711/pictures/preview-7.jpeg"}, {"id": 7283872, "nr": 8, "picture": "https://images.pexels.com/videos/7931711/pictures/preview-8.jpeg"}, {"id": 7283880, "nr": 9, "picture": "https://images.pexels.com/videos/7931711/pictures/preview-9.jpeg"}, {"id": 7283896, "nr": 10, "picture": "https://images.pexels.com/videos/7931711/pictures/preview-10.jpeg"}, {"id": 7283920, "nr": 11, "picture": "https://images.pexels.com/videos/7931711/pictures/preview-11.jpeg"}, {"id": 7283939, "nr": 12, "picture": "https://images.pexels.com/videos/7931711/pictures/preview-12.jpeg"}, {"id": 7283949, "nr": 13, "picture": "https://images.pexels.com/videos/7931711/pictures/preview-13.jpeg"}, {"id": 7283956, "nr": 14, "picture": "https://images.pexels.com/videos/7931711/pictures/preview-14.jpeg"}]}, {"id": 4443524, "width": 1080, "height": 1614, "duration": 4, "full_res": null, "tags": [], "url": "https://www.pexels.com/video/person-pouring-green-juice-4443524/", "image": "https://images.pexels.com/videos/4443524/detox-fruits-healthy-juice-4443524.jpeg?auto=compress&cs=tinysrgb&fit=crop&h=1200&w=630", "avg_color": null, "user": {"id": 2104565, "name": "Polina Tankilevitch", "url": "https://www.pexels.com/@polina-tankilevitch"}, "video_files": [{"id": 9365938, "quality": "sd", "file_type": "video/mp4", "width": 240, "height": 360, "fps": 25.0, "link": "https://videos.pexels.com/video-files/4443524/4443524-sd_240_360_25fps.mp4", "size": 193529}, {"id": 9365954, "quality": "hd", "file_type": "video/mp4", "width": 1080, "height": 1614, "fps": 25.0, "link": "https://videos.pexels.com/video-files/4443524/4443524-hd_1080_1614_25fps.mp4", "size": 2806470}, {"id": 9365970, "quality": "sd", "file_type": "video/mp4", "width": 540, "height": 808, "fps": 25.0, "link": "https://videos.pexels.com/video-files/4443524/4443524-sd_540_808_25fps.mp4", "size": 923746}, {"id": 9365988, "quality": "sd", "file_type": "video/mp4", "width": 360, "height": 538, "fps": 25.0, "link": "https://videos.pexels.com/video-files/4443524/4443524-sd_360_538_25fps.mp4", "size": 331183}, {"id": 9366004, "quality": "hd", "file_type": "video/mp4", "width": 720, "height": 1076, "fps": 25.0, "link": "https://videos.pexels.com/video-files/4443524/4443524-hd_720_1076_25fps.mp4", "size": 1494495}], "video_pictures": [{"id": 1521677, "nr": 0, "picture": "https://images.pexels.com/videos/4443524/pictures/preview-0.jpeg"}, {"id": 1521686, "nr": 1, "picture": "https://images.pexels.com/videos/4443524/pictures/preview-1.jpeg"}, {"id": 1521690, "nr": 2, "picture": "https://images.pexels.com/videos/4443524/pictures/preview-2.jpeg"}, {"id": 1521698, "nr": 3, "picture": "https://images.pexels.com/videos/4443524/pictures/preview-3.jpeg"}, {"id": 1521703, "nr": 4, "picture": "https://images.pexels.com/videos/4443524/pictures/preview-4.jpeg"}, {"id": 1521708, "nr": 5, "picture": "https://images.pexels.com/videos/4443524/pictures/preview-5.jpeg"}, {"id": 1521712, "nr": 6, "picture": "https://images.pexels.com/videos/4443524/pictures/preview-6.jpeg"}, {"id": 1521717, "nr": 7, "picture": "https://images.pexels.com/videos/4443524/pictures/preview-7.jpeg"}, {"id": 1521722, "nr": 8, "picture": "https://images.pexels.com/videos/4443524/pictures/preview-8.jpeg"}, {"id": 1521726, "nr": 9, "picture": "https://images.pexels.com/videos/4443524/pictures/preview-9.jpeg"}, {"id": 1521731, "nr": 10, "picture": "https://images.pexels.com/videos/4443524/pictures/preview-10.jpeg"}, {"id": 1521734, "nr": 11, "picture": "https://images.pexels.com/videos/4443524/pictures/preview-11.jpeg"}, {"id": 1521738, "nr": 12, "picture": "https://images.pexels.com/videos/4443524/pictures/preview-12.jpeg"}, {"id": 1521744, "nr": 13, "picture": "https://images.pexels.com/videos/4443524/pictures/preview-13.jpeg"}, {"id": 1521747, "nr": 14, "picture": "https://images.pexels.com/videos/4443524/pictures/preview-14.jpeg"}]}, {"id": 7964467, "width": 2160, "height": 3840, "duration": 17, "full_res": null, "tags": [], "url": "https://www.pexels.com/video/women-shooting-a-vlog-7964467/", "image": "https://images.pexels.com/videos/7964467/pexels-photo-7964467.jpeg?auto=compress&cs=tinysrgb&fit=crop&h=1200&w=630", "avg_color": null, "user": {"id": 3649784, "name": "Kampus Production", "url": "https://www.pexels.com/@kampus"}, "video_files": [{"id": 10632692, "quality": "uhd", "file_type": "video/mp4", "width": 2160, "height": 3840, "fps": 25.0, "link": "https://videos.pexels.com/video-files/7964467/7964467-uhd_2160_3840_25fps.mp4", "size": 35965489}, {"id": 10632706, "quality": "hd", "file_type": "video/mp4", "width": 720, "height": 1280, "fps": 25.0, "link": "https://videos.pexels.com/video-files/7964467/7964467-hd_720_1280_25fps.mp4", "size": 5608294}, {"id": 10632742, "quality": "uhd", "file_type": "video/mp4", "width": 1440, "height": 2560, "fps": 25.0, "link": "https://videos.pexels.com/video-files/7964467/7964467-uhd_1440_2560_25fps.mp4", "size": 17893787}, {"id": 10632767, "quality": "hd", "file_type": "video/mp4", "width": 1080, "height": 1920, "fps": 25.0, "link": "https://videos.pexels.com/video-files/7964467/7964467-hd_1080_1920_25fps.mp4", "size": 10548807}, {"id": 10632771, "quality": "sd", "file_type": "video/mp4", "width": 540, "height": 960, "fps": 25.0, "link": "https://videos.pexels.com/video-files/7964467/7964467-sd_540_960_25fps.mp4", "size": 2833189}, {"id": 10632806, "quality": "sd", "file_type": "video/mp4", "width": 240, "height": 426, "fps": 25.0, "link": "https://videos.pexels.com/video-files/7964467/7964467-sd_240_426_25fps.mp4", "size": 742664}, {"id": 10632835, "quality": "sd", "file_type": "video/mp4", "width": 360, "height": 640, "fps": 25.0, "link": "https://videos.pexels.com/video-files/7964467/7964467-sd_360_640_25fps.mp4", "size": 1065458}], "video_pictures": [{"id": 7344092, "nr": 0, "picture": "https://images.pexels.com/videos/7964467/pictures/preview-0.jpeg"}, {"id": 7344095, "nr": 1, "picture": "https://images.pexels.com/videos/7964467/pictures/preview-1.jpeg"}, {"id": 7344099, "nr": 2, "picture": "https://images.pexels.com/videos/7964467/pictures/preview-2.jpeg"}, {"id": 7344104, "nr": 3, "picture": "https://images.pexels.com/videos/7964467/pictures/preview-3.jpeg"}, {"id": 7344109, "nr": 4, "picture": "https://images.pexels.com/videos/7964467/pictures/preview-4.jpeg"}, {"id": 7344114, "nr": 5, "picture": "https://images.pexels.com/videos/7964467/pictures/preview-5.jpeg"}, {"id": 7344121, "nr": 6, "picture": "https://images.pexels.com/videos/7964467/pictures/preview-6.jpeg"}, {"id": 7344129, "nr": 7, "picture": "https://images.pexels.com/videos/7964467/pictures/preview-7.jpeg"}, {"id": 7344139, "nr": 8, "picture": "https://images.pexels.com/videos/7964467/pictures/preview-8.jpeg"}, {"id": 7344152, "nr": 9, "picture": "https://images.pexels.com/videos/7964467/pictures/preview-9.jpeg"}, {"id": 7344164, "nr": 10, "picture": "https://images.pexels.com/videos/7964467/pictures/preview-10.jpeg"}, {"id": 7344175, "nr": 11, "picture": "https://images.pexels.com/videos/7964467/pictures/preview-11.jpeg"}, {"id": 7344189, "nr": 12, "picture": "https://images.pexels.com/videos/7964467/pictures/preview-12.jpeg"}, {"id": 7344198, "nr": 13, "picture": "https://images.pexels.com/videos/7964467/pictures/preview-13.jpeg"}, {"id": 7344209, "nr": 14, "picture": "https://images.pexels.com/videos/7964467/pictures/preview-14.jpeg"}]}], "total_results": 3797, "next_page": "https://api.pexels.com/v1/videos/search/?orientation=portrait&page=2&per_page=8&query=not+vegetables", "url": "https://api-server.pexels.com/search/videos/not%20vegetables/"}, "timestamp": "2024-12-30T19:43:43.956320"}
