{"query": "fruit plants", "response": {"page": 1, "per_page": 8, "videos": [{"id": 5527337, "width": 2160, "height": 3840, "duration": 13, "full_res": null, "tags": [], "url": "https://www.pexels.com/video/close-up-footage-of-grapes-growing-in-the-vineyard-5527337/", "image": "https://images.pexels.com/videos/5527337/pexels-photo-5527337.jpeg?auto=compress&cs=tinysrgb&fit=crop&h=1200&w=630", "avg_color": null, "user": {"id": 3651179, "name": "Zen Chung", "url": "https://www.pexels.com/@zen-chung"}, "video_files": [{"id": 9719475, "quality": "hd", "file_type": "video/mp4", "width": 1080, "height": 1920, "fps": 23.97599983215332, "link": "https://videos.pexels.com/video-files/5527337/5527337-hd_1080_1920_24fps.mp4", "size": 7068306}, {"id": 9719521, "quality": "hd", "file_type": "video/mp4", "width": 720, "height": 1280, "fps": 23.97599983215332, "link": "https://videos.pexels.com/video-files/5527337/5527337-hd_720_1280_24fps.mp4", "size": 3565006}, {"id": 9719552, "quality": "uhd", "file_type": "video/mp4", "width": 2160, "height": 3840, "fps": 23.97599983215332, "link": "https://videos.pexels.com/video-files/5527337/5527337-uhd_2160_3840_24fps.mp4", "size": 26785624}, {"id": 9719618, "quality": "sd", "file_type": "video/mp4", "width": 240, "height": 426, "fps": 23.97599983215332, "link": "https://videos.pexels.com/video-files/5527337/5527337-sd_240_426_24fps.mp4", "size": 571147}, {"id": 9719667, "quality": "sd", "file_type": "video/mp4", "width": 360, "height": 640, "fps": 23.97599983215332, "link": "https://videos.pexels.com/video-files/5527337/5527337-sd_360_640_24fps.mp4", "size": 977558}, {"id": 9719698, "quality": "uhd", "file_type": "video/mp4", "width": 1440, "height": 2560, "fps": 23.97599983215332, "link": "https://videos.pexels.com/video-files/5527337/5527337-uhd_1440_2560_24fps.mp4", "size": 12361989}, {"id": 9719754, "quality": "sd", "file_type": "video/mp4", "width": 540, "height": 960, "fps": 23.97599983215332, "link": "https://videos.pexels.com/video-files/5527337/5527337-sd_540_960_24fps.mp4", "size": 2151517}], "video_pictures": [{"id": 2945351, "nr": 0, "picture": "https://images.pexels.com/videos/5527337/pictures/preview-0.jpeg"}, {"id": 2945359, "nr": 1, "picture": "https://images.pexels.com/videos/5527337/pictures/preview-1.jpeg"}, {"id": 2945371, "nr": 2, "picture": "https://images.pexels.com/videos/5527337/pictures/preview-2.jpeg"}, {"id": 2945388, "nr": 3, "picture": "https://images.pexels.com/videos/5527337/pictures/preview-3.jpeg"}, {"id": 2945409, "nr": 4, "picture": "https://images.pexels.com/videos/5527337/pictures/preview-4.jpeg"}, {"id": 2945424, "nr": 5, "picture": "https://images.pexels.com/videos/5527337/pictures/preview-5.jpeg"}, {"id": 2945438, "nr": 6, "picture": "https://images.pexels.com/videos/5527337/pictures/preview-6.jpeg"}, {"id": 2945458, "nr": 7, "picture": "https://images.pexels.com/videos/5527337/pictures/preview-7.jpeg"}, {"id": 2945479, "nr": 8, "picture": "https://images.pexels.com/videos/5527337/pictures/preview-8.jpeg"}, {"id": 2945494, "nr": 9, "picture": "https://images.pexels.com/videos/5527337/pictures/preview-9.jpeg"}, {"id": 2945513, "nr": 10, "picture": "https://images.pexels.com/videos/5527337/pictures/preview-10.jpeg"}, {"id": 2945526, "nr": 11, "picture": "https://images.pexels.com/videos/5527337/pictures/preview-11.jpeg"}, {"id": 2945544, "nr": 12, "picture": "https://images.pexels.com/videos/5527337/pictures/preview-12.jpeg"}, {"id": 2945561, "nr": 13, "picture": "https://images.pexels.com/videos/5527337/pictures/preview-13.jpeg"}, {"id": 2945593, "nr": 14, "picture": "https://images.pexels.com/videos/5527337/pictures/preview-14.jpeg"}]}, {"id": 5045649, "width": 1080, "height": 1920, "duration": 7, "full_res": null, "tags": [], "url": "https://www.pexels.com/video/person-shaking-the-glass-of-wine-5045649/", "image": "https://images.pexels.com/videos/5045649/pexels-photo-5045649.jpeg?auto=compress&cs=tinysrgb&fit=crop&h=1200&w=630", "avg_color": null, "user": {"id": 2713790, "name": "Maksim Goncharenok", "url": "https://www.pexels.com/@maksgelatin"}, "video_files": [{"id": 9608444, "quality": "hd", "file_type": "video/mp4", "width": 720, "height": 1280, "fps": 25.0, "link": "https://videos.pexels.com/video-files/5045649/5045649-hd_720_1280_25fps.mp4", "size": 2417012}, {"id": 9608491, "quality": "sd", "file_type": "video/mp4", "width": 240, "height": 426, "fps": 25.0, "link": "https://videos.pexels.com/video-files/5045649/5045649-sd_240_426_25fps.mp4", "size": 318848}, {"id": 9608523, "quality": "sd", "file_type": "video/mp4", "width": 540, "height": 960, "fps": 25.0, "link": "https://videos.pexels.com/video-files/5045649/5045649-sd_540_960_25fps.mp4", "size": 1539183}, {"id": 9608577, "quality": "hd", "file_type": "video/mp4", "width": 1080, "height": 1920, "fps": 25.0, "link": "https://videos.pexels.com/video-files/5045649/5045649-hd_1080_1920_25fps.mp4", "size": 4525206}, {"id": 9608641, "quality": "sd", "file_type": "video/mp4", "width": 360, "height": 640, "fps": 25.0, "link": "https://videos.pexels.com/video-files/5045649/5045649-sd_360_640_25fps.mp4", "size": 551045}], "video_pictures": [{"id": 2288549, "nr": 0, "picture": "https://images.pexels.com/videos/5045649/pictures/preview-0.jpeg"}, {"id": 2288550, "nr": 1, "picture": "https://images.pexels.com/videos/5045649/pictures/preview-1.jpeg"}, {"id": 2288551, "nr": 2, "picture": "https://images.pexels.com/videos/5045649/pictures/preview-2.jpeg"}, {"id": 2288552, "nr": 3, "picture": "https://images.pexels.com/videos/5045649/pictures/preview-3.jpeg"}, {"id": 2288553, "nr": 4, "picture": "https://images.pexels.com/videos/5045649/pictures/preview-4.jpeg"}, {"id": 2288554, "nr": 5, "picture": "https://images.pexels.com/videos/5045649/pictures/preview-5.jpeg"}, {"id": 2288555, "nr": 6, "picture": "https://images.pexels.com/videos/5045649/pictures/preview-6.jpeg"}, {"id": 2288556, "nr": 7, "picture": "https://images.pexels.com/videos/5045649/pictures/preview-7.jpeg"}, {"id": 2288557, "nr": 8, "picture": "https://images.pexels.com/videos/5045649/pictures/preview-8.jpeg"}, {"id": 2288558, "nr": 9, "picture": "https://images.pexels.com/videos/5045649/pictures/preview-9.jpeg"}, {"id": 2288559, "nr": 10, "picture": "https://images.pexels.com/videos/5045649/pictures/preview-10.jpeg"}, {"id": 2288561, "nr": 11, "picture": "https://images.pexels.com/videos/5045649/pictures/preview-11.jpeg"}, {"id": 2288564, "nr": 12, "picture": "https://images.pexels.com/videos/5045649/pictures/preview-12.jpeg"}, {"id": 2288566, "nr": 13, "picture": "https://images.pexels.com/videos/5045649/pictures/preview-13.jpeg"}, {"id": 2288568, "nr": 14, "picture": "https://images.pexels.com/videos/5045649/pictures/preview-14.jpeg"}]}, {"id": 5528414, "width": 2160, "height": 3840, "duration": 9, "full_res": null, "tags": [], "url": "https://www.pexels.com/video/carrying-a-basket-full-of-harvested-grapes-5528414/", "image": "https://images.pexels.com/videos/5528414/pexels-photo-5528414.jpeg?auto=compress&cs=tinysrgb&fit=crop&h=1200&w=630", "avg_color": null, "user": {"id": 3651179, "name": "Zen Chung", "url": "https://www.pexels.com/@zen-chung"}, "video_files": [{"id": 9720187, "quality": "uhd", "file_type": "video/mp4", "width": 1440, "height": 2560, "fps": 23.97599983215332, "link": "https://videos.pexels.com/video-files/5528414/5528414-uhd_1440_2560_24fps.mp4", "size": 12797955}, {"id": 9720289, "quality": "uhd", "file_type": "video/mp4", "width": 2160, "height": 3840, "fps": 23.97599983215332, "link": "https://videos.pexels.com/video-files/5528414/5528414-uhd_2160_3840_24fps.mp4", "size": 23364840}, {"id": 9720312, "quality": "hd", "file_type": "video/mp4", "width": 720, "height": 1280, "fps": 23.97599983215332, "link": "https://videos.pexels.com/video-files/5528414/5528414-hd_720_1280_24fps.mp4", "size": 2893207}, {"id": 9720388, "quality": "hd", "file_type": "video/mp4", "width": 1080, "height": 1920, "fps": 23.97599983215332, "link": "https://videos.pexels.com/video-files/5528414/5528414-hd_1080_1920_24fps.mp4", "size": 5489920}, {"id": 9720431, "quality": "sd", "file_type": "video/mp4", "width": 240, "height": 426, "fps": 23.97599983215332, "link": "https://videos.pexels.com/video-files/5528414/5528414-sd_240_426_24fps.mp4", "size": 384940}, {"id": 9720513, "quality": "sd", "file_type": "video/mp4", "width": 360, "height": 640, "fps": 23.97599983215332, "link": "https://videos.pexels.com/video-files/5528414/5528414-sd_360_640_24fps.mp4", "size": 637609}, {"id": 9720570, "quality": "sd", "file_type": "video/mp4", "width": 540, "height": 960, "fps": 23.97599983215332, "link": "https://videos.pexels.com/video-files/5528414/5528414-sd_540_960_24fps.mp4", "size": 1809893}], "video_pictures": [{"id": 2952558, "nr": 0, "picture": "https://images.pexels.com/videos/5528414/pictures/preview-0.jpeg"}, {"id": 2952562, "nr": 1, "picture": "https://images.pexels.com/videos/5528414/pictures/preview-1.jpeg"}, {"id": 2952565, "nr": 2, "picture": "https://images.pexels.com/videos/5528414/pictures/preview-2.jpeg"}, {"id": 2952568, "nr": 3, "picture": "https://images.pexels.com/videos/5528414/pictures/preview-3.jpeg"}, {"id": 2952570, "nr": 4, "picture": "https://images.pexels.com/videos/5528414/pictures/preview-4.jpeg"}, {"id": 2952571, "nr": 5, "picture": "https://images.pexels.com/videos/5528414/pictures/preview-5.jpeg"}, {"id": 2952572, "nr": 6, "picture": "https://images.pexels.com/videos/5528414/pictures/preview-6.jpeg"}, {"id": 2952573, "nr": 7, "picture": "https://images.pexels.com/videos/5528414/pictures/preview-7.jpeg"}, {"id": 2952575, "nr": 8, "picture": "https://images.pexels.com/videos/5528414/pictures/preview-8.jpeg"}, {"id": 2952578, "nr": 9, "picture": "https://images.pexels.com/videos/5528414/pictures/preview-9.jpeg"}, {"id": 2952579, "nr": 10, "picture": "https://images.pexels.com/videos/5528414/pictures/preview-10.jpeg"}, {"id": 2952582, "nr": 11, "picture": "https://images.pexels.com/videos/5528414/pictures/preview-11.jpeg"}, {"id": 2952583, "nr": 12, "picture": "https://images.pexels.com/videos/5528414/pictures/preview-12.jpeg"}, {"id": 2952585, "nr": 13, "picture": "https://images.pexels.com/videos/5528414/pictures/preview-13.jpeg"}, {"id": 2952588, "nr": 14, "picture": "https://images.pexels.com/videos/5528414/pictures/preview-14.jpeg"}]}, {"id": 5528378, "width": 2160, "height": 3840, "duration": 10, "full_res": null, "tags": [], "url": "https://www.pexels.com/video/women-picking-ripe-apples-from-the-apple-tree-5528378/", "image": "https://images.pexels.com/videos/5528378/pexels-photo-5528378.jpeg?auto=compress&cs=tinysrgb&fit=crop&h=1200&w=630", "avg_color": null, "user": {"id": 3651179, "name": "Zen Chung", "url": "https://www.pexels.com/@zen-chung"}, "video_files": [{"id": 9720142, "quality": "sd", "file_type": "video/mp4", "width": 240, "height": 426, "fps": 23.97599983215332, "link": "https://videos.pexels.com/video-files/5528378/5528378-sd_240_426_24fps.mp4", "size": 461756}, {"id": 9720242, "quality": "sd", "file_type": "video/mp4", "width": 540, "height": 960, "fps": 23.97599983215332, "link": "https://videos.pexels.com/video-files/5528378/5528378-sd_540_960_24fps.mp4", "size": 2120528}, {"id": 9720363, "quality": "uhd", "file_type": "video/mp4", "width": 2160, "height": 3840, "fps": 23.97599983215332, "link": "https://videos.pexels.com/video-files/5528378/5528378-uhd_2160_3840_24fps.mp4", "size": 31753074}, {"id": 9720536, "quality": "hd", "file_type": "video/mp4", "width": 720, "height": 1280, "fps": 23.97599983215332, "link": "https://videos.pexels.com/video-files/5528378/5528378-hd_720_1280_24fps.mp4", "size": 3857635}, {"id": 9720601, "quality": "sd", "file_type": "video/mp4", "width": 360, "height": 640, "fps": 23.97599983215332, "link": "https://videos.pexels.com/video-files/5528378/5528378-sd_360_640_24fps.mp4", "size": 777215}, {"id": 9720705, "quality": "hd", "file_type": "video/mp4", "width": 1080, "height": 1920, "fps": 23.97599983215332, "link": "https://videos.pexels.com/video-files/5528378/5528378-hd_1080_1920_24fps.mp4", "size": 7442466}, {"id": 9720851, "quality": "uhd", "file_type": "video/mp4", "width": 1440, "height": 2560, "fps": 23.97599983215332, "link": "https://videos.pexels.com/video-files/5528378/5528378-uhd_1440_2560_24fps.mp4", "size": 14943534}], "video_pictures": [{"id": 2952099, "nr": 0, "picture": "https://images.pexels.com/videos/5528378/pictures/preview-0.jpeg"}, {"id": 2952102, "nr": 1, "picture": "https://images.pexels.com/videos/5528378/pictures/preview-1.jpeg"}, {"id": 2952104, "nr": 2, "picture": "https://images.pexels.com/videos/5528378/pictures/preview-2.jpeg"}, {"id": 2952108, "nr": 3, "picture": "https://images.pexels.com/videos/5528378/pictures/preview-3.jpeg"}, {"id": 2952111, "nr": 4, "picture": "https://images.pexels.com/videos/5528378/pictures/preview-4.jpeg"}, {"id": 2952115, "nr": 5, "picture": "https://images.pexels.com/videos/5528378/pictures/preview-5.jpeg"}, {"id": 2952116, "nr": 6, "picture": "https://images.pexels.com/videos/5528378/pictures/preview-6.jpeg"}, {"id": 2952117, "nr": 7, "picture": "https://images.pexels.com/videos/5528378/pictures/preview-7.jpeg"}, {"id": 2952118, "nr": 8, "picture": "https://images.pexels.com/videos/5528378/pictures/preview-8.jpeg"}, {"id": 2952119, "nr": 9, "picture": "https://images.pexels.com/videos/5528378/pictures/preview-9.jpeg"}, {"id": 2952120, "nr": 10, "picture": "https://images.pexels.com/videos/5528378/pictures/preview-10.jpeg"}, {"id": 2952121, "nr": 11, "picture": "https://images.pexels.com/videos/5528378/pictures/preview-11.jpeg"}, {"id": 2952122, "nr": 12, "picture": "https://images.pexels.com/videos/5528378/pictures/preview-12.jpeg"}, {"id": 2952124, "nr": 13, "picture": "https://images.pexels.com/videos/5528378/pictures/preview-13.jpeg"}, {"id": 2952127, "nr": 14, "picture": "https://images.pexels.com/videos/5528378/pictures/preview-14.jpeg"}]}, {"id": 11760128, "width": 2160, "height": 4096, "duration": 29, "full_res": null, "tags": [], "url": "https://www.pexels.com/video/a-woman-carrying-basket-while-walking-in-plantation-11760128/", "image": "https://images.pexels.com/videos/11760128/adult-agriculture-child-cropland-11760128.jpeg?auto=compress&cs=tinysrgb&fit=crop&h=1200&w=630", "avg_color": null, "user": {"id": 2678846, "name": "ROMAN ODINTSOV", "url": "https://www.pexels.com/@roman-odintsov"}, "video_files": [{"id": 5106731, "quality": "hd", "file_type": "video/mp4", "width": 1080, "height": 2048, "fps": 29.969999313354492, "link": "https://videos.pexels.com/video-files/11760128/11760128-hd_1080_2048_30fps.mp4", "size": 14392779}, {"id": 5106732, "quality": "sd", "file_type": "video/mp4", "width": 226, "height": 426, "fps": 29.969999313354492, "link": "https://videos.pexels.com/video-files/11760128/11760128-sd_226_426_30fps.mp4", "size": 1880204}, {"id": 5106733, "quality": "sd", "file_type": "video/mp4", "width": 338, "height": 640, "fps": 29.969999313354492, "link": "https://videos.pexels.com/video-files/11760128/11760128-sd_338_640_30fps.mp4", "size": 3032260}, {"id": 5106734, "quality": "uhd", "file_type": "video/mp4", "width": 2160, "height": 4096, "fps": 29.969999313354492, "link": "https://videos.pexels.com/video-files/11760128/11760128-uhd_2160_4096_30fps.mp4", "size": 36322050}, {"id": 5106735, "quality": "sd", "file_type": "video/mp4", "width": 506, "height": 960, "fps": 29.969999313354492, "link": "https://videos.pexels.com/video-files/11760128/11760128-sd_506_960_30fps.mp4", "size": 5905486}, {"id": 5106736, "quality": "hd", "file_type": "video/mp4", "width": 720, "height": 1366, "fps": 29.969999313354492, "link": "https://videos.pexels.com/video-files/11760128/11760128-hd_720_1366_30fps.mp4", "size": 9145393}, {"id": 5106737, "quality": "uhd", "file_type": "video/mp4", "width": 1440, "height": 2732, "fps": 29.969999313354492, "link": "https://videos.pexels.com/video-files/11760128/11760128-uhd_1440_2732_30fps.mp4", "size": 21403244}], "video_pictures": [{"id": 12474383, "nr": 0, "picture": "https://images.pexels.com/videos/11760128/pictures/preview-0.jpeg"}, {"id": 12474409, "nr": 1, "picture": "https://images.pexels.com/videos/11760128/pictures/preview-1.jpeg"}, {"id": 12474452, "nr": 2, "picture": "https://images.pexels.com/videos/11760128/pictures/preview-2.jpeg"}, {"id": 12474488, "nr": 3, "picture": "https://images.pexels.com/videos/11760128/pictures/preview-3.jpeg"}, {"id": 12474540, "nr": 4, "picture": "https://images.pexels.com/videos/11760128/pictures/preview-4.jpeg"}, {"id": 12474566, "nr": 5, "picture": "https://images.pexels.com/videos/11760128/pictures/preview-5.jpeg"}, {"id": 12474606, "nr": 6, "picture": "https://images.pexels.com/videos/11760128/pictures/preview-6.jpeg"}, {"id": 12474675, "nr": 7, "picture": "https://images.pexels.com/videos/11760128/pictures/preview-7.jpeg"}, {"id": 12474712, "nr": 8, "picture": "https://images.pexels.com/videos/11760128/pictures/preview-8.jpeg"}, {"id": 12474746, "nr": 9, "picture": "https://images.pexels.com/videos/11760128/pictures/preview-9.jpeg"}, {"id": 12474780, "nr": 10, "picture": "https://images.pexels.com/videos/11760128/pictures/preview-10.jpeg"}, {"id": 12474808, "nr": 11, "picture": "https://images.pexels.com/videos/11760128/pictures/preview-11.jpeg"}, {"id": 12474847, "nr": 12, "picture": "https://images.pexels.com/videos/11760128/pictures/preview-12.jpeg"}, {"id": 12474940, "nr": 13, "picture": "https://images.pexels.com/videos/11760128/pictures/preview-13.jpeg"}, {"id": 12474965, "nr": 14, "picture": "https://images.pexels.com/videos/11760128/pictures/preview-14.jpeg"}]}, {"id": 7456995, "width": 2160, "height": 3840, "duration": 9, "full_res": null, "tags": [], "url": "https://www.pexels.com/video/a-woman-picking-and-eating-a-blackberry-in-the-farm-7456995/", "image": "https://images.pexels.com/videos/7456995/4k-adult-afro-agricultural-7456995.jpeg?auto=compress&cs=tinysrgb&fit=crop&h=1200&w=630", "avg_color": null, "user": {"id": 10715715, "name": "Kindel Media", "url": "https://www.pexels.com/@kindelmedia"}, "video_files": [{"id": 10438488, "quality": "hd", "file_type": "video/mp4", "width": 1080, "height": 1920, "fps": 30.0, "link": "https://videos.pexels.com/video-files/7456995/7456995-hd_1080_1920_30fps.mp4", "size": 5950791}, {"id": 10438528, "quality": "sd", "file_type": "video/mp4", "width": 360, "height": 640, "fps": 30.0, "link": "https://videos.pexels.com/video-files/7456995/7456995-sd_360_640_30fps.mp4", "size": 713783}, {"id": 10438705, "quality": "uhd", "file_type": "video/mp4", "width": 1440, "height": 2560, "fps": 30.0, "link": "https://videos.pexels.com/video-files/7456995/7456995-uhd_1440_2560_30fps.mp4", "size": 14016116}, {"id": 10438837, "quality": "uhd", "file_type": "video/mp4", "width": 2160, "height": 3840, "fps": 30.0, "link": "https://videos.pexels.com/video-files/7456995/7456995-uhd_2160_3840_30fps.mp4", "size": 25896228}, {"id": 10438974, "quality": "hd", "file_type": "video/mp4", "width": 720, "height": 1280, "fps": 30.0, "link": "https://videos.pexels.com/video-files/7456995/7456995-hd_720_1280_30fps.mp4", "size": 3075355}, {"id": 10439071, "quality": "sd", "file_type": "video/mp4", "width": 540, "height": 960, "fps": 30.0, "link": "https://videos.pexels.com/video-files/7456995/7456995-sd_540_960_30fps.mp4", "size": 1984443}], "video_pictures": [{"id": 6428679, "nr": 0, "picture": "https://images.pexels.com/videos/7456995/pictures/preview-0.jpeg"}, {"id": 6428684, "nr": 1, "picture": "https://images.pexels.com/videos/7456995/pictures/preview-1.jpeg"}, {"id": 6428689, "nr": 2, "picture": "https://images.pexels.com/videos/7456995/pictures/preview-2.jpeg"}, {"id": 6428694, "nr": 3, "picture": "https://images.pexels.com/videos/7456995/pictures/preview-3.jpeg"}, {"id": 6428698, "nr": 4, "picture": "https://images.pexels.com/videos/7456995/pictures/preview-4.jpeg"}, {"id": 6428705, "nr": 5, "picture": "https://images.pexels.com/videos/7456995/pictures/preview-5.jpeg"}, {"id": 6428711, "nr": 6, "picture": "https://images.pexels.com/videos/7456995/pictures/preview-6.jpeg"}, {"id": 6428717, "nr": 7, "picture": "https://images.pexels.com/videos/7456995/pictures/preview-7.jpeg"}, {"id": 6428721, "nr": 8, "picture": "https://images.pexels.com/videos/7456995/pictures/preview-8.jpeg"}, {"id": 6428728, "nr": 9, "picture": "https://images.pexels.com/videos/7456995/pictures/preview-9.jpeg"}, {"id": 6428732, "nr": 10, "picture": "https://images.pexels.com/videos/7456995/pictures/preview-10.jpeg"}, {"id": 6428739, "nr": 11, "picture": "https://images.pexels.com/videos/7456995/pictures/preview-11.jpeg"}, {"id": 6428745, "nr": 12, "picture": "https://images.pexels.com/videos/7456995/pictures/preview-12.jpeg"}, {"id": 6428752, "nr": 13, "picture": "https://images.pexels.com/videos/7456995/pictures/preview-13.jpeg"}, {"id": 6428759, "nr": 14, "picture": "https://images.pexels.com/videos/7456995/pictures/preview-14.jpeg"}]}, {"id": 5561410, "width": 2160, "height": 4096, "duration": 27, "full_res": null, "tags": [], "url": "https://www.pexels.com/video/young-woman-in-greenhouse-checking-tomato-plants-5561410/", "image": "https://images.pexels.com/videos/5561410/pexels-photo-5561410.jpeg?auto=compress&cs=tinysrgb&fit=crop&h=1200&w=630", "avg_color": null, "user": {"id": 1437723, "name": "cottonbro studio", "url": "https://www.pexels.com/@cottonbro"}, "video_files": [{"id": 9731897, "quality": "uhd", "file_type": "video/mp4", "width": 2160, "height": 4096, "fps": 25.0, "link": "https://videos.pexels.com/video-files/5561410/5561410-uhd_2160_4096_25fps.mp4", "size": 68380536}, {"id": 9731961, "quality": "sd", "file_type": "video/mp4", "width": 338, "height": 640, "fps": 25.0, "link": "https://videos.pexels.com/video-files/5561410/5561410-sd_338_640_25fps.mp4", "size": 1700657}, {"id": 9732021, "quality": "hd", "file_type": "video/mp4", "width": 720, "height": 1366, "fps": 25.0, "link": "https://videos.pexels.com/video-files/5561410/5561410-hd_720_1366_25fps.mp4", "size": 9010867}, {"id": 9732083, "quality": "sd", "file_type": "video/mp4", "width": 506, "height": 960, "fps": 25.0, "link": "https://videos.pexels.com/video-files/5561410/5561410-sd_506_960_25fps.mp4", "size": 4634029}, {"id": 9732133, "quality": "hd", "file_type": "video/mp4", "width": 1080, "height": 2048, "fps": 25.0, "link": "https://videos.pexels.com/video-files/5561410/5561410-hd_1080_2048_25fps.mp4", "size": 17949986}, {"id": 9732205, "quality": "uhd", "file_type": "video/mp4", "width": 1440, "height": 2732, "fps": 25.0, "link": "https://videos.pexels.com/video-files/5561410/5561410-uhd_1440_2732_25fps.mp4", "size": 36290861}, {"id": 9732235, "quality": "sd", "file_type": "video/mp4", "width": 226, "height": 426, "fps": 25.0, "link": "https://videos.pexels.com/video-files/5561410/5561410-sd_226_426_25fps.mp4", "size": 1035588}], "video_pictures": [{"id": 3006845, "nr": 0, "picture": "https://images.pexels.com/videos/5561410/pictures/preview-0.jpeg"}, {"id": 3006849, "nr": 1, "picture": "https://images.pexels.com/videos/5561410/pictures/preview-1.jpeg"}, {"id": 3006857, "nr": 2, "picture": "https://images.pexels.com/videos/5561410/pictures/preview-2.jpeg"}, {"id": 3006858, "nr": 3, "picture": "https://images.pexels.com/videos/5561410/pictures/preview-3.jpeg"}, {"id": 3006862, "nr": 4, "picture": "https://images.pexels.com/videos/5561410/pictures/preview-4.jpeg"}, {"id": 3006865, "nr": 5, "picture": "https://images.pexels.com/videos/5561410/pictures/preview-5.jpeg"}, {"id": 3006872, "nr": 6, "picture": "https://images.pexels.com/videos/5561410/pictures/preview-6.jpeg"}, {"id": 3006878, "nr": 7, "picture": "https://images.pexels.com/videos/5561410/pictures/preview-7.jpeg"}, {"id": 3006883, "nr": 8, "picture": "https://images.pexels.com/videos/5561410/pictures/preview-8.jpeg"}, {"id": 3006889, "nr": 9, "picture": "https://images.pexels.com/videos/5561410/pictures/preview-9.jpeg"}, {"id": 3006896, "nr": 10, "picture": "https://images.pexels.com/videos/5561410/pictures/preview-10.jpeg"}, {"id": 3006903, "nr": 11, "picture": "https://images.pexels.com/videos/5561410/pictures/preview-11.jpeg"}, {"id": 3006908, "nr": 12, "picture": "https://images.pexels.com/videos/5561410/pictures/preview-12.jpeg"}, {"id": 3006918, "nr": 13, "picture": "https://images.pexels.com/videos/5561410/pictures/preview-13.jpeg"}, {"id": 3006925, "nr": 14, "picture": "https://images.pexels.com/videos/5561410/pictures/preview-14.jpeg"}]}, {"id": 10117752, "width": 2160, "height": 4096, "duration": 46, "full_res": null, "tags": [], "url": "https://www.pexels.com/video/woman-playing-cards-10117752/", "image": "https://images.pexels.com/videos/10117752/at-home-female-greyhound-hedonism-10117752.jpeg?auto=compress&cs=tinysrgb&fit=crop&h=1200&w=630", "avg_color": null, "user": {"id": 22992178, "name": "Ron Lach", "url": "https://www.pexels.com/@ron-lach"}, "video_files": [{"id": 11211444, "quality": "sd", "file_type": "video/mp4", "width": 506, "height": 960, "fps": 25.0, "link": "https://videos.pexels.com/video-files/10117752/10117752-sd_506_960_25fps.mp4", "size": 4925247}, {"id": 11211470, "quality": "sd", "file_type": "video/mp4", "width": 338, "height": 640, "fps": 25.0, "link": "https://videos.pexels.com/video-files/10117752/10117752-sd_338_640_25fps.mp4", "size": 2540858}, {"id": 11211503, "quality": "hd", "file_type": "video/mp4", "width": 1080, "height": 2048, "fps": 25.0, "link": "https://videos.pexels.com/video-files/10117752/10117752-hd_1080_2048_25fps.mp4", "size": 24159997}, {"id": 11211534, "quality": "uhd", "file_type": "video/mp4", "width": 1440, "height": 2732, "fps": 25.0, "link": "https://videos.pexels.com/video-files/10117752/10117752-uhd_1440_2732_25fps.mp4", "size": 46196245}, {"id": 11211558, "quality": "uhd", "file_type": "video/mp4", "width": 2160, "height": 4096, "fps": 25.0, "link": "https://videos.pexels.com/video-files/10117752/10117752-uhd_2160_4096_25fps.mp4", "size": 123957694}, {"id": 11211580, "quality": "sd", "file_type": "video/mp4", "width": 226, "height": 426, "fps": 25.0, "link": "https://videos.pexels.com/video-files/10117752/10117752-sd_226_426_25fps.mp4", "size": 1574309}, {"id": 11211607, "quality": "hd", "file_type": "video/mp4", "width": 720, "height": 1366, "fps": 25.0, "link": "https://videos.pexels.com/video-files/10117752/10117752-hd_720_1366_25fps.mp4", "size": 9846711}], "video_pictures": [{"id": 10605870, "nr": 0, "picture": "https://images.pexels.com/videos/10117752/pictures/preview-0.jpeg"}, {"id": 10605878, "nr": 1, "picture": "https://images.pexels.com/videos/10117752/pictures/preview-1.jpeg"}, {"id": 10605889, "nr": 2, "picture": "https://images.pexels.com/videos/10117752/pictures/preview-2.jpeg"}, {"id": 10605897, "nr": 3, "picture": "https://images.pexels.com/videos/10117752/pictures/preview-3.jpeg"}, {"id": 10605908, "nr": 4, "picture": "https://images.pexels.com/videos/10117752/pictures/preview-4.jpeg"}, {"id": 10605920, "nr": 5, "picture": "https://images.pexels.com/videos/10117752/pictures/preview-5.jpeg"}, {"id": 10605929, "nr": 6, "picture": "https://images.pexels.com/videos/10117752/pictures/preview-6.jpeg"}, {"id": 10605937, "nr": 7, "picture": "https://images.pexels.com/videos/10117752/pictures/preview-7.jpeg"}, {"id": 10605942, "nr": 8, "picture": "https://images.pexels.com/videos/10117752/pictures/preview-8.jpeg"}, {"id": 10605952, "nr": 9, "picture": "https://images.pexels.com/videos/10117752/pictures/preview-9.jpeg"}, {"id": 10605960, "nr": 10, "picture": "https://images.pexels.com/videos/10117752/pictures/preview-10.jpeg"}, {"id": 10605965, "nr": 11, "picture": "https://images.pexels.com/videos/10117752/pictures/preview-11.jpeg"}, {"id": 10605969, "nr": 12, "picture": "https://images.pexels.com/videos/10117752/pictures/preview-12.jpeg"}, {"id": 10605972, "nr": 13, "picture": "https://images.pexels.com/videos/10117752/pictures/preview-13.jpeg"}, {"id": 10605977, "nr": 14, "picture": "https://images.pexels.com/videos/10117752/pictures/preview-14.jpeg"}]}], "total_results": 8000, "next_page": "https://api.pexels.com/v1/videos/search/?orientation=portrait&page=2&per_page=8&query=fruit+plants", "url": "https://api-server.pexels.com/search/videos/fruit%20plants/"}, "timestamp": "2024-12-28T22:41:59.992962"}
