{"query": "cultivated plant", "response": {"page": 1, "per_page": 8, "videos": [{"id": 4863150, "width": 1080, "height": 1920, "duration": 11, "full_res": null, "tags": [], "url": "https://www.pexels.com/video/wheat-grass-swaying-in-the-wind-4863150/", "image": "https://images.pexels.com/videos/4863150/blue-sky-grain-plants-4863150.jpeg?auto=compress&cs=tinysrgb&fit=crop&h=1200&w=630", "avg_color": null, "user": {"id": 2332540, "name": "Photo By: Kaboompics.com", "url": "https://www.pexels.com/@karolina-grabowska"}, "video_files": [{"id": 9572778, "quality": "sd", "file_type": "video/mp4", "width": 540, "height": 960, "fps": 30.0, "link": "https://videos.pexels.com/video-files/4863150/4863150-sd_540_960_30fps.mp4", "size": 1468282}, {"id": 9572985, "quality": "hd", "file_type": "video/mp4", "width": 720, "height": 1280, "fps": 30.0, "link": "https://videos.pexels.com/video-files/4863150/4863150-hd_720_1280_30fps.mp4", "size": 2341902}, {"id": 9573077, "quality": "sd", "file_type": "video/mp4", "width": 240, "height": 426, "fps": 30.0, "link": "https://videos.pexels.com/video-files/4863150/4863150-sd_240_426_30fps.mp4", "size": 393648}, {"id": 9573202, "quality": "hd", "file_type": "video/mp4", "width": 1080, "height": 1920, "fps": 30.0, "link": "https://videos.pexels.com/video-files/4863150/4863150-hd_1080_1920_30fps.mp4", "size": 5183298}, {"id": 9573356, "quality": "sd", "file_type": "video/mp4", "width": 360, "height": 640, "fps": 30.0, "link": "https://videos.pexels.com/video-files/4863150/4863150-sd_360_640_30fps.mp4", "size": 618641}], "video_pictures": [{"id": 2049697, "nr": 0, "picture": "https://images.pexels.com/videos/4863150/pictures/preview-0.jpeg"}, {"id": 2049699, "nr": 1, "picture": "https://images.pexels.com/videos/4863150/pictures/preview-1.jpeg"}, {"id": 2049701, "nr": 2, "picture": "https://images.pexels.com/videos/4863150/pictures/preview-2.jpeg"}, {"id": 2049703, "nr": 3, "picture": "https://images.pexels.com/videos/4863150/pictures/preview-3.jpeg"}, {"id": 2049705, "nr": 4, "picture": "https://images.pexels.com/videos/4863150/pictures/preview-4.jpeg"}, {"id": 2049708, "nr": 5, "picture": "https://images.pexels.com/videos/4863150/pictures/preview-5.jpeg"}, {"id": 2049710, "nr": 6, "picture": "https://images.pexels.com/videos/4863150/pictures/preview-6.jpeg"}, {"id": 2049712, "nr": 7, "picture": "https://images.pexels.com/videos/4863150/pictures/preview-7.jpeg"}, {"id": 2049714, "nr": 8, "picture": "https://images.pexels.com/videos/4863150/pictures/preview-8.jpeg"}, {"id": 2049716, "nr": 9, "picture": "https://images.pexels.com/videos/4863150/pictures/preview-9.jpeg"}, {"id": 2049717, "nr": 10, "picture": "https://images.pexels.com/videos/4863150/pictures/preview-10.jpeg"}, {"id": 2049719, "nr": 11, "picture": "https://images.pexels.com/videos/4863150/pictures/preview-11.jpeg"}, {"id": 2049721, "nr": 12, "picture": "https://images.pexels.com/videos/4863150/pictures/preview-12.jpeg"}, {"id": 2049723, "nr": 13, "picture": "https://images.pexels.com/videos/4863150/pictures/preview-13.jpeg"}, {"id": 2049724, "nr": 14, "picture": "https://images.pexels.com/videos/4863150/pictures/preview-14.jpeg"}]}, {"id": 6336968, "width": 1080, "height": 1920, "duration": 17, "full_res": null, "tags": [], "url": "https://www.pexels.com/video/close-up-view-of-field-of-mustard-flower-6336968/", "image": "https://images.pexels.com/videos/6336968/pexels-photo-6336968.jpeg?auto=compress&cs=tinysrgb&fit=crop&h=1200&w=630", "avg_color": null, "user": {"id": 3082651, "name": "Mamunur Rashid", "url": "https://www.pexels.com/@mamunur-rashid-3082651"}, "video_files": [{"id": 10038186, "quality": "hd", "file_type": "video/mp4", "width": 1080, "height": 1920, "fps": 29.969999313354492, "link": "https://videos.pexels.com/video-files/6336968/6336968-hd_1080_1920_30fps.mp4", "size": 11244469}, {"id": 10038429, "quality": "sd", "file_type": "video/mp4", "width": 540, "height": 960, "fps": 29.969999313354492, "link": "https://videos.pexels.com/video-files/6336968/6336968-sd_540_960_30fps.mp4", "size": 4031309}, {"id": 10038616, "quality": "sd", "file_type": "video/mp4", "width": 240, "height": 426, "fps": 29.969999313354492, "link": "https://videos.pexels.com/video-files/6336968/6336968-sd_240_426_30fps.mp4", "size": 867676}, {"id": 10038692, "quality": "sd", "file_type": "video/mp4", "width": 360, "height": 640, "fps": 29.969999313354492, "link": "https://videos.pexels.com/video-files/6336968/6336968-sd_360_640_30fps.mp4", "size": 1446018}, {"id": 10038801, "quality": "hd", "file_type": "video/mp4", "width": 720, "height": 1280, "fps": 29.969999313354492, "link": "https://videos.pexels.com/video-files/6336968/6336968-hd_720_1280_30fps.mp4", "size": 5903905}], "video_pictures": [{"id": 4321389, "nr": 0, "picture": "https://images.pexels.com/videos/6336968/pictures/preview-0.jpeg"}, {"id": 4321390, "nr": 1, "picture": "https://images.pexels.com/videos/6336968/pictures/preview-1.jpeg"}, {"id": 4321391, "nr": 2, "picture": "https://images.pexels.com/videos/6336968/pictures/preview-2.jpeg"}, {"id": 4321392, "nr": 3, "picture": "https://images.pexels.com/videos/6336968/pictures/preview-3.jpeg"}, {"id": 4321393, "nr": 4, "picture": "https://images.pexels.com/videos/6336968/pictures/preview-4.jpeg"}, {"id": 4321394, "nr": 5, "picture": "https://images.pexels.com/videos/6336968/pictures/preview-5.jpeg"}, {"id": 4321395, "nr": 6, "picture": "https://images.pexels.com/videos/6336968/pictures/preview-6.jpeg"}, {"id": 4321396, "nr": 7, "picture": "https://images.pexels.com/videos/6336968/pictures/preview-7.jpeg"}, {"id": 4321397, "nr": 8, "picture": "https://images.pexels.com/videos/6336968/pictures/preview-8.jpeg"}, {"id": 4321398, "nr": 9, "picture": "https://images.pexels.com/videos/6336968/pictures/preview-9.jpeg"}, {"id": 4321399, "nr": 10, "picture": "https://images.pexels.com/videos/6336968/pictures/preview-10.jpeg"}, {"id": 4321400, "nr": 11, "picture": "https://images.pexels.com/videos/6336968/pictures/preview-11.jpeg"}, {"id": 4321402, "nr": 12, "picture": "https://images.pexels.com/videos/6336968/pictures/preview-12.jpeg"}, {"id": 4321403, "nr": 13, "picture": "https://images.pexels.com/videos/6336968/pictures/preview-13.jpeg"}, {"id": 4321405, "nr": 14, "picture": "https://images.pexels.com/videos/6336968/pictures/preview-14.jpeg"}]}, {"id": 6963395, "width": 1080, "height": 1920, "duration": 7, "full_res": null, "tags": [], "url": "https://www.pexels.com/video/a-person-holding-a-eucalyptus-plant-with-soil-6963395/", "image": "https://images.pexels.com/videos/6963395/eco-friendly-environment-environmentally-friendly-mothernature-6963395.jpeg?auto=compress&cs=tinysrgb&fit=crop&h=1200&w=630", "avg_color": null, "user": {"id": 3716105, "name": "Cup of  Couple", "url": "https://www.pexels.com/@cup-of-couple"}, "video_files": [{"id": 10253111, "quality": "sd", "file_type": "video/mp4", "width": 540, "height": 960, "fps": 25.0, "link": "https://videos.pexels.com/video-files/6963395/6963395-sd_540_960_25fps.mp4", "size": 1275312}, {"id": 10253142, "quality": "hd", "file_type": "video/mp4", "width": 1080, "height": 1920, "fps": 25.0, "link": "https://videos.pexels.com/video-files/6963395/6963395-hd_1080_1920_25fps.mp4", "size": 4214061}, {"id": 10253184, "quality": "sd", "file_type": "video/mp4", "width": 360, "height": 640, "fps": 25.0, "link": "https://videos.pexels.com/video-files/6963395/6963395-sd_360_640_25fps.mp4", "size": 437793}, {"id": 10253223, "quality": "hd", "file_type": "video/mp4", "width": 720, "height": 1280, "fps": 50.0, "link": "https://videos.pexels.com/video-files/6963395/6963395-hd_720_1280_50fps.mp4", "size": 2297154}, {"id": 10253254, "quality": "sd", "file_type": "video/mp4", "width": 240, "height": 426, "fps": 25.0, "link": "https://videos.pexels.com/video-files/6963395/6963395-sd_240_426_25fps.mp4", "size": 270056}], "video_pictures": [{"id": 5475995, "nr": 0, "picture": "https://images.pexels.com/videos/6963395/pictures/preview-0.jpeg"}, {"id": 5476002, "nr": 1, "picture": "https://images.pexels.com/videos/6963395/pictures/preview-1.jpeg"}, {"id": 5476007, "nr": 2, "picture": "https://images.pexels.com/videos/6963395/pictures/preview-2.jpeg"}, {"id": 5476016, "nr": 3, "picture": "https://images.pexels.com/videos/6963395/pictures/preview-3.jpeg"}, {"id": 5476024, "nr": 4, "picture": "https://images.pexels.com/videos/6963395/pictures/preview-4.jpeg"}, {"id": 5476033, "nr": 5, "picture": "https://images.pexels.com/videos/6963395/pictures/preview-5.jpeg"}, {"id": 5476039, "nr": 6, "picture": "https://images.pexels.com/videos/6963395/pictures/preview-6.jpeg"}, {"id": 5476048, "nr": 7, "picture": "https://images.pexels.com/videos/6963395/pictures/preview-7.jpeg"}, {"id": 5476055, "nr": 8, "picture": "https://images.pexels.com/videos/6963395/pictures/preview-8.jpeg"}, {"id": 5476058, "nr": 9, "picture": "https://images.pexels.com/videos/6963395/pictures/preview-9.jpeg"}, {"id": 5476062, "nr": 10, "picture": "https://images.pexels.com/videos/6963395/pictures/preview-10.jpeg"}, {"id": 5476074, "nr": 11, "picture": "https://images.pexels.com/videos/6963395/pictures/preview-11.jpeg"}, {"id": 5476078, "nr": 12, "picture": "https://images.pexels.com/videos/6963395/pictures/preview-12.jpeg"}, {"id": 5476081, "nr": 13, "picture": "https://images.pexels.com/videos/6963395/pictures/preview-13.jpeg"}, {"id": 5476083, "nr": 14, "picture": "https://images.pexels.com/videos/6963395/pictures/preview-14.jpeg"}]}, {"id": 8544157, "width": 1080, "height": 1920, "duration": 12, "full_res": null, "tags": [], "url": "https://www.pexels.com/video/man-planting-tree-8544157/", "image": "https://images.pexels.com/videos/8544157/pexels-photo-8544157.jpeg?auto=compress&cs=tinysrgb&fit=crop&h=1200&w=630", "avg_color": null, "user": {"id": 11437196, "name": "Mikhail Nilov", "url": "https://www.pexels.com/@mikhail-nilov"}, "video_files": [{"id": 10888460, "quality": "sd", "file_type": "video/mp4", "width": 240, "height": 426, "fps": 25.0, "link": "https://videos.pexels.com/video-files/8544157/8544157-sd_240_426_25fps.mp4", "size": 493996}, {"id": 10888472, "quality": "sd", "file_type": "video/mp4", "width": 360, "height": 640, "fps": 25.0, "link": "https://videos.pexels.com/video-files/8544157/8544157-sd_360_640_25fps.mp4", "size": 704275}, {"id": 10888502, "quality": "hd", "file_type": "video/mp4", "width": 1080, "height": 1920, "fps": 25.0, "link": "https://videos.pexels.com/video-files/8544157/8544157-hd_1080_1920_25fps.mp4", "size": 7671157}, {"id": 10888521, "quality": "hd", "file_type": "video/mp4", "width": 720, "height": 1280, "fps": 25.0, "link": "https://videos.pexels.com/video-files/8544157/8544157-hd_720_1280_25fps.mp4", "size": 3899653}, {"id": 10888556, "quality": "sd", "file_type": "video/mp4", "width": 540, "height": 960, "fps": 25.0, "link": "https://videos.pexels.com/video-files/8544157/8544157-sd_540_960_25fps.mp4", "size": 1949062}], "video_pictures": [{"id": 8476328, "nr": 0, "picture": "https://images.pexels.com/videos/8544157/pictures/preview-0.jpeg"}, {"id": 8476342, "nr": 1, "picture": "https://images.pexels.com/videos/8544157/pictures/preview-1.jpeg"}, {"id": 8476353, "nr": 2, "picture": "https://images.pexels.com/videos/8544157/pictures/preview-2.jpeg"}, {"id": 8476364, "nr": 3, "picture": "https://images.pexels.com/videos/8544157/pictures/preview-3.jpeg"}, {"id": 8476373, "nr": 4, "picture": "https://images.pexels.com/videos/8544157/pictures/preview-4.jpeg"}, {"id": 8476378, "nr": 5, "picture": "https://images.pexels.com/videos/8544157/pictures/preview-5.jpeg"}, {"id": 8476386, "nr": 6, "picture": "https://images.pexels.com/videos/8544157/pictures/preview-6.jpeg"}, {"id": 8476393, "nr": 7, "picture": "https://images.pexels.com/videos/8544157/pictures/preview-7.jpeg"}, {"id": 8476400, "nr": 8, "picture": "https://images.pexels.com/videos/8544157/pictures/preview-8.jpeg"}, {"id": 8476406, "nr": 9, "picture": "https://images.pexels.com/videos/8544157/pictures/preview-9.jpeg"}, {"id": 8476413, "nr": 10, "picture": "https://images.pexels.com/videos/8544157/pictures/preview-10.jpeg"}, {"id": 8476421, "nr": 11, "picture": "https://images.pexels.com/videos/8544157/pictures/preview-11.jpeg"}, {"id": 8476430, "nr": 12, "picture": "https://images.pexels.com/videos/8544157/pictures/preview-12.jpeg"}, {"id": 8476442, "nr": 13, "picture": "https://images.pexels.com/videos/8544157/pictures/preview-13.jpeg"}, {"id": 8476450, "nr": 14, "picture": "https://images.pexels.com/videos/8544157/pictures/preview-14.jpeg"}]}, {"id": 7456506, "width": 2160, "height": 3840, "duration": 11, "full_res": null, "tags": [], "url": "https://www.pexels.com/video/fresh-bell-peppers-in-the-market-7456506/", "image": "https://images.pexels.com/videos/7456506/agricultural-agriculture-amily-batch-7456506.jpeg?auto=compress&cs=tinysrgb&fit=crop&h=1200&w=630", "avg_color": null, "user": {"id": 10715715, "name": "Kindel Media", "url": "https://www.pexels.com/@kindelmedia"}, "video_files": [{"id": 10438474, "quality": "hd", "file_type": "video/mp4", "width": 1080, "height": 1920, "fps": 30.0, "link": "https://videos.pexels.com/video-files/7456506/7456506-hd_1080_1920_30fps.mp4", "size": 5000370}, {"id": 10438644, "quality": "hd", "file_type": "video/mp4", "width": 720, "height": 1280, "fps": 30.0, "link": "https://videos.pexels.com/video-files/7456506/7456506-hd_720_1280_30fps.mp4", "size": 2534645}, {"id": 10438768, "quality": "uhd", "file_type": "video/mp4", "width": 2160, "height": 3840, "fps": 30.0, "link": "https://videos.pexels.com/video-files/7456506/7456506-uhd_2160_3840_30fps.mp4", "size": 25955419}, {"id": 10439022, "quality": "sd", "file_type": "video/mp4", "width": 540, "height": 960, "fps": 30.0, "link": "https://videos.pexels.com/video-files/7456506/7456506-sd_540_960_30fps.mp4", "size": 1718790}, {"id": 10439086, "quality": "sd", "file_type": "video/mp4", "width": 360, "height": 640, "fps": 30.0, "link": "https://videos.pexels.com/video-files/7456506/7456506-sd_360_640_30fps.mp4", "size": 764865}, {"id": 10439200, "quality": "uhd", "file_type": "video/mp4", "width": 1440, "height": 2560, "fps": 30.0, "link": "https://videos.pexels.com/video-files/7456506/7456506-uhd_1440_2560_30fps.mp4", "size": 8940857}], "video_pictures": [{"id": 6426406, "nr": 0, "picture": "https://images.pexels.com/videos/7456506/pictures/preview-0.jpeg"}, {"id": 6426409, "nr": 1, "picture": "https://images.pexels.com/videos/7456506/pictures/preview-1.jpeg"}, {"id": 6426422, "nr": 2, "picture": "https://images.pexels.com/videos/7456506/pictures/preview-2.jpeg"}, {"id": 6426432, "nr": 3, "picture": "https://images.pexels.com/videos/7456506/pictures/preview-3.jpeg"}, {"id": 6426442, "nr": 4, "picture": "https://images.pexels.com/videos/7456506/pictures/preview-4.jpeg"}, {"id": 6426453, "nr": 5, "picture": "https://images.pexels.com/videos/7456506/pictures/preview-5.jpeg"}, {"id": 6426459, "nr": 6, "picture": "https://images.pexels.com/videos/7456506/pictures/preview-6.jpeg"}, {"id": 6426467, "nr": 7, "picture": "https://images.pexels.com/videos/7456506/pictures/preview-7.jpeg"}, {"id": 6426477, "nr": 8, "picture": "https://images.pexels.com/videos/7456506/pictures/preview-8.jpeg"}, {"id": 6426494, "nr": 9, "picture": "https://images.pexels.com/videos/7456506/pictures/preview-9.jpeg"}, {"id": 6426512, "nr": 10, "picture": "https://images.pexels.com/videos/7456506/pictures/preview-10.jpeg"}, {"id": 6426527, "nr": 11, "picture": "https://images.pexels.com/videos/7456506/pictures/preview-11.jpeg"}, {"id": 6426551, "nr": 12, "picture": "https://images.pexels.com/videos/7456506/pictures/preview-12.jpeg"}, {"id": 6426564, "nr": 13, "picture": "https://images.pexels.com/videos/7456506/pictures/preview-13.jpeg"}, {"id": 6426581, "nr": 14, "picture": "https://images.pexels.com/videos/7456506/pictures/preview-14.jpeg"}]}, {"id": 7116422, "width": 2160, "height": 3840, "duration": 10, "full_res": null, "tags": [], "url": "https://www.pexels.com/video/close-up-video-of-a-coffee-plant-7116422/", "image": "https://images.pexels.com/videos/7116422/pexels-photo-7116422.jpeg?auto=compress&cs=tinysrgb&fit=crop&h=1200&w=630", "avg_color": null, "user": {"id": 33201649, "name": "Michael Burrows", "url": "https://www.pexels.com/@michael-burrows"}, "video_files": [{"id": 10308298, "quality": "hd", "file_type": "video/mp4", "width": 1080, "height": 1920, "fps": 25.0, "link": "https://videos.pexels.com/video-files/7116422/7116422-hd_1080_1920_25fps.mp4", "size": 6117610}, {"id": 10308392, "quality": "sd", "file_type": "video/mp4", "width": 540, "height": 960, "fps": 25.0, "link": "https://videos.pexels.com/video-files/7116422/7116422-sd_540_960_25fps.mp4", "size": 1738087}, {"id": 10308545, "quality": "sd", "file_type": "video/mp4", "width": 360, "height": 640, "fps": 25.0, "link": "https://videos.pexels.com/video-files/7116422/7116422-sd_360_640_25fps.mp4", "size": 568718}, {"id": 10308698, "quality": "hd", "file_type": "video/mp4", "width": 720, "height": 1280, "fps": 50.0, "link": "https://videos.pexels.com/video-files/7116422/7116422-hd_720_1280_50fps.mp4", "size": 3055002}, {"id": 10308800, "quality": "sd", "file_type": "video/mp4", "width": 240, "height": 426, "fps": 25.0, "link": "https://videos.pexels.com/video-files/7116422/7116422-sd_240_426_25fps.mp4", "size": 358977}, {"id": 10308888, "quality": "uhd", "file_type": "video/mp4", "width": 1440, "height": 2560, "fps": 25.0, "link": "https://videos.pexels.com/video-files/7116422/7116422-uhd_1440_2560_25fps.mp4", "size": 15063894}, {"id": 10309043, "quality": "uhd", "file_type": "video/mp4", "width": 2160, "height": 3840, "fps": 25.0, "link": "https://videos.pexels.com/video-files/7116422/7116422-uhd_2160_3840_25fps.mp4", "size": 26907337}], "video_pictures": [{"id": 5769782, "nr": 0, "picture": "https://images.pexels.com/videos/7116422/pictures/preview-0.jpeg"}, {"id": 5769790, "nr": 1, "picture": "https://images.pexels.com/videos/7116422/pictures/preview-1.jpeg"}, {"id": 5769799, "nr": 2, "picture": "https://images.pexels.com/videos/7116422/pictures/preview-2.jpeg"}, {"id": 5769806, "nr": 3, "picture": "https://images.pexels.com/videos/7116422/pictures/preview-3.jpeg"}, {"id": 5769817, "nr": 4, "picture": "https://images.pexels.com/videos/7116422/pictures/preview-4.jpeg"}, {"id": 5769826, "nr": 5, "picture": "https://images.pexels.com/videos/7116422/pictures/preview-5.jpeg"}, {"id": 5769833, "nr": 6, "picture": "https://images.pexels.com/videos/7116422/pictures/preview-6.jpeg"}, {"id": 5769840, "nr": 7, "picture": "https://images.pexels.com/videos/7116422/pictures/preview-7.jpeg"}, {"id": 5769848, "nr": 8, "picture": "https://images.pexels.com/videos/7116422/pictures/preview-8.jpeg"}, {"id": 5769855, "nr": 9, "picture": "https://images.pexels.com/videos/7116422/pictures/preview-9.jpeg"}, {"id": 5769860, "nr": 10, "picture": "https://images.pexels.com/videos/7116422/pictures/preview-10.jpeg"}, {"id": 5769864, "nr": 11, "picture": "https://images.pexels.com/videos/7116422/pictures/preview-11.jpeg"}, {"id": 5769867, "nr": 12, "picture": "https://images.pexels.com/videos/7116422/pictures/preview-12.jpeg"}, {"id": 5769868, "nr": 13, "picture": "https://images.pexels.com/videos/7116422/pictures/preview-13.jpeg"}, {"id": 5769871, "nr": 14, "picture": "https://images.pexels.com/videos/7116422/pictures/preview-14.jpeg"}]}, {"id": 10041361, "width": 1080, "height": 1920, "duration": 12, "full_res": null, "tags": [], "url": "https://www.pexels.com/video/carrots-being-harvested-at-farm-10041361/", "image": "https://images.pexels.com/videos/10041361/pexels-photo-10041361.jpeg?auto=compress&cs=tinysrgb&fit=crop&h=1200&w=630", "avg_color": null, "user": {"id": 11924337, "name": "Los Muertos Crew", "url": "https://www.pexels.com/@cristian-rojas"}, "video_files": [{"id": 11208549, "quality": "sd", "file_type": "video/mp4", "width": 360, "height": 640, "fps": 23.97599983215332, "link": "https://videos.pexels.com/video-files/10041361/10041361-sd_360_640_24fps.mp4", "size": 641995}, {"id": 11208567, "quality": "hd", "file_type": "video/mp4", "width": 1080, "height": 1920, "fps": 23.97599983215332, "link": "https://videos.pexels.com/video-files/10041361/10041361-hd_1080_1920_24fps.mp4", "size": 5549813}, {"id": 11208585, "quality": "hd", "file_type": "video/mp4", "width": 720, "height": 1280, "fps": 23.97599983215332, "link": "https://videos.pexels.com/video-files/10041361/10041361-hd_720_1280_24fps.mp4", "size": 2759804}, {"id": 11208604, "quality": "sd", "file_type": "video/mp4", "width": 540, "height": 960, "fps": 23.97599983215332, "link": "https://videos.pexels.com/video-files/10041361/10041361-sd_540_960_24fps.mp4", "size": 1553726}, {"id": 11208626, "quality": "sd", "file_type": "video/mp4", "width": 240, "height": 426, "fps": 23.97599983215332, "link": "https://videos.pexels.com/video-files/10041361/10041361-sd_240_426_24fps.mp4", "size": 476545}], "video_pictures": [{"id": 10510132, "nr": 0, "picture": "https://images.pexels.com/videos/10041361/pictures/preview-0.jpeg"}, {"id": 10510138, "nr": 1, "picture": "https://images.pexels.com/videos/10041361/pictures/preview-1.jpeg"}, {"id": 10510147, "nr": 2, "picture": "https://images.pexels.com/videos/10041361/pictures/preview-2.jpeg"}, {"id": 10510155, "nr": 3, "picture": "https://images.pexels.com/videos/10041361/pictures/preview-3.jpeg"}, {"id": 10510168, "nr": 4, "picture": "https://images.pexels.com/videos/10041361/pictures/preview-4.jpeg"}, {"id": 10510183, "nr": 5, "picture": "https://images.pexels.com/videos/10041361/pictures/preview-5.jpeg"}, {"id": 10510194, "nr": 6, "picture": "https://images.pexels.com/videos/10041361/pictures/preview-6.jpeg"}, {"id": 10510210, "nr": 7, "picture": "https://images.pexels.com/videos/10041361/pictures/preview-7.jpeg"}, {"id": 10510221, "nr": 8, "picture": "https://images.pexels.com/videos/10041361/pictures/preview-8.jpeg"}, {"id": 10510241, "nr": 9, "picture": "https://images.pexels.com/videos/10041361/pictures/preview-9.jpeg"}, {"id": 10510252, "nr": 10, "picture": "https://images.pexels.com/videos/10041361/pictures/preview-10.jpeg"}, {"id": 10510271, "nr": 11, "picture": "https://images.pexels.com/videos/10041361/pictures/preview-11.jpeg"}, {"id": 10510287, "nr": 12, "picture": "https://images.pexels.com/videos/10041361/pictures/preview-12.jpeg"}, {"id": 10510323, "nr": 13, "picture": "https://images.pexels.com/videos/10041361/pictures/preview-13.jpeg"}, {"id": 10510332, "nr": 14, "picture": "https://images.pexels.com/videos/10041361/pictures/preview-14.jpeg"}]}, {"id": 7667060, "width": 2160, "height": 3840, "duration": 15, "full_res": null, "tags": [], "url": "https://www.pexels.com/video/touching-the-leaves-of-a-cannabis-tree-7667060/", "image": "https://images.pexels.com/videos/7667060/420-bhang-blow-cannabidiol-7667060.jpeg?auto=compress&cs=tinysrgb&fit=crop&h=1200&w=630", "avg_color": null, "user": {"id": 10715715, "name": "Kindel Media", "url": "https://www.pexels.com/@kindelmedia"}, "video_files": [{"id": 10526310, "quality": "uhd", "file_type": "video/mp4", "width": 1440, "height": 2560, "fps": 30.0, "link": "https://videos.pexels.com/video-files/7667060/7667060-uhd_1440_2560_30fps.mp4", "size": 18620980}, {"id": 10526330, "quality": "sd", "file_type": "video/mp4", "width": 540, "height": 960, "fps": 30.0, "link": "https://videos.pexels.com/video-files/7667060/7667060-sd_540_960_30fps.mp4", "size": 2797203}, {"id": 10526345, "quality": "hd", "file_type": "video/mp4", "width": 720, "height": 1280, "fps": 30.0, "link": "https://videos.pexels.com/video-files/7667060/7667060-hd_720_1280_30fps.mp4", "size": 4913999}, {"id": 10526382, "quality": "uhd", "file_type": "video/mp4", "width": 2160, "height": 3840, "fps": 30.0, "link": "https://videos.pexels.com/video-files/7667060/7667060-uhd_2160_3840_30fps.mp4", "size": 45508404}, {"id": 10526396, "quality": "sd", "file_type": "video/mp4", "width": 360, "height": 640, "fps": 30.0, "link": "https://videos.pexels.com/video-files/7667060/7667060-sd_360_640_30fps.mp4", "size": 1152259}, {"id": 10526413, "quality": "hd", "file_type": "video/mp4", "width": 1080, "height": 1920, "fps": 30.0, "link": "https://videos.pexels.com/video-files/7667060/7667060-hd_1080_1920_30fps.mp4", "size": 9337106}], "video_pictures": [{"id": 6837152, "nr": 0, "picture": "https://images.pexels.com/videos/7667060/pictures/preview-0.jpeg"}, {"id": 6837161, "nr": 1, "picture": "https://images.pexels.com/videos/7667060/pictures/preview-1.jpeg"}, {"id": 6837169, "nr": 2, "picture": "https://images.pexels.com/videos/7667060/pictures/preview-2.jpeg"}, {"id": 6837181, "nr": 3, "picture": "https://images.pexels.com/videos/7667060/pictures/preview-3.jpeg"}, {"id": 6837186, "nr": 4, "picture": "https://images.pexels.com/videos/7667060/pictures/preview-4.jpeg"}, {"id": 6837190, "nr": 5, "picture": "https://images.pexels.com/videos/7667060/pictures/preview-5.jpeg"}, {"id": 6837197, "nr": 6, "picture": "https://images.pexels.com/videos/7667060/pictures/preview-6.jpeg"}, {"id": 6837204, "nr": 7, "picture": "https://images.pexels.com/videos/7667060/pictures/preview-7.jpeg"}, {"id": 6837208, "nr": 8, "picture": "https://images.pexels.com/videos/7667060/pictures/preview-8.jpeg"}, {"id": 6837213, "nr": 9, "picture": "https://images.pexels.com/videos/7667060/pictures/preview-9.jpeg"}, {"id": 6837219, "nr": 10, "picture": "https://images.pexels.com/videos/7667060/pictures/preview-10.jpeg"}, {"id": 6837223, "nr": 11, "picture": "https://images.pexels.com/videos/7667060/pictures/preview-11.jpeg"}, {"id": 6837228, "nr": 12, "picture": "https://images.pexels.com/videos/7667060/pictures/preview-12.jpeg"}, {"id": 6837232, "nr": 13, "picture": "https://images.pexels.com/videos/7667060/pictures/preview-13.jpeg"}, {"id": 6837247, "nr": 14, "picture": "https://images.pexels.com/videos/7667060/pictures/preview-14.jpeg"}]}], "total_results": 8000, "next_page": "https://api.pexels.com/v1/videos/search/?orientation=portrait&page=2&per_page=8&query=cultivated+plant", "url": "https://api-server.pexels.com/search/videos/cultivated%20plant/"}, "timestamp": "2024-12-28T22:37:00.987974"}
