{"query": "pumpkin fruit", "response": {"page": 1, "per_page": 8, "videos": [{"id": 9969035, "width": 1152, "height": 2048, "duration": 15, "full_res": null, "tags": [], "url": "https://www.pexels.com/video/person-lighting-candle-with-matchstick-9969035/", "image": "https://images.pexels.com/videos/9969035/pexels-photo-9969035.jpeg?auto=compress&cs=tinysrgb&fit=crop&h=1200&w=630", "avg_color": null, "user": {"id": 2278756, "name": "Vlada Karpovich", "url": "https://www.pexels.com/@vlada-karpovich"}, "video_files": [{"id": 11195542, "quality": "sd", "file_type": "video/mp4", "width": 540, "height": 960, "fps": 25.0, "link": "https://videos.pexels.com/video-files/9969035/9969035-sd_540_960_25fps.mp4", "size": 1663116}, {"id": 11195635, "quality": "hd", "file_type": "video/mp4", "width": 1080, "height": 1920, "fps": 25.0, "link": "https://videos.pexels.com/video-files/9969035/9969035-hd_1080_1920_25fps.mp4", "size": 4478327}, {"id": 11195728, "quality": "hd", "file_type": "video/mp4", "width": 720, "height": 1280, "fps": 25.0, "link": "https://videos.pexels.com/video-files/9969035/9969035-hd_720_1280_25fps.mp4", "size": 2316472}, {"id": 11195942, "quality": "sd", "file_type": "video/mp4", "width": 360, "height": 640, "fps": 25.0, "link": "https://videos.pexels.com/video-files/9969035/9969035-sd_360_640_25fps.mp4", "size": 857765}], "video_pictures": [{"id": 10412240, "nr": 0, "picture": "https://images.pexels.com/videos/9969035/pictures/preview-0.jpeg"}, {"id": 10412246, "nr": 1, "picture": "https://images.pexels.com/videos/9969035/pictures/preview-1.jpeg"}, {"id": 10412250, "nr": 2, "picture": "https://images.pexels.com/videos/9969035/pictures/preview-2.jpeg"}, {"id": 10412255, "nr": 3, "picture": "https://images.pexels.com/videos/9969035/pictures/preview-3.jpeg"}, {"id": 10412262, "nr": 4, "picture": "https://images.pexels.com/videos/9969035/pictures/preview-4.jpeg"}, {"id": 10412270, "nr": 5, "picture": "https://images.pexels.com/videos/9969035/pictures/preview-5.jpeg"}, {"id": 10412276, "nr": 6, "picture": "https://images.pexels.com/videos/9969035/pictures/preview-6.jpeg"}, {"id": 10412287, "nr": 7, "picture": "https://images.pexels.com/videos/9969035/pictures/preview-7.jpeg"}, {"id": 10412294, "nr": 8, "picture": "https://images.pexels.com/videos/9969035/pictures/preview-8.jpeg"}, {"id": 10412302, "nr": 9, "picture": "https://images.pexels.com/videos/9969035/pictures/preview-9.jpeg"}, {"id": 10412314, "nr": 10, "picture": "https://images.pexels.com/videos/9969035/pictures/preview-10.jpeg"}, {"id": 10412323, "nr": 11, "picture": "https://images.pexels.com/videos/9969035/pictures/preview-11.jpeg"}, {"id": 10412332, "nr": 12, "picture": "https://images.pexels.com/videos/9969035/pictures/preview-12.jpeg"}, {"id": 10412342, "nr": 13, "picture": "https://images.pexels.com/videos/9969035/pictures/preview-13.jpeg"}, {"id": 10412354, "nr": 14, "picture": "https://images.pexels.com/videos/9969035/pictures/preview-14.jpeg"}]}, {"id": 5644956, "width": 1080, "height": 1920, "duration": 24, "full_res": null, "tags": [], "url": "https://www.pexels.com/video/honey-pouring-with-wooden-drizzler-on-baked-pumpkins-5644956/", "image": "https://images.pexels.com/videos/5644956/pexels-photo-5644956.jpeg?auto=compress&cs=tinysrgb&fit=crop&h=1200&w=630", "avg_color": null, "user": {"id": 3511482, "name": "Polina Kovaleva", "url": "https://www.pexels.com/@polina-kovaleva"}, "video_files": [{"id": 9752582, "quality": "hd", "file_type": "video/mp4", "width": 1080, "height": 1920, "fps": 25.0, "link": "https://videos.pexels.com/video-files/5644956/5644956-hd_1080_1920_25fps.mp4", "size": 13905427}, {"id": 9752660, "quality": "sd", "file_type": "video/mp4", "width": 240, "height": 426, "fps": 25.0, "link": "https://videos.pexels.com/video-files/5644956/5644956-sd_240_426_25fps.mp4", "size": 861564}, {"id": 9752813, "quality": "hd", "file_type": "video/mp4", "width": 720, "height": 1280, "fps": 25.0, "link": "https://videos.pexels.com/video-files/5644956/5644956-hd_720_1280_25fps.mp4", "size": 6758463}, {"id": 9752952, "quality": "sd", "file_type": "video/mp4", "width": 540, "height": 960, "fps": 25.0, "link": "https://videos.pexels.com/video-files/5644956/5644956-sd_540_960_25fps.mp4", "size": 3576927}, {"id": 9753119, "quality": "sd", "file_type": "video/mp4", "width": 360, "height": 640, "fps": 25.0, "link": "https://videos.pexels.com/video-files/5644956/5644956-sd_360_640_25fps.mp4", "size": 1359299}], "video_pictures": [{"id": 3132627, "nr": 0, "picture": "https://images.pexels.com/videos/5644956/pictures/preview-0.jpeg"}, {"id": 3132629, "nr": 1, "picture": "https://images.pexels.com/videos/5644956/pictures/preview-1.jpeg"}, {"id": 3132631, "nr": 2, "picture": "https://images.pexels.com/videos/5644956/pictures/preview-2.jpeg"}, {"id": 3132632, "nr": 3, "picture": "https://images.pexels.com/videos/5644956/pictures/preview-3.jpeg"}, {"id": 3132634, "nr": 4, "picture": "https://images.pexels.com/videos/5644956/pictures/preview-4.jpeg"}, {"id": 3132636, "nr": 5, "picture": "https://images.pexels.com/videos/5644956/pictures/preview-5.jpeg"}, {"id": 3132638, "nr": 6, "picture": "https://images.pexels.com/videos/5644956/pictures/preview-6.jpeg"}, {"id": 3132640, "nr": 7, "picture": "https://images.pexels.com/videos/5644956/pictures/preview-7.jpeg"}, {"id": 3132642, "nr": 8, "picture": "https://images.pexels.com/videos/5644956/pictures/preview-8.jpeg"}, {"id": 3132644, "nr": 9, "picture": "https://images.pexels.com/videos/5644956/pictures/preview-9.jpeg"}, {"id": 3132646, "nr": 10, "picture": "https://images.pexels.com/videos/5644956/pictures/preview-10.jpeg"}, {"id": 3132648, "nr": 11, "picture": "https://images.pexels.com/videos/5644956/pictures/preview-11.jpeg"}, {"id": 3132651, "nr": 12, "picture": "https://images.pexels.com/videos/5644956/pictures/preview-12.jpeg"}, {"id": 3132652, "nr": 13, "picture": "https://images.pexels.com/videos/5644956/pictures/preview-13.jpeg"}, {"id": 3132654, "nr": 14, "picture": "https://images.pexels.com/videos/5644956/pictures/preview-14.jpeg"}]}, {"id": 5559357, "width": 2160, "height": 3840, "duration": 9, "full_res": null, "tags": [], "url": "https://www.pexels.com/video/a-carved-pumpkin-5559357/", "image": "https://images.pexels.com/videos/5559357/at-home-creative-decor-diy-5559357.jpeg?auto=compress&cs=tinysrgb&fit=crop&h=1200&w=630", "avg_color": null, "user": {"id": 3674631, "name": "Daisy Anderson", "url": "https://www.pexels.com/@daisy-anderson"}, "video_files": [{"id": 9731561, "quality": "uhd", "file_type": "video/mp4", "width": 1440, "height": 2560, "fps": 25.0, "link": "https://videos.pexels.com/video-files/5559357/5559357-uhd_1440_2560_25fps.mp4", "size": 13577338}, {"id": 9731644, "quality": "hd", "file_type": "video/mp4", "width": 1080, "height": 1920, "fps": 25.0, "link": "https://videos.pexels.com/video-files/5559357/5559357-hd_1080_1920_25fps.mp4", "size": 5666759}, {"id": 9731760, "quality": "uhd", "file_type": "video/mp4", "width": 2160, "height": 3840, "fps": 25.0, "link": "https://videos.pexels.com/video-files/5559357/5559357-uhd_2160_3840_25fps.mp4", "size": 25881820}, {"id": 9731837, "quality": "sd", "file_type": "video/mp4", "width": 240, "height": 426, "fps": 25.0, "link": "https://videos.pexels.com/video-files/5559357/5559357-sd_240_426_25fps.mp4", "size": 319034}, {"id": 9731881, "quality": "sd", "file_type": "video/mp4", "width": 360, "height": 640, "fps": 25.0, "link": "https://videos.pexels.com/video-files/5559357/5559357-sd_360_640_25fps.mp4", "size": 523969}, {"id": 9731922, "quality": "sd", "file_type": "video/mp4", "width": 540, "height": 960, "fps": 25.0, "link": "https://videos.pexels.com/video-files/5559357/5559357-sd_540_960_25fps.mp4", "size": 1556586}, {"id": 9732024, "quality": "hd", "file_type": "video/mp4", "width": 720, "height": 1280, "fps": 25.0, "link": "https://videos.pexels.com/video-files/5559357/5559357-hd_720_1280_25fps.mp4", "size": 2709201}], "video_pictures": [{"id": 3002212, "nr": 0, "picture": "https://images.pexels.com/videos/5559357/pictures/preview-0.jpeg"}, {"id": 3002213, "nr": 1, "picture": "https://images.pexels.com/videos/5559357/pictures/preview-1.jpeg"}, {"id": 3002214, "nr": 2, "picture": "https://images.pexels.com/videos/5559357/pictures/preview-2.jpeg"}, {"id": 3002215, "nr": 3, "picture": "https://images.pexels.com/videos/5559357/pictures/preview-3.jpeg"}, {"id": 3002216, "nr": 4, "picture": "https://images.pexels.com/videos/5559357/pictures/preview-4.jpeg"}, {"id": 3002217, "nr": 5, "picture": "https://images.pexels.com/videos/5559357/pictures/preview-5.jpeg"}, {"id": 3002221, "nr": 6, "picture": "https://images.pexels.com/videos/5559357/pictures/preview-6.jpeg"}, {"id": 3002224, "nr": 7, "picture": "https://images.pexels.com/videos/5559357/pictures/preview-7.jpeg"}, {"id": 3002227, "nr": 8, "picture": "https://images.pexels.com/videos/5559357/pictures/preview-8.jpeg"}, {"id": 3002231, "nr": 9, "picture": "https://images.pexels.com/videos/5559357/pictures/preview-9.jpeg"}, {"id": 3002235, "nr": 10, "picture": "https://images.pexels.com/videos/5559357/pictures/preview-10.jpeg"}, {"id": 3002239, "nr": 11, "picture": "https://images.pexels.com/videos/5559357/pictures/preview-11.jpeg"}, {"id": 3002241, "nr": 12, "picture": "https://images.pexels.com/videos/5559357/pictures/preview-12.jpeg"}, {"id": 3002244, "nr": 13, "picture": "https://images.pexels.com/videos/5559357/pictures/preview-13.jpeg"}, {"id": 3002246, "nr": 14, "picture": "https://images.pexels.com/videos/5559357/pictures/preview-14.jpeg"}]}, {"id": 5678841, "width": 2160, "height": 4096, "duration": 12, "full_res": null, "tags": [], "url": "https://www.pexels.com/video/halloween-cupcakes-with-spooky-decoration-5678841/", "image": "https://images.pexels.com/videos/5678841/pexels-photo-5678841.jpeg?auto=compress&cs=tinysrgb&fit=crop&h=1200&w=630", "avg_color": null, "user": {"id": 3372733, "name": "Monstera Production", "url": "https://www.pexels.com/@gabby-k"}, "video_files": [{"id": 9766305, "quality": "sd", "file_type": "video/mp4", "width": 506, "height": 960, "fps": 30.0, "link": "https://videos.pexels.com/video-files/5678841/5678841-sd_506_960_30fps.mp4", "size": 485006}, {"id": 9766319, "quality": "hd", "file_type": "video/mp4", "width": 1080, "height": 2048, "fps": 30.0, "link": "https://videos.pexels.com/video-files/5678841/5678841-hd_1080_2048_30fps.mp4", "size": 2553176}, {"id": 9766335, "quality": "uhd", "file_type": "video/mp4", "width": 2160, "height": 4096, "fps": 30.0, "link": "https://videos.pexels.com/video-files/5678841/5678841-uhd_2160_4096_30fps.mp4", "size": 17391604}, {"id": 9766348, "quality": "hd", "file_type": "video/mp4", "width": 720, "height": 1366, "fps": 30.0, "link": "https://videos.pexels.com/video-files/5678841/5678841-hd_720_1366_30fps.mp4", "size": 935632}, {"id": 9766365, "quality": "sd", "file_type": "video/mp4", "width": 226, "height": 426, "fps": 30.0, "link": "https://videos.pexels.com/video-files/5678841/5678841-sd_226_426_30fps.mp4", "size": 133477}, {"id": 9766393, "quality": "uhd", "file_type": "video/mp4", "width": 1440, "height": 2732, "fps": 30.0, "link": "https://videos.pexels.com/video-files/5678841/5678841-uhd_1440_2732_30fps.mp4", "size": 5093614}, {"id": 9766419, "quality": "sd", "file_type": "video/mp4", "width": 338, "height": 640, "fps": 30.0, "link": "https://videos.pexels.com/video-files/5678841/5678841-sd_338_640_30fps.mp4", "size": 256934}], "video_pictures": [{"id": 3185059, "nr": 0, "picture": "https://images.pexels.com/videos/5678841/pictures/preview-0.jpeg"}, {"id": 3185063, "nr": 1, "picture": "https://images.pexels.com/videos/5678841/pictures/preview-1.jpeg"}, {"id": 3185071, "nr": 2, "picture": "https://images.pexels.com/videos/5678841/pictures/preview-2.jpeg"}, {"id": 3185079, "nr": 3, "picture": "https://images.pexels.com/videos/5678841/pictures/preview-3.jpeg"}, {"id": 3185088, "nr": 4, "picture": "https://images.pexels.com/videos/5678841/pictures/preview-4.jpeg"}, {"id": 3185095, "nr": 5, "picture": "https://images.pexels.com/videos/5678841/pictures/preview-5.jpeg"}, {"id": 3185100, "nr": 6, "picture": "https://images.pexels.com/videos/5678841/pictures/preview-6.jpeg"}, {"id": 3185108, "nr": 7, "picture": "https://images.pexels.com/videos/5678841/pictures/preview-7.jpeg"}, {"id": 3185117, "nr": 8, "picture": "https://images.pexels.com/videos/5678841/pictures/preview-8.jpeg"}, {"id": 3185125, "nr": 9, "picture": "https://images.pexels.com/videos/5678841/pictures/preview-9.jpeg"}, {"id": 3185132, "nr": 10, "picture": "https://images.pexels.com/videos/5678841/pictures/preview-10.jpeg"}, {"id": 3185142, "nr": 11, "picture": "https://images.pexels.com/videos/5678841/pictures/preview-11.jpeg"}, {"id": 3185152, "nr": 12, "picture": "https://images.pexels.com/videos/5678841/pictures/preview-12.jpeg"}, {"id": 3185163, "nr": 13, "picture": "https://images.pexels.com/videos/5678841/pictures/preview-13.jpeg"}, {"id": 3185177, "nr": 14, "picture": "https://images.pexels.com/videos/5678841/pictures/preview-14.jpeg"}]}, {"id": 5678842, "width": 2160, "height": 4096, "duration": 4, "full_res": null, "tags": [], "url": "https://www.pexels.com/video/holding-a-tray-of-halloween-cupcakes-5678842/", "image": "https://images.pexels.com/videos/5678842/pexels-photo-5678842.jpeg?auto=compress&cs=tinysrgb&fit=crop&h=1200&w=630", "avg_color": null, "user": {"id": 3372733, "name": "Monstera Production", "url": "https://www.pexels.com/@gabby-k"}, "video_files": [{"id": 9766979, "quality": "sd", "file_type": "video/mp4", "width": 506, "height": 960, "fps": 30.0, "link": "https://videos.pexels.com/video-files/5678842/5678842-sd_506_960_30fps.mp4", "size": 730806}, {"id": 9767003, "quality": "uhd", "file_type": "video/mp4", "width": 1440, "height": 2732, "fps": 30.0, "link": "https://videos.pexels.com/video-files/5678842/5678842-uhd_1440_2732_30fps.mp4", "size": 6163778}, {"id": 9767014, "quality": "hd", "file_type": "video/mp4", "width": 720, "height": 1366, "fps": 30.0, "link": "https://videos.pexels.com/video-files/5678842/5678842-hd_720_1366_30fps.mp4", "size": 1253122}, {"id": 9767044, "quality": "uhd", "file_type": "video/mp4", "width": 2160, "height": 4096, "fps": 30.0, "link": "https://videos.pexels.com/video-files/5678842/5678842-uhd_2160_4096_30fps.mp4", "size": 12126969}, {"id": 9767074, "quality": "hd", "file_type": "video/mp4", "width": 1080, "height": 2048, "fps": 30.0, "link": "https://videos.pexels.com/video-files/5678842/5678842-hd_1080_2048_30fps.mp4", "size": 2494107}, {"id": 9767113, "quality": "sd", "file_type": "video/mp4", "width": 226, "height": 426, "fps": 30.0, "link": "https://videos.pexels.com/video-files/5678842/5678842-sd_226_426_30fps.mp4", "size": 150483}, {"id": 9767143, "quality": "sd", "file_type": "video/mp4", "width": 338, "height": 640, "fps": 30.0, "link": "https://videos.pexels.com/video-files/5678842/5678842-sd_338_640_30fps.mp4", "size": 245962}], "video_pictures": [{"id": 3185048, "nr": 0, "picture": "https://images.pexels.com/videos/5678842/pictures/preview-0.jpeg"}, {"id": 3185052, "nr": 1, "picture": "https://images.pexels.com/videos/5678842/pictures/preview-1.jpeg"}, {"id": 3185057, "nr": 2, "picture": "https://images.pexels.com/videos/5678842/pictures/preview-2.jpeg"}, {"id": 3185062, "nr": 3, "picture": "https://images.pexels.com/videos/5678842/pictures/preview-3.jpeg"}, {"id": 3185069, "nr": 4, "picture": "https://images.pexels.com/videos/5678842/pictures/preview-4.jpeg"}, {"id": 3185077, "nr": 5, "picture": "https://images.pexels.com/videos/5678842/pictures/preview-5.jpeg"}, {"id": 3185086, "nr": 6, "picture": "https://images.pexels.com/videos/5678842/pictures/preview-6.jpeg"}, {"id": 3185094, "nr": 7, "picture": "https://images.pexels.com/videos/5678842/pictures/preview-7.jpeg"}, {"id": 3185101, "nr": 8, "picture": "https://images.pexels.com/videos/5678842/pictures/preview-8.jpeg"}, {"id": 3185111, "nr": 9, "picture": "https://images.pexels.com/videos/5678842/pictures/preview-9.jpeg"}, {"id": 3185120, "nr": 10, "picture": "https://images.pexels.com/videos/5678842/pictures/preview-10.jpeg"}, {"id": 3185128, "nr": 11, "picture": "https://images.pexels.com/videos/5678842/pictures/preview-11.jpeg"}, {"id": 3185137, "nr": 12, "picture": "https://images.pexels.com/videos/5678842/pictures/preview-12.jpeg"}, {"id": 3185149, "nr": 13, "picture": "https://images.pexels.com/videos/5678842/pictures/preview-13.jpeg"}, {"id": 3185162, "nr": 14, "picture": "https://images.pexels.com/videos/5678842/pictures/preview-14.jpeg"}]}, {"id": 5678840, "width": 2160, "height": 4096, "duration": 8, "full_res": null, "tags": [], "url": "https://www.pexels.com/video/a-woman-serving-halloween-cupcakes-5678840/", "image": "https://images.pexels.com/videos/5678840/pexels-photo-5678840.jpeg?auto=compress&cs=tinysrgb&fit=crop&h=1200&w=630", "avg_color": null, "user": {"id": 3372733, "name": "Monstera Production", "url": "https://www.pexels.com/@gabby-k"}, "video_files": [{"id": 9767709, "quality": "hd", "file_type": "video/mp4", "width": 1080, "height": 2048, "fps": 30.0, "link": "https://videos.pexels.com/video-files/5678840/5678840-hd_1080_2048_30fps.mp4", "size": 4817064}, {"id": 9767799, "quality": "sd", "file_type": "video/mp4", "width": 226, "height": 426, "fps": 30.0, "link": "https://videos.pexels.com/video-files/5678840/5678840-sd_226_426_30fps.mp4", "size": 296396}, {"id": 9767917, "quality": "sd", "file_type": "video/mp4", "width": 506, "height": 960, "fps": 30.0, "link": "https://videos.pexels.com/video-files/5678840/5678840-sd_506_960_30fps.mp4", "size": 1377656}, {"id": 9768085, "quality": "sd", "file_type": "video/mp4", "width": 338, "height": 640, "fps": 30.0, "link": "https://videos.pexels.com/video-files/5678840/5678840-sd_338_640_30fps.mp4", "size": 469242}, {"id": 9768159, "quality": "hd", "file_type": "video/mp4", "width": 720, "height": 1366, "fps": 30.0, "link": "https://videos.pexels.com/video-files/5678840/5678840-hd_720_1366_30fps.mp4", "size": 2354381}, {"id": 9768318, "quality": "uhd", "file_type": "video/mp4", "width": 2160, "height": 4096, "fps": 30.0, "link": "https://videos.pexels.com/video-files/5678840/5678840-uhd_2160_4096_30fps.mp4", "size": 21718201}, {"id": 9768359, "quality": "uhd", "file_type": "video/mp4", "width": 1440, "height": 2732, "fps": 30.0, "link": "https://videos.pexels.com/video-files/5678840/5678840-uhd_1440_2732_30fps.mp4", "size": 11794454}], "video_pictures": [{"id": 3185777, "nr": 0, "picture": "https://images.pexels.com/videos/5678840/pictures/preview-0.jpeg"}, {"id": 3185787, "nr": 1, "picture": "https://images.pexels.com/videos/5678840/pictures/preview-1.jpeg"}, {"id": 3185795, "nr": 2, "picture": "https://images.pexels.com/videos/5678840/pictures/preview-2.jpeg"}, {"id": 3185805, "nr": 3, "picture": "https://images.pexels.com/videos/5678840/pictures/preview-3.jpeg"}, {"id": 3185815, "nr": 4, "picture": "https://images.pexels.com/videos/5678840/pictures/preview-4.jpeg"}, {"id": 3185836, "nr": 5, "picture": "https://images.pexels.com/videos/5678840/pictures/preview-5.jpeg"}, {"id": 3185859, "nr": 6, "picture": "https://images.pexels.com/videos/5678840/pictures/preview-6.jpeg"}, {"id": 3185884, "nr": 7, "picture": "https://images.pexels.com/videos/5678840/pictures/preview-7.jpeg"}, {"id": 3185904, "nr": 8, "picture": "https://images.pexels.com/videos/5678840/pictures/preview-8.jpeg"}, {"id": 3185921, "nr": 9, "picture": "https://images.pexels.com/videos/5678840/pictures/preview-9.jpeg"}, {"id": 3185941, "nr": 10, "picture": "https://images.pexels.com/videos/5678840/pictures/preview-10.jpeg"}, {"id": 3185961, "nr": 11, "picture": "https://images.pexels.com/videos/5678840/pictures/preview-11.jpeg"}, {"id": 3185982, "nr": 12, "picture": "https://images.pexels.com/videos/5678840/pictures/preview-12.jpeg"}, {"id": 3186011, "nr": 13, "picture": "https://images.pexels.com/videos/5678840/pictures/preview-13.jpeg"}, {"id": 3186036, "nr": 14, "picture": "https://images.pexels.com/videos/5678840/pictures/preview-14.jpeg"}]}, {"id": 5899705, "width": 2160, "height": 4096, "duration": 10, "full_res": null, "tags": [], "url": "https://www.pexels.com/video/close-up-shot-of-food-on-the-table-5899705/", "image": "https://images.pexels.com/videos/5899705/pexels-photo-5899705.jpeg?auto=compress&cs=tinysrgb&fit=crop&h=1200&w=630", "avg_color": null, "user": {"id": 3372733, "name": "Monstera Production", "url": "https://www.pexels.com/@gabby-k"}, "video_files": [{"id": 9844993, "quality": "uhd", "file_type": "video/mp4", "width": 2160, "height": 4096, "fps": 30.0, "link": "https://videos.pexels.com/video-files/5899705/5899705-uhd_2160_4096_30fps.mp4", "size": 28617674}, {"id": 9845111, "quality": "hd", "file_type": "video/mp4", "width": 1080, "height": 2048, "fps": 30.0, "link": "https://videos.pexels.com/video-files/5899705/5899705-hd_1080_2048_30fps.mp4", "size": 6187628}, {"id": 9845189, "quality": "hd", "file_type": "video/mp4", "width": 720, "height": 1366, "fps": 30.0, "link": "https://videos.pexels.com/video-files/5899705/5899705-hd_720_1366_30fps.mp4", "size": 3000149}, {"id": 9845273, "quality": "sd", "file_type": "video/mp4", "width": 226, "height": 426, "fps": 30.0, "link": "https://videos.pexels.com/video-files/5899705/5899705-sd_226_426_30fps.mp4", "size": 369354}, {"id": 9845359, "quality": "sd", "file_type": "video/mp4", "width": 338, "height": 640, "fps": 30.0, "link": "https://videos.pexels.com/video-files/5899705/5899705-sd_338_640_30fps.mp4", "size": 595312}, {"id": 9845392, "quality": "sd", "file_type": "video/mp4", "width": 506, "height": 960, "fps": 30.0, "link": "https://videos.pexels.com/video-files/5899705/5899705-sd_506_960_30fps.mp4", "size": 1790563}, {"id": 9845427, "quality": "uhd", "file_type": "video/mp4", "width": 1440, "height": 2732, "fps": 30.0, "link": "https://videos.pexels.com/video-files/5899705/5899705-uhd_1440_2732_30fps.mp4", "size": 15589322}], "video_pictures": [{"id": 3552070, "nr": 0, "picture": "https://images.pexels.com/videos/5899705/pictures/preview-0.jpeg"}, {"id": 3552077, "nr": 1, "picture": "https://images.pexels.com/videos/5899705/pictures/preview-1.jpeg"}, {"id": 3552089, "nr": 2, "picture": "https://images.pexels.com/videos/5899705/pictures/preview-2.jpeg"}, {"id": 3552100, "nr": 3, "picture": "https://images.pexels.com/videos/5899705/pictures/preview-3.jpeg"}, {"id": 3552111, "nr": 4, "picture": "https://images.pexels.com/videos/5899705/pictures/preview-4.jpeg"}, {"id": 3552120, "nr": 5, "picture": "https://images.pexels.com/videos/5899705/pictures/preview-5.jpeg"}, {"id": 3552126, "nr": 6, "picture": "https://images.pexels.com/videos/5899705/pictures/preview-6.jpeg"}, {"id": 3552134, "nr": 7, "picture": "https://images.pexels.com/videos/5899705/pictures/preview-7.jpeg"}, {"id": 3552141, "nr": 8, "picture": "https://images.pexels.com/videos/5899705/pictures/preview-8.jpeg"}, {"id": 3552151, "nr": 9, "picture": "https://images.pexels.com/videos/5899705/pictures/preview-9.jpeg"}, {"id": 3552158, "nr": 10, "picture": "https://images.pexels.com/videos/5899705/pictures/preview-10.jpeg"}, {"id": 3552166, "nr": 11, "picture": "https://images.pexels.com/videos/5899705/pictures/preview-11.jpeg"}, {"id": 3552171, "nr": 12, "picture": "https://images.pexels.com/videos/5899705/pictures/preview-12.jpeg"}, {"id": 3552174, "nr": 13, "picture": "https://images.pexels.com/videos/5899705/pictures/preview-13.jpeg"}, {"id": 3552179, "nr": 14, "picture": "https://images.pexels.com/videos/5899705/pictures/preview-14.jpeg"}]}, {"id": 5678932, "width": 2160, "height": 4096, "duration": 17, "full_res": null, "tags": [], "url": "https://www.pexels.com/video/serving-halloween-cupcakes-for-snack-5678932/", "image": "https://images.pexels.com/videos/5678932/pexels-photo-5678932.jpeg?auto=compress&cs=tinysrgb&fit=crop&h=1200&w=630", "avg_color": null, "user": {"id": 3372733, "name": "Monstera Production", "url": "https://www.pexels.com/@gabby-k"}, "video_files": [{"id": 9766252, "quality": "sd", "file_type": "video/mp4", "width": 226, "height": 426, "fps": 30.0, "link": "https://videos.pexels.com/video-files/5678932/5678932-sd_226_426_30fps.mp4", "size": 505652}, {"id": 9766292, "quality": "hd", "file_type": "video/mp4", "width": 1080, "height": 2048, "fps": 30.0, "link": "https://videos.pexels.com/video-files/5678932/5678932-hd_1080_2048_30fps.mp4", "size": 7069911}, {"id": 9766315, "quality": "hd", "file_type": "video/mp4", "width": 720, "height": 1366, "fps": 30.0, "link": "https://videos.pexels.com/video-files/5678932/5678932-hd_720_1366_30fps.mp4", "size": 3322858}, {"id": 9766352, "quality": "sd", "file_type": "video/mp4", "width": 506, "height": 960, "fps": 30.0, "link": "https://videos.pexels.com/video-files/5678932/5678932-sd_506_960_30fps.mp4", "size": 1647153}, {"id": 9766410, "quality": "uhd", "file_type": "video/mp4", "width": 1440, "height": 2732, "fps": 30.0, "link": "https://videos.pexels.com/video-files/5678932/5678932-uhd_1440_2732_30fps.mp4", "size": 11790358}, {"id": 9766456, "quality": "uhd", "file_type": "video/mp4", "width": 2160, "height": 4096, "fps": 30.0, "link": "https://videos.pexels.com/video-files/5678932/5678932-uhd_2160_4096_30fps.mp4", "size": 26523873}, {"id": 9766525, "quality": "sd", "file_type": "video/mp4", "width": 338, "height": 640, "fps": 30.0, "link": "https://videos.pexels.com/video-files/5678932/5678932-sd_338_640_30fps.mp4", "size": 820837}], "video_pictures": [{"id": 3185446, "nr": 0, "picture": "https://images.pexels.com/videos/5678932/pictures/preview-0.jpeg"}, {"id": 3185450, "nr": 1, "picture": "https://images.pexels.com/videos/5678932/pictures/preview-1.jpeg"}, {"id": 3185457, "nr": 2, "picture": "https://images.pexels.com/videos/5678932/pictures/preview-2.jpeg"}, {"id": 3185465, "nr": 3, "picture": "https://images.pexels.com/videos/5678932/pictures/preview-3.jpeg"}, {"id": 3185472, "nr": 4, "picture": "https://images.pexels.com/videos/5678932/pictures/preview-4.jpeg"}, {"id": 3185479, "nr": 5, "picture": "https://images.pexels.com/videos/5678932/pictures/preview-5.jpeg"}, {"id": 3185486, "nr": 6, "picture": "https://images.pexels.com/videos/5678932/pictures/preview-6.jpeg"}, {"id": 3185493, "nr": 7, "picture": "https://images.pexels.com/videos/5678932/pictures/preview-7.jpeg"}, {"id": 3185500, "nr": 8, "picture": "https://images.pexels.com/videos/5678932/pictures/preview-8.jpeg"}, {"id": 3185514, "nr": 9, "picture": "https://images.pexels.com/videos/5678932/pictures/preview-9.jpeg"}, {"id": 3185524, "nr": 10, "picture": "https://images.pexels.com/videos/5678932/pictures/preview-10.jpeg"}, {"id": 3185533, "nr": 11, "picture": "https://images.pexels.com/videos/5678932/pictures/preview-11.jpeg"}, {"id": 3185548, "nr": 12, "picture": "https://images.pexels.com/videos/5678932/pictures/preview-12.jpeg"}, {"id": 3185553, "nr": 13, "picture": "https://images.pexels.com/videos/5678932/pictures/preview-13.jpeg"}, {"id": 3185562, "nr": 14, "picture": "https://images.pexels.com/videos/5678932/pictures/preview-14.jpeg"}]}], "total_results": 3274, "next_page": "https://api.pexels.com/v1/videos/search/?orientation=portrait&page=2&per_page=8&query=pumpkin+fruit", "url": "https://api-server.pexels.com/search/videos/pumpkin%20fruit/"}, "timestamp": "2024-12-28T23:03:39.842223"}
