{"query": "plant care tips", "response": {"page": 1, "per_page": 8, "videos": [{"id": 6204977, "width": 2160, "height": 3840, "duration": 15, "full_res": null, "tags": [], "url": "https://www.pexels.com/video/a-woman-watering-plants-6204977/", "image": "https://images.pexels.com/videos/6204977/pexels-photo-6204977.jpeg?auto=compress&cs=tinysrgb&fit=crop&h=1200&w=630", "avg_color": null, "user": {"id": 6928007, "name": "Tim Douglas", "url": "https://www.pexels.com/@tim-douglas"}, "video_files": [{"id": 9958548, "quality": "uhd", "file_type": "video/mp4", "width": 1440, "height": 2560, "fps": 24.0, "link": "https://videos.pexels.com/video-files/6204977/6204977-uhd_1440_2560_24fps.mp4", "size": 9706282}, {"id": 9958569, "quality": "hd", "file_type": "video/mp4", "width": 1080, "height": 1920, "fps": 24.0, "link": "https://videos.pexels.com/video-files/6204977/6204977-hd_1080_1920_24fps.mp4", "size": 5923049}, {"id": 9958652, "quality": "sd", "file_type": "video/mp4", "width": 360, "height": 640, "fps": 24.0, "link": "https://videos.pexels.com/video-files/6204977/6204977-sd_360_640_24fps.mp4", "size": 726140}, {"id": 9958726, "quality": "uhd", "file_type": "video/mp4", "width": 2160, "height": 3840, "fps": 24.0, "link": "https://videos.pexels.com/video-files/6204977/6204977-uhd_2160_3840_24fps.mp4", "size": 20103400}, {"id": 9958820, "quality": "hd", "file_type": "video/mp4", "width": 720, "height": 1280, "fps": 24.0, "link": "https://videos.pexels.com/video-files/6204977/6204977-hd_720_1280_24fps.mp4", "size": 2914552}, {"id": 9958942, "quality": "sd", "file_type": "video/mp4", "width": 540, "height": 960, "fps": 24.0, "link": "https://videos.pexels.com/video-files/6204977/6204977-sd_540_960_24fps.mp4", "size": 1635150}, {"id": 9959022, "quality": "sd", "file_type": "video/mp4", "width": 240, "height": 426, "fps": 24.0, "link": "https://videos.pexels.com/video-files/6204977/6204977-sd_240_426_24fps.mp4", "size": 411980}], "video_pictures": [{"id": 4073520, "nr": 0, "picture": "https://images.pexels.com/videos/6204977/pictures/preview-0.jpeg"}, {"id": 4073522, "nr": 1, "picture": "https://images.pexels.com/videos/6204977/pictures/preview-1.jpeg"}, {"id": 4073525, "nr": 2, "picture": "https://images.pexels.com/videos/6204977/pictures/preview-2.jpeg"}, {"id": 4073528, "nr": 3, "picture": "https://images.pexels.com/videos/6204977/pictures/preview-3.jpeg"}, {"id": 4073531, "nr": 4, "picture": "https://images.pexels.com/videos/6204977/pictures/preview-4.jpeg"}, {"id": 4073534, "nr": 5, "picture": "https://images.pexels.com/videos/6204977/pictures/preview-5.jpeg"}, {"id": 4073538, "nr": 6, "picture": "https://images.pexels.com/videos/6204977/pictures/preview-6.jpeg"}, {"id": 4073542, "nr": 7, "picture": "https://images.pexels.com/videos/6204977/pictures/preview-7.jpeg"}, {"id": 4073545, "nr": 8, "picture": "https://images.pexels.com/videos/6204977/pictures/preview-8.jpeg"}, {"id": 4073547, "nr": 9, "picture": "https://images.pexels.com/videos/6204977/pictures/preview-9.jpeg"}, {"id": 4073550, "nr": 10, "picture": "https://images.pexels.com/videos/6204977/pictures/preview-10.jpeg"}, {"id": 4073553, "nr": 11, "picture": "https://images.pexels.com/videos/6204977/pictures/preview-11.jpeg"}, {"id": 4073554, "nr": 12, "picture": "https://images.pexels.com/videos/6204977/pictures/preview-12.jpeg"}, {"id": 4073556, "nr": 13, "picture": "https://images.pexels.com/videos/6204977/pictures/preview-13.jpeg"}, {"id": 4073558, "nr": 14, "picture": "https://images.pexels.com/videos/6204977/pictures/preview-14.jpeg"}]}, {"id": 6509251, "width": 2160, "height": 3840, "duration": 23, "full_res": null, "tags": [], "url": "https://www.pexels.com/video/panning-shot-of-plants-on-the-greenhouse-6509251/", "image": "https://images.pexels.com/videos/6509251/pexels-photo-6509251.jpeg?auto=compress&cs=tinysrgb&fit=crop&h=1200&w=630", "avg_color": null, "user": {"id": 3088726, "name": "Tima Miroshnichenko", "url": "https://www.pexels.com/@tima-miroshnichenko"}, "video_files": [{"id": 10060784, "quality": "hd", "file_type": "video/mp4", "width": 1080, "height": 1920, "fps": 24.0, "link": "https://videos.pexels.com/video-files/6509251/6509251-hd_1080_1920_24fps.mp4", "size": 7963741}, {"id": 10060829, "quality": "uhd", "file_type": "video/mp4", "width": 2160, "height": 3840, "fps": 24.0, "link": "https://videos.pexels.com/video-files/6509251/6509251-uhd_2160_3840_24fps.mp4", "size": 26788470}, {"id": 10060936, "quality": "hd", "file_type": "video/mp4", "width": 720, "height": 1280, "fps": 24.0, "link": "https://videos.pexels.com/video-files/6509251/6509251-hd_720_1280_24fps.mp4", "size": 3923537}, {"id": 10061089, "quality": "uhd", "file_type": "video/mp4", "width": 1440, "height": 2560, "fps": 24.0, "link": "https://videos.pexels.com/video-files/6509251/6509251-uhd_1440_2560_24fps.mp4", "size": 12420758}, {"id": 10061177, "quality": "sd", "file_type": "video/mp4", "width": 360, "height": 640, "fps": 24.0, "link": "https://videos.pexels.com/video-files/6509251/6509251-sd_360_640_24fps.mp4", "size": 1136747}, {"id": 10061336, "quality": "sd", "file_type": "video/mp4", "width": 240, "height": 426, "fps": 24.0, "link": "https://videos.pexels.com/video-files/6509251/6509251-sd_240_426_24fps.mp4", "size": 628815}, {"id": 10061474, "quality": "sd", "file_type": "video/mp4", "width": 540, "height": 960, "fps": 24.0, "link": "https://videos.pexels.com/video-files/6509251/6509251-sd_540_960_24fps.mp4", "size": 2386423}], "video_pictures": [{"id": 4551588, "nr": 0, "picture": "https://images.pexels.com/videos/6509251/pictures/preview-0.jpeg"}, {"id": 4551591, "nr": 1, "picture": "https://images.pexels.com/videos/6509251/pictures/preview-1.jpeg"}, {"id": 4551594, "nr": 2, "picture": "https://images.pexels.com/videos/6509251/pictures/preview-2.jpeg"}, {"id": 4551597, "nr": 3, "picture": "https://images.pexels.com/videos/6509251/pictures/preview-3.jpeg"}, {"id": 4551600, "nr": 4, "picture": "https://images.pexels.com/videos/6509251/pictures/preview-4.jpeg"}, {"id": 4551603, "nr": 5, "picture": "https://images.pexels.com/videos/6509251/pictures/preview-5.jpeg"}, {"id": 4551605, "nr": 6, "picture": "https://images.pexels.com/videos/6509251/pictures/preview-6.jpeg"}, {"id": 4551609, "nr": 7, "picture": "https://images.pexels.com/videos/6509251/pictures/preview-7.jpeg"}, {"id": 4551613, "nr": 8, "picture": "https://images.pexels.com/videos/6509251/pictures/preview-8.jpeg"}, {"id": 4551616, "nr": 9, "picture": "https://images.pexels.com/videos/6509251/pictures/preview-9.jpeg"}, {"id": 4551619, "nr": 10, "picture": "https://images.pexels.com/videos/6509251/pictures/preview-10.jpeg"}, {"id": 4551623, "nr": 11, "picture": "https://images.pexels.com/videos/6509251/pictures/preview-11.jpeg"}, {"id": 4551627, "nr": 12, "picture": "https://images.pexels.com/videos/6509251/pictures/preview-12.jpeg"}, {"id": 4551631, "nr": 13, "picture": "https://images.pexels.com/videos/6509251/pictures/preview-13.jpeg"}, {"id": 4551638, "nr": 14, "picture": "https://images.pexels.com/videos/6509251/pictures/preview-14.jpeg"}]}, {"id": 7714903, "width": 2160, "height": 3840, "duration": 10, "full_res": null, "tags": [], "url": "https://www.pexels.com/video/elderly-man-gardening-in-the-backyard-7714903/", "image": "https://images.pexels.com/videos/7714903/ball-shaped-compost-elder-elderly-7714903.jpeg?auto=compress&cs=tinysrgb&fit=crop&h=1200&w=630", "avg_color": null, "user": {"id": 48519361, "name": "Greta Hoffman", "url": "https://www.pexels.com/@greta-hoffman"}, "video_files": [{"id": 10564433, "quality": "hd", "file_type": "video/mp4", "width": 720, "height": 1280, "fps": 23.97599983215332, "link": "https://videos.pexels.com/video-files/7714903/7714903-hd_720_1280_24fps.mp4", "size": 3175698}, {"id": 10564454, "quality": "sd", "file_type": "video/mp4", "width": 540, "height": 960, "fps": 23.97599983215332, "link": "https://videos.pexels.com/video-files/7714903/7714903-sd_540_960_24fps.mp4", "size": 1673105}, {"id": 10564481, "quality": "hd", "file_type": "video/mp4", "width": 1080, "height": 1920, "fps": 23.97599983215332, "link": "https://videos.pexels.com/video-files/7714903/7714903-hd_1080_1920_24fps.mp4", "size": 5813096}, {"id": 10564505, "quality": "sd", "file_type": "video/mp4", "width": 240, "height": 426, "fps": 23.97599983215332, "link": "https://videos.pexels.com/video-files/7714903/7714903-sd_240_426_24fps.mp4", "size": 430994}, {"id": 10564527, "quality": "sd", "file_type": "video/mp4", "width": 360, "height": 640, "fps": 23.97599983215332, "link": "https://videos.pexels.com/video-files/7714903/7714903-sd_360_640_24fps.mp4", "size": 623318}, {"id": 10564634, "quality": "uhd", "file_type": "video/mp4", "width": 2160, "height": 3840, "fps": 23.97599983215332, "link": "https://videos.pexels.com/video-files/7714903/7714903-uhd_2160_3840_24fps.mp4", "size": 24577155}, {"id": 10564647, "quality": "uhd", "file_type": "video/mp4", "width": 1440, "height": 2560, "fps": 23.97599983215332, "link": "https://videos.pexels.com/video-files/7714903/7714903-uhd_1440_2560_24fps.mp4", "size": 12098276}], "video_pictures": [{"id": 6976551, "nr": 0, "picture": "https://images.pexels.com/videos/7714903/pictures/preview-0.jpeg"}, {"id": 6976570, "nr": 1, "picture": "https://images.pexels.com/videos/7714903/pictures/preview-1.jpeg"}, {"id": 6976586, "nr": 2, "picture": "https://images.pexels.com/videos/7714903/pictures/preview-2.jpeg"}, {"id": 6976603, "nr": 3, "picture": "https://images.pexels.com/videos/7714903/pictures/preview-3.jpeg"}, {"id": 6976618, "nr": 4, "picture": "https://images.pexels.com/videos/7714903/pictures/preview-4.jpeg"}, {"id": 6976632, "nr": 5, "picture": "https://images.pexels.com/videos/7714903/pictures/preview-5.jpeg"}, {"id": 6976642, "nr": 6, "picture": "https://images.pexels.com/videos/7714903/pictures/preview-6.jpeg"}, {"id": 6976651, "nr": 7, "picture": "https://images.pexels.com/videos/7714903/pictures/preview-7.jpeg"}, {"id": 6976663, "nr": 8, "picture": "https://images.pexels.com/videos/7714903/pictures/preview-8.jpeg"}, {"id": 6976671, "nr": 9, "picture": "https://images.pexels.com/videos/7714903/pictures/preview-9.jpeg"}, {"id": 6976679, "nr": 10, "picture": "https://images.pexels.com/videos/7714903/pictures/preview-10.jpeg"}, {"id": 6976689, "nr": 11, "picture": "https://images.pexels.com/videos/7714903/pictures/preview-11.jpeg"}, {"id": 6976696, "nr": 12, "picture": "https://images.pexels.com/videos/7714903/pictures/preview-12.jpeg"}, {"id": 6976706, "nr": 13, "picture": "https://images.pexels.com/videos/7714903/pictures/preview-13.jpeg"}, {"id": 6976718, "nr": 14, "picture": "https://images.pexels.com/videos/7714903/pictures/preview-14.jpeg"}]}, {"id": 9384658, "width": 2160, "height": 3840, "duration": 10, "full_res": null, "tags": [], "url": "https://www.pexels.com/video/a-woman-watering-indoor-plants-9384658/", "image": "https://images.pexels.com/videos/9384658/adult-beautiful-child-cute-9384658.jpeg?auto=compress&cs=tinysrgb&fit=crop&h=1200&w=630", "avg_color": null, "user": {"id": 20454725, "name": "Sasha  Kim", "url": "https://www.pexels.com/@sasha-kim"}, "video_files": [{"id": 11099122, "quality": "sd", "file_type": "video/mp4", "width": 540, "height": 960, "fps": 23.97599983215332, "link": "https://videos.pexels.com/video-files/9384658/9384658-sd_540_960_24fps.mp4", "size": 1623253}, {"id": 11099168, "quality": "uhd", "file_type": "video/mp4", "width": 1440, "height": 2560, "fps": 23.97599983215332, "link": "https://videos.pexels.com/video-files/9384658/9384658-uhd_1440_2560_24fps.mp4", "size": 9735538}, {"id": 11099196, "quality": "sd", "file_type": "video/mp4", "width": 240, "height": 426, "fps": 23.97599983215332, "link": "https://videos.pexels.com/video-files/9384658/9384658-sd_240_426_24fps.mp4", "size": 428709}, {"id": 11099279, "quality": "sd", "file_type": "video/mp4", "width": 360, "height": 640, "fps": 23.97599983215332, "link": "https://videos.pexels.com/video-files/9384658/9384658-sd_360_640_24fps.mp4", "size": 615283}, {"id": 11099340, "quality": "hd", "file_type": "video/mp4", "width": 720, "height": 1280, "fps": 23.97599983215332, "link": "https://videos.pexels.com/video-files/9384658/9384658-hd_720_1280_24fps.mp4", "size": 2726310}, {"id": 11099400, "quality": "hd", "file_type": "video/mp4", "width": 1080, "height": 1920, "fps": 23.97599983215332, "link": "https://videos.pexels.com/video-files/9384658/9384658-hd_1080_1920_24fps.mp4", "size": 5308112}, {"id": 11099513, "quality": "uhd", "file_type": "video/mp4", "width": 2160, "height": 3840, "fps": 23.97599983215332, "link": "https://videos.pexels.com/video-files/9384658/9384658-uhd_2160_3840_24fps.mp4", "size": 21606090}], "video_pictures": [{"id": 9629809, "nr": 0, "picture": "https://images.pexels.com/videos/9384658/pictures/preview-0.jpeg"}, {"id": 9629885, "nr": 1, "picture": "https://images.pexels.com/videos/9384658/pictures/preview-1.jpeg"}, {"id": 9629957, "nr": 2, "picture": "https://images.pexels.com/videos/9384658/pictures/preview-2.jpeg"}, {"id": 9630076, "nr": 3, "picture": "https://images.pexels.com/videos/9384658/pictures/preview-3.jpeg"}, {"id": 9630178, "nr": 4, "picture": "https://images.pexels.com/videos/9384658/pictures/preview-4.jpeg"}, {"id": 9630307, "nr": 5, "picture": "https://images.pexels.com/videos/9384658/pictures/preview-5.jpeg"}, {"id": 9630400, "nr": 6, "picture": "https://images.pexels.com/videos/9384658/pictures/preview-6.jpeg"}, {"id": 9630517, "nr": 7, "picture": "https://images.pexels.com/videos/9384658/pictures/preview-7.jpeg"}, {"id": 9630617, "nr": 8, "picture": "https://images.pexels.com/videos/9384658/pictures/preview-8.jpeg"}, {"id": 9630711, "nr": 9, "picture": "https://images.pexels.com/videos/9384658/pictures/preview-9.jpeg"}, {"id": 9630846, "nr": 10, "picture": "https://images.pexels.com/videos/9384658/pictures/preview-10.jpeg"}, {"id": 9630995, "nr": 11, "picture": "https://images.pexels.com/videos/9384658/pictures/preview-11.jpeg"}, {"id": 9631085, "nr": 12, "picture": "https://images.pexels.com/videos/9384658/pictures/preview-12.jpeg"}, {"id": 9631146, "nr": 13, "picture": "https://images.pexels.com/videos/9384658/pictures/preview-13.jpeg"}, {"id": 9631218, "nr": 14, "picture": "https://images.pexels.com/videos/9384658/pictures/preview-14.jpeg"}]}, {"id": 6963395, "width": 1080, "height": 1920, "duration": 7, "full_res": null, "tags": [], "url": "https://www.pexels.com/video/a-person-holding-a-eucalyptus-plant-with-soil-6963395/", "image": "https://images.pexels.com/videos/6963395/eco-friendly-environment-environmentally-friendly-mothernature-6963395.jpeg?auto=compress&cs=tinysrgb&fit=crop&h=1200&w=630", "avg_color": null, "user": {"id": 3716105, "name": "Cup of  Couple", "url": "https://www.pexels.com/@cup-of-couple"}, "video_files": [{"id": 10253111, "quality": "sd", "file_type": "video/mp4", "width": 540, "height": 960, "fps": 25.0, "link": "https://videos.pexels.com/video-files/6963395/6963395-sd_540_960_25fps.mp4", "size": 1275312}, {"id": 10253142, "quality": "hd", "file_type": "video/mp4", "width": 1080, "height": 1920, "fps": 25.0, "link": "https://videos.pexels.com/video-files/6963395/6963395-hd_1080_1920_25fps.mp4", "size": 4214061}, {"id": 10253184, "quality": "sd", "file_type": "video/mp4", "width": 360, "height": 640, "fps": 25.0, "link": "https://videos.pexels.com/video-files/6963395/6963395-sd_360_640_25fps.mp4", "size": 437793}, {"id": 10253223, "quality": "hd", "file_type": "video/mp4", "width": 720, "height": 1280, "fps": 50.0, "link": "https://videos.pexels.com/video-files/6963395/6963395-hd_720_1280_50fps.mp4", "size": 2297154}, {"id": 10253254, "quality": "sd", "file_type": "video/mp4", "width": 240, "height": 426, "fps": 25.0, "link": "https://videos.pexels.com/video-files/6963395/6963395-sd_240_426_25fps.mp4", "size": 270056}], "video_pictures": [{"id": 5475995, "nr": 0, "picture": "https://images.pexels.com/videos/6963395/pictures/preview-0.jpeg"}, {"id": 5476002, "nr": 1, "picture": "https://images.pexels.com/videos/6963395/pictures/preview-1.jpeg"}, {"id": 5476007, "nr": 2, "picture": "https://images.pexels.com/videos/6963395/pictures/preview-2.jpeg"}, {"id": 5476016, "nr": 3, "picture": "https://images.pexels.com/videos/6963395/pictures/preview-3.jpeg"}, {"id": 5476024, "nr": 4, "picture": "https://images.pexels.com/videos/6963395/pictures/preview-4.jpeg"}, {"id": 5476033, "nr": 5, "picture": "https://images.pexels.com/videos/6963395/pictures/preview-5.jpeg"}, {"id": 5476039, "nr": 6, "picture": "https://images.pexels.com/videos/6963395/pictures/preview-6.jpeg"}, {"id": 5476048, "nr": 7, "picture": "https://images.pexels.com/videos/6963395/pictures/preview-7.jpeg"}, {"id": 5476055, "nr": 8, "picture": "https://images.pexels.com/videos/6963395/pictures/preview-8.jpeg"}, {"id": 5476058, "nr": 9, "picture": "https://images.pexels.com/videos/6963395/pictures/preview-9.jpeg"}, {"id": 5476062, "nr": 10, "picture": "https://images.pexels.com/videos/6963395/pictures/preview-10.jpeg"}, {"id": 5476074, "nr": 11, "picture": "https://images.pexels.com/videos/6963395/pictures/preview-11.jpeg"}, {"id": 5476078, "nr": 12, "picture": "https://images.pexels.com/videos/6963395/pictures/preview-12.jpeg"}, {"id": 5476081, "nr": 13, "picture": "https://images.pexels.com/videos/6963395/pictures/preview-13.jpeg"}, {"id": 5476083, "nr": 14, "picture": "https://images.pexels.com/videos/6963395/pictures/preview-14.jpeg"}]}, {"id": 7525922, "width": 1080, "height": 1920, "duration": 12, "full_res": null, "tags": [], "url": "https://www.pexels.com/video/bottle-glasses-7525922/", "image": "https://images.pexels.com/videos/7525922/adult-alternative-applying-aromatherapy-7525922.jpeg?auto=compress&cs=tinysrgb&fit=crop&h=1200&w=630", "avg_color": null, "user": {"id": 2906295, "name": "Nataliya Vaitkevich", "url": "https://www.pexels.com/@n-voitkevich"}, "video_files": [{"id": 10460887, "quality": "hd", "file_type": "video/mp4", "width": 1080, "height": 1920, "fps": 29.969999313354492, "link": "https://videos.pexels.com/video-files/7525922/7525922-hd_1080_1920_30fps.mp4", "size": 5180299}, {"id": 10460911, "quality": "sd", "file_type": "video/mp4", "width": 360, "height": 640, "fps": 29.969999313354492, "link": "https://videos.pexels.com/video-files/7525922/7525922-sd_360_640_30fps.mp4", "size": 695711}, {"id": 10460931, "quality": "hd", "file_type": "video/mp4", "width": 720, "height": 1280, "fps": 29.969999313354492, "link": "https://videos.pexels.com/video-files/7525922/7525922-hd_720_1280_30fps.mp4", "size": 2127538}, {"id": 10460956, "quality": "sd", "file_type": "video/mp4", "width": 540, "height": 960, "fps": 29.969999313354492, "link": "https://videos.pexels.com/video-files/7525922/7525922-sd_540_960_30fps.mp4", "size": 1345908}], "video_pictures": [{"id": 6547378, "nr": 0, "picture": "https://images.pexels.com/videos/7525922/pictures/preview-0.jpeg"}, {"id": 6547386, "nr": 1, "picture": "https://images.pexels.com/videos/7525922/pictures/preview-1.jpeg"}, {"id": 6547394, "nr": 2, "picture": "https://images.pexels.com/videos/7525922/pictures/preview-2.jpeg"}, {"id": 6547404, "nr": 3, "picture": "https://images.pexels.com/videos/7525922/pictures/preview-3.jpeg"}, {"id": 6547415, "nr": 4, "picture": "https://images.pexels.com/videos/7525922/pictures/preview-4.jpeg"}, {"id": 6547425, "nr": 5, "picture": "https://images.pexels.com/videos/7525922/pictures/preview-5.jpeg"}, {"id": 6547436, "nr": 6, "picture": "https://images.pexels.com/videos/7525922/pictures/preview-6.jpeg"}, {"id": 6547440, "nr": 7, "picture": "https://images.pexels.com/videos/7525922/pictures/preview-7.jpeg"}, {"id": 6547453, "nr": 8, "picture": "https://images.pexels.com/videos/7525922/pictures/preview-8.jpeg"}, {"id": 6547466, "nr": 9, "picture": "https://images.pexels.com/videos/7525922/pictures/preview-9.jpeg"}, {"id": 6547476, "nr": 10, "picture": "https://images.pexels.com/videos/7525922/pictures/preview-10.jpeg"}, {"id": 6547486, "nr": 11, "picture": "https://images.pexels.com/videos/7525922/pictures/preview-11.jpeg"}, {"id": 6547496, "nr": 12, "picture": "https://images.pexels.com/videos/7525922/pictures/preview-12.jpeg"}, {"id": 6547507, "nr": 13, "picture": "https://images.pexels.com/videos/7525922/pictures/preview-13.jpeg"}, {"id": 6547515, "nr": 14, "picture": "https://images.pexels.com/videos/7525922/pictures/preview-14.jpeg"}]}, {"id": 7013842, "width": 2160, "height": 4096, "duration": 10, "full_res": null, "tags": [], "url": "https://www.pexels.com/video/person-spraying-water-to-a-leaf-7013842/", "image": "https://images.pexels.com/videos/7013842/pexels-photo-7013842.jpeg?auto=compress&cs=tinysrgb&fit=crop&h=1200&w=630", "avg_color": null, "user": {"id": 1437723, "name": "cottonbro studio", "url": "https://www.pexels.com/@cottonbro"}, "video_files": [{"id": 10276118, "quality": "sd", "file_type": "video/mp4", "width": 226, "height": 426, "fps": 25.0, "link": "https://videos.pexels.com/video-files/7013842/7013842-sd_226_426_25fps.mp4", "size": 367391}, {"id": 10276129, "quality": "uhd", "file_type": "video/mp4", "width": 2160, "height": 4096, "fps": 25.0, "link": "https://videos.pexels.com/video-files/7013842/7013842-uhd_2160_4096_25fps.mp4", "size": 23828543}, {"id": 10276147, "quality": "hd", "file_type": "video/mp4", "width": 720, "height": 1366, "fps": 25.0, "link": "https://videos.pexels.com/video-files/7013842/7013842-hd_720_1366_25fps.mp4", "size": 1932035}, {"id": 10276157, "quality": "sd", "file_type": "video/mp4", "width": 506, "height": 960, "fps": 25.0, "link": "https://videos.pexels.com/video-files/7013842/7013842-sd_506_960_25fps.mp4", "size": 1031034}, {"id": 10276193, "quality": "uhd", "file_type": "video/mp4", "width": 1440, "height": 2732, "fps": 25.0, "link": "https://videos.pexels.com/video-files/7013842/7013842-uhd_1440_2732_25fps.mp4", "size": 9362091}, {"id": 10276230, "quality": "sd", "file_type": "video/mp4", "width": 338, "height": 640, "fps": 25.0, "link": "https://videos.pexels.com/video-files/7013842/7013842-sd_338_640_25fps.mp4", "size": 493060}, {"id": 10276300, "quality": "hd", "file_type": "video/mp4", "width": 1080, "height": 2048, "fps": 25.0, "link": "https://videos.pexels.com/video-files/7013842/7013842-hd_1080_2048_25fps.mp4", "size": 3981756}], "video_pictures": [{"id": 5596961, "nr": 0, "picture": "https://images.pexels.com/videos/7013842/pictures/preview-0.jpeg"}, {"id": 5596971, "nr": 1, "picture": "https://images.pexels.com/videos/7013842/pictures/preview-1.jpeg"}, {"id": 5596986, "nr": 2, "picture": "https://images.pexels.com/videos/7013842/pictures/preview-2.jpeg"}, {"id": 5597008, "nr": 3, "picture": "https://images.pexels.com/videos/7013842/pictures/preview-3.jpeg"}, {"id": 5597023, "nr": 4, "picture": "https://images.pexels.com/videos/7013842/pictures/preview-4.jpeg"}, {"id": 5597040, "nr": 5, "picture": "https://images.pexels.com/videos/7013842/pictures/preview-5.jpeg"}, {"id": 5597053, "nr": 6, "picture": "https://images.pexels.com/videos/7013842/pictures/preview-6.jpeg"}, {"id": 5597069, "nr": 7, "picture": "https://images.pexels.com/videos/7013842/pictures/preview-7.jpeg"}, {"id": 5597080, "nr": 8, "picture": "https://images.pexels.com/videos/7013842/pictures/preview-8.jpeg"}, {"id": 5597092, "nr": 9, "picture": "https://images.pexels.com/videos/7013842/pictures/preview-9.jpeg"}, {"id": 5597106, "nr": 10, "picture": "https://images.pexels.com/videos/7013842/pictures/preview-10.jpeg"}, {"id": 5597117, "nr": 11, "picture": "https://images.pexels.com/videos/7013842/pictures/preview-11.jpeg"}, {"id": 5597124, "nr": 12, "picture": "https://images.pexels.com/videos/7013842/pictures/preview-12.jpeg"}, {"id": 5597130, "nr": 13, "picture": "https://images.pexels.com/videos/7013842/pictures/preview-13.jpeg"}, {"id": 5597135, "nr": 14, "picture": "https://images.pexels.com/videos/7013842/pictures/preview-14.jpeg"}]}, {"id": 7116422, "width": 2160, "height": 3840, "duration": 10, "full_res": null, "tags": [], "url": "https://www.pexels.com/video/close-up-video-of-a-coffee-plant-7116422/", "image": "https://images.pexels.com/videos/7116422/pexels-photo-7116422.jpeg?auto=compress&cs=tinysrgb&fit=crop&h=1200&w=630", "avg_color": null, "user": {"id": 33201649, "name": "Michael Burrows", "url": "https://www.pexels.com/@michael-burrows"}, "video_files": [{"id": 10308298, "quality": "hd", "file_type": "video/mp4", "width": 1080, "height": 1920, "fps": 25.0, "link": "https://videos.pexels.com/video-files/7116422/7116422-hd_1080_1920_25fps.mp4", "size": 6117610}, {"id": 10308392, "quality": "sd", "file_type": "video/mp4", "width": 540, "height": 960, "fps": 25.0, "link": "https://videos.pexels.com/video-files/7116422/7116422-sd_540_960_25fps.mp4", "size": 1738087}, {"id": 10308545, "quality": "sd", "file_type": "video/mp4", "width": 360, "height": 640, "fps": 25.0, "link": "https://videos.pexels.com/video-files/7116422/7116422-sd_360_640_25fps.mp4", "size": 568718}, {"id": 10308698, "quality": "hd", "file_type": "video/mp4", "width": 720, "height": 1280, "fps": 50.0, "link": "https://videos.pexels.com/video-files/7116422/7116422-hd_720_1280_50fps.mp4", "size": 3055002}, {"id": 10308800, "quality": "sd", "file_type": "video/mp4", "width": 240, "height": 426, "fps": 25.0, "link": "https://videos.pexels.com/video-files/7116422/7116422-sd_240_426_25fps.mp4", "size": 358977}, {"id": 10308888, "quality": "uhd", "file_type": "video/mp4", "width": 1440, "height": 2560, "fps": 25.0, "link": "https://videos.pexels.com/video-files/7116422/7116422-uhd_1440_2560_25fps.mp4", "size": 15063894}, {"id": 10309043, "quality": "uhd", "file_type": "video/mp4", "width": 2160, "height": 3840, "fps": 25.0, "link": "https://videos.pexels.com/video-files/7116422/7116422-uhd_2160_3840_25fps.mp4", "size": 26907337}], "video_pictures": [{"id": 5769782, "nr": 0, "picture": "https://images.pexels.com/videos/7116422/pictures/preview-0.jpeg"}, {"id": 5769790, "nr": 1, "picture": "https://images.pexels.com/videos/7116422/pictures/preview-1.jpeg"}, {"id": 5769799, "nr": 2, "picture": "https://images.pexels.com/videos/7116422/pictures/preview-2.jpeg"}, {"id": 5769806, "nr": 3, "picture": "https://images.pexels.com/videos/7116422/pictures/preview-3.jpeg"}, {"id": 5769817, "nr": 4, "picture": "https://images.pexels.com/videos/7116422/pictures/preview-4.jpeg"}, {"id": 5769826, "nr": 5, "picture": "https://images.pexels.com/videos/7116422/pictures/preview-5.jpeg"}, {"id": 5769833, "nr": 6, "picture": "https://images.pexels.com/videos/7116422/pictures/preview-6.jpeg"}, {"id": 5769840, "nr": 7, "picture": "https://images.pexels.com/videos/7116422/pictures/preview-7.jpeg"}, {"id": 5769848, "nr": 8, "picture": "https://images.pexels.com/videos/7116422/pictures/preview-8.jpeg"}, {"id": 5769855, "nr": 9, "picture": "https://images.pexels.com/videos/7116422/pictures/preview-9.jpeg"}, {"id": 5769860, "nr": 10, "picture": "https://images.pexels.com/videos/7116422/pictures/preview-10.jpeg"}, {"id": 5769864, "nr": 11, "picture": "https://images.pexels.com/videos/7116422/pictures/preview-11.jpeg"}, {"id": 5769867, "nr": 12, "picture": "https://images.pexels.com/videos/7116422/pictures/preview-12.jpeg"}, {"id": 5769868, "nr": 13, "picture": "https://images.pexels.com/videos/7116422/pictures/preview-13.jpeg"}, {"id": 5769871, "nr": 14, "picture": "https://images.pexels.com/videos/7116422/pictures/preview-14.jpeg"}]}], "total_results": 8000, "next_page": "https://api.pexels.com/v1/videos/search/?orientation=portrait&page=2&per_page=8&query=plant+care+tips", "url": "https://api-server.pexels.com/search/videos/plant%20care%20tips/"}, "timestamp": "2024-12-28T22:42:13.136946"}
