{"query": "300 tomatoes", "response": {"page": 1, "per_page": 8, "videos": [{"id": 7929038, "width": 2160, "height": 3840, "duration": 10, "full_res": null, "tags": [], "url": "https://www.pexels.com/video/person-preparing-bread-with-eggs-7929038/", "image": "https://images.pexels.com/videos/7929038/pexels-photo-7929038.jpeg?auto=compress&cs=tinysrgb&fit=crop&h=1200&w=630", "avg_color": null, "user": {"id": 48864519, "name": "Nicola Barts", "url": "https://www.pexels.com/@nicola-barts"}, "video_files": [{"id": 10617986, "quality": "sd", "file_type": "video/mp4", "width": 240, "height": 426, "fps": 23.97599983215332, "link": "https://videos.pexels.com/video-files/7929038/7929038-sd_240_426_24fps.mp4", "size": 424343}, {"id": 10618072, "quality": "uhd", "file_type": "video/mp4", "width": 1440, "height": 2560, "fps": 23.97599983215332, "link": "https://videos.pexels.com/video-files/7929038/7929038-uhd_1440_2560_24fps.mp4", "size": 12892280}, {"id": 10618179, "quality": "uhd", "file_type": "video/mp4", "width": 2160, "height": 3840, "fps": 23.97599983215332, "link": "https://videos.pexels.com/video-files/7929038/7929038-uhd_2160_3840_24fps.mp4", "size": 29132343}, {"id": 10618278, "quality": "hd", "file_type": "video/mp4", "width": 720, "height": 1280, "fps": 23.97599983215332, "link": "https://videos.pexels.com/video-files/7929038/7929038-hd_720_1280_24fps.mp4", "size": 2899910}, {"id": 10618341, "quality": "sd", "file_type": "video/mp4", "width": 360, "height": 640, "fps": 23.97599983215332, "link": "https://videos.pexels.com/video-files/7929038/7929038-sd_360_640_24fps.mp4", "size": 592513}, {"id": 10618396, "quality": "sd", "file_type": "video/mp4", "width": 540, "height": 960, "fps": 23.97599983215332, "link": "https://videos.pexels.com/video-files/7929038/7929038-sd_540_960_24fps.mp4", "size": 1580032}, {"id": 10618473, "quality": "hd", "file_type": "video/mp4", "width": 1080, "height": 1920, "fps": 23.97599983215332, "link": "https://videos.pexels.com/video-files/7929038/7929038-hd_1080_1920_24fps.mp4", "size": 6211828}], "video_pictures": [{"id": 7278319, "nr": 0, "picture": "https://images.pexels.com/videos/7929038/pictures/preview-0.jpeg"}, {"id": 7278352, "nr": 1, "picture": "https://images.pexels.com/videos/7929038/pictures/preview-1.jpeg"}, {"id": 7278375, "nr": 2, "picture": "https://images.pexels.com/videos/7929038/pictures/preview-2.jpeg"}, {"id": 7278479, "nr": 3, "picture": "https://images.pexels.com/videos/7929038/pictures/preview-3.jpeg"}, {"id": 7278507, "nr": 4, "picture": "https://images.pexels.com/videos/7929038/pictures/preview-4.jpeg"}, {"id": 7278563, "nr": 5, "picture": "https://images.pexels.com/videos/7929038/pictures/preview-5.jpeg"}, {"id": 7278587, "nr": 6, "picture": "https://images.pexels.com/videos/7929038/pictures/preview-6.jpeg"}, {"id": 7278611, "nr": 7, "picture": "https://images.pexels.com/videos/7929038/pictures/preview-7.jpeg"}, {"id": 7278661, "nr": 8, "picture": "https://images.pexels.com/videos/7929038/pictures/preview-8.jpeg"}, {"id": 7278675, "nr": 9, "picture": "https://images.pexels.com/videos/7929038/pictures/preview-9.jpeg"}, {"id": 7278690, "nr": 10, "picture": "https://images.pexels.com/videos/7929038/pictures/preview-10.jpeg"}, {"id": 7278703, "nr": 11, "picture": "https://images.pexels.com/videos/7929038/pictures/preview-11.jpeg"}, {"id": 7278711, "nr": 12, "picture": "https://images.pexels.com/videos/7929038/pictures/preview-12.jpeg"}, {"id": 7278722, "nr": 13, "picture": "https://images.pexels.com/videos/7929038/pictures/preview-13.jpeg"}, {"id": 7278735, "nr": 14, "picture": "https://images.pexels.com/videos/7929038/pictures/preview-14.jpeg"}]}, {"id": 4057914, "width": 2160, "height": 4096, "duration": 23, "full_res": null, "tags": [], "url": "https://www.pexels.com/video/cooking-fresh-cut-tomatoes-on-a-hot-pan-with-cooking-oil-4057914/", "image": "https://images.pexels.com/videos/4057914/pexels-photo-4057914.jpeg?auto=compress&cs=tinysrgb&fit=crop&h=1200&w=630", "avg_color": null, "user": {"id": 1437723, "name": "cottonbro studio", "url": "https://www.pexels.com/@cottonbro"}, "video_files": [{"id": 9344236, "quality": "uhd", "file_type": "video/mp4", "width": 1440, "height": 2732, "fps": 25.0, "link": "https://videos.pexels.com/video-files/4057914/4057914-uhd_1440_2732_25fps.mp4", "size": 23053806}, {"id": 9344295, "quality": "sd", "file_type": "video/mp4", "width": 506, "height": 960, "fps": 25.0, "link": "https://videos.pexels.com/video-files/4057914/4057914-sd_506_960_25fps.mp4", "size": 3614476}, {"id": 9344387, "quality": "hd", "file_type": "video/mp4", "width": 1080, "height": 2048, "fps": 25.0, "link": "https://videos.pexels.com/video-files/4057914/4057914-hd_1080_2048_25fps.mp4", "size": 12819825}, {"id": 9344456, "quality": "sd", "file_type": "video/mp4", "width": 226, "height": 426, "fps": 25.0, "link": "https://videos.pexels.com/video-files/4057914/4057914-sd_226_426_25fps.mp4", "size": 908825}, {"id": 9344494, "quality": "hd", "file_type": "video/mp4", "width": 720, "height": 1366, "fps": 50.0, "link": "https://videos.pexels.com/video-files/4057914/4057914-hd_720_1366_50fps.mp4", "size": 7054530}, {"id": 9344532, "quality": "sd", "file_type": "video/mp4", "width": 338, "height": 640, "fps": 25.0, "link": "https://videos.pexels.com/video-files/4057914/4057914-sd_338_640_25fps.mp4", "size": 1479127}, {"id": 9344574, "quality": "uhd", "file_type": "video/mp4", "width": 2160, "height": 4096, "fps": 25.0, "link": "https://videos.pexels.com/video-files/4057914/4057914-uhd_2160_4096_25fps.mp4", "size": 68271224}], "video_pictures": [{"id": 1106873, "nr": 0, "picture": "https://images.pexels.com/videos/4057914/pictures/preview-0.jpeg"}, {"id": 1106877, "nr": 1, "picture": "https://images.pexels.com/videos/4057914/pictures/preview-1.jpeg"}, {"id": 1106883, "nr": 2, "picture": "https://images.pexels.com/videos/4057914/pictures/preview-2.jpeg"}, {"id": 1106891, "nr": 3, "picture": "https://images.pexels.com/videos/4057914/pictures/preview-3.jpeg"}, {"id": 1106905, "nr": 4, "picture": "https://images.pexels.com/videos/4057914/pictures/preview-4.jpeg"}, {"id": 1106916, "nr": 5, "picture": "https://images.pexels.com/videos/4057914/pictures/preview-5.jpeg"}, {"id": 1106938, "nr": 6, "picture": "https://images.pexels.com/videos/4057914/pictures/preview-6.jpeg"}, {"id": 1106952, "nr": 7, "picture": "https://images.pexels.com/videos/4057914/pictures/preview-7.jpeg"}, {"id": 1106963, "nr": 8, "picture": "https://images.pexels.com/videos/4057914/pictures/preview-8.jpeg"}, {"id": 1106983, "nr": 9, "picture": "https://images.pexels.com/videos/4057914/pictures/preview-9.jpeg"}, {"id": 1107008, "nr": 10, "picture": "https://images.pexels.com/videos/4057914/pictures/preview-10.jpeg"}, {"id": 1107033, "nr": 11, "picture": "https://images.pexels.com/videos/4057914/pictures/preview-11.jpeg"}, {"id": 1107063, "nr": 12, "picture": "https://images.pexels.com/videos/4057914/pictures/preview-12.jpeg"}, {"id": 1107134, "nr": 13, "picture": "https://images.pexels.com/videos/4057914/pictures/preview-13.jpeg"}, {"id": 1107144, "nr": 14, "picture": "https://images.pexels.com/videos/4057914/pictures/preview-14.jpeg"}]}, {"id": 7929006, "width": 2160, "height": 3840, "duration": 10, "full_res": null, "tags": [], "url": "https://www.pexels.com/video/sandwiches-on-a-plate-7929006/", "image": "https://images.pexels.com/videos/7929006/pexels-photo-7929006.jpeg?auto=compress&cs=tinysrgb&fit=crop&h=1200&w=630", "avg_color": null, "user": {"id": 48864519, "name": "Nicola Barts", "url": "https://www.pexels.com/@nicola-barts"}, "video_files": [{"id": 10617783, "quality": "uhd", "file_type": "video/mp4", "width": 1440, "height": 2560, "fps": 23.97599983215332, "link": "https://videos.pexels.com/video-files/7929006/7929006-uhd_1440_2560_24fps.mp4", "size": 5615416}, {"id": 10617865, "quality": "sd", "file_type": "video/mp4", "width": 540, "height": 960, "fps": 23.97599983215332, "link": "https://videos.pexels.com/video-files/7929006/7929006-sd_540_960_24fps.mp4", "size": 776945}, {"id": 10617917, "quality": "uhd", "file_type": "video/mp4", "width": 2160, "height": 3840, "fps": 23.97599983215332, "link": "https://videos.pexels.com/video-files/7929006/7929006-uhd_2160_3840_24fps.mp4", "size": 16748344}, {"id": 10618028, "quality": "sd", "file_type": "video/mp4", "width": 360, "height": 640, "fps": 23.97599983215332, "link": "https://videos.pexels.com/video-files/7929006/7929006-sd_360_640_24fps.mp4", "size": 395311}, {"id": 10618086, "quality": "hd", "file_type": "video/mp4", "width": 720, "height": 1280, "fps": 23.97599983215332, "link": "https://videos.pexels.com/video-files/7929006/7929006-hd_720_1280_24fps.mp4", "size": 1311209}, {"id": 10618145, "quality": "sd", "file_type": "video/mp4", "width": 240, "height": 426, "fps": 23.97599983215332, "link": "https://videos.pexels.com/video-files/7929006/7929006-sd_240_426_24fps.mp4", "size": 250430}, {"id": 10618197, "quality": "hd", "file_type": "video/mp4", "width": 1080, "height": 1920, "fps": 23.97599983215332, "link": "https://videos.pexels.com/video-files/7929006/7929006-hd_1080_1920_24fps.mp4", "size": 2913979}], "video_pictures": [{"id": 7278007, "nr": 0, "picture": "https://images.pexels.com/videos/7929006/pictures/preview-0.jpeg"}, {"id": 7278015, "nr": 1, "picture": "https://images.pexels.com/videos/7929006/pictures/preview-1.jpeg"}, {"id": 7278027, "nr": 2, "picture": "https://images.pexels.com/videos/7929006/pictures/preview-2.jpeg"}, {"id": 7278036, "nr": 3, "picture": "https://images.pexels.com/videos/7929006/pictures/preview-3.jpeg"}, {"id": 7278048, "nr": 4, "picture": "https://images.pexels.com/videos/7929006/pictures/preview-4.jpeg"}, {"id": 7278068, "nr": 5, "picture": "https://images.pexels.com/videos/7929006/pictures/preview-5.jpeg"}, {"id": 7278085, "nr": 6, "picture": "https://images.pexels.com/videos/7929006/pictures/preview-6.jpeg"}, {"id": 7278094, "nr": 7, "picture": "https://images.pexels.com/videos/7929006/pictures/preview-7.jpeg"}, {"id": 7278115, "nr": 8, "picture": "https://images.pexels.com/videos/7929006/pictures/preview-8.jpeg"}, {"id": 7278158, "nr": 9, "picture": "https://images.pexels.com/videos/7929006/pictures/preview-9.jpeg"}, {"id": 7278193, "nr": 10, "picture": "https://images.pexels.com/videos/7929006/pictures/preview-10.jpeg"}, {"id": 7278210, "nr": 11, "picture": "https://images.pexels.com/videos/7929006/pictures/preview-11.jpeg"}, {"id": 7278249, "nr": 12, "picture": "https://images.pexels.com/videos/7929006/pictures/preview-12.jpeg"}, {"id": 7278278, "nr": 13, "picture": "https://images.pexels.com/videos/7929006/pictures/preview-13.jpeg"}, {"id": 7278311, "nr": 14, "picture": "https://images.pexels.com/videos/7929006/pictures/preview-14.jpeg"}]}, {"id": 8844502, "width": 2160, "height": 4096, "duration": 20, "full_res": null, "tags": [], "url": "https://www.pexels.com/video/a-person-putting-ingredients-on-a-blender-8844502/", "image": "https://images.pexels.com/videos/8844502/avocado-client-diet-diversity-8844502.jpeg?auto=compress&cs=tinysrgb&fit=crop&h=1200&w=630", "avg_color": null, "user": {"id": 649765, "name": "Yaroslav Shuraev", "url": "https://www.pexels.com/@yaroslav-shuraev"}, "video_files": [{"id": 10969652, "quality": "hd", "file_type": "video/mp4", "width": 1080, "height": 2048, "fps": 24.0, "link": "https://videos.pexels.com/video-files/8844502/8844502-hd_1080_2048_24fps.mp4", "size": 10148601}, {"id": 10969663, "quality": "sd", "file_type": "video/mp4", "width": 506, "height": 960, "fps": 24.0, "link": "https://videos.pexels.com/video-files/8844502/8844502-sd_506_960_24fps.mp4", "size": 2849831}, {"id": 10969682, "quality": "sd", "file_type": "video/mp4", "width": 226, "height": 426, "fps": 24.0, "link": "https://videos.pexels.com/video-files/8844502/8844502-sd_226_426_24fps.mp4", "size": 855034}, {"id": 10969697, "quality": "uhd", "file_type": "video/mp4", "width": 1440, "height": 2732, "fps": 24.0, "link": "https://videos.pexels.com/video-files/8844502/8844502-uhd_1440_2732_24fps.mp4", "size": 21736355}, {"id": 10969714, "quality": "hd", "file_type": "video/mp4", "width": 720, "height": 1366, "fps": 24.0, "link": "https://videos.pexels.com/video-files/8844502/8844502-hd_720_1366_24fps.mp4", "size": 4992564}, {"id": 10969749, "quality": "uhd", "file_type": "video/mp4", "width": 2160, "height": 4096, "fps": 24.0, "link": "https://videos.pexels.com/video-files/8844502/8844502-uhd_2160_4096_24fps.mp4", "size": 60572615}, {"id": 10969810, "quality": "sd", "file_type": "video/mp4", "width": 338, "height": 640, "fps": 24.0, "link": "https://videos.pexels.com/video-files/8844502/8844502-sd_338_640_24fps.mp4", "size": 1208385}], "video_pictures": [{"id": 8916337, "nr": 0, "picture": "https://images.pexels.com/videos/8844502/pictures/preview-0.jpeg"}, {"id": 8916342, "nr": 1, "picture": "https://images.pexels.com/videos/8844502/pictures/preview-1.jpeg"}, {"id": 8916349, "nr": 2, "picture": "https://images.pexels.com/videos/8844502/pictures/preview-2.jpeg"}, {"id": 8916362, "nr": 3, "picture": "https://images.pexels.com/videos/8844502/pictures/preview-3.jpeg"}, {"id": 8916393, "nr": 4, "picture": "https://images.pexels.com/videos/8844502/pictures/preview-4.jpeg"}, {"id": 8916423, "nr": 5, "picture": "https://images.pexels.com/videos/8844502/pictures/preview-5.jpeg"}, {"id": 8916459, "nr": 6, "picture": "https://images.pexels.com/videos/8844502/pictures/preview-6.jpeg"}, {"id": 8916504, "nr": 7, "picture": "https://images.pexels.com/videos/8844502/pictures/preview-7.jpeg"}, {"id": 8916583, "nr": 8, "picture": "https://images.pexels.com/videos/8844502/pictures/preview-8.jpeg"}, {"id": 8916643, "nr": 9, "picture": "https://images.pexels.com/videos/8844502/pictures/preview-9.jpeg"}, {"id": 8916784, "nr": 10, "picture": "https://images.pexels.com/videos/8844502/pictures/preview-10.jpeg"}, {"id": 8916851, "nr": 11, "picture": "https://images.pexels.com/videos/8844502/pictures/preview-11.jpeg"}, {"id": 8916912, "nr": 12, "picture": "https://images.pexels.com/videos/8844502/pictures/preview-12.jpeg"}, {"id": 8916997, "nr": 13, "picture": "https://images.pexels.com/videos/8844502/pictures/preview-13.jpeg"}, {"id": 8917049, "nr": 14, "picture": "https://images.pexels.com/videos/8844502/pictures/preview-14.jpeg"}]}, {"id": 4057913, "width": 2160, "height": 4096, "duration": 17, "full_res": null, "tags": [], "url": "https://www.pexels.com/video/food-hands-texture-chef-4057913/", "image": "https://images.pexels.com/videos/4057913/pexels-photo-4057913.jpeg?auto=compress&cs=tinysrgb&fit=crop&h=1200&w=630", "avg_color": null, "user": {"id": 1437723, "name": "cottonbro studio", "url": "https://www.pexels.com/@cottonbro"}, "video_files": [{"id": 9344099, "quality": "sd", "file_type": "video/mp4", "width": 338, "height": 640, "fps": 25.0, "link": "https://videos.pexels.com/video-files/4057913/4057913-sd_338_640_25fps.mp4", "size": 1105477}, {"id": 9344176, "quality": "hd", "file_type": "video/mp4", "width": 1080, "height": 2048, "fps": 25.0, "link": "https://videos.pexels.com/video-files/4057913/4057913-hd_1080_2048_25fps.mp4", "size": 8289175}, {"id": 9344279, "quality": "uhd", "file_type": "video/mp4", "width": 2160, "height": 4096, "fps": 25.0, "link": "https://videos.pexels.com/video-files/4057913/4057913-uhd_2160_4096_25fps.mp4", "size": 42507185}, {"id": 9344381, "quality": "uhd", "file_type": "video/mp4", "width": 1440, "height": 2732, "fps": 25.0, "link": "https://videos.pexels.com/video-files/4057913/4057913-uhd_1440_2732_25fps.mp4", "size": 14676568}, {"id": 9344479, "quality": "sd", "file_type": "video/mp4", "width": 506, "height": 960, "fps": 25.0, "link": "https://videos.pexels.com/video-files/4057913/4057913-sd_506_960_25fps.mp4", "size": 2243117}, {"id": 9344560, "quality": "sd", "file_type": "video/mp4", "width": 226, "height": 426, "fps": 25.0, "link": "https://videos.pexels.com/video-files/4057913/4057913-sd_226_426_25fps.mp4", "size": 697632}, {"id": 9344622, "quality": "hd", "file_type": "video/mp4", "width": 720, "height": 1366, "fps": 50.0, "link": "https://videos.pexels.com/video-files/4057913/4057913-hd_720_1366_50fps.mp4", "size": 4659625}], "video_pictures": [{"id": 1106870, "nr": 0, "picture": "https://images.pexels.com/videos/4057913/pictures/preview-0.jpeg"}, {"id": 1106874, "nr": 1, "picture": "https://images.pexels.com/videos/4057913/pictures/preview-1.jpeg"}, {"id": 1106878, "nr": 2, "picture": "https://images.pexels.com/videos/4057913/pictures/preview-2.jpeg"}, {"id": 1106892, "nr": 3, "picture": "https://images.pexels.com/videos/4057913/pictures/preview-3.jpeg"}, {"id": 1106902, "nr": 4, "picture": "https://images.pexels.com/videos/4057913/pictures/preview-4.jpeg"}, {"id": 1106918, "nr": 5, "picture": "https://images.pexels.com/videos/4057913/pictures/preview-5.jpeg"}, {"id": 1106936, "nr": 6, "picture": "https://images.pexels.com/videos/4057913/pictures/preview-6.jpeg"}, {"id": 1106946, "nr": 7, "picture": "https://images.pexels.com/videos/4057913/pictures/preview-7.jpeg"}, {"id": 1106958, "nr": 8, "picture": "https://images.pexels.com/videos/4057913/pictures/preview-8.jpeg"}, {"id": 1106973, "nr": 9, "picture": "https://images.pexels.com/videos/4057913/pictures/preview-9.jpeg"}, {"id": 1106985, "nr": 10, "picture": "https://images.pexels.com/videos/4057913/pictures/preview-10.jpeg"}, {"id": 1107003, "nr": 11, "picture": "https://images.pexels.com/videos/4057913/pictures/preview-11.jpeg"}, {"id": 1107029, "nr": 12, "picture": "https://images.pexels.com/videos/4057913/pictures/preview-12.jpeg"}, {"id": 1107047, "nr": 13, "picture": "https://images.pexels.com/videos/4057913/pictures/preview-13.jpeg"}, {"id": 1107065, "nr": 14, "picture": "https://images.pexels.com/videos/4057913/pictures/preview-14.jpeg"}]}, {"id": 7931718, "width": 2160, "height": 3840, "duration": 10, "full_res": null, "tags": [], "url": "https://www.pexels.com/video/person-preparing-healthy-sandwiches-7931718/", "image": "https://images.pexels.com/videos/7931718/basil-bread-breakfast-cooking-7931718.jpeg?auto=compress&cs=tinysrgb&fit=crop&h=1200&w=630", "avg_color": null, "user": {"id": 48864519, "name": "Nicola Barts", "url": "https://www.pexels.com/@nicola-barts"}, "video_files": [{"id": 10618984, "quality": "uhd", "file_type": "video/mp4", "width": 1440, "height": 2560, "fps": 23.97599983215332, "link": "https://videos.pexels.com/video-files/7931718/7931718-uhd_1440_2560_24fps.mp4", "size": 7220557}, {"id": 10619021, "quality": "sd", "file_type": "video/mp4", "width": 360, "height": 640, "fps": 23.97599983215332, "link": "https://videos.pexels.com/video-files/7931718/7931718-sd_360_640_24fps.mp4", "size": 454011}, {"id": 10619063, "quality": "hd", "file_type": "video/mp4", "width": 720, "height": 1280, "fps": 23.97599983215332, "link": "https://videos.pexels.com/video-files/7931718/7931718-hd_720_1280_24fps.mp4", "size": 1674859}, {"id": 10619109, "quality": "uhd", "file_type": "video/mp4", "width": 2160, "height": 3840, "fps": 23.97599983215332, "link": "https://videos.pexels.com/video-files/7931718/7931718-uhd_2160_3840_24fps.mp4", "size": 18670276}, {"id": 10619129, "quality": "hd", "file_type": "video/mp4", "width": 1080, "height": 1920, "fps": 23.97599983215332, "link": "https://videos.pexels.com/video-files/7931718/7931718-hd_1080_1920_24fps.mp4", "size": 3592294}, {"id": 10619168, "quality": "sd", "file_type": "video/mp4", "width": 540, "height": 960, "fps": 23.97599983215332, "link": "https://videos.pexels.com/video-files/7931718/7931718-sd_540_960_24fps.mp4", "size": 972212}, {"id": 10619193, "quality": "sd", "file_type": "video/mp4", "width": 240, "height": 426, "fps": 23.97599983215332, "link": "https://videos.pexels.com/video-files/7931718/7931718-sd_240_426_24fps.mp4", "size": 299546}], "video_pictures": [{"id": 7283798, "nr": 0, "picture": "https://images.pexels.com/videos/7931718/pictures/preview-0.jpeg"}, {"id": 7283807, "nr": 1, "picture": "https://images.pexels.com/videos/7931718/pictures/preview-1.jpeg"}, {"id": 7283815, "nr": 2, "picture": "https://images.pexels.com/videos/7931718/pictures/preview-2.jpeg"}, {"id": 7283826, "nr": 3, "picture": "https://images.pexels.com/videos/7931718/pictures/preview-3.jpeg"}, {"id": 7283836, "nr": 4, "picture": "https://images.pexels.com/videos/7931718/pictures/preview-4.jpeg"}, {"id": 7283848, "nr": 5, "picture": "https://images.pexels.com/videos/7931718/pictures/preview-5.jpeg"}, {"id": 7283865, "nr": 6, "picture": "https://images.pexels.com/videos/7931718/pictures/preview-6.jpeg"}, {"id": 7283888, "nr": 7, "picture": "https://images.pexels.com/videos/7931718/pictures/preview-7.jpeg"}, {"id": 7283900, "nr": 8, "picture": "https://images.pexels.com/videos/7931718/pictures/preview-8.jpeg"}, {"id": 7283915, "nr": 9, "picture": "https://images.pexels.com/videos/7931718/pictures/preview-9.jpeg"}, {"id": 7283928, "nr": 10, "picture": "https://images.pexels.com/videos/7931718/pictures/preview-10.jpeg"}, {"id": 7283934, "nr": 11, "picture": "https://images.pexels.com/videos/7931718/pictures/preview-11.jpeg"}, {"id": 7283954, "nr": 12, "picture": "https://images.pexels.com/videos/7931718/pictures/preview-12.jpeg"}, {"id": 7283958, "nr": 13, "picture": "https://images.pexels.com/videos/7931718/pictures/preview-13.jpeg"}, {"id": 7283963, "nr": 14, "picture": "https://images.pexels.com/videos/7931718/pictures/preview-14.jpeg"}]}, {"id": 6939334, "width": 2160, "height": 4096, "duration": 33, "full_res": null, "tags": [], "url": "https://www.pexels.com/video/a-woman-watching-on-her-tablet-while-eating-salad-6939334/", "image": "https://images.pexels.com/videos/6939334/asian-at-home-cosy-diversity-6939334.jpeg?auto=compress&cs=tinysrgb&fit=crop&h=1200&w=630", "avg_color": null, "user": {"id": 1437723, "name": "cottonbro studio", "url": "https://www.pexels.com/@cottonbro"}, "video_files": [{"id": 10233164, "quality": "hd", "file_type": "video/mp4", "width": 720, "height": 1366, "fps": 25.0, "link": "https://videos.pexels.com/video-files/6939334/6939334-hd_720_1366_25fps.mp4", "size": 4579558}, {"id": 10233176, "quality": "hd", "file_type": "video/mp4", "width": 1080, "height": 2048, "fps": 25.0, "link": "https://videos.pexels.com/video-files/6939334/6939334-hd_1080_2048_25fps.mp4", "size": 9441327}, {"id": 10233185, "quality": "sd", "file_type": "video/mp4", "width": 506, "height": 960, "fps": 25.0, "link": "https://videos.pexels.com/video-files/6939334/6939334-sd_506_960_25fps.mp4", "size": 2640128}, {"id": 10233197, "quality": "uhd", "file_type": "video/mp4", "width": 2160, "height": 4096, "fps": 25.0, "link": "https://videos.pexels.com/video-files/6939334/6939334-uhd_2160_4096_25fps.mp4", "size": 47634973}, {"id": 10233223, "quality": "sd", "file_type": "video/mp4", "width": 338, "height": 640, "fps": 25.0, "link": "https://videos.pexels.com/video-files/6939334/6939334-sd_338_640_25fps.mp4", "size": 1516950}, {"id": 10233259, "quality": "uhd", "file_type": "video/mp4", "width": 1440, "height": 2732, "fps": 25.0, "link": "https://videos.pexels.com/video-files/6939334/6939334-uhd_1440_2732_25fps.mp4", "size": 16150918}, {"id": 10233330, "quality": "sd", "file_type": "video/mp4", "width": 226, "height": 426, "fps": 25.0, "link": "https://videos.pexels.com/video-files/6939334/6939334-sd_226_426_25fps.mp4", "size": 936373}], "video_pictures": [{"id": 5393455, "nr": 0, "picture": "https://images.pexels.com/videos/6939334/pictures/preview-0.jpeg"}, {"id": 5393456, "nr": 1, "picture": "https://images.pexels.com/videos/6939334/pictures/preview-1.jpeg"}, {"id": 5393457, "nr": 2, "picture": "https://images.pexels.com/videos/6939334/pictures/preview-2.jpeg"}, {"id": 5393459, "nr": 3, "picture": "https://images.pexels.com/videos/6939334/pictures/preview-3.jpeg"}, {"id": 5393463, "nr": 4, "picture": "https://images.pexels.com/videos/6939334/pictures/preview-4.jpeg"}, {"id": 5393468, "nr": 5, "picture": "https://images.pexels.com/videos/6939334/pictures/preview-5.jpeg"}, {"id": 5393476, "nr": 6, "picture": "https://images.pexels.com/videos/6939334/pictures/preview-6.jpeg"}, {"id": 5393483, "nr": 7, "picture": "https://images.pexels.com/videos/6939334/pictures/preview-7.jpeg"}, {"id": 5393492, "nr": 8, "picture": "https://images.pexels.com/videos/6939334/pictures/preview-8.jpeg"}, {"id": 5393501, "nr": 9, "picture": "https://images.pexels.com/videos/6939334/pictures/preview-9.jpeg"}, {"id": 5393509, "nr": 10, "picture": "https://images.pexels.com/videos/6939334/pictures/preview-10.jpeg"}, {"id": 5393514, "nr": 11, "picture": "https://images.pexels.com/videos/6939334/pictures/preview-11.jpeg"}, {"id": 5393523, "nr": 12, "picture": "https://images.pexels.com/videos/6939334/pictures/preview-12.jpeg"}, {"id": 5393528, "nr": 13, "picture": "https://images.pexels.com/videos/6939334/pictures/preview-13.jpeg"}, {"id": 5393531, "nr": 14, "picture": "https://images.pexels.com/videos/6939334/pictures/preview-14.jpeg"}]}, {"id": 4443518, "width": 1080, "height": 1920, "duration": 2, "full_res": null, "tags": [], "url": "https://www.pexels.com/video/a-person-taking-fresh-strawberry-from-the-fridge-4443518/", "image": "https://images.pexels.com/videos/4443518/detox-fruits-healthy-juice-4443518.jpeg?auto=compress&cs=tinysrgb&fit=crop&h=1200&w=630", "avg_color": null, "user": {"id": 2104565, "name": "Polina Tankilevitch", "url": "https://www.pexels.com/@polina-tankilevitch"}, "video_files": [{"id": 9520910, "quality": "sd", "file_type": "video/mp4", "width": 240, "height": 426, "fps": 25.0, "link": "https://videos.pexels.com/video-files/4443518/4443518-sd_240_426_25fps.mp4", "size": 85444}, {"id": 9520933, "quality": "sd", "file_type": "video/mp4", "width": 360, "height": 640, "fps": 25.0, "link": "https://videos.pexels.com/video-files/4443518/4443518-sd_360_640_25fps.mp4", "size": 138540}, {"id": 9520977, "quality": "sd", "file_type": "video/mp4", "width": 540, "height": 960, "fps": 25.0, "link": "https://videos.pexels.com/video-files/4443518/4443518-sd_540_960_25fps.mp4", "size": 383946}, {"id": 9521004, "quality": "hd", "file_type": "video/mp4", "width": 1080, "height": 1920, "fps": 25.0, "link": "https://videos.pexels.com/video-files/4443518/4443518-hd_1080_1920_25fps.mp4", "size": 1219552}, {"id": 9521067, "quality": "hd", "file_type": "video/mp4", "width": 720, "height": 1280, "fps": 25.0, "link": "https://videos.pexels.com/video-files/4443518/4443518-hd_720_1280_25fps.mp4", "size": 661613}], "video_pictures": [{"id": 1521672, "nr": 0, "picture": "https://images.pexels.com/videos/4443518/pictures/preview-0.jpeg"}, {"id": 1521682, "nr": 1, "picture": "https://images.pexels.com/videos/4443518/pictures/preview-1.jpeg"}, {"id": 1521693, "nr": 2, "picture": "https://images.pexels.com/videos/4443518/pictures/preview-2.jpeg"}, {"id": 1521700, "nr": 3, "picture": "https://images.pexels.com/videos/4443518/pictures/preview-3.jpeg"}, {"id": 1521704, "nr": 4, "picture": "https://images.pexels.com/videos/4443518/pictures/preview-4.jpeg"}, {"id": 1521709, "nr": 5, "picture": "https://images.pexels.com/videos/4443518/pictures/preview-5.jpeg"}, {"id": 1521714, "nr": 6, "picture": "https://images.pexels.com/videos/4443518/pictures/preview-6.jpeg"}, {"id": 1521720, "nr": 7, "picture": "https://images.pexels.com/videos/4443518/pictures/preview-7.jpeg"}, {"id": 1521727, "nr": 8, "picture": "https://images.pexels.com/videos/4443518/pictures/preview-8.jpeg"}, {"id": 1521732, "nr": 9, "picture": "https://images.pexels.com/videos/4443518/pictures/preview-9.jpeg"}, {"id": 1521736, "nr": 10, "picture": "https://images.pexels.com/videos/4443518/pictures/preview-10.jpeg"}, {"id": 1521740, "nr": 11, "picture": "https://images.pexels.com/videos/4443518/pictures/preview-11.jpeg"}, {"id": 1521743, "nr": 12, "picture": "https://images.pexels.com/videos/4443518/pictures/preview-12.jpeg"}, {"id": 1521748, "nr": 13, "picture": "https://images.pexels.com/videos/4443518/pictures/preview-13.jpeg"}, {"id": 1521751, "nr": 14, "picture": "https://images.pexels.com/videos/4443518/pictures/preview-14.jpeg"}]}], "total_results": 552, "next_page": "https://api.pexels.com/v1/videos/search/?orientation=portrait&page=2&per_page=8&query=300+tomatoes", "url": "https://api-server.pexels.com/search/videos/300%20tomatoes/"}, "timestamp": "2024-12-28T23:03:40.785247"}
