{"query": "fast growingbamboo", "response": {"page": 1, "per_page": 8, "videos": [{"id": 5281520, "width": 720, "height": 1280, "duration": 14, "full_res": null, "tags": [], "url": "https://www.pexels.com/video/road-trip-retro-footage-5281520/", "image": "https://images.pexels.com/videos/5281520/car-trip-forest-travel-trip-5281520.jpeg?auto=compress&cs=tinysrgb&fit=crop&h=1200&w=630", "avg_color": null, "user": {"id": 2946790, "name": "Leeloo The First", "url": "https://www.pexels.com/@leeloothefirst"}, "video_files": [{"id": 9658823, "quality": "sd", "file_type": "video/mp4", "width": 360, "height": 640, "fps": 30.0, "link": "https://videos.pexels.com/video-files/5281520/5281520-sd_360_640_30fps.mp4", "size": 764736}, {"id": 9658963, "quality": "hd", "file_type": "video/mp4", "width": 720, "height": 1280, "fps": 30.0, "link": "https://videos.pexels.com/video-files/5281520/5281520-hd_720_1280_30fps.mp4", "size": 2593946}, {"id": 9659117, "quality": "sd", "file_type": "video/mp4", "width": 240, "height": 426, "fps": 30.0, "link": "https://videos.pexels.com/video-files/5281520/5281520-sd_240_426_30fps.mp4", "size": 456576}, {"id": 9659380, "quality": "sd", "file_type": "video/mp4", "width": 540, "height": 960, "fps": 30.0, "link": "https://videos.pexels.com/video-files/5281520/5281520-sd_540_960_30fps.mp4", "size": 1593341}], "video_pictures": [{"id": 2593245, "nr": 0, "picture": "https://images.pexels.com/videos/5281520/pictures/preview-0.jpeg"}, {"id": 2593249, "nr": 1, "picture": "https://images.pexels.com/videos/5281520/pictures/preview-1.jpeg"}, {"id": 2593254, "nr": 2, "picture": "https://images.pexels.com/videos/5281520/pictures/preview-2.jpeg"}, {"id": 2593259, "nr": 3, "picture": "https://images.pexels.com/videos/5281520/pictures/preview-3.jpeg"}, {"id": 2593263, "nr": 4, "picture": "https://images.pexels.com/videos/5281520/pictures/preview-4.jpeg"}, {"id": 2593267, "nr": 5, "picture": "https://images.pexels.com/videos/5281520/pictures/preview-5.jpeg"}, {"id": 2593271, "nr": 6, "picture": "https://images.pexels.com/videos/5281520/pictures/preview-6.jpeg"}, {"id": 2593276, "nr": 7, "picture": "https://images.pexels.com/videos/5281520/pictures/preview-7.jpeg"}, {"id": 2593281, "nr": 8, "picture": "https://images.pexels.com/videos/5281520/pictures/preview-8.jpeg"}, {"id": 2593285, "nr": 9, "picture": "https://images.pexels.com/videos/5281520/pictures/preview-9.jpeg"}, {"id": 2593291, "nr": 10, "picture": "https://images.pexels.com/videos/5281520/pictures/preview-10.jpeg"}, {"id": 2593296, "nr": 11, "picture": "https://images.pexels.com/videos/5281520/pictures/preview-11.jpeg"}, {"id": 2593302, "nr": 12, "picture": "https://images.pexels.com/videos/5281520/pictures/preview-12.jpeg"}, {"id": 2593307, "nr": 13, "picture": "https://images.pexels.com/videos/5281520/pictures/preview-13.jpeg"}, {"id": 2593311, "nr": 14, "picture": "https://images.pexels.com/videos/5281520/pictures/preview-14.jpeg"}]}, {"id": 16743471, "width": 2160, "height": 3840, "duration": 11, "full_res": null, "tags": [], "url": "https://www.pexels.com/video/a-car-driving-on-a-road-at-night-with-the-words-the-dark-side-of-the-moon-16743471/", "image": "https://images.pexels.com/videos/16743471/pexels-photo-16743471.jpeg?auto=compress&cs=tinysrgb&fit=crop&h=1200&w=630", "avg_color": null, "user": {"id": 2417028, "name": "Erik Mclean", "url": "https://www.pexels.com/@introspectivedsgn"}, "video_files": [{"id": 6900489, "quality": "uhd", "file_type": "video/mp4", "width": 2160, "height": 3840, "fps": 29.969999313354492, "link": "https://videos.pexels.com/video-files/16743471/16743471-uhd_2160_3840_30fps.mp4", "size": 28338536}, {"id": 6900490, "quality": "hd", "file_type": "video/mp4", "width": 720, "height": 1280, "fps": 29.969999313354492, "link": "https://videos.pexels.com/video-files/16743471/16743471-hd_720_1280_30fps.mp4", "size": 3657294}, {"id": 6900491, "quality": "sd", "file_type": "video/mp4", "width": 540, "height": 960, "fps": 29.969999313354492, "link": "https://videos.pexels.com/video-files/16743471/16743471-sd_540_960_30fps.mp4", "size": 2415224}, {"id": 6900492, "quality": "sd", "file_type": "video/mp4", "width": 360, "height": 640, "fps": 29.969999313354492, "link": "https://videos.pexels.com/video-files/16743471/16743471-sd_360_640_30fps.mp4", "size": 1337064}, {"id": 6900493, "quality": "uhd", "file_type": "video/mp4", "width": 1440, "height": 2560, "fps": 29.969999313354492, "link": "https://videos.pexels.com/video-files/16743471/16743471-uhd_1440_2560_30fps.mp4", "size": 11850697}, {"id": 6900494, "quality": "hd", "file_type": "video/mp4", "width": 1080, "height": 1920, "fps": 29.969999313354492, "link": "https://videos.pexels.com/video-files/16743471/16743471-hd_1080_1920_30fps.mp4", "size": 7186215}, {"id": 6900495, "quality": "sd", "file_type": "video/mp4", "width": 240, "height": 426, "fps": 29.969999313354492, "link": "https://videos.pexels.com/video-files/16743471/16743471-sd_240_426_30fps.mp4", "size": 742229}], "video_pictures": [{"id": 17570445, "nr": 0, "picture": "https://images.pexels.com/videos/16743471/pictures/preview-0.jpeg"}, {"id": 17570451, "nr": 1, "picture": "https://images.pexels.com/videos/16743471/pictures/preview-1.jpeg"}, {"id": 17570454, "nr": 2, "picture": "https://images.pexels.com/videos/16743471/pictures/preview-2.jpeg"}, {"id": 17570455, "nr": 3, "picture": "https://images.pexels.com/videos/16743471/pictures/preview-3.jpeg"}, {"id": 17570456, "nr": 4, "picture": "https://images.pexels.com/videos/16743471/pictures/preview-4.jpeg"}, {"id": 17570457, "nr": 5, "picture": "https://images.pexels.com/videos/16743471/pictures/preview-5.jpeg"}, {"id": 17570458, "nr": 6, "picture": "https://images.pexels.com/videos/16743471/pictures/preview-6.jpeg"}, {"id": 17570460, "nr": 7, "picture": "https://images.pexels.com/videos/16743471/pictures/preview-7.jpeg"}, {"id": 17570462, "nr": 8, "picture": "https://images.pexels.com/videos/16743471/pictures/preview-8.jpeg"}, {"id": 17570464, "nr": 9, "picture": "https://images.pexels.com/videos/16743471/pictures/preview-9.jpeg"}, {"id": 17570467, "nr": 10, "picture": "https://images.pexels.com/videos/16743471/pictures/preview-10.jpeg"}, {"id": 17570469, "nr": 11, "picture": "https://images.pexels.com/videos/16743471/pictures/preview-11.jpeg"}, {"id": 17570471, "nr": 12, "picture": "https://images.pexels.com/videos/16743471/pictures/preview-12.jpeg"}, {"id": 17570473, "nr": 13, "picture": "https://images.pexels.com/videos/16743471/pictures/preview-13.jpeg"}, {"id": 17570475, "nr": 14, "picture": "https://images.pexels.com/videos/16743471/pictures/preview-14.jpeg"}]}, {"id": 8064146, "width": 1598, "height": 1996, "duration": 10, "full_res": null, "tags": [], "url": "https://www.pexels.com/video/time-lapse-of-vehicles-on-the-road-in-the-city-8064146/", "image": "https://images.pexels.com/videos/8064146/pexels-photo-8064146.jpeg?auto=compress&cs=tinysrgb&fit=crop&h=1200&w=630", "avg_color": null, "user": {"id": 2570462, "name": "Antoni Shkraba", "url": "https://www.pexels.com/@shkrabaanthony"}, "video_files": [{"id": 10677580, "quality": "sd", "file_type": "video/mp4", "width": 540, "height": 674, "fps": 30.0, "link": "https://videos.pexels.com/video-files/8064146/8064146-sd_540_674_30fps.mp4", "size": 2431512}, {"id": 10677598, "quality": "sd", "file_type": "video/mp4", "width": 360, "height": 450, "fps": 30.0, "link": "https://videos.pexels.com/video-files/8064146/8064146-sd_360_450_30fps.mp4", "size": 881223}, {"id": 10677614, "quality": "hd", "file_type": "video/mp4", "width": 720, "height": 900, "fps": 30.0, "link": "https://videos.pexels.com/video-files/8064146/8064146-hd_720_900_30fps.mp4", "size": 3520664}, {"id": 10677672, "quality": "hd", "file_type": "video/mp4", "width": 1080, "height": 1350, "fps": 30.0, "link": "https://videos.pexels.com/video-files/8064146/8064146-hd_1080_1350_30fps.mp4", "size": 6706430}, {"id": 10677708, "quality": "uhd", "file_type": "video/mp4", "width": 1440, "height": 1800, "fps": 30.0, "link": "https://videos.pexels.com/video-files/8064146/8064146-uhd_1440_1800_30fps.mp4", "size": 14239889}], "video_pictures": [{"id": 7534415, "nr": 0, "picture": "https://images.pexels.com/videos/8064146/pictures/preview-0.jpeg"}, {"id": 7534428, "nr": 1, "picture": "https://images.pexels.com/videos/8064146/pictures/preview-1.jpeg"}, {"id": 7534446, "nr": 2, "picture": "https://images.pexels.com/videos/8064146/pictures/preview-2.jpeg"}, {"id": 7534461, "nr": 3, "picture": "https://images.pexels.com/videos/8064146/pictures/preview-3.jpeg"}, {"id": 7534482, "nr": 4, "picture": "https://images.pexels.com/videos/8064146/pictures/preview-4.jpeg"}, {"id": 7534500, "nr": 5, "picture": "https://images.pexels.com/videos/8064146/pictures/preview-5.jpeg"}, {"id": 7534516, "nr": 6, "picture": "https://images.pexels.com/videos/8064146/pictures/preview-6.jpeg"}, {"id": 7534532, "nr": 7, "picture": "https://images.pexels.com/videos/8064146/pictures/preview-7.jpeg"}, {"id": 7534548, "nr": 8, "picture": "https://images.pexels.com/videos/8064146/pictures/preview-8.jpeg"}, {"id": 7534569, "nr": 9, "picture": "https://images.pexels.com/videos/8064146/pictures/preview-9.jpeg"}, {"id": 7534589, "nr": 10, "picture": "https://images.pexels.com/videos/8064146/pictures/preview-10.jpeg"}, {"id": 7534608, "nr": 11, "picture": "https://images.pexels.com/videos/8064146/pictures/preview-11.jpeg"}, {"id": 7534620, "nr": 12, "picture": "https://images.pexels.com/videos/8064146/pictures/preview-12.jpeg"}, {"id": 7534631, "nr": 13, "picture": "https://images.pexels.com/videos/8064146/pictures/preview-13.jpeg"}, {"id": 7534642, "nr": 14, "picture": "https://images.pexels.com/videos/8064146/pictures/preview-14.jpeg"}]}, {"id": 26690701, "width": 2180, "height": 3840, "duration": 16, "full_res": null, "tags": [], "url": "https://www.pexels.com/video/a-city-street-at-night-with-cars-and-lights-26690701/", "image": "https://images.pexels.com/videos/26690701/buses-cars-crossing-korea-26690701.jpeg?auto=compress&cs=tinysrgb&fit=crop&h=1200&w=630", "avg_color": null, "user": {"id": 837240, "name": "Timo Volz", "url": "https://www.pexels.com/@timo-volz-837240"}, "video_files": [{"id": 11987723, "quality": null, "file_type": "video/mp4", "width": 360, "height": 634, "fps": 60.0, "link": "https://videos.pexels.com/video-files/26690701/11987723_360_634_60fps.mp4", "size": 10177750}, {"id": 11987724, "quality": null, "file_type": "video/mp4", "width": 540, "height": 952, "fps": 60.0, "link": "https://videos.pexels.com/video-files/26690701/11987724_540_952_60fps.mp4", "size": 20824890}, {"id": 11987725, "quality": null, "file_type": "video/mp4", "width": 720, "height": 1268, "fps": 60.0, "link": "https://videos.pexels.com/video-files/26690701/11987725_720_1268_60fps.mp4", "size": 34997119}, {"id": 11987726, "quality": null, "file_type": "video/mp4", "width": 1080, "height": 1902, "fps": 60.0, "link": "https://videos.pexels.com/video-files/26690701/11987726_1080_1902_60fps.mp4", "size": 72579319}, {"id": 11987727, "quality": null, "file_type": "video/mp4", "width": 1440, "height": 2536, "fps": 60.0, "link": "https://videos.pexels.com/video-files/26690701/11987727_1440_2536_60fps.mp4", "size": 119027332}, {"id": 11987728, "quality": null, "file_type": "video/mp4", "width": 2160, "height": 3804, "fps": 60.0, "link": "https://videos.pexels.com/video-files/26690701/11987728_2160_3804_60fps.mp4", "size": 231111600}], "video_pictures": [{"id": 22070962, "nr": 0, "picture": "https://images.pexels.com/videos/26690701/pictures/preview-0.jpg"}, {"id": 22070963, "nr": 1, "picture": "https://images.pexels.com/videos/26690701/pictures/preview-1.jpg"}, {"id": 22070964, "nr": 2, "picture": "https://images.pexels.com/videos/26690701/pictures/preview-2.jpg"}, {"id": 22070965, "nr": 3, "picture": "https://images.pexels.com/videos/26690701/pictures/preview-3.jpg"}, {"id": 22070966, "nr": 4, "picture": "https://images.pexels.com/videos/26690701/pictures/preview-4.jpg"}, {"id": 22070967, "nr": 5, "picture": "https://images.pexels.com/videos/26690701/pictures/preview-5.jpg"}, {"id": 22070968, "nr": 6, "picture": "https://images.pexels.com/videos/26690701/pictures/preview-6.jpg"}, {"id": 22070969, "nr": 7, "picture": "https://images.pexels.com/videos/26690701/pictures/preview-7.jpg"}, {"id": 22070970, "nr": 8, "picture": "https://images.pexels.com/videos/26690701/pictures/preview-8.jpg"}, {"id": 22070971, "nr": 9, "picture": "https://images.pexels.com/videos/26690701/pictures/preview-9.jpg"}, {"id": 22070972, "nr": 10, "picture": "https://images.pexels.com/videos/26690701/pictures/preview-10.jpg"}, {"id": 22070973, "nr": 11, "picture": "https://images.pexels.com/videos/26690701/pictures/preview-11.jpg"}, {"id": 22070974, "nr": 12, "picture": "https://images.pexels.com/videos/26690701/pictures/preview-12.jpg"}, {"id": 22070975, "nr": 13, "picture": "https://images.pexels.com/videos/26690701/pictures/preview-13.jpg"}, {"id": 22070976, "nr": 14, "picture": "https://images.pexels.com/videos/26690701/pictures/preview-14.jpg"}]}, {"id": 20278246, "width": 1080, "height": 1920, "duration": 11, "full_res": null, "tags": [], "url": "https://www.pexels.com/video/a-blue-tunnel-with-the-words-the-speed-of-light-20278246/", "image": "https://images.pexels.com/videos/20278246/pexels-photo-20278246.jpeg?auto=compress&cs=tinysrgb&fit=crop&h=1200&w=630", "avg_color": null, "user": {"id": 55235055, "name": "Yunus  K\u0131l\u0131\u00e7", "url": "https://www.pexels.com/@yunus-kilic-55235055"}, "video_files": [{"id": 9013871, "quality": "sd", "file_type": "video/mp4", "width": 240, "height": 426, "fps": 30.0, "link": "https://videos.pexels.com/video-files/20278246/20278246-sd_240_426_30fps.mp4", "size": 484851}, {"id": 9013872, "quality": "hd", "file_type": "video/mp4", "width": 720, "height": 1280, "fps": 30.0, "link": "https://videos.pexels.com/video-files/20278246/20278246-hd_720_1280_30fps.mp4", "size": 4234455}, {"id": 9013873, "quality": "hd", "file_type": "video/mp4", "width": 1080, "height": 1920, "fps": 30.0, "link": "https://videos.pexels.com/video-files/20278246/20278246-hd_1080_1920_30fps.mp4", "size": 8588865}, {"id": 9013874, "quality": "sd", "file_type": "video/mp4", "width": 540, "height": 960, "fps": 30.0, "link": "https://videos.pexels.com/video-files/20278246/20278246-sd_540_960_30fps.mp4", "size": 2394244}, {"id": 9013875, "quality": "sd", "file_type": "video/mp4", "width": 360, "height": 640, "fps": 30.0, "link": "https://videos.pexels.com/video-files/20278246/20278246-sd_360_640_30fps.mp4", "size": 1121534}], "video_pictures": [{"id": 21204231, "nr": 0, "picture": "https://images.pexels.com/videos/20278246/pictures/preview-0.jpeg"}, {"id": 21204233, "nr": 1, "picture": "https://images.pexels.com/videos/20278246/pictures/preview-1.jpeg"}, {"id": 21204235, "nr": 2, "picture": "https://images.pexels.com/videos/20278246/pictures/preview-2.jpeg"}, {"id": 21204236, "nr": 3, "picture": "https://images.pexels.com/videos/20278246/pictures/preview-3.jpeg"}, {"id": 21204238, "nr": 4, "picture": "https://images.pexels.com/videos/20278246/pictures/preview-4.jpeg"}, {"id": 21204239, "nr": 5, "picture": "https://images.pexels.com/videos/20278246/pictures/preview-5.jpeg"}, {"id": 21204242, "nr": 6, "picture": "https://images.pexels.com/videos/20278246/pictures/preview-6.jpeg"}, {"id": 21204245, "nr": 7, "picture": "https://images.pexels.com/videos/20278246/pictures/preview-7.jpeg"}, {"id": 21204248, "nr": 8, "picture": "https://images.pexels.com/videos/20278246/pictures/preview-8.jpeg"}, {"id": 21204253, "nr": 9, "picture": "https://images.pexels.com/videos/20278246/pictures/preview-9.jpeg"}, {"id": 21204257, "nr": 10, "picture": "https://images.pexels.com/videos/20278246/pictures/preview-10.jpeg"}, {"id": 21204261, "nr": 11, "picture": "https://images.pexels.com/videos/20278246/pictures/preview-11.jpeg"}, {"id": 21204265, "nr": 12, "picture": "https://images.pexels.com/videos/20278246/pictures/preview-12.jpeg"}, {"id": 21204268, "nr": 13, "picture": "https://images.pexels.com/videos/20278246/pictures/preview-13.jpeg"}, {"id": 21204273, "nr": 14, "picture": "https://images.pexels.com/videos/20278246/pictures/preview-14.jpeg"}]}, {"id": 5281523, "width": 720, "height": 1280, "duration": 10, "full_res": null, "tags": [], "url": "https://www.pexels.com/video/windshield-view-of-mountain-roads-inside-a-moving-car-5281523/", "image": "https://images.pexels.com/videos/5281523/car-trip-forest-travel-trip-5281523.jpeg?auto=compress&cs=tinysrgb&fit=crop&h=1200&w=630", "avg_color": null, "user": {"id": 2946790, "name": "Leeloo The First", "url": "https://www.pexels.com/@leeloothefirst"}, "video_files": [{"id": 9658958, "quality": "hd", "file_type": "video/mp4", "width": 720, "height": 1280, "fps": 30.0, "link": "https://videos.pexels.com/video-files/5281523/5281523-hd_720_1280_30fps.mp4", "size": 2765624}, {"id": 9659034, "quality": "sd", "file_type": "video/mp4", "width": 360, "height": 640, "fps": 30.0, "link": "https://videos.pexels.com/video-files/5281523/5281523-sd_360_640_30fps.mp4", "size": 557035}, {"id": 9659327, "quality": "sd", "file_type": "video/mp4", "width": 240, "height": 426, "fps": 30.0, "link": "https://videos.pexels.com/video-files/5281523/5281523-sd_240_426_30fps.mp4", "size": 338415}, {"id": 9659489, "quality": "sd", "file_type": "video/mp4", "width": 540, "height": 960, "fps": 30.0, "link": "https://videos.pexels.com/video-files/5281523/5281523-sd_540_960_30fps.mp4", "size": 1582640}], "video_pictures": [{"id": 2593242, "nr": 0, "picture": "https://images.pexels.com/videos/5281523/pictures/preview-0.jpeg"}, {"id": 2593246, "nr": 1, "picture": "https://images.pexels.com/videos/5281523/pictures/preview-1.jpeg"}, {"id": 2593251, "nr": 2, "picture": "https://images.pexels.com/videos/5281523/pictures/preview-2.jpeg"}, {"id": 2593282, "nr": 3, "picture": "https://images.pexels.com/videos/5281523/pictures/preview-3.jpeg"}, {"id": 2593289, "nr": 4, "picture": "https://images.pexels.com/videos/5281523/pictures/preview-4.jpeg"}, {"id": 2593294, "nr": 5, "picture": "https://images.pexels.com/videos/5281523/pictures/preview-5.jpeg"}, {"id": 2593301, "nr": 6, "picture": "https://images.pexels.com/videos/5281523/pictures/preview-6.jpeg"}, {"id": 2593305, "nr": 7, "picture": "https://images.pexels.com/videos/5281523/pictures/preview-7.jpeg"}, {"id": 2593313, "nr": 8, "picture": "https://images.pexels.com/videos/5281523/pictures/preview-8.jpeg"}, {"id": 2593317, "nr": 9, "picture": "https://images.pexels.com/videos/5281523/pictures/preview-9.jpeg"}, {"id": 2593319, "nr": 10, "picture": "https://images.pexels.com/videos/5281523/pictures/preview-10.jpeg"}, {"id": 2593321, "nr": 11, "picture": "https://images.pexels.com/videos/5281523/pictures/preview-11.jpeg"}, {"id": 2593323, "nr": 12, "picture": "https://images.pexels.com/videos/5281523/pictures/preview-12.jpeg"}, {"id": 2593324, "nr": 13, "picture": "https://images.pexels.com/videos/5281523/pictures/preview-13.jpeg"}, {"id": 2593326, "nr": 14, "picture": "https://images.pexels.com/videos/5281523/pictures/preview-14.jpeg"}]}, {"id": 8233057, "width": 2160, "height": 4096, "duration": 24, "full_res": null, "tags": [], "url": "https://www.pexels.com/video/water-flowing-down-on-big-rocks-8233057/", "image": "https://images.pexels.com/videos/8233057/pexels-photo-8233057.jpeg?auto=compress&cs=tinysrgb&fit=crop&h=1200&w=630", "avg_color": null, "user": {"id": 2678846, "name": "ROMAN ODINTSOV", "url": "https://www.pexels.com/@roman-odintsov"}, "video_files": [{"id": 10751240, "quality": "sd", "file_type": "video/mp4", "width": 338, "height": 640, "fps": 25.0, "link": "https://videos.pexels.com/video-files/8233057/8233057-sd_338_640_25fps.mp4", "size": 1597267}, {"id": 10751500, "quality": "hd", "file_type": "video/mp4", "width": 1080, "height": 2048, "fps": 25.0, "link": "https://videos.pexels.com/video-files/8233057/8233057-hd_1080_2048_25fps.mp4", "size": 17145774}, {"id": 10751685, "quality": "sd", "file_type": "video/mp4", "width": 506, "height": 960, "fps": 25.0, "link": "https://videos.pexels.com/video-files/8233057/8233057-sd_506_960_25fps.mp4", "size": 4843247}, {"id": 10751751, "quality": "uhd", "file_type": "video/mp4", "width": 2160, "height": 4096, "fps": 25.0, "link": "https://videos.pexels.com/video-files/8233057/8233057-uhd_2160_4096_25fps.mp4", "size": 75563547}, {"id": 10751820, "quality": "uhd", "file_type": "video/mp4", "width": 1440, "height": 2732, "fps": 25.0, "link": "https://videos.pexels.com/video-files/8233057/8233057-uhd_1440_2732_25fps.mp4", "size": 41230819}, {"id": 10751852, "quality": "hd", "file_type": "video/mp4", "width": 720, "height": 1366, "fps": 25.0, "link": "https://videos.pexels.com/video-files/8233057/8233057-hd_720_1366_25fps.mp4", "size": 8575049}, {"id": 10752010, "quality": "sd", "file_type": "video/mp4", "width": 226, "height": 426, "fps": 25.0, "link": "https://videos.pexels.com/video-files/8233057/8233057-sd_226_426_25fps.mp4", "size": 1018341}], "video_pictures": [{"id": 7863049, "nr": 0, "picture": "https://images.pexels.com/videos/8233057/pictures/preview-0.jpeg"}, {"id": 7863057, "nr": 1, "picture": "https://images.pexels.com/videos/8233057/pictures/preview-1.jpeg"}, {"id": 7863063, "nr": 2, "picture": "https://images.pexels.com/videos/8233057/pictures/preview-2.jpeg"}, {"id": 7863072, "nr": 3, "picture": "https://images.pexels.com/videos/8233057/pictures/preview-3.jpeg"}, {"id": 7863081, "nr": 4, "picture": "https://images.pexels.com/videos/8233057/pictures/preview-4.jpeg"}, {"id": 7863089, "nr": 5, "picture": "https://images.pexels.com/videos/8233057/pictures/preview-5.jpeg"}, {"id": 7863098, "nr": 6, "picture": "https://images.pexels.com/videos/8233057/pictures/preview-6.jpeg"}, {"id": 7863106, "nr": 7, "picture": "https://images.pexels.com/videos/8233057/pictures/preview-7.jpeg"}, {"id": 7863113, "nr": 8, "picture": "https://images.pexels.com/videos/8233057/pictures/preview-8.jpeg"}, {"id": 7863119, "nr": 9, "picture": "https://images.pexels.com/videos/8233057/pictures/preview-9.jpeg"}, {"id": 7863127, "nr": 10, "picture": "https://images.pexels.com/videos/8233057/pictures/preview-10.jpeg"}, {"id": 7863133, "nr": 11, "picture": "https://images.pexels.com/videos/8233057/pictures/preview-11.jpeg"}, {"id": 7863141, "nr": 12, "picture": "https://images.pexels.com/videos/8233057/pictures/preview-12.jpeg"}, {"id": 7863149, "nr": 13, "picture": "https://images.pexels.com/videos/8233057/pictures/preview-13.jpeg"}, {"id": 7863155, "nr": 14, "picture": "https://images.pexels.com/videos/8233057/pictures/preview-14.jpeg"}]}, {"id": 5198954, "width": 2160, "height": 4096, "duration": 9, "full_res": null, "tags": [], "url": "https://www.pexels.com/video/motorcycle-and-cars-on-the-highway-5198954/", "image": "https://images.pexels.com/videos/5198954/pexels-photo-5198954.jpeg?auto=compress&cs=tinysrgb&fit=crop&h=1200&w=630", "avg_color": null, "user": {"id": 1437723, "name": "cottonbro studio", "url": "https://www.pexels.com/@cottonbro"}, "video_files": [{"id": 9636840, "quality": "uhd", "file_type": "video/mp4", "width": 1440, "height": 2732, "fps": 25.0, "link": "https://videos.pexels.com/video-files/5198954/5198954-uhd_1440_2732_25fps.mp4", "size": 13641053}, {"id": 9636883, "quality": "sd", "file_type": "video/mp4", "width": 338, "height": 640, "fps": 25.0, "link": "https://videos.pexels.com/video-files/5198954/5198954-sd_338_640_25fps.mp4", "size": 518967}, {"id": 9636922, "quality": "uhd", "file_type": "video/mp4", "width": 2160, "height": 4096, "fps": 25.0, "link": "https://videos.pexels.com/video-files/5198954/5198954-uhd_2160_4096_25fps.mp4", "size": 24671723}, {"id": 9636972, "quality": "hd", "file_type": "video/mp4", "width": 720, "height": 1366, "fps": 25.0, "link": "https://videos.pexels.com/video-files/5198954/5198954-hd_720_1366_25fps.mp4", "size": 2664178}, {"id": 9637072, "quality": "sd", "file_type": "video/mp4", "width": 506, "height": 960, "fps": 25.0, "link": "https://videos.pexels.com/video-files/5198954/5198954-sd_506_960_25fps.mp4", "size": 1543934}, {"id": 9637127, "quality": "sd", "file_type": "video/mp4", "width": 226, "height": 426, "fps": 25.0, "link": "https://videos.pexels.com/video-files/5198954/5198954-sd_226_426_25fps.mp4", "size": 322649}, {"id": 9637314, "quality": "hd", "file_type": "video/mp4", "width": 1080, "height": 2048, "fps": 25.0, "link": "https://videos.pexels.com/video-files/5198954/5198954-hd_1080_2048_25fps.mp4", "size": 5535393}], "video_pictures": [{"id": 2480448, "nr": 0, "picture": "https://images.pexels.com/videos/5198954/pictures/preview-0.jpeg"}, {"id": 2480455, "nr": 1, "picture": "https://images.pexels.com/videos/5198954/pictures/preview-1.jpeg"}, {"id": 2480461, "nr": 2, "picture": "https://images.pexels.com/videos/5198954/pictures/preview-2.jpeg"}, {"id": 2480474, "nr": 3, "picture": "https://images.pexels.com/videos/5198954/pictures/preview-3.jpeg"}, {"id": 2480494, "nr": 4, "picture": "https://images.pexels.com/videos/5198954/pictures/preview-4.jpeg"}, {"id": 2480510, "nr": 5, "picture": "https://images.pexels.com/videos/5198954/pictures/preview-5.jpeg"}, {"id": 2480527, "nr": 6, "picture": "https://images.pexels.com/videos/5198954/pictures/preview-6.jpeg"}, {"id": 2480535, "nr": 7, "picture": "https://images.pexels.com/videos/5198954/pictures/preview-7.jpeg"}, {"id": 2480545, "nr": 8, "picture": "https://images.pexels.com/videos/5198954/pictures/preview-8.jpeg"}, {"id": 2480555, "nr": 9, "picture": "https://images.pexels.com/videos/5198954/pictures/preview-9.jpeg"}, {"id": 2480567, "nr": 10, "picture": "https://images.pexels.com/videos/5198954/pictures/preview-10.jpeg"}, {"id": 2480576, "nr": 11, "picture": "https://images.pexels.com/videos/5198954/pictures/preview-11.jpeg"}, {"id": 2480584, "nr": 12, "picture": "https://images.pexels.com/videos/5198954/pictures/preview-12.jpeg"}, {"id": 2480592, "nr": 13, "picture": "https://images.pexels.com/videos/5198954/pictures/preview-13.jpeg"}, {"id": 2480596, "nr": 14, "picture": "https://images.pexels.com/videos/5198954/pictures/preview-14.jpeg"}]}], "total_results": 1432, "next_page": "https://api.pexels.com/v1/videos/search/?orientation=portrait&page=2&per_page=8&query=fast+growingbamboo", "url": "https://api-server.pexels.com/search/videos/fast%20growingbamboo/"}, "timestamp": "2024-12-28T22:18:12.776657"}
