{"query": "sunflowers field", "response": {"page": 1, "per_page": 8, "videos": [{"id": 27777053, "width": 1080, "height": 1920, "duration": 25, "full_res": null, "tags": [], "url": "https://www.pexels.com/video/girasoli-27777053/", "image": "https://images.pexels.com/videos/27777053/clouds-fields-flowers-leaves-27777053.jpeg?auto=compress&cs=tinysrgb&fit=crop&h=1200&w=630", "avg_color": null, "user": {"id": 144982256, "name": "Davide Menegatti", "url": "https://www.pexels.com/@davide-menegatti-144982256"}, "video_files": [{"id": 12221906, "quality": null, "file_type": "video/mp4", "width": 360, "height": 640, "fps": 30.0, "link": "https://videos.pexels.com/video-files/27777053/12221906_360_640_30fps.mp4", "size": 5470236}, {"id": 12221907, "quality": null, "file_type": "video/mp4", "width": 540, "height": 960, "fps": 30.0, "link": "https://videos.pexels.com/video-files/27777053/12221907_540_960_30fps.mp4", "size": 11437956}, {"id": 12221908, "quality": null, "file_type": "video/mp4", "width": 720, "height": 1280, "fps": 30.0, "link": "https://videos.pexels.com/video-files/27777053/12221908_720_1280_30fps.mp4", "size": 18302500}, {"id": 12221909, "quality": null, "file_type": "video/mp4", "width": 1080, "height": 1920, "fps": 30.0, "link": "https://videos.pexels.com/video-files/27777053/12221909_1080_1920_30fps.mp4", "size": 42516332}], "video_pictures": [{"id": 22650318, "nr": 0, "picture": "https://images.pexels.com/videos/27777053/pictures/preview-0.jpg"}, {"id": 22650319, "nr": 1, "picture": "https://images.pexels.com/videos/27777053/pictures/preview-1.jpg"}, {"id": 22650320, "nr": 2, "picture": "https://images.pexels.com/videos/27777053/pictures/preview-2.jpg"}, {"id": 22650321, "nr": 3, "picture": "https://images.pexels.com/videos/27777053/pictures/preview-3.jpg"}, {"id": 22650322, "nr": 4, "picture": "https://images.pexels.com/videos/27777053/pictures/preview-4.jpg"}, {"id": 22650323, "nr": 5, "picture": "https://images.pexels.com/videos/27777053/pictures/preview-5.jpg"}, {"id": 22650324, "nr": 6, "picture": "https://images.pexels.com/videos/27777053/pictures/preview-6.jpg"}, {"id": 22650325, "nr": 7, "picture": "https://images.pexels.com/videos/27777053/pictures/preview-7.jpg"}, {"id": 22650326, "nr": 8, "picture": "https://images.pexels.com/videos/27777053/pictures/preview-8.jpg"}, {"id": 22650327, "nr": 9, "picture": "https://images.pexels.com/videos/27777053/pictures/preview-9.jpg"}, {"id": 22650328, "nr": 10, "picture": "https://images.pexels.com/videos/27777053/pictures/preview-10.jpg"}, {"id": 22650329, "nr": 11, "picture": "https://images.pexels.com/videos/27777053/pictures/preview-11.jpg"}, {"id": 22650330, "nr": 12, "picture": "https://images.pexels.com/videos/27777053/pictures/preview-12.jpg"}, {"id": 22650331, "nr": 13, "picture": "https://images.pexels.com/videos/27777053/pictures/preview-13.jpg"}, {"id": 22650332, "nr": 14, "picture": "https://images.pexels.com/videos/27777053/pictures/preview-14.jpg"}]}, {"id": 11490193, "width": 1080, "height": 1920, "duration": 10, "full_res": null, "tags": [], "url": "https://www.pexels.com/video/back-view-of-kids-running-on-dirt-road-11490193/", "image": "https://images.pexels.com/videos/11490193/pexels-photo-11490193.jpeg?auto=compress&cs=tinysrgb&fit=crop&h=1200&w=630", "avg_color": null, "user": {"id": 88531454, "name": "Evgeniya  Kuzmina", "url": "https://www.pexels.com/@evgeniya-kuzmina-88531454"}, "video_files": [{"id": 5000048, "quality": "hd", "file_type": "video/mp4", "width": 720, "height": 1280, "fps": 50.0, "link": "https://videos.pexels.com/video-files/11490193/11490193-hd_720_1280_50fps.mp4", "size": 3189560}, {"id": 5000049, "quality": "hd", "file_type": "video/mp4", "width": 1080, "height": 1920, "fps": 50.0, "link": "https://videos.pexels.com/video-files/11490193/11490193-hd_1080_1920_50fps.mp4", "size": 6279819}, {"id": 5000050, "quality": "sd", "file_type": "video/mp4", "width": 240, "height": 426, "fps": 25.0, "link": "https://videos.pexels.com/video-files/11490193/11490193-sd_240_426_25fps.mp4", "size": 676399}, {"id": 5000051, "quality": "sd", "file_type": "video/mp4", "width": 540, "height": 960, "fps": 25.0, "link": "https://videos.pexels.com/video-files/11490193/11490193-sd_540_960_25fps.mp4", "size": 1904207}, {"id": 5000052, "quality": "sd", "file_type": "video/mp4", "width": 360, "height": 640, "fps": 25.0, "link": "https://videos.pexels.com/video-files/11490193/11490193-sd_360_640_25fps.mp4", "size": 877854}], "video_pictures": [{"id": 12176765, "nr": 0, "picture": "https://images.pexels.com/videos/11490193/pictures/preview-0.jpeg"}, {"id": 12176772, "nr": 1, "picture": "https://images.pexels.com/videos/11490193/pictures/preview-1.jpeg"}, {"id": 12176777, "nr": 2, "picture": "https://images.pexels.com/videos/11490193/pictures/preview-2.jpeg"}, {"id": 12176781, "nr": 3, "picture": "https://images.pexels.com/videos/11490193/pictures/preview-3.jpeg"}, {"id": 12176786, "nr": 4, "picture": "https://images.pexels.com/videos/11490193/pictures/preview-4.jpeg"}, {"id": 12176793, "nr": 5, "picture": "https://images.pexels.com/videos/11490193/pictures/preview-5.jpeg"}, {"id": 12176794, "nr": 6, "picture": "https://images.pexels.com/videos/11490193/pictures/preview-6.jpeg"}, {"id": 12176798, "nr": 7, "picture": "https://images.pexels.com/videos/11490193/pictures/preview-7.jpeg"}, {"id": 12176802, "nr": 8, "picture": "https://images.pexels.com/videos/11490193/pictures/preview-8.jpeg"}, {"id": 12176806, "nr": 9, "picture": "https://images.pexels.com/videos/11490193/pictures/preview-9.jpeg"}, {"id": 12176809, "nr": 10, "picture": "https://images.pexels.com/videos/11490193/pictures/preview-10.jpeg"}, {"id": 12176811, "nr": 11, "picture": "https://images.pexels.com/videos/11490193/pictures/preview-11.jpeg"}, {"id": 12176812, "nr": 12, "picture": "https://images.pexels.com/videos/11490193/pictures/preview-12.jpeg"}, {"id": 12176813, "nr": 13, "picture": "https://images.pexels.com/videos/11490193/pictures/preview-13.jpeg"}, {"id": 12176814, "nr": 14, "picture": "https://images.pexels.com/videos/11490193/pictures/preview-14.jpeg"}]}, {"id": 5617548, "width": 1080, "height": 1920, "duration": 11, "full_res": null, "tags": [], "url": "https://www.pexels.com/video/woman-holding-sunflowers-on-a-field-5617548/", "image": "https://images.pexels.com/videos/5617548/athletic-field-autumn-autumn-atmosphere-autumn-color-5617548.jpeg?auto=compress&cs=tinysrgb&fit=crop&h=1200&w=630", "avg_color": null, "user": {"id": 2713790, "name": "Maksim Goncharenok", "url": "https://www.pexels.com/@maksgelatin"}, "video_files": [{"id": 9746591, "quality": "hd", "file_type": "video/mp4", "width": 1080, "height": 1920, "fps": 30.0, "link": "https://videos.pexels.com/video-files/5617548/5617548-hd_1080_1920_30fps.mp4", "size": 8042933}, {"id": 9746615, "quality": "sd", "file_type": "video/mp4", "width": 360, "height": 640, "fps": 30.0, "link": "https://videos.pexels.com/video-files/5617548/5617548-sd_360_640_30fps.mp4", "size": 852710}, {"id": 9746632, "quality": "sd", "file_type": "video/mp4", "width": 240, "height": 426, "fps": 30.0, "link": "https://videos.pexels.com/video-files/5617548/5617548-sd_240_426_30fps.mp4", "size": 519234}, {"id": 9746647, "quality": "sd", "file_type": "video/mp4", "width": 540, "height": 960, "fps": 30.0, "link": "https://videos.pexels.com/video-files/5617548/5617548-sd_540_960_30fps.mp4", "size": 2216420}, {"id": 9746704, "quality": "hd", "file_type": "video/mp4", "width": 720, "height": 1280, "fps": 30.0, "link": "https://videos.pexels.com/video-files/5617548/5617548-hd_720_1280_30fps.mp4", "size": 3938513}], "video_pictures": [{"id": 3096363, "nr": 0, "picture": "https://images.pexels.com/videos/5617548/pictures/preview-0.jpeg"}, {"id": 3096364, "nr": 1, "picture": "https://images.pexels.com/videos/5617548/pictures/preview-1.jpeg"}, {"id": 3096366, "nr": 2, "picture": "https://images.pexels.com/videos/5617548/pictures/preview-2.jpeg"}, {"id": 3096367, "nr": 3, "picture": "https://images.pexels.com/videos/5617548/pictures/preview-3.jpeg"}, {"id": 3096368, "nr": 4, "picture": "https://images.pexels.com/videos/5617548/pictures/preview-4.jpeg"}, {"id": 3096370, "nr": 5, "picture": "https://images.pexels.com/videos/5617548/pictures/preview-5.jpeg"}, {"id": 3096371, "nr": 6, "picture": "https://images.pexels.com/videos/5617548/pictures/preview-6.jpeg"}, {"id": 3096372, "nr": 7, "picture": "https://images.pexels.com/videos/5617548/pictures/preview-7.jpeg"}, {"id": 3096374, "nr": 8, "picture": "https://images.pexels.com/videos/5617548/pictures/preview-8.jpeg"}, {"id": 3096375, "nr": 9, "picture": "https://images.pexels.com/videos/5617548/pictures/preview-9.jpeg"}, {"id": 3096377, "nr": 10, "picture": "https://images.pexels.com/videos/5617548/pictures/preview-10.jpeg"}, {"id": 3096378, "nr": 11, "picture": "https://images.pexels.com/videos/5617548/pictures/preview-11.jpeg"}, {"id": 3096380, "nr": 12, "picture": "https://images.pexels.com/videos/5617548/pictures/preview-12.jpeg"}, {"id": 3096381, "nr": 13, "picture": "https://images.pexels.com/videos/5617548/pictures/preview-13.jpeg"}, {"id": 3096382, "nr": 14, "picture": "https://images.pexels.com/videos/5617548/pictures/preview-14.jpeg"}]}, {"id": 5617547, "width": 1080, "height": 1920, "duration": 11, "full_res": null, "tags": [], "url": "https://www.pexels.com/video/woman-in-white-dress-in-sunflower-fields-5617547/", "image": "https://images.pexels.com/videos/5617547/athletic-field-autumn-autumn-atmosphere-autumn-color-5617547.jpeg?auto=compress&cs=tinysrgb&fit=crop&h=1200&w=630", "avg_color": null, "user": {"id": 2713790, "name": "Maksim Goncharenok", "url": "https://www.pexels.com/@maksgelatin"}, "video_files": [{"id": 9747197, "quality": "sd", "file_type": "video/mp4", "width": 240, "height": 426, "fps": 30.0, "link": "https://videos.pexels.com/video-files/5617547/5617547-sd_240_426_30fps.mp4", "size": 532003}, {"id": 9747355, "quality": "hd", "file_type": "video/mp4", "width": 720, "height": 1280, "fps": 30.0, "link": "https://videos.pexels.com/video-files/5617547/5617547-hd_720_1280_30fps.mp4", "size": 4108705}, {"id": 9747665, "quality": "hd", "file_type": "video/mp4", "width": 1080, "height": 1920, "fps": 30.0, "link": "https://videos.pexels.com/video-files/5617547/5617547-hd_1080_1920_30fps.mp4", "size": 6832384}, {"id": 9747923, "quality": "sd", "file_type": "video/mp4", "width": 360, "height": 640, "fps": 30.0, "link": "https://videos.pexels.com/video-files/5617547/5617547-sd_360_640_30fps.mp4", "size": 895109}, {"id": 9748158, "quality": "sd", "file_type": "video/mp4", "width": 540, "height": 960, "fps": 30.0, "link": "https://videos.pexels.com/video-files/5617547/5617547-sd_540_960_30fps.mp4", "size": 2272307}], "video_pictures": [{"id": 3096261, "nr": 0, "picture": "https://images.pexels.com/videos/5617547/pictures/preview-0.jpeg"}, {"id": 3096264, "nr": 1, "picture": "https://images.pexels.com/videos/5617547/pictures/preview-1.jpeg"}, {"id": 3096267, "nr": 2, "picture": "https://images.pexels.com/videos/5617547/pictures/preview-2.jpeg"}, {"id": 3096270, "nr": 3, "picture": "https://images.pexels.com/videos/5617547/pictures/preview-3.jpeg"}, {"id": 3096271, "nr": 4, "picture": "https://images.pexels.com/videos/5617547/pictures/preview-4.jpeg"}, {"id": 3096274, "nr": 5, "picture": "https://images.pexels.com/videos/5617547/pictures/preview-5.jpeg"}, {"id": 3096278, "nr": 6, "picture": "https://images.pexels.com/videos/5617547/pictures/preview-6.jpeg"}, {"id": 3096281, "nr": 7, "picture": "https://images.pexels.com/videos/5617547/pictures/preview-7.jpeg"}, {"id": 3096284, "nr": 8, "picture": "https://images.pexels.com/videos/5617547/pictures/preview-8.jpeg"}, {"id": 3096287, "nr": 9, "picture": "https://images.pexels.com/videos/5617547/pictures/preview-9.jpeg"}, {"id": 3096290, "nr": 10, "picture": "https://images.pexels.com/videos/5617547/pictures/preview-10.jpeg"}, {"id": 3096294, "nr": 11, "picture": "https://images.pexels.com/videos/5617547/pictures/preview-11.jpeg"}, {"id": 3096296, "nr": 12, "picture": "https://images.pexels.com/videos/5617547/pictures/preview-12.jpeg"}, {"id": 3096299, "nr": 13, "picture": "https://images.pexels.com/videos/5617547/pictures/preview-13.jpeg"}, {"id": 3096301, "nr": 14, "picture": "https://images.pexels.com/videos/5617547/pictures/preview-14.jpeg"}]}, {"id": 5617542, "width": 1080, "height": 1920, "duration": 9, "full_res": null, "tags": [], "url": "https://www.pexels.com/video/woman-holding-sunflowers-5617542/", "image": "https://images.pexels.com/videos/5617542/pexels-photo-5617542.jpeg?auto=compress&cs=tinysrgb&fit=crop&h=1200&w=630", "avg_color": null, "user": {"id": 2713790, "name": "Maksim Goncharenok", "url": "https://www.pexels.com/@maksgelatin"}, "video_files": [{"id": 9747036, "quality": "sd", "file_type": "video/mp4", "width": 240, "height": 426, "fps": 30.0, "link": "https://videos.pexels.com/video-files/5617542/5617542-sd_240_426_30fps.mp4", "size": 380437}, {"id": 9747080, "quality": "hd", "file_type": "video/mp4", "width": 1080, "height": 1920, "fps": 30.0, "link": "https://videos.pexels.com/video-files/5617542/5617542-hd_1080_1920_30fps.mp4", "size": 5510414}, {"id": 9747138, "quality": "sd", "file_type": "video/mp4", "width": 360, "height": 640, "fps": 30.0, "link": "https://videos.pexels.com/video-files/5617542/5617542-sd_360_640_30fps.mp4", "size": 645362}, {"id": 9747180, "quality": "hd", "file_type": "video/mp4", "width": 720, "height": 1280, "fps": 30.0, "link": "https://videos.pexels.com/video-files/5617542/5617542-hd_720_1280_30fps.mp4", "size": 2882557}, {"id": 9747228, "quality": "sd", "file_type": "video/mp4", "width": 540, "height": 960, "fps": 30.0, "link": "https://videos.pexels.com/video-files/5617542/5617542-sd_540_960_30fps.mp4", "size": 1788732}], "video_pictures": [{"id": 3096203, "nr": 0, "picture": "https://images.pexels.com/videos/5617542/pictures/preview-0.jpeg"}, {"id": 3096207, "nr": 1, "picture": "https://images.pexels.com/videos/5617542/pictures/preview-1.jpeg"}, {"id": 3096210, "nr": 2, "picture": "https://images.pexels.com/videos/5617542/pictures/preview-2.jpeg"}, {"id": 3096214, "nr": 3, "picture": "https://images.pexels.com/videos/5617542/pictures/preview-3.jpeg"}, {"id": 3096219, "nr": 4, "picture": "https://images.pexels.com/videos/5617542/pictures/preview-4.jpeg"}, {"id": 3096222, "nr": 5, "picture": "https://images.pexels.com/videos/5617542/pictures/preview-5.jpeg"}, {"id": 3096225, "nr": 6, "picture": "https://images.pexels.com/videos/5617542/pictures/preview-6.jpeg"}, {"id": 3096228, "nr": 7, "picture": "https://images.pexels.com/videos/5617542/pictures/preview-7.jpeg"}, {"id": 3096232, "nr": 8, "picture": "https://images.pexels.com/videos/5617542/pictures/preview-8.jpeg"}, {"id": 3096236, "nr": 9, "picture": "https://images.pexels.com/videos/5617542/pictures/preview-9.jpeg"}, {"id": 3096244, "nr": 10, "picture": "https://images.pexels.com/videos/5617542/pictures/preview-10.jpeg"}, {"id": 3096247, "nr": 11, "picture": "https://images.pexels.com/videos/5617542/pictures/preview-11.jpeg"}, {"id": 3096250, "nr": 12, "picture": "https://images.pexels.com/videos/5617542/pictures/preview-12.jpeg"}, {"id": 3096254, "nr": 13, "picture": "https://images.pexels.com/videos/5617542/pictures/preview-13.jpeg"}, {"id": 3096257, "nr": 14, "picture": "https://images.pexels.com/videos/5617542/pictures/preview-14.jpeg"}]}, {"id": 5534166, "width": 1080, "height": 1920, "duration": 9, "full_res": null, "tags": [], "url": "https://www.pexels.com/video/view-of-sunflower-field-5534166/", "image": "https://images.pexels.com/videos/5534166/pexels-photo-5534166.jpeg?auto=compress&cs=tinysrgb&fit=crop&h=1200&w=630", "avg_color": null, "user": {"id": 3684321, "name": "Anna Bondarenko", "url": "https://www.pexels.com/@aaa333"}, "video_files": [{"id": 9727693, "quality": "sd", "file_type": "video/mp4", "width": 240, "height": 426, "fps": 29.969999313354492, "link": "https://videos.pexels.com/video-files/5534166/5534166-sd_240_426_30fps.mp4", "size": 398815}, {"id": 9727700, "quality": "sd", "file_type": "video/mp4", "width": 360, "height": 640, "fps": 29.969999313354492, "link": "https://videos.pexels.com/video-files/5534166/5534166-sd_360_640_30fps.mp4", "size": 663601}, {"id": 9727708, "quality": "hd", "file_type": "video/mp4", "width": 720, "height": 1280, "fps": 29.969999313354492, "link": "https://videos.pexels.com/video-files/5534166/5534166-hd_720_1280_30fps.mp4", "size": 3009681}, {"id": 9727715, "quality": "hd", "file_type": "video/mp4", "width": 1080, "height": 1920, "fps": 29.969999313354492, "link": "https://videos.pexels.com/video-files/5534166/5534166-hd_1080_1920_30fps.mp4", "size": 5748697}, {"id": 9727722, "quality": "sd", "file_type": "video/mp4", "width": 540, "height": 960, "fps": 29.969999313354492, "link": "https://videos.pexels.com/video-files/5534166/5534166-sd_540_960_30fps.mp4", "size": 1852351}], "video_pictures": [{"id": 2962673, "nr": 0, "picture": "https://images.pexels.com/videos/5534166/pictures/preview-0.jpeg"}, {"id": 2962679, "nr": 1, "picture": "https://images.pexels.com/videos/5534166/pictures/preview-1.jpeg"}, {"id": 2962686, "nr": 2, "picture": "https://images.pexels.com/videos/5534166/pictures/preview-2.jpeg"}, {"id": 2962691, "nr": 3, "picture": "https://images.pexels.com/videos/5534166/pictures/preview-3.jpeg"}, {"id": 2962698, "nr": 4, "picture": "https://images.pexels.com/videos/5534166/pictures/preview-4.jpeg"}, {"id": 2962704, "nr": 5, "picture": "https://images.pexels.com/videos/5534166/pictures/preview-5.jpeg"}, {"id": 2962709, "nr": 6, "picture": "https://images.pexels.com/videos/5534166/pictures/preview-6.jpeg"}, {"id": 2962716, "nr": 7, "picture": "https://images.pexels.com/videos/5534166/pictures/preview-7.jpeg"}, {"id": 2962720, "nr": 8, "picture": "https://images.pexels.com/videos/5534166/pictures/preview-8.jpeg"}, {"id": 2962729, "nr": 9, "picture": "https://images.pexels.com/videos/5534166/pictures/preview-9.jpeg"}, {"id": 2962731, "nr": 10, "picture": "https://images.pexels.com/videos/5534166/pictures/preview-10.jpeg"}, {"id": 2962733, "nr": 11, "picture": "https://images.pexels.com/videos/5534166/pictures/preview-11.jpeg"}, {"id": 2962737, "nr": 12, "picture": "https://images.pexels.com/videos/5534166/pictures/preview-12.jpeg"}, {"id": 2962740, "nr": 13, "picture": "https://images.pexels.com/videos/5534166/pictures/preview-13.jpeg"}, {"id": 2962744, "nr": 14, "picture": "https://images.pexels.com/videos/5534166/pictures/preview-14.jpeg"}]}, {"id": 5617543, "width": 1080, "height": 1920, "duration": 14, "full_res": null, "tags": [], "url": "https://www.pexels.com/video/couple-running-on-a-field-5617543/", "image": "https://images.pexels.com/videos/5617543/pexels-photo-5617543.jpeg?auto=compress&cs=tinysrgb&fit=crop&h=1200&w=630", "avg_color": null, "user": {"id": 2713790, "name": "Maksim Goncharenok", "url": "https://www.pexels.com/@maksgelatin"}, "video_files": [{"id": 1530282, "quality": "sd", "file_type": "video/mp4", "width": 540, "height": 960, "fps": 30.0, "link": "https://videos.pexels.com/video-files/5617543/5617543-sd_540_960_30fps.mp4", "size": 2721943}, {"id": 1530283, "quality": "hd", "file_type": "video/mp4", "width": 1080, "height": 1920, "fps": 30.0, "link": "https://videos.pexels.com/video-files/5617543/5617543-hd_1080_1920_30fps.mp4", "size": 9591600}, {"id": 1530284, "quality": "hd", "file_type": "video/mp4", "width": 720, "height": 1280, "fps": 30.0, "link": "https://videos.pexels.com/video-files/5617543/5617543-hd_720_1280_30fps.mp4", "size": 4758602}, {"id": 1530285, "quality": "sd", "file_type": "video/mp4", "width": 360, "height": 640, "fps": 30.0, "link": "https://videos.pexels.com/video-files/5617543/5617543-sd_360_640_30fps.mp4", "size": 1088363}, {"id": 1530286, "quality": "sd", "file_type": "video/mp4", "width": 240, "height": 426, "fps": 30.0, "link": "https://videos.pexels.com/video-files/5617543/5617543-sd_240_426_30fps.mp4", "size": 680982}], "video_pictures": [{"id": 3096233, "nr": 0, "picture": "https://images.pexels.com/videos/5617543/pictures/preview-0.jpeg"}, {"id": 3096237, "nr": 1, "picture": "https://images.pexels.com/videos/5617543/pictures/preview-1.jpeg"}, {"id": 3096241, "nr": 2, "picture": "https://images.pexels.com/videos/5617543/pictures/preview-2.jpeg"}, {"id": 3096243, "nr": 3, "picture": "https://images.pexels.com/videos/5617543/pictures/preview-3.jpeg"}, {"id": 3096246, "nr": 4, "picture": "https://images.pexels.com/videos/5617543/pictures/preview-4.jpeg"}, {"id": 3096249, "nr": 5, "picture": "https://images.pexels.com/videos/5617543/pictures/preview-5.jpeg"}, {"id": 3096253, "nr": 6, "picture": "https://images.pexels.com/videos/5617543/pictures/preview-6.jpeg"}, {"id": 3096258, "nr": 7, "picture": "https://images.pexels.com/videos/5617543/pictures/preview-7.jpeg"}, {"id": 3096275, "nr": 8, "picture": "https://images.pexels.com/videos/5617543/pictures/preview-8.jpeg"}, {"id": 3096279, "nr": 9, "picture": "https://images.pexels.com/videos/5617543/pictures/preview-9.jpeg"}, {"id": 3096283, "nr": 10, "picture": "https://images.pexels.com/videos/5617543/pictures/preview-10.jpeg"}, {"id": 3096286, "nr": 11, "picture": "https://images.pexels.com/videos/5617543/pictures/preview-11.jpeg"}, {"id": 3096289, "nr": 12, "picture": "https://images.pexels.com/videos/5617543/pictures/preview-12.jpeg"}, {"id": 3096292, "nr": 13, "picture": "https://images.pexels.com/videos/5617543/pictures/preview-13.jpeg"}, {"id": 3096297, "nr": 14, "picture": "https://images.pexels.com/videos/5617543/pictures/preview-14.jpeg"}]}, {"id": 5534165, "width": 1080, "height": 1920, "duration": 7, "full_res": null, "tags": [], "url": "https://www.pexels.com/video/view-of-sunflower-field-5534165/", "image": "https://images.pexels.com/videos/5534165/pexels-photo-5534165.jpeg?auto=compress&cs=tinysrgb&fit=crop&h=1200&w=630", "avg_color": null, "user": {"id": 3684321, "name": "Anna Bondarenko", "url": "https://www.pexels.com/@aaa333"}, "video_files": [{"id": 9727721, "quality": "sd", "file_type": "video/mp4", "width": 240, "height": 426, "fps": 29.969999313354492, "link": "https://videos.pexels.com/video-files/5534165/5534165-sd_240_426_30fps.mp4", "size": 329411}, {"id": 9727731, "quality": "sd", "file_type": "video/mp4", "width": 540, "height": 960, "fps": 29.969999313354492, "link": "https://videos.pexels.com/video-files/5534165/5534165-sd_540_960_30fps.mp4", "size": 1562647}, {"id": 9727737, "quality": "hd", "file_type": "video/mp4", "width": 720, "height": 1280, "fps": 29.969999313354492, "link": "https://videos.pexels.com/video-files/5534165/5534165-hd_720_1280_30fps.mp4", "size": 2524224}, {"id": 9727745, "quality": "sd", "file_type": "video/mp4", "width": 360, "height": 640, "fps": 29.969999313354492, "link": "https://videos.pexels.com/video-files/5534165/5534165-sd_360_640_30fps.mp4", "size": 564778}, {"id": 9727756, "quality": "hd", "file_type": "video/mp4", "width": 1080, "height": 1920, "fps": 29.969999313354492, "link": "https://videos.pexels.com/video-files/5534165/5534165-hd_1080_1920_30fps.mp4", "size": 4741222}], "video_pictures": [{"id": 2962581, "nr": 0, "picture": "https://images.pexels.com/videos/5534165/pictures/preview-0.jpeg"}, {"id": 2962586, "nr": 1, "picture": "https://images.pexels.com/videos/5534165/pictures/preview-1.jpeg"}, {"id": 2962590, "nr": 2, "picture": "https://images.pexels.com/videos/5534165/pictures/preview-2.jpeg"}, {"id": 2962595, "nr": 3, "picture": "https://images.pexels.com/videos/5534165/pictures/preview-3.jpeg"}, {"id": 2962600, "nr": 4, "picture": "https://images.pexels.com/videos/5534165/pictures/preview-4.jpeg"}, {"id": 2962605, "nr": 5, "picture": "https://images.pexels.com/videos/5534165/pictures/preview-5.jpeg"}, {"id": 2962610, "nr": 6, "picture": "https://images.pexels.com/videos/5534165/pictures/preview-6.jpeg"}, {"id": 2962614, "nr": 7, "picture": "https://images.pexels.com/videos/5534165/pictures/preview-7.jpeg"}, {"id": 2962616, "nr": 8, "picture": "https://images.pexels.com/videos/5534165/pictures/preview-8.jpeg"}, {"id": 2962622, "nr": 9, "picture": "https://images.pexels.com/videos/5534165/pictures/preview-9.jpeg"}, {"id": 2962625, "nr": 10, "picture": "https://images.pexels.com/videos/5534165/pictures/preview-10.jpeg"}, {"id": 2962628, "nr": 11, "picture": "https://images.pexels.com/videos/5534165/pictures/preview-11.jpeg"}, {"id": 2962632, "nr": 12, "picture": "https://images.pexels.com/videos/5534165/pictures/preview-12.jpeg"}, {"id": 2962634, "nr": 13, "picture": "https://images.pexels.com/videos/5534165/pictures/preview-13.jpeg"}, {"id": 2962636, "nr": 14, "picture": "https://images.pexels.com/videos/5534165/pictures/preview-14.jpeg"}]}], "total_results": 4839, "next_page": "https://api.pexels.com/v1/videos/search/?orientation=portrait&page=2&per_page=8&query=sunflowers+field", "url": "https://api-server.pexels.com/search/videos/sunflowers%20field/"}, "timestamp": "2024-12-28T22:59:54.849979"}
