{"query": "water release", "response": {"page": 1, "per_page": 8, "videos": [{"id": 10884417, "width": 1080, "height": 1920, "duration": 47, "full_res": null, "tags": [], "url": "https://www.pexels.com/video/water-flowing-through-a-discharge-pipe-10884417/", "image": "https://images.pexels.com/videos/10884417/adventure-camping-dam-downstream-10884417.jpeg?auto=compress&cs=tinysrgb&fit=crop&h=1200&w=630", "avg_color": null, "user": {"id": 1611131, "name": "Diego da Silva", "url": "https://www.pexels.com/@diego-da-silva-1611131"}, "video_files": [{"id": 4792224, "quality": "hd", "file_type": "video/mp4", "width": 720, "height": 1280, "fps": 29.969999313354492, "link": "https://videos.pexels.com/video-files/10884417/10884417-hd_720_1280_30fps.mp4", "size": 17690136}, {"id": 4792225, "quality": "sd", "file_type": "video/mp4", "width": 540, "height": 960, "fps": 29.969999313354492, "link": "https://videos.pexels.com/video-files/10884417/10884417-sd_540_960_30fps.mp4", "size": 9463512}, {"id": 4792226, "quality": "hd", "file_type": "video/mp4", "width": 1080, "height": 1920, "fps": 29.969999313354492, "link": "https://videos.pexels.com/video-files/10884417/10884417-hd_1080_1920_30fps.mp4", "size": 33803861}, {"id": 4792227, "quality": "sd", "file_type": "video/mp4", "width": 240, "height": 426, "fps": 29.969999313354492, "link": "https://videos.pexels.com/video-files/10884417/10884417-sd_240_426_30fps.mp4", "size": 2210270}, {"id": 4792228, "quality": "sd", "file_type": "video/mp4", "width": 360, "height": 640, "fps": 29.969999313354492, "link": "https://videos.pexels.com/video-files/10884417/10884417-sd_360_640_30fps.mp4", "size": 3590809}], "video_pictures": [{"id": 11511778, "nr": 0, "picture": "https://images.pexels.com/videos/10884417/pictures/preview-0.jpeg"}, {"id": 11511785, "nr": 1, "picture": "https://images.pexels.com/videos/10884417/pictures/preview-1.jpeg"}, {"id": 11511793, "nr": 2, "picture": "https://images.pexels.com/videos/10884417/pictures/preview-2.jpeg"}, {"id": 11511797, "nr": 3, "picture": "https://images.pexels.com/videos/10884417/pictures/preview-3.jpeg"}, {"id": 11511805, "nr": 4, "picture": "https://images.pexels.com/videos/10884417/pictures/preview-4.jpeg"}, {"id": 11511810, "nr": 5, "picture": "https://images.pexels.com/videos/10884417/pictures/preview-5.jpeg"}, {"id": 11511815, "nr": 6, "picture": "https://images.pexels.com/videos/10884417/pictures/preview-6.jpeg"}, {"id": 11511825, "nr": 7, "picture": "https://images.pexels.com/videos/10884417/pictures/preview-7.jpeg"}, {"id": 11511829, "nr": 8, "picture": "https://images.pexels.com/videos/10884417/pictures/preview-8.jpeg"}, {"id": 11511834, "nr": 9, "picture": "https://images.pexels.com/videos/10884417/pictures/preview-9.jpeg"}, {"id": 11511838, "nr": 10, "picture": "https://images.pexels.com/videos/10884417/pictures/preview-10.jpeg"}, {"id": 11511841, "nr": 11, "picture": "https://images.pexels.com/videos/10884417/pictures/preview-11.jpeg"}, {"id": 11511843, "nr": 12, "picture": "https://images.pexels.com/videos/10884417/pictures/preview-12.jpeg"}, {"id": 11511846, "nr": 13, "picture": "https://images.pexels.com/videos/10884417/pictures/preview-13.jpeg"}, {"id": 11511849, "nr": 14, "picture": "https://images.pexels.com/videos/10884417/pictures/preview-14.jpeg"}]}, {"id": 4830364, "width": 2160, "height": 4096, "duration": 35, "full_res": null, "tags": [], "url": "https://www.pexels.com/video/two-men-sitting-by-the-river-bank-while-talking-to-each-other-4830364/", "image": "https://images.pexels.com/videos/4830364/pexels-photo-4830364.jpeg?auto=compress&cs=tinysrgb&fit=crop&h=1200&w=630", "avg_color": null, "user": {"id": 1437723, "name": "cottonbro studio", "url": "https://www.pexels.com/@cottonbro"}, "video_files": [{"id": 9411324, "quality": "sd", "file_type": "video/mp4", "width": 338, "height": 640, "fps": 25.0, "link": "https://videos.pexels.com/video-files/4830364/4830364-sd_338_640_25fps.mp4", "size": 2383110}, {"id": 9411436, "quality": "uhd", "file_type": "video/mp4", "width": 2160, "height": 4096, "fps": 25.0, "link": "https://videos.pexels.com/video-files/4830364/4830364-uhd_2160_4096_25fps.mp4", "size": 107125880}, {"id": 9411562, "quality": "uhd", "file_type": "video/mp4", "width": 1440, "height": 2732, "fps": 25.0, "link": "https://videos.pexels.com/video-files/4830364/4830364-uhd_1440_2732_25fps.mp4", "size": 58789337}, {"id": 9411687, "quality": "hd", "file_type": "video/mp4", "width": 720, "height": 1366, "fps": 25.0, "link": "https://videos.pexels.com/video-files/4830364/4830364-hd_720_1366_25fps.mp4", "size": 12243848}, {"id": 9411771, "quality": "sd", "file_type": "video/mp4", "width": 506, "height": 960, "fps": 25.0, "link": "https://videos.pexels.com/video-files/4830364/4830364-sd_506_960_25fps.mp4", "size": 6896770}, {"id": 9411840, "quality": "sd", "file_type": "video/mp4", "width": 226, "height": 426, "fps": 25.0, "link": "https://videos.pexels.com/video-files/4830364/4830364-sd_226_426_25fps.mp4", "size": 1455296}, {"id": 9411886, "quality": "hd", "file_type": "video/mp4", "width": 1080, "height": 2048, "fps": 25.0, "link": "https://videos.pexels.com/video-files/4830364/4830364-hd_1080_2048_25fps.mp4", "size": 24477048}], "video_pictures": [{"id": 2010250, "nr": 0, "picture": "https://images.pexels.com/videos/4830364/pictures/preview-0.jpeg"}, {"id": 2010258, "nr": 1, "picture": "https://images.pexels.com/videos/4830364/pictures/preview-1.jpeg"}, {"id": 2010266, "nr": 2, "picture": "https://images.pexels.com/videos/4830364/pictures/preview-2.jpeg"}, {"id": 2010274, "nr": 3, "picture": "https://images.pexels.com/videos/4830364/pictures/preview-3.jpeg"}, {"id": 2010280, "nr": 4, "picture": "https://images.pexels.com/videos/4830364/pictures/preview-4.jpeg"}, {"id": 2010287, "nr": 5, "picture": "https://images.pexels.com/videos/4830364/pictures/preview-5.jpeg"}, {"id": 2010295, "nr": 6, "picture": "https://images.pexels.com/videos/4830364/pictures/preview-6.jpeg"}, {"id": 2010306, "nr": 7, "picture": "https://images.pexels.com/videos/4830364/pictures/preview-7.jpeg"}, {"id": 2010315, "nr": 8, "picture": "https://images.pexels.com/videos/4830364/pictures/preview-8.jpeg"}, {"id": 2010323, "nr": 9, "picture": "https://images.pexels.com/videos/4830364/pictures/preview-9.jpeg"}, {"id": 2010332, "nr": 10, "picture": "https://images.pexels.com/videos/4830364/pictures/preview-10.jpeg"}, {"id": 2010341, "nr": 11, "picture": "https://images.pexels.com/videos/4830364/pictures/preview-11.jpeg"}, {"id": 2010345, "nr": 12, "picture": "https://images.pexels.com/videos/4830364/pictures/preview-12.jpeg"}, {"id": 2010352, "nr": 13, "picture": "https://images.pexels.com/videos/4830364/pictures/preview-13.jpeg"}, {"id": 2010357, "nr": 14, "picture": "https://images.pexels.com/videos/4830364/pictures/preview-14.jpeg"}]}, {"id": 4828296, "width": 2160, "height": 4096, "duration": 9, "full_res": null, "tags": [], "url": "https://www.pexels.com/video/a-man-is-holding-a-fishing-rod-in-the-water-4828296/", "image": "https://images.pexels.com/videos/4828296/pexels-photo-4828296.jpeg?auto=compress&cs=tinysrgb&fit=crop&h=1200&w=630", "avg_color": null, "user": {"id": 1437723, "name": "cottonbro studio", "url": "https://www.pexels.com/@cottonbro"}, "video_files": [{"id": 9418888, "quality": "uhd", "file_type": "video/mp4", "width": 1440, "height": 2732, "fps": 25.0, "link": "https://videos.pexels.com/video-files/4828296/4828296-uhd_1440_2732_25fps.mp4", "size": 13046123}, {"id": 9418910, "quality": "sd", "file_type": "video/mp4", "width": 338, "height": 640, "fps": 25.0, "link": "https://videos.pexels.com/video-files/4828296/4828296-sd_338_640_25fps.mp4", "size": 505134}, {"id": 9418946, "quality": "hd", "file_type": "video/mp4", "width": 1080, "height": 2048, "fps": 25.0, "link": "https://videos.pexels.com/video-files/4828296/4828296-hd_1080_2048_25fps.mp4", "size": 5087942}, {"id": 9418997, "quality": "hd", "file_type": "video/mp4", "width": 720, "height": 1366, "fps": 25.0, "link": "https://videos.pexels.com/video-files/4828296/4828296-hd_720_1366_25fps.mp4", "size": 2587583}, {"id": 9419060, "quality": "sd", "file_type": "video/mp4", "width": 226, "height": 426, "fps": 25.0, "link": "https://videos.pexels.com/video-files/4828296/4828296-sd_226_426_25fps.mp4", "size": 311659}, {"id": 9419147, "quality": "uhd", "file_type": "video/mp4", "width": 2160, "height": 4096, "fps": 25.0, "link": "https://videos.pexels.com/video-files/4828296/4828296-uhd_2160_4096_25fps.mp4", "size": 23696929}, {"id": 9419188, "quality": "sd", "file_type": "video/mp4", "width": 506, "height": 960, "fps": 25.0, "link": "https://videos.pexels.com/video-files/4828296/4828296-sd_506_960_25fps.mp4", "size": 1491211}], "video_pictures": [{"id": 2005531, "nr": 0, "picture": "https://images.pexels.com/videos/4828296/pictures/preview-0.jpeg"}, {"id": 2005556, "nr": 1, "picture": "https://images.pexels.com/videos/4828296/pictures/preview-1.jpeg"}, {"id": 2005579, "nr": 2, "picture": "https://images.pexels.com/videos/4828296/pictures/preview-2.jpeg"}, {"id": 2005608, "nr": 3, "picture": "https://images.pexels.com/videos/4828296/pictures/preview-3.jpeg"}, {"id": 2005629, "nr": 4, "picture": "https://images.pexels.com/videos/4828296/pictures/preview-4.jpeg"}, {"id": 2005648, "nr": 5, "picture": "https://images.pexels.com/videos/4828296/pictures/preview-5.jpeg"}, {"id": 2005666, "nr": 6, "picture": "https://images.pexels.com/videos/4828296/pictures/preview-6.jpeg"}, {"id": 2005682, "nr": 7, "picture": "https://images.pexels.com/videos/4828296/pictures/preview-7.jpeg"}, {"id": 2005698, "nr": 8, "picture": "https://images.pexels.com/videos/4828296/pictures/preview-8.jpeg"}, {"id": 2005715, "nr": 9, "picture": "https://images.pexels.com/videos/4828296/pictures/preview-9.jpeg"}, {"id": 2005738, "nr": 10, "picture": "https://images.pexels.com/videos/4828296/pictures/preview-10.jpeg"}, {"id": 2005761, "nr": 11, "picture": "https://images.pexels.com/videos/4828296/pictures/preview-11.jpeg"}, {"id": 2005785, "nr": 12, "picture": "https://images.pexels.com/videos/4828296/pictures/preview-12.jpeg"}, {"id": 2005798, "nr": 13, "picture": "https://images.pexels.com/videos/4828296/pictures/preview-13.jpeg"}, {"id": 2005806, "nr": 14, "picture": "https://images.pexels.com/videos/4828296/pictures/preview-14.jpeg"}]}, {"id": 5663326, "width": 2160, "height": 3840, "duration": 5, "full_res": null, "tags": [], "url": "https://www.pexels.com/video/a-person-weighing-a-fish-5663326/", "image": "https://images.pexels.com/videos/5663326/pexels-photo-5663326.jpeg?auto=compress&cs=tinysrgb&fit=crop&h=1200&w=630", "avg_color": null, "user": {"id": 1553150, "name": "Oussama Amrouche", "url": "https://www.pexels.com/@oussama-amrouche-1553150"}, "video_files": [{"id": 9765952, "quality": "hd", "file_type": "video/mp4", "width": 1080, "height": 1920, "fps": 30.0, "link": "https://videos.pexels.com/video-files/5663326/5663326-hd_1080_1920_30fps.mp4", "size": 3287551}, {"id": 9765981, "quality": "sd", "file_type": "video/mp4", "width": 240, "height": 426, "fps": 30.0, "link": "https://videos.pexels.com/video-files/5663326/5663326-sd_240_426_30fps.mp4", "size": 218507}, {"id": 9765996, "quality": "sd", "file_type": "video/mp4", "width": 540, "height": 960, "fps": 30.0, "link": "https://videos.pexels.com/video-files/5663326/5663326-sd_540_960_30fps.mp4", "size": 1054955}, {"id": 9766027, "quality": "uhd", "file_type": "video/mp4", "width": 1440, "height": 2560, "fps": 30.0, "link": "https://videos.pexels.com/video-files/5663326/5663326-uhd_1440_2560_30fps.mp4", "size": 7870919}, {"id": 9766054, "quality": "hd", "file_type": "video/mp4", "width": 720, "height": 1280, "fps": 30.0, "link": "https://videos.pexels.com/video-files/5663326/5663326-hd_720_1280_30fps.mp4", "size": 1684306}, {"id": 9766072, "quality": "sd", "file_type": "video/mp4", "width": 360, "height": 640, "fps": 30.0, "link": "https://videos.pexels.com/video-files/5663326/5663326-sd_360_640_30fps.mp4", "size": 361468}, {"id": 9766099, "quality": "uhd", "file_type": "video/mp4", "width": 2160, "height": 3840, "fps": 30.0, "link": "https://videos.pexels.com/video-files/5663326/5663326-uhd_2160_3840_30fps.mp4", "size": 14430493}], "video_pictures": [{"id": 3160440, "nr": 0, "picture": "https://images.pexels.com/videos/5663326/pictures/preview-0.jpeg"}, {"id": 3160441, "nr": 1, "picture": "https://images.pexels.com/videos/5663326/pictures/preview-1.jpeg"}, {"id": 3160442, "nr": 2, "picture": "https://images.pexels.com/videos/5663326/pictures/preview-2.jpeg"}, {"id": 3160443, "nr": 3, "picture": "https://images.pexels.com/videos/5663326/pictures/preview-3.jpeg"}, {"id": 3160444, "nr": 4, "picture": "https://images.pexels.com/videos/5663326/pictures/preview-4.jpeg"}, {"id": 3160445, "nr": 5, "picture": "https://images.pexels.com/videos/5663326/pictures/preview-5.jpeg"}, {"id": 3160446, "nr": 6, "picture": "https://images.pexels.com/videos/5663326/pictures/preview-6.jpeg"}, {"id": 3160447, "nr": 7, "picture": "https://images.pexels.com/videos/5663326/pictures/preview-7.jpeg"}, {"id": 3160448, "nr": 8, "picture": "https://images.pexels.com/videos/5663326/pictures/preview-8.jpeg"}, {"id": 3160449, "nr": 9, "picture": "https://images.pexels.com/videos/5663326/pictures/preview-9.jpeg"}, {"id": 3160450, "nr": 10, "picture": "https://images.pexels.com/videos/5663326/pictures/preview-10.jpeg"}, {"id": 3160451, "nr": 11, "picture": "https://images.pexels.com/videos/5663326/pictures/preview-11.jpeg"}, {"id": 3160452, "nr": 12, "picture": "https://images.pexels.com/videos/5663326/pictures/preview-12.jpeg"}, {"id": 3160453, "nr": 13, "picture": "https://images.pexels.com/videos/5663326/pictures/preview-13.jpeg"}, {"id": 3160454, "nr": 14, "picture": "https://images.pexels.com/videos/5663326/pictures/preview-14.jpeg"}]}, {"id": 4828301, "width": 2160, "height": 4096, "duration": 17, "full_res": null, "tags": [], "url": "https://www.pexels.com/video/a-man-in-a-hat-and-jacket-is-standing-in-a-river-4828301/", "image": "https://images.pexels.com/videos/4828301/pexels-photo-4828301.jpeg?auto=compress&cs=tinysrgb&fit=crop&h=1200&w=630", "avg_color": null, "user": {"id": 1437723, "name": "cottonbro studio", "url": "https://www.pexels.com/@cottonbro"}, "video_files": [{"id": 9418714, "quality": "uhd", "file_type": "video/mp4", "width": 1440, "height": 2732, "fps": 25.0, "link": "https://videos.pexels.com/video-files/4828301/4828301-uhd_1440_2732_25fps.mp4", "size": 28051655}, {"id": 9418765, "quality": "sd", "file_type": "video/mp4", "width": 506, "height": 960, "fps": 25.0, "link": "https://videos.pexels.com/video-files/4828301/4828301-sd_506_960_25fps.mp4", "size": 3456576}, {"id": 9418808, "quality": "sd", "file_type": "video/mp4", "width": 226, "height": 426, "fps": 25.0, "link": "https://videos.pexels.com/video-files/4828301/4828301-sd_226_426_25fps.mp4", "size": 722254}, {"id": 9418844, "quality": "uhd", "file_type": "video/mp4", "width": 2160, "height": 4096, "fps": 25.0, "link": "https://videos.pexels.com/video-files/4828301/4828301-uhd_2160_4096_25fps.mp4", "size": 47094190}, {"id": 9418884, "quality": "hd", "file_type": "video/mp4", "width": 720, "height": 1366, "fps": 25.0, "link": "https://videos.pexels.com/video-files/4828301/4828301-hd_720_1366_25fps.mp4", "size": 5393368}, {"id": 9418940, "quality": "sd", "file_type": "video/mp4", "width": 338, "height": 640, "fps": 25.0, "link": "https://videos.pexels.com/video-files/4828301/4828301-sd_338_640_25fps.mp4", "size": 1166642}, {"id": 9418999, "quality": "hd", "file_type": "video/mp4", "width": 1080, "height": 2048, "fps": 25.0, "link": "https://videos.pexels.com/video-files/4828301/4828301-hd_1080_2048_25fps.mp4", "size": 10770652}], "video_pictures": [{"id": 2005432, "nr": 0, "picture": "https://images.pexels.com/videos/4828301/pictures/preview-0.jpeg"}, {"id": 2005438, "nr": 1, "picture": "https://images.pexels.com/videos/4828301/pictures/preview-1.jpeg"}, {"id": 2005452, "nr": 2, "picture": "https://images.pexels.com/videos/4828301/pictures/preview-2.jpeg"}, {"id": 2005472, "nr": 3, "picture": "https://images.pexels.com/videos/4828301/pictures/preview-3.jpeg"}, {"id": 2005490, "nr": 4, "picture": "https://images.pexels.com/videos/4828301/pictures/preview-4.jpeg"}, {"id": 2005527, "nr": 5, "picture": "https://images.pexels.com/videos/4828301/pictures/preview-5.jpeg"}, {"id": 2005563, "nr": 6, "picture": "https://images.pexels.com/videos/4828301/pictures/preview-6.jpeg"}, {"id": 2005587, "nr": 7, "picture": "https://images.pexels.com/videos/4828301/pictures/preview-7.jpeg"}, {"id": 2005612, "nr": 8, "picture": "https://images.pexels.com/videos/4828301/pictures/preview-8.jpeg"}, {"id": 2005636, "nr": 9, "picture": "https://images.pexels.com/videos/4828301/pictures/preview-9.jpeg"}, {"id": 2005649, "nr": 10, "picture": "https://images.pexels.com/videos/4828301/pictures/preview-10.jpeg"}, {"id": 2005677, "nr": 11, "picture": "https://images.pexels.com/videos/4828301/pictures/preview-11.jpeg"}, {"id": 2005696, "nr": 12, "picture": "https://images.pexels.com/videos/4828301/pictures/preview-12.jpeg"}, {"id": 2005707, "nr": 13, "picture": "https://images.pexels.com/videos/4828301/pictures/preview-13.jpeg"}, {"id": 2005721, "nr": 14, "picture": "https://images.pexels.com/videos/4828301/pictures/preview-14.jpeg"}]}, {"id": 4830292, "width": 2160, "height": 4096, "duration": 10, "full_res": null, "tags": [], "url": "https://www.pexels.com/video/a-man-standing-in-the-water-with-a-fishing-rod-4830292/", "image": "https://images.pexels.com/videos/4830292/pexels-photo-4830292.jpeg?auto=compress&cs=tinysrgb&fit=crop&h=1200&w=630", "avg_color": null, "user": {"id": 1437723, "name": "cottonbro studio", "url": "https://www.pexels.com/@cottonbro"}, "video_files": [{"id": 9419007, "quality": "sd", "file_type": "video/mp4", "width": 226, "height": 426, "fps": 25.0, "link": "https://videos.pexels.com/video-files/4830292/4830292-sd_226_426_25fps.mp4", "size": 430751}, {"id": 9419043, "quality": "hd", "file_type": "video/mp4", "width": 720, "height": 1366, "fps": 25.0, "link": "https://videos.pexels.com/video-files/4830292/4830292-hd_720_1366_25fps.mp4", "size": 3151103}, {"id": 9419143, "quality": "uhd", "file_type": "video/mp4", "width": 1440, "height": 2732, "fps": 25.0, "link": "https://videos.pexels.com/video-files/4830292/4830292-uhd_1440_2732_25fps.mp4", "size": 15140554}, {"id": 9419325, "quality": "sd", "file_type": "video/mp4", "width": 338, "height": 640, "fps": 25.0, "link": "https://videos.pexels.com/video-files/4830292/4830292-sd_338_640_25fps.mp4", "size": 708652}, {"id": 9419421, "quality": "uhd", "file_type": "video/mp4", "width": 2160, "height": 4096, "fps": 25.0, "link": "https://videos.pexels.com/video-files/4830292/4830292-uhd_2160_4096_25fps.mp4", "size": 27651745}, {"id": 9419576, "quality": "hd", "file_type": "video/mp4", "width": 1080, "height": 2048, "fps": 25.0, "link": "https://videos.pexels.com/video-files/4830292/4830292-hd_1080_2048_25fps.mp4", "size": 6324357}, {"id": 9419733, "quality": "sd", "file_type": "video/mp4", "width": 506, "height": 960, "fps": 25.0, "link": "https://videos.pexels.com/video-files/4830292/4830292-sd_506_960_25fps.mp4", "size": 2035419}], "video_pictures": [{"id": 2009927, "nr": 0, "picture": "https://images.pexels.com/videos/4830292/pictures/preview-0.jpeg"}, {"id": 2009929, "nr": 1, "picture": "https://images.pexels.com/videos/4830292/pictures/preview-1.jpeg"}, {"id": 2009932, "nr": 2, "picture": "https://images.pexels.com/videos/4830292/pictures/preview-2.jpeg"}, {"id": 2009938, "nr": 3, "picture": "https://images.pexels.com/videos/4830292/pictures/preview-3.jpeg"}, {"id": 2009944, "nr": 4, "picture": "https://images.pexels.com/videos/4830292/pictures/preview-4.jpeg"}, {"id": 2009959, "nr": 5, "picture": "https://images.pexels.com/videos/4830292/pictures/preview-5.jpeg"}, {"id": 2009969, "nr": 6, "picture": "https://images.pexels.com/videos/4830292/pictures/preview-6.jpeg"}, {"id": 2009979, "nr": 7, "picture": "https://images.pexels.com/videos/4830292/pictures/preview-7.jpeg"}, {"id": 2009988, "nr": 8, "picture": "https://images.pexels.com/videos/4830292/pictures/preview-8.jpeg"}, {"id": 2009999, "nr": 9, "picture": "https://images.pexels.com/videos/4830292/pictures/preview-9.jpeg"}, {"id": 2010007, "nr": 10, "picture": "https://images.pexels.com/videos/4830292/pictures/preview-10.jpeg"}, {"id": 2010019, "nr": 11, "picture": "https://images.pexels.com/videos/4830292/pictures/preview-11.jpeg"}, {"id": 2010031, "nr": 12, "picture": "https://images.pexels.com/videos/4830292/pictures/preview-12.jpeg"}, {"id": 2010040, "nr": 13, "picture": "https://images.pexels.com/videos/4830292/pictures/preview-13.jpeg"}, {"id": 2010054, "nr": 14, "picture": "https://images.pexels.com/videos/4830292/pictures/preview-14.jpeg"}]}, {"id": 6468168, "width": 2160, "height": 3840, "duration": 12, "full_res": null, "tags": [], "url": "https://www.pexels.com/video/a-man-screaming-under-water-6468168/", "image": "https://images.pexels.com/videos/6468168/pexels-photo-6468168.jpeg?auto=compress&cs=tinysrgb&fit=crop&h=1200&w=630", "avg_color": null, "user": {"id": 631997, "name": "Engin Akyurt", "url": "https://www.pexels.com/@enginakyurt"}, "video_files": [{"id": 10059511, "quality": "sd", "file_type": "video/mp4", "width": 360, "height": 640, "fps": 29.969999313354492, "link": "https://videos.pexels.com/video-files/6468168/6468168-sd_360_640_30fps.mp4", "size": 776745}, {"id": 10059567, "quality": "uhd", "file_type": "video/mp4", "width": 1440, "height": 2560, "fps": 29.969999313354492, "link": "https://videos.pexels.com/video-files/6468168/6468168-uhd_1440_2560_30fps.mp4", "size": 15244767}, {"id": 10059640, "quality": "sd", "file_type": "video/mp4", "width": 540, "height": 960, "fps": 29.969999313354492, "link": "https://videos.pexels.com/video-files/6468168/6468168-sd_540_960_30fps.mp4", "size": 2128441}, {"id": 10059707, "quality": "sd", "file_type": "video/mp4", "width": 240, "height": 426, "fps": 29.969999313354492, "link": "https://videos.pexels.com/video-files/6468168/6468168-sd_240_426_30fps.mp4", "size": 479487}, {"id": 10059823, "quality": "hd", "file_type": "video/mp4", "width": 1080, "height": 1920, "fps": 29.969999313354492, "link": "https://videos.pexels.com/video-files/6468168/6468168-hd_1080_1920_30fps.mp4", "size": 8438559}, {"id": 10059862, "quality": "hd", "file_type": "video/mp4", "width": 720, "height": 1280, "fps": 29.969999313354492, "link": "https://videos.pexels.com/video-files/6468168/6468168-hd_720_1280_30fps.mp4", "size": 4223580}, {"id": 10059882, "quality": "uhd", "file_type": "video/mp4", "width": 2160, "height": 3840, "fps": 29.969999313354492, "link": "https://videos.pexels.com/video-files/6468168/6468168-uhd_2160_3840_30fps.mp4", "size": 31797558}], "video_pictures": [{"id": 4487255, "nr": 0, "picture": "https://images.pexels.com/videos/6468168/pictures/preview-0.jpeg"}, {"id": 4487261, "nr": 1, "picture": "https://images.pexels.com/videos/6468168/pictures/preview-1.jpeg"}, {"id": 4487267, "nr": 2, "picture": "https://images.pexels.com/videos/6468168/pictures/preview-2.jpeg"}, {"id": 4487271, "nr": 3, "picture": "https://images.pexels.com/videos/6468168/pictures/preview-3.jpeg"}, {"id": 4487281, "nr": 4, "picture": "https://images.pexels.com/videos/6468168/pictures/preview-4.jpeg"}, {"id": 4487289, "nr": 5, "picture": "https://images.pexels.com/videos/6468168/pictures/preview-5.jpeg"}, {"id": 4487298, "nr": 6, "picture": "https://images.pexels.com/videos/6468168/pictures/preview-6.jpeg"}, {"id": 4487305, "nr": 7, "picture": "https://images.pexels.com/videos/6468168/pictures/preview-7.jpeg"}, {"id": 4487309, "nr": 8, "picture": "https://images.pexels.com/videos/6468168/pictures/preview-8.jpeg"}, {"id": 4487311, "nr": 9, "picture": "https://images.pexels.com/videos/6468168/pictures/preview-9.jpeg"}, {"id": 4487314, "nr": 10, "picture": "https://images.pexels.com/videos/6468168/pictures/preview-10.jpeg"}, {"id": 4487317, "nr": 11, "picture": "https://images.pexels.com/videos/6468168/pictures/preview-11.jpeg"}, {"id": 4487319, "nr": 12, "picture": "https://images.pexels.com/videos/6468168/pictures/preview-12.jpeg"}, {"id": 4487321, "nr": 13, "picture": "https://images.pexels.com/videos/6468168/pictures/preview-13.jpeg"}, {"id": 4487323, "nr": 14, "picture": "https://images.pexels.com/videos/6468168/pictures/preview-14.jpeg"}]}, {"id": 10704149, "width": 1080, "height": 1920, "duration": 12, "full_res": null, "tags": [], "url": "https://www.pexels.com/video/man-with-fishing-rod-10704149/", "image": "https://images.pexels.com/videos/10704149/pexels-photo-10704149.jpeg?auto=compress&cs=tinysrgb&fit=crop&h=1200&w=630", "avg_color": null, "user": {"id": 48867324, "name": "Sami  Aksu", "url": "https://www.pexels.com/@sami-aksu-48867324"}, "video_files": [{"id": 11272162, "quality": "sd", "file_type": "video/mp4", "width": 540, "height": 960, "fps": 29.969999313354492, "link": "https://videos.pexels.com/video-files/10704149/10704149-sd_540_960_30fps.mp4", "size": 2090648}, {"id": 11272252, "quality": "sd", "file_type": "video/mp4", "width": 360, "height": 640, "fps": 29.969999313354492, "link": "https://videos.pexels.com/video-files/10704149/10704149-sd_360_640_30fps.mp4", "size": 783277}, {"id": 11272291, "quality": "hd", "file_type": "video/mp4", "width": 1080, "height": 1920, "fps": 29.969999313354492, "link": "https://videos.pexels.com/video-files/10704149/10704149-hd_1080_1920_30fps.mp4", "size": 7614454}, {"id": 11272344, "quality": "hd", "file_type": "video/mp4", "width": 720, "height": 1280, "fps": 59.940101623535156, "link": "https://videos.pexels.com/video-files/10704149/10704149-hd_720_1280_60fps.mp4", "size": 4089697}, {"id": 11272439, "quality": "sd", "file_type": "video/mp4", "width": 240, "height": 426, "fps": 29.969999313354492, "link": "https://videos.pexels.com/video-files/10704149/10704149-sd_240_426_30fps.mp4", "size": 517295}], "video_pictures": [{"id": 11303127, "nr": 0, "picture": "https://images.pexels.com/videos/10704149/pictures/preview-0.jpeg"}, {"id": 11303129, "nr": 1, "picture": "https://images.pexels.com/videos/10704149/pictures/preview-1.jpeg"}, {"id": 11303131, "nr": 2, "picture": "https://images.pexels.com/videos/10704149/pictures/preview-2.jpeg"}, {"id": 11303133, "nr": 3, "picture": "https://images.pexels.com/videos/10704149/pictures/preview-3.jpeg"}, {"id": 11303135, "nr": 4, "picture": "https://images.pexels.com/videos/10704149/pictures/preview-4.jpeg"}, {"id": 11303137, "nr": 5, "picture": "https://images.pexels.com/videos/10704149/pictures/preview-5.jpeg"}, {"id": 11303140, "nr": 6, "picture": "https://images.pexels.com/videos/10704149/pictures/preview-6.jpeg"}, {"id": 11303142, "nr": 7, "picture": "https://images.pexels.com/videos/10704149/pictures/preview-7.jpeg"}, {"id": 11303145, "nr": 8, "picture": "https://images.pexels.com/videos/10704149/pictures/preview-8.jpeg"}, {"id": 11303147, "nr": 9, "picture": "https://images.pexels.com/videos/10704149/pictures/preview-9.jpeg"}, {"id": 11303149, "nr": 10, "picture": "https://images.pexels.com/videos/10704149/pictures/preview-10.jpeg"}, {"id": 11303151, "nr": 11, "picture": "https://images.pexels.com/videos/10704149/pictures/preview-11.jpeg"}, {"id": 11303153, "nr": 12, "picture": "https://images.pexels.com/videos/10704149/pictures/preview-12.jpeg"}, {"id": 11303157, "nr": 13, "picture": "https://images.pexels.com/videos/10704149/pictures/preview-13.jpeg"}, {"id": 11303162, "nr": 14, "picture": "https://images.pexels.com/videos/10704149/pictures/preview-14.jpeg"}]}], "total_results": 8000, "next_page": "https://api.pexels.com/v1/videos/search/?orientation=portrait&page=2&per_page=8&query=water+release", "url": "https://api-server.pexels.com/search/videos/water%20release/"}, "timestamp": "2024-12-28T22:42:10.918401"}
