{"query": "rose pollination", "response": {"page": 1, "per_page": 8, "videos": [{"id": 19621056, "width": 1080, "height": 1920, "duration": 24, "full_res": null, "tags": [], "url": "https://www.pexels.com/video/beautiful-butterfly-19621056/", "image": "https://images.pexels.com/videos/19621056/blooming-buterfly-color-colorful-19621056.jpeg?auto=compress&cs=tinysrgb&fit=crop&h=1200&w=630", "avg_color": null, "user": {"id": 351050208, "name": "Asif  khan", "url": "https://www.pexels.com/@asif-khan-351050208"}, "video_files": [{"id": 8563820, "quality": "sd", "file_type": "video/mp4", "width": 540, "height": 960, "fps": 23.97599983215332, "link": "https://videos.pexels.com/video-files/19621056/19621056-sd_540_960_24fps.mp4", "size": 4469445}, {"id": 8563823, "quality": "sd", "file_type": "video/mp4", "width": 240, "height": 426, "fps": 23.97599983215332, "link": "https://videos.pexels.com/video-files/19621056/19621056-sd_240_426_24fps.mp4", "size": 1494936}, {"id": 8563826, "quality": "hd", "file_type": "video/mp4", "width": 720, "height": 1280, "fps": 23.97599983215332, "link": "https://videos.pexels.com/video-files/19621056/19621056-hd_720_1280_24fps.mp4", "size": 8168504}, {"id": 8563828, "quality": "hd", "file_type": "video/mp4", "width": 1080, "height": 1920, "fps": 23.97599983215332, "link": "https://videos.pexels.com/video-files/19621056/19621056-hd_1080_1920_24fps.mp4", "size": 16964532}, {"id": 8563829, "quality": "sd", "file_type": "video/mp4", "width": 360, "height": 640, "fps": 23.97599983215332, "link": "https://videos.pexels.com/video-files/19621056/19621056-sd_360_640_24fps.mp4", "size": 2554810}], "video_pictures": [{"id": 20470554, "nr": 0, "picture": "https://images.pexels.com/videos/19621056/pictures/preview-0.jpeg"}, {"id": 20470585, "nr": 1, "picture": "https://images.pexels.com/videos/19621056/pictures/preview-1.jpeg"}, {"id": 20470617, "nr": 2, "picture": "https://images.pexels.com/videos/19621056/pictures/preview-2.jpeg"}, {"id": 20470648, "nr": 3, "picture": "https://images.pexels.com/videos/19621056/pictures/preview-3.jpeg"}, {"id": 20470689, "nr": 4, "picture": "https://images.pexels.com/videos/19621056/pictures/preview-4.jpeg"}, {"id": 20470717, "nr": 5, "picture": "https://images.pexels.com/videos/19621056/pictures/preview-5.jpeg"}, {"id": 20470750, "nr": 6, "picture": "https://images.pexels.com/videos/19621056/pictures/preview-6.jpeg"}, {"id": 20470761, "nr": 7, "picture": "https://images.pexels.com/videos/19621056/pictures/preview-7.jpeg"}, {"id": 20470772, "nr": 8, "picture": "https://images.pexels.com/videos/19621056/pictures/preview-8.jpeg"}, {"id": 20470783, "nr": 9, "picture": "https://images.pexels.com/videos/19621056/pictures/preview-9.jpeg"}, {"id": 20470793, "nr": 10, "picture": "https://images.pexels.com/videos/19621056/pictures/preview-10.jpeg"}, {"id": 20470798, "nr": 11, "picture": "https://images.pexels.com/videos/19621056/pictures/preview-11.jpeg"}, {"id": 20470809, "nr": 12, "picture": "https://images.pexels.com/videos/19621056/pictures/preview-12.jpeg"}, {"id": 20470815, "nr": 13, "picture": "https://images.pexels.com/videos/19621056/pictures/preview-13.jpeg"}, {"id": 20470821, "nr": 14, "picture": "https://images.pexels.com/videos/19621056/pictures/preview-14.jpeg"}]}, {"id": 12553622, "width": 1080, "height": 1920, "duration": 6, "full_res": null, "tags": [], "url": "https://www.pexels.com/video/bumblebee-and-a-white-flower-12553622/", "image": "https://images.pexels.com/videos/12553622/beautiful-flower-bug-bumblebee-flower-12553622.jpeg?auto=compress&cs=tinysrgb&fit=crop&h=1200&w=630", "avg_color": null, "user": {"id": 174853799, "name": "Vladimir Kisarov", "url": "https://www.pexels.com/@kisaroff"}, "video_files": [{"id": 5496018, "quality": "hd", "file_type": "video/mp4", "width": 1080, "height": 1920, "fps": 29.969999313354492, "link": "https://videos.pexels.com/video-files/12553622/12553622-hd_1080_1920_30fps.mp4", "size": 4553922}, {"id": 5496019, "quality": "hd", "file_type": "video/mp4", "width": 720, "height": 1280, "fps": 29.969999313354492, "link": "https://videos.pexels.com/video-files/12553622/12553622-hd_720_1280_30fps.mp4", "size": 2120020}, {"id": 5496020, "quality": "sd", "file_type": "video/mp4", "width": 240, "height": 426, "fps": 29.969999313354492, "link": "https://videos.pexels.com/video-files/12553622/12553622-sd_240_426_30fps.mp4", "size": 386758}, {"id": 5496021, "quality": "sd", "file_type": "video/mp4", "width": 360, "height": 640, "fps": 29.969999313354492, "link": "https://videos.pexels.com/video-files/12553622/12553622-sd_360_640_30fps.mp4", "size": 605966}, {"id": 5496022, "quality": "sd", "file_type": "video/mp4", "width": 540, "height": 960, "fps": 29.969999313354492, "link": "https://videos.pexels.com/video-files/12553622/12553622-sd_540_960_30fps.mp4", "size": 1195958}], "video_pictures": [{"id": 13601962, "nr": 0, "picture": "https://images.pexels.com/videos/12553622/pictures/preview-0.jpeg"}, {"id": 13601963, "nr": 1, "picture": "https://images.pexels.com/videos/12553622/pictures/preview-1.jpeg"}, {"id": 13601964, "nr": 2, "picture": "https://images.pexels.com/videos/12553622/pictures/preview-2.jpeg"}, {"id": 13601965, "nr": 3, "picture": "https://images.pexels.com/videos/12553622/pictures/preview-3.jpeg"}, {"id": 13601966, "nr": 4, "picture": "https://images.pexels.com/videos/12553622/pictures/preview-4.jpeg"}, {"id": 13601967, "nr": 5, "picture": "https://images.pexels.com/videos/12553622/pictures/preview-5.jpeg"}, {"id": 13601968, "nr": 6, "picture": "https://images.pexels.com/videos/12553622/pictures/preview-6.jpeg"}, {"id": 13601970, "nr": 7, "picture": "https://images.pexels.com/videos/12553622/pictures/preview-7.jpeg"}, {"id": 13601971, "nr": 8, "picture": "https://images.pexels.com/videos/12553622/pictures/preview-8.jpeg"}, {"id": 13601973, "nr": 9, "picture": "https://images.pexels.com/videos/12553622/pictures/preview-9.jpeg"}, {"id": 13601974, "nr": 10, "picture": "https://images.pexels.com/videos/12553622/pictures/preview-10.jpeg"}, {"id": 13601976, "nr": 11, "picture": "https://images.pexels.com/videos/12553622/pictures/preview-11.jpeg"}, {"id": 13601977, "nr": 12, "picture": "https://images.pexels.com/videos/12553622/pictures/preview-12.jpeg"}, {"id": 13601978, "nr": 13, "picture": "https://images.pexels.com/videos/12553622/pictures/preview-13.jpeg"}, {"id": 13601980, "nr": 14, "picture": "https://images.pexels.com/videos/12553622/pictures/preview-14.jpeg"}]}, {"id": 16915905, "width": 1080, "height": 1920, "duration": 25, "full_res": null, "tags": [], "url": "https://www.pexels.com/video/ari-16915905/", "image": "https://images.pexels.com/videos/16915905/animal-beautiful-landscape-bee-bitki-16915905.jpeg?auto=compress&cs=tinysrgb&fit=crop&h=1200&w=630", "avg_color": null, "user": {"id": 567495045, "name": "Alperen Bozkurt", "url": "https://www.pexels.com/@alperenbozkurt"}, "video_files": [{"id": 6972929, "quality": "sd", "file_type": "video/mp4", "width": 240, "height": 426, "fps": 29.969999313354492, "link": "https://videos.pexels.com/video-files/16915905/16915905-sd_240_426_30fps.mp4", "size": 1205010}, {"id": 6972930, "quality": "sd", "file_type": "video/mp4", "width": 540, "height": 960, "fps": 29.969999313354492, "link": "https://videos.pexels.com/video-files/16915905/16915905-sd_540_960_30fps.mp4", "size": 2899029}, {"id": 6972931, "quality": "hd", "file_type": "video/mp4", "width": 720, "height": 1280, "fps": 59.940101623535156, "link": "https://videos.pexels.com/video-files/16915905/16915905-hd_720_1280_60fps.mp4", "size": 4610329}, {"id": 6972932, "quality": "sd", "file_type": "video/mp4", "width": 360, "height": 640, "fps": 29.969999313354492, "link": "https://videos.pexels.com/video-files/16915905/16915905-sd_360_640_30fps.mp4", "size": 1734903}, {"id": 6972933, "quality": "hd", "file_type": "video/mp4", "width": 1080, "height": 1920, "fps": 59.940101623535156, "link": "https://videos.pexels.com/video-files/16915905/16915905-hd_1080_1920_60fps.mp4", "size": 10924504}], "video_pictures": [{"id": 17709942, "nr": 0, "picture": "https://images.pexels.com/videos/16915905/pictures/preview-0.jpeg"}, {"id": 17709947, "nr": 1, "picture": "https://images.pexels.com/videos/16915905/pictures/preview-1.jpeg"}, {"id": 17709951, "nr": 2, "picture": "https://images.pexels.com/videos/16915905/pictures/preview-2.jpeg"}, {"id": 17709954, "nr": 3, "picture": "https://images.pexels.com/videos/16915905/pictures/preview-3.jpeg"}, {"id": 17709961, "nr": 4, "picture": "https://images.pexels.com/videos/16915905/pictures/preview-4.jpeg"}, {"id": 17709963, "nr": 5, "picture": "https://images.pexels.com/videos/16915905/pictures/preview-5.jpeg"}, {"id": 17709968, "nr": 6, "picture": "https://images.pexels.com/videos/16915905/pictures/preview-6.jpeg"}, {"id": 17709972, "nr": 7, "picture": "https://images.pexels.com/videos/16915905/pictures/preview-7.jpeg"}, {"id": 17709977, "nr": 8, "picture": "https://images.pexels.com/videos/16915905/pictures/preview-8.jpeg"}, {"id": 17709981, "nr": 9, "picture": "https://images.pexels.com/videos/16915905/pictures/preview-9.jpeg"}, {"id": 17709984, "nr": 10, "picture": "https://images.pexels.com/videos/16915905/pictures/preview-10.jpeg"}, {"id": 17709989, "nr": 11, "picture": "https://images.pexels.com/videos/16915905/pictures/preview-11.jpeg"}, {"id": 17709993, "nr": 12, "picture": "https://images.pexels.com/videos/16915905/pictures/preview-12.jpeg"}, {"id": 17709999, "nr": 13, "picture": "https://images.pexels.com/videos/16915905/pictures/preview-13.jpeg"}, {"id": 17710001, "nr": 14, "picture": "https://images.pexels.com/videos/16915905/pictures/preview-14.jpeg"}]}, {"id": 7815046, "width": 2160, "height": 3840, "duration": 9, "full_res": null, "tags": [], "url": "https://www.pexels.com/video/roses-pressed-in-glass-7815046/", "image": "https://images.pexels.com/videos/7815046/abstract-backdrop-background-beautiful-7815046.jpeg?auto=compress&cs=tinysrgb&fit=crop&h=1200&w=630", "avg_color": null, "user": {"id": 10955896, "name": "Anna Nekrashevich", "url": "https://www.pexels.com/@anna-nekrashevich"}, "video_files": [{"id": 10586214, "quality": "uhd", "file_type": "video/mp4", "width": 2160, "height": 3840, "fps": 30.0, "link": "https://videos.pexels.com/video-files/7815046/7815046-uhd_2160_3840_30fps.mp4", "size": 25889724}, {"id": 10586282, "quality": "sd", "file_type": "video/mp4", "width": 240, "height": 426, "fps": 30.0, "link": "https://videos.pexels.com/video-files/7815046/7815046-sd_240_426_30fps.mp4", "size": 402471}, {"id": 10586303, "quality": "sd", "file_type": "video/mp4", "width": 540, "height": 960, "fps": 30.0, "link": "https://videos.pexels.com/video-files/7815046/7815046-sd_540_960_30fps.mp4", "size": 1692444}, {"id": 10586400, "quality": "uhd", "file_type": "video/mp4", "width": 1440, "height": 2560, "fps": 30.0, "link": "https://videos.pexels.com/video-files/7815046/7815046-uhd_1440_2560_30fps.mp4", "size": 14657853}, {"id": 10586423, "quality": "hd", "file_type": "video/mp4", "width": 1080, "height": 1920, "fps": 30.0, "link": "https://videos.pexels.com/video-files/7815046/7815046-hd_1080_1920_30fps.mp4", "size": 5897967}, {"id": 10586541, "quality": "sd", "file_type": "video/mp4", "width": 360, "height": 640, "fps": 30.0, "link": "https://videos.pexels.com/video-files/7815046/7815046-sd_360_640_30fps.mp4", "size": 566414}, {"id": 10586599, "quality": "hd", "file_type": "video/mp4", "width": 720, "height": 1280, "fps": 30.0, "link": "https://videos.pexels.com/video-files/7815046/7815046-hd_720_1280_30fps.mp4", "size": 2970248}], "video_pictures": [{"id": 7099651, "nr": 0, "picture": "https://images.pexels.com/videos/7815046/pictures/preview-0.jpeg"}, {"id": 7099663, "nr": 1, "picture": "https://images.pexels.com/videos/7815046/pictures/preview-1.jpeg"}, {"id": 7099677, "nr": 2, "picture": "https://images.pexels.com/videos/7815046/pictures/preview-2.jpeg"}, {"id": 7099692, "nr": 3, "picture": "https://images.pexels.com/videos/7815046/pictures/preview-3.jpeg"}, {"id": 7099712, "nr": 4, "picture": "https://images.pexels.com/videos/7815046/pictures/preview-4.jpeg"}, {"id": 7099732, "nr": 5, "picture": "https://images.pexels.com/videos/7815046/pictures/preview-5.jpeg"}, {"id": 7099753, "nr": 6, "picture": "https://images.pexels.com/videos/7815046/pictures/preview-6.jpeg"}, {"id": 7099769, "nr": 7, "picture": "https://images.pexels.com/videos/7815046/pictures/preview-7.jpeg"}, {"id": 7099785, "nr": 8, "picture": "https://images.pexels.com/videos/7815046/pictures/preview-8.jpeg"}, {"id": 7099802, "nr": 9, "picture": "https://images.pexels.com/videos/7815046/pictures/preview-9.jpeg"}, {"id": 7099819, "nr": 10, "picture": "https://images.pexels.com/videos/7815046/pictures/preview-10.jpeg"}, {"id": 7099839, "nr": 11, "picture": "https://images.pexels.com/videos/7815046/pictures/preview-11.jpeg"}, {"id": 7099860, "nr": 12, "picture": "https://images.pexels.com/videos/7815046/pictures/preview-12.jpeg"}, {"id": 7099873, "nr": 13, "picture": "https://images.pexels.com/videos/7815046/pictures/preview-13.jpeg"}, {"id": 7099887, "nr": 14, "picture": "https://images.pexels.com/videos/7815046/pictures/preview-14.jpeg"}]}, {"id": 8195676, "width": 2160, "height": 4096, "duration": 10, "full_res": null, "tags": [], "url": "https://www.pexels.com/video/a-beautiful-yellow-rose-in-bloom-8195676/", "image": "https://images.pexels.com/videos/8195676/beautiful-blooming-bright-color-8195676.jpeg?auto=compress&cs=tinysrgb&fit=crop&h=1200&w=630", "avg_color": null, "user": {"id": 2678846, "name": "ROMAN ODINTSOV", "url": "https://www.pexels.com/@roman-odintsov"}, "video_files": [{"id": 10739575, "quality": "uhd", "file_type": "video/mp4", "width": 2160, "height": 4096, "fps": 29.969999313354492, "link": "https://videos.pexels.com/video-files/8195676/8195676-uhd_2160_4096_30fps.mp4", "size": 22137212}, {"id": 10739624, "quality": "sd", "file_type": "video/mp4", "width": 338, "height": 640, "fps": 29.969999313354492, "link": "https://videos.pexels.com/video-files/8195676/8195676-sd_338_640_30fps.mp4", "size": 652893}, {"id": 10739666, "quality": "hd", "file_type": "video/mp4", "width": 720, "height": 1366, "fps": 29.969999313354492, "link": "https://videos.pexels.com/video-files/8195676/8195676-hd_720_1366_30fps.mp4", "size": 3522954}, {"id": 10739724, "quality": "sd", "file_type": "video/mp4", "width": 226, "height": 426, "fps": 29.969999313354492, "link": "https://videos.pexels.com/video-files/8195676/8195676-sd_226_426_30fps.mp4", "size": 440936}, {"id": 10739821, "quality": "hd", "file_type": "video/mp4", "width": 1080, "height": 2048, "fps": 29.969999313354492, "link": "https://videos.pexels.com/video-files/8195676/8195676-hd_1080_2048_30fps.mp4", "size": 7159578}, {"id": 10739889, "quality": "uhd", "file_type": "video/mp4", "width": 1440, "height": 2732, "fps": 29.969999313354492, "link": "https://videos.pexels.com/video-files/8195676/8195676-uhd_1440_2732_30fps.mp4", "size": 14135459}, {"id": 10739965, "quality": "sd", "file_type": "video/mp4", "width": 506, "height": 960, "fps": 29.969999313354492, "link": "https://videos.pexels.com/video-files/8195676/8195676-sd_506_960_30fps.mp4", "size": 1821006}], "video_pictures": [{"id": 7802927, "nr": 0, "picture": "https://images.pexels.com/videos/8195676/pictures/preview-0.jpeg"}, {"id": 7802986, "nr": 1, "picture": "https://images.pexels.com/videos/8195676/pictures/preview-1.jpeg"}, {"id": 7803011, "nr": 2, "picture": "https://images.pexels.com/videos/8195676/pictures/preview-2.jpeg"}, {"id": 7803034, "nr": 3, "picture": "https://images.pexels.com/videos/8195676/pictures/preview-3.jpeg"}, {"id": 7803070, "nr": 4, "picture": "https://images.pexels.com/videos/8195676/pictures/preview-4.jpeg"}, {"id": 7803102, "nr": 5, "picture": "https://images.pexels.com/videos/8195676/pictures/preview-5.jpeg"}, {"id": 7803126, "nr": 6, "picture": "https://images.pexels.com/videos/8195676/pictures/preview-6.jpeg"}, {"id": 7803154, "nr": 7, "picture": "https://images.pexels.com/videos/8195676/pictures/preview-7.jpeg"}, {"id": 7803188, "nr": 8, "picture": "https://images.pexels.com/videos/8195676/pictures/preview-8.jpeg"}, {"id": 7803219, "nr": 9, "picture": "https://images.pexels.com/videos/8195676/pictures/preview-9.jpeg"}, {"id": 7803252, "nr": 10, "picture": "https://images.pexels.com/videos/8195676/pictures/preview-10.jpeg"}, {"id": 7803280, "nr": 11, "picture": "https://images.pexels.com/videos/8195676/pictures/preview-11.jpeg"}, {"id": 7803303, "nr": 12, "picture": "https://images.pexels.com/videos/8195676/pictures/preview-12.jpeg"}, {"id": 7803323, "nr": 13, "picture": "https://images.pexels.com/videos/8195676/pictures/preview-13.jpeg"}, {"id": 7803343, "nr": 14, "picture": "https://images.pexels.com/videos/8195676/pictures/preview-14.jpeg"}]}, {"id": 6243293, "width": 1080, "height": 1920, "duration": 11, "full_res": null, "tags": [], "url": "https://www.pexels.com/video/bee-pollinating-small-yellow-flower-6243293/", "image": "https://images.pexels.com/videos/6243293/beautiful-bee-bio-bloom-6243293.jpeg?auto=compress&cs=tinysrgb&fit=crop&h=1200&w=630", "avg_color": null, "user": {"id": 7396050, "name": "Bruchin Noeka", "url": "https://www.pexels.com/@kr8t"}, "video_files": [{"id": 10029895, "quality": "sd", "file_type": "video/mp4", "width": 540, "height": 960, "fps": 23.97599983215332, "link": "https://videos.pexels.com/video-files/6243293/6243293-sd_540_960_24fps.mp4", "size": 1671470}, {"id": 10029957, "quality": "sd", "file_type": "video/mp4", "width": 360, "height": 640, "fps": 23.97599983215332, "link": "https://videos.pexels.com/video-files/6243293/6243293-sd_360_640_24fps.mp4", "size": 771596}, {"id": 10030085, "quality": "hd", "file_type": "video/mp4", "width": 1080, "height": 1920, "fps": 23.97599983215332, "link": "https://videos.pexels.com/video-files/6243293/6243293-hd_1080_1920_24fps.mp4", "size": 6735357}, {"id": 10030224, "quality": "hd", "file_type": "video/mp4", "width": 720, "height": 1280, "fps": 23.97599983215332, "link": "https://videos.pexels.com/video-files/6243293/6243293-hd_720_1280_24fps.mp4", "size": 2527692}, {"id": 10030306, "quality": "sd", "file_type": "video/mp4", "width": 240, "height": 426, "fps": 23.97599983215332, "link": "https://videos.pexels.com/video-files/6243293/6243293-sd_240_426_24fps.mp4", "size": 419023}], "video_pictures": [{"id": 4137640, "nr": 0, "picture": "https://images.pexels.com/videos/6243293/pictures/preview-0.jpeg"}, {"id": 4137641, "nr": 1, "picture": "https://images.pexels.com/videos/6243293/pictures/preview-1.jpeg"}, {"id": 4137642, "nr": 2, "picture": "https://images.pexels.com/videos/6243293/pictures/preview-2.jpeg"}, {"id": 4137643, "nr": 3, "picture": "https://images.pexels.com/videos/6243293/pictures/preview-3.jpeg"}, {"id": 4137644, "nr": 4, "picture": "https://images.pexels.com/videos/6243293/pictures/preview-4.jpeg"}, {"id": 4137645, "nr": 5, "picture": "https://images.pexels.com/videos/6243293/pictures/preview-5.jpeg"}, {"id": 4137646, "nr": 6, "picture": "https://images.pexels.com/videos/6243293/pictures/preview-6.jpeg"}, {"id": 4137647, "nr": 7, "picture": "https://images.pexels.com/videos/6243293/pictures/preview-7.jpeg"}, {"id": 4137648, "nr": 8, "picture": "https://images.pexels.com/videos/6243293/pictures/preview-8.jpeg"}, {"id": 4137649, "nr": 9, "picture": "https://images.pexels.com/videos/6243293/pictures/preview-9.jpeg"}, {"id": 4137650, "nr": 10, "picture": "https://images.pexels.com/videos/6243293/pictures/preview-10.jpeg"}, {"id": 4137651, "nr": 11, "picture": "https://images.pexels.com/videos/6243293/pictures/preview-11.jpeg"}, {"id": 4137652, "nr": 12, "picture": "https://images.pexels.com/videos/6243293/pictures/preview-12.jpeg"}, {"id": 4137653, "nr": 13, "picture": "https://images.pexels.com/videos/6243293/pictures/preview-13.jpeg"}, {"id": 4137654, "nr": 14, "picture": "https://images.pexels.com/videos/6243293/pictures/preview-14.jpeg"}]}, {"id": 3176704, "width": 1080, "height": 1920, "duration": 20, "full_res": null, "tags": [], "url": "https://www.pexels.com/video/a-pink-rose-in-full-bloom-swaying-by-the-wind-blows-3176704/", "image": "https://images.pexels.com/videos/3176704/free-video-3176704.jpg?auto=compress&cs=tinysrgb&fit=crop&h=1200&w=630", "avg_color": null, "user": {"id": 1611131, "name": "Diego da Silva", "url": "https://www.pexels.com/@diego-da-silva-1611131"}, "video_files": [{"id": 9315164, "quality": "sd", "file_type": "video/mp4", "width": 540, "height": 960, "fps": 29.969999313354492, "link": "https://videos.pexels.com/video-files/3176704/3176704-sd_540_960_30fps.mp4", "size": 3298943}, {"id": 9315281, "quality": "hd", "file_type": "video/mp4", "width": 1080, "height": 1920, "fps": 29.969999313354492, "link": "https://videos.pexels.com/video-files/3176704/3176704-hd_1080_1920_30fps.mp4", "size": 10097010}, {"id": 9315338, "quality": "sd", "file_type": "video/mp4", "width": 240, "height": 426, "fps": 29.969999313354492, "link": "https://videos.pexels.com/video-files/3176704/3176704-sd_240_426_30fps.mp4", "size": 892100}, {"id": 9315400, "quality": "hd", "file_type": "video/mp4", "width": 720, "height": 1280, "fps": 29.969999313354492, "link": "https://videos.pexels.com/video-files/3176704/3176704-hd_720_1280_30fps.mp4", "size": 5058626}, {"id": 9315493, "quality": "sd", "file_type": "video/mp4", "width": 360, "height": 640, "fps": 29.969999313354492, "link": "https://videos.pexels.com/video-files/3176704/3176704-sd_360_640_30fps.mp4", "size": 1476365}], "video_pictures": [{"id": 565767, "nr": 0, "picture": "https://images.pexels.com/videos/3176704/pictures/preview-0.jpeg"}, {"id": 565768, "nr": 1, "picture": "https://images.pexels.com/videos/3176704/pictures/preview-1.jpeg"}, {"id": 565769, "nr": 2, "picture": "https://images.pexels.com/videos/3176704/pictures/preview-2.jpeg"}, {"id": 565770, "nr": 3, "picture": "https://images.pexels.com/videos/3176704/pictures/preview-3.jpeg"}, {"id": 565771, "nr": 4, "picture": "https://images.pexels.com/videos/3176704/pictures/preview-4.jpeg"}, {"id": 565772, "nr": 5, "picture": "https://images.pexels.com/videos/3176704/pictures/preview-5.jpeg"}, {"id": 565773, "nr": 6, "picture": "https://images.pexels.com/videos/3176704/pictures/preview-6.jpeg"}, {"id": 565774, "nr": 7, "picture": "https://images.pexels.com/videos/3176704/pictures/preview-7.jpeg"}, {"id": 565775, "nr": 8, "picture": "https://images.pexels.com/videos/3176704/pictures/preview-8.jpeg"}, {"id": 565776, "nr": 9, "picture": "https://images.pexels.com/videos/3176704/pictures/preview-9.jpeg"}, {"id": 565777, "nr": 10, "picture": "https://images.pexels.com/videos/3176704/pictures/preview-10.jpeg"}, {"id": 565778, "nr": 11, "picture": "https://images.pexels.com/videos/3176704/pictures/preview-11.jpeg"}, {"id": 565779, "nr": 12, "picture": "https://images.pexels.com/videos/3176704/pictures/preview-12.jpeg"}, {"id": 565780, "nr": 13, "picture": "https://images.pexels.com/videos/3176704/pictures/preview-13.jpeg"}, {"id": 565781, "nr": 14, "picture": "https://images.pexels.com/videos/3176704/pictures/preview-14.jpeg"}]}, {"id": 7946220, "width": 1512, "height": 2868, "duration": 12, "full_res": null, "tags": [], "url": "https://www.pexels.com/video/rose-fabric-blowing-in-wind-7946220/", "image": "https://images.pexels.com/videos/7946220/abstract-animation-art-background-7946220.jpeg?auto=compress&cs=tinysrgb&fit=crop&h=1200&w=630", "avg_color": null, "user": {"id": 10955896, "name": "Anna Nekrashevich", "url": "https://www.pexels.com/@anna-nekrashevich"}, "video_files": [{"id": 10624166, "quality": "hd", "file_type": "video/mp4", "width": 720, "height": 1366, "fps": 30.0, "link": "https://videos.pexels.com/video-files/7946220/7946220-hd_720_1366_30fps.mp4", "size": 2875720}, {"id": 10624180, "quality": "hd", "file_type": "video/mp4", "width": 1080, "height": 2048, "fps": 30.0, "link": "https://videos.pexels.com/video-files/7946220/7946220-hd_1080_2048_30fps.mp4", "size": 7459451}, {"id": 10624193, "quality": "sd", "file_type": "video/mp4", "width": 226, "height": 426, "fps": 30.0, "link": "https://videos.pexels.com/video-files/7946220/7946220-sd_226_426_30fps.mp4", "size": 351494}, {"id": 10624215, "quality": "uhd", "file_type": "video/mp4", "width": 1440, "height": 2732, "fps": 30.0, "link": "https://videos.pexels.com/video-files/7946220/7946220-uhd_1440_2732_30fps.mp4", "size": 16330339}, {"id": 10624231, "quality": "sd", "file_type": "video/mp4", "width": 506, "height": 960, "fps": 30.0, "link": "https://videos.pexels.com/video-files/7946220/7946220-sd_506_960_30fps.mp4", "size": 1383203}, {"id": 10624249, "quality": "sd", "file_type": "video/mp4", "width": 338, "height": 640, "fps": 30.0, "link": "https://videos.pexels.com/video-files/7946220/7946220-sd_338_640_30fps.mp4", "size": 678392}], "video_pictures": [{"id": 7305977, "nr": 0, "picture": "https://images.pexels.com/videos/7946220/pictures/preview-0.jpeg"}, {"id": 7306001, "nr": 1, "picture": "https://images.pexels.com/videos/7946220/pictures/preview-1.jpeg"}, {"id": 7306024, "nr": 2, "picture": "https://images.pexels.com/videos/7946220/pictures/preview-2.jpeg"}, {"id": 7306036, "nr": 3, "picture": "https://images.pexels.com/videos/7946220/pictures/preview-3.jpeg"}, {"id": 7306063, "nr": 4, "picture": "https://images.pexels.com/videos/7946220/pictures/preview-4.jpeg"}, {"id": 7306067, "nr": 5, "picture": "https://images.pexels.com/videos/7946220/pictures/preview-5.jpeg"}, {"id": 7306077, "nr": 6, "picture": "https://images.pexels.com/videos/7946220/pictures/preview-6.jpeg"}, {"id": 7306084, "nr": 7, "picture": "https://images.pexels.com/videos/7946220/pictures/preview-7.jpeg"}, {"id": 7306092, "nr": 8, "picture": "https://images.pexels.com/videos/7946220/pictures/preview-8.jpeg"}, {"id": 7306096, "nr": 9, "picture": "https://images.pexels.com/videos/7946220/pictures/preview-9.jpeg"}, {"id": 7306101, "nr": 10, "picture": "https://images.pexels.com/videos/7946220/pictures/preview-10.jpeg"}, {"id": 7306106, "nr": 11, "picture": "https://images.pexels.com/videos/7946220/pictures/preview-11.jpeg"}, {"id": 7306109, "nr": 12, "picture": "https://images.pexels.com/videos/7946220/pictures/preview-12.jpeg"}, {"id": 7306113, "nr": 13, "picture": "https://images.pexels.com/videos/7946220/pictures/preview-13.jpeg"}, {"id": 7306116, "nr": 14, "picture": "https://images.pexels.com/videos/7946220/pictures/preview-14.jpeg"}]}], "total_results": 1090, "next_page": "https://api.pexels.com/v1/videos/search/?orientation=portrait&page=2&per_page=8&query=rose+pollination", "url": "https://api-server.pexels.com/search/videos/rose%20pollination/"}, "timestamp": "2024-12-28T22:59:55.828908"}
