{"query": "plant research", "response": {"page": 1, "per_page": 8, "videos": [{"id": 8514761, "width": 2160, "height": 3840, "duration": 20, "full_res": null, "tags": [], "url": "https://www.pexels.com/video/a-female-scientist-shaking-a-volumetric-flask-8514761/", "image": "https://images.pexels.com/videos/8514761/botanist-dermatologist-flower-store-freelance-8514761.jpeg?auto=compress&cs=tinysrgb&fit=crop&h=1200&w=630", "avg_color": null, "user": {"id": 649765, "name": "Yaroslav Shuraev", "url": "https://www.pexels.com/@yaroslav-shuraev"}, "video_files": [{"id": 10871062, "quality": "hd", "file_type": "video/mp4", "width": 1080, "height": 1920, "fps": 24.0, "link": "https://videos.pexels.com/video-files/8514761/8514761-hd_1080_1920_24fps.mp4", "size": 8958765}, {"id": 10871149, "quality": "uhd", "file_type": "video/mp4", "width": 1440, "height": 2560, "fps": 24.0, "link": "https://videos.pexels.com/video-files/8514761/8514761-uhd_1440_2560_24fps.mp4", "size": 22898198}, {"id": 10871230, "quality": "sd", "file_type": "video/mp4", "width": 240, "height": 426, "fps": 24.0, "link": "https://videos.pexels.com/video-files/8514761/8514761-sd_240_426_24fps.mp4", "size": 698559}, {"id": 10871241, "quality": "sd", "file_type": "video/mp4", "width": 360, "height": 640, "fps": 24.0, "link": "https://videos.pexels.com/video-files/8514761/8514761-sd_360_640_24fps.mp4", "size": 1059601}, {"id": 10871260, "quality": "sd", "file_type": "video/mp4", "width": 540, "height": 960, "fps": 24.0, "link": "https://videos.pexels.com/video-files/8514761/8514761-sd_540_960_24fps.mp4", "size": 2066096}, {"id": 10871329, "quality": "uhd", "file_type": "video/mp4", "width": 2160, "height": 3840, "fps": 24.0, "link": "https://videos.pexels.com/video-files/8514761/8514761-uhd_2160_3840_24fps.mp4", "size": 52171162}, {"id": 10871419, "quality": "hd", "file_type": "video/mp4", "width": 720, "height": 1280, "fps": 24.0, "link": "https://videos.pexels.com/video-files/8514761/8514761-hd_720_1280_24fps.mp4", "size": 4029887}], "video_pictures": [{"id": 8411897, "nr": 0, "picture": "https://images.pexels.com/videos/8514761/pictures/preview-0.jpeg"}, {"id": 8411909, "nr": 1, "picture": "https://images.pexels.com/videos/8514761/pictures/preview-1.jpeg"}, {"id": 8411921, "nr": 2, "picture": "https://images.pexels.com/videos/8514761/pictures/preview-2.jpeg"}, {"id": 8411938, "nr": 3, "picture": "https://images.pexels.com/videos/8514761/pictures/preview-3.jpeg"}, {"id": 8411952, "nr": 4, "picture": "https://images.pexels.com/videos/8514761/pictures/preview-4.jpeg"}, {"id": 8411965, "nr": 5, "picture": "https://images.pexels.com/videos/8514761/pictures/preview-5.jpeg"}, {"id": 8411979, "nr": 6, "picture": "https://images.pexels.com/videos/8514761/pictures/preview-6.jpeg"}, {"id": 8411994, "nr": 7, "picture": "https://images.pexels.com/videos/8514761/pictures/preview-7.jpeg"}, {"id": 8412007, "nr": 8, "picture": "https://images.pexels.com/videos/8514761/pictures/preview-8.jpeg"}, {"id": 8412021, "nr": 9, "picture": "https://images.pexels.com/videos/8514761/pictures/preview-9.jpeg"}, {"id": 8412036, "nr": 10, "picture": "https://images.pexels.com/videos/8514761/pictures/preview-10.jpeg"}, {"id": 8412047, "nr": 11, "picture": "https://images.pexels.com/videos/8514761/pictures/preview-11.jpeg"}, {"id": 8412060, "nr": 12, "picture": "https://images.pexels.com/videos/8514761/pictures/preview-12.jpeg"}, {"id": 8412065, "nr": 13, "picture": "https://images.pexels.com/videos/8514761/pictures/preview-13.jpeg"}, {"id": 8412067, "nr": 14, "picture": "https://images.pexels.com/videos/8514761/pictures/preview-14.jpeg"}]}, {"id": 8512747, "width": 2160, "height": 3840, "duration": 23, "full_res": null, "tags": [], "url": "https://www.pexels.com/video/a-woman-holding-a-plant-8512747/", "image": "https://images.pexels.com/videos/8512747/botanist-dermatologist-flower-store-freelance-8512747.jpeg?auto=compress&cs=tinysrgb&fit=crop&h=1200&w=630", "avg_color": null, "user": {"id": 649765, "name": "Yaroslav Shuraev", "url": "https://www.pexels.com/@yaroslav-shuraev"}, "video_files": [{"id": 10867379, "quality": "hd", "file_type": "video/mp4", "width": 720, "height": 1280, "fps": 24.0, "link": "https://videos.pexels.com/video-files/8512747/8512747-hd_720_1280_24fps.mp4", "size": 6656820}, {"id": 10867529, "quality": "uhd", "file_type": "video/mp4", "width": 2160, "height": 3840, "fps": 24.0, "link": "https://videos.pexels.com/video-files/8512747/8512747-uhd_2160_3840_24fps.mp4", "size": 70790876}, {"id": 10867569, "quality": "sd", "file_type": "video/mp4", "width": 540, "height": 960, "fps": 24.0, "link": "https://videos.pexels.com/video-files/8512747/8512747-sd_540_960_24fps.mp4", "size": 3499300}, {"id": 10867585, "quality": "sd", "file_type": "video/mp4", "width": 240, "height": 426, "fps": 24.0, "link": "https://videos.pexels.com/video-files/8512747/8512747-sd_240_426_24fps.mp4", "size": 948841}, {"id": 10867728, "quality": "uhd", "file_type": "video/mp4", "width": 1440, "height": 2560, "fps": 24.0, "link": "https://videos.pexels.com/video-files/8512747/8512747-uhd_1440_2560_24fps.mp4", "size": 39175812}, {"id": 10867841, "quality": "hd", "file_type": "video/mp4", "width": 1080, "height": 1920, "fps": 24.0, "link": "https://videos.pexels.com/video-files/8512747/8512747-hd_1080_1920_24fps.mp4", "size": 14374570}, {"id": 10867914, "quality": "sd", "file_type": "video/mp4", "width": 360, "height": 640, "fps": 24.0, "link": "https://videos.pexels.com/video-files/8512747/8512747-sd_360_640_24fps.mp4", "size": 1295276}], "video_pictures": [{"id": 8402051, "nr": 0, "picture": "https://images.pexels.com/videos/8512747/pictures/preview-0.jpeg"}, {"id": 8402056, "nr": 1, "picture": "https://images.pexels.com/videos/8512747/pictures/preview-1.jpeg"}, {"id": 8402063, "nr": 2, "picture": "https://images.pexels.com/videos/8512747/pictures/preview-2.jpeg"}, {"id": 8402072, "nr": 3, "picture": "https://images.pexels.com/videos/8512747/pictures/preview-3.jpeg"}, {"id": 8402085, "nr": 4, "picture": "https://images.pexels.com/videos/8512747/pictures/preview-4.jpeg"}, {"id": 8402100, "nr": 5, "picture": "https://images.pexels.com/videos/8512747/pictures/preview-5.jpeg"}, {"id": 8402117, "nr": 6, "picture": "https://images.pexels.com/videos/8512747/pictures/preview-6.jpeg"}, {"id": 8402139, "nr": 7, "picture": "https://images.pexels.com/videos/8512747/pictures/preview-7.jpeg"}, {"id": 8402157, "nr": 8, "picture": "https://images.pexels.com/videos/8512747/pictures/preview-8.jpeg"}, {"id": 8402178, "nr": 9, "picture": "https://images.pexels.com/videos/8512747/pictures/preview-9.jpeg"}, {"id": 8402195, "nr": 10, "picture": "https://images.pexels.com/videos/8512747/pictures/preview-10.jpeg"}, {"id": 8402218, "nr": 11, "picture": "https://images.pexels.com/videos/8512747/pictures/preview-11.jpeg"}, {"id": 8402236, "nr": 12, "picture": "https://images.pexels.com/videos/8512747/pictures/preview-12.jpeg"}, {"id": 8402260, "nr": 13, "picture": "https://images.pexels.com/videos/8512747/pictures/preview-13.jpeg"}, {"id": 8402283, "nr": 14, "picture": "https://images.pexels.com/videos/8512747/pictures/preview-14.jpeg"}]}, {"id": 8513467, "width": 2160, "height": 3840, "duration": 8, "full_res": null, "tags": [], "url": "https://www.pexels.com/video/woman-using-microscope-8513467/", "image": "https://images.pexels.com/videos/8513467/aid-arts-and-crafts-biochemistry-biology-8513467.jpeg?auto=compress&cs=tinysrgb&fit=crop&h=1200&w=630", "avg_color": null, "user": {"id": 649765, "name": "Yaroslav Shuraev", "url": "https://www.pexels.com/@yaroslav-shuraev"}, "video_files": [{"id": 10868990, "quality": "uhd", "file_type": "video/mp4", "width": 2160, "height": 3840, "fps": 24.0, "link": "https://videos.pexels.com/video-files/8513467/8513467-uhd_2160_3840_24fps.mp4", "size": 20896141}, {"id": 10869136, "quality": "hd", "file_type": "video/mp4", "width": 1080, "height": 1920, "fps": 24.0, "link": "https://videos.pexels.com/video-files/8513467/8513467-hd_1080_1920_24fps.mp4", "size": 4563383}, {"id": 10869268, "quality": "sd", "file_type": "video/mp4", "width": 540, "height": 960, "fps": 24.0, "link": "https://videos.pexels.com/video-files/8513467/8513467-sd_540_960_24fps.mp4", "size": 1379244}, {"id": 10869315, "quality": "uhd", "file_type": "video/mp4", "width": 1440, "height": 2560, "fps": 24.0, "link": "https://videos.pexels.com/video-files/8513467/8513467-uhd_1440_2560_24fps.mp4", "size": 11108337}, {"id": 10869393, "quality": "sd", "file_type": "video/mp4", "width": 240, "height": 426, "fps": 24.0, "link": "https://videos.pexels.com/video-files/8513467/8513467-sd_240_426_24fps.mp4", "size": 293034}, {"id": 10869485, "quality": "hd", "file_type": "video/mp4", "width": 720, "height": 1280, "fps": 24.0, "link": "https://videos.pexels.com/video-files/8513467/8513467-hd_720_1280_24fps.mp4", "size": 2343194}, {"id": 10869540, "quality": "sd", "file_type": "video/mp4", "width": 360, "height": 640, "fps": 24.0, "link": "https://videos.pexels.com/video-files/8513467/8513467-sd_360_640_24fps.mp4", "size": 462626}], "video_pictures": [{"id": 8405142, "nr": 0, "picture": "https://images.pexels.com/videos/8513467/pictures/preview-0.jpeg"}, {"id": 8405193, "nr": 1, "picture": "https://images.pexels.com/videos/8513467/pictures/preview-1.jpeg"}, {"id": 8405242, "nr": 2, "picture": "https://images.pexels.com/videos/8513467/pictures/preview-2.jpeg"}, {"id": 8405330, "nr": 3, "picture": "https://images.pexels.com/videos/8513467/pictures/preview-3.jpeg"}, {"id": 8405395, "nr": 4, "picture": "https://images.pexels.com/videos/8513467/pictures/preview-4.jpeg"}, {"id": 8405465, "nr": 5, "picture": "https://images.pexels.com/videos/8513467/pictures/preview-5.jpeg"}, {"id": 8405549, "nr": 6, "picture": "https://images.pexels.com/videos/8513467/pictures/preview-6.jpeg"}, {"id": 8405640, "nr": 7, "picture": "https://images.pexels.com/videos/8513467/pictures/preview-7.jpeg"}, {"id": 8405699, "nr": 8, "picture": "https://images.pexels.com/videos/8513467/pictures/preview-8.jpeg"}, {"id": 8405758, "nr": 9, "picture": "https://images.pexels.com/videos/8513467/pictures/preview-9.jpeg"}, {"id": 8405828, "nr": 10, "picture": "https://images.pexels.com/videos/8513467/pictures/preview-10.jpeg"}, {"id": 8405942, "nr": 11, "picture": "https://images.pexels.com/videos/8513467/pictures/preview-11.jpeg"}, {"id": 8406010, "nr": 12, "picture": "https://images.pexels.com/videos/8513467/pictures/preview-12.jpeg"}, {"id": 8406117, "nr": 13, "picture": "https://images.pexels.com/videos/8513467/pictures/preview-13.jpeg"}, {"id": 8406197, "nr": 14, "picture": "https://images.pexels.com/videos/8513467/pictures/preview-14.jpeg"}]}, {"id": 8513466, "width": 2160, "height": 3840, "duration": 26, "full_res": null, "tags": [], "url": "https://www.pexels.com/video/a-woman-getting-water-from-a-pond-using-a-pipette-8513466/", "image": "https://images.pexels.com/videos/8513466/botanist-dermatologist-flower-store-freelance-8513466.jpeg?auto=compress&cs=tinysrgb&fit=crop&h=1200&w=630", "avg_color": null, "user": {"id": 649765, "name": "Yaroslav Shuraev", "url": "https://www.pexels.com/@yaroslav-shuraev"}, "video_files": [{"id": 10869497, "quality": "sd", "file_type": "video/mp4", "width": 240, "height": 426, "fps": 24.0, "link": "https://videos.pexels.com/video-files/8513466/8513466-sd_240_426_24fps.mp4", "size": 1055274}, {"id": 10869534, "quality": "uhd", "file_type": "video/mp4", "width": 1440, "height": 2560, "fps": 24.0, "link": "https://videos.pexels.com/video-files/8513466/8513466-uhd_1440_2560_24fps.mp4", "size": 38989015}, {"id": 10869585, "quality": "hd", "file_type": "video/mp4", "width": 1080, "height": 1920, "fps": 24.0, "link": "https://videos.pexels.com/video-files/8513466/8513466-hd_1080_1920_24fps.mp4", "size": 15691203}, {"id": 10869691, "quality": "uhd", "file_type": "video/mp4", "width": 2160, "height": 3840, "fps": 24.0, "link": "https://videos.pexels.com/video-files/8513466/8513466-uhd_2160_3840_24fps.mp4", "size": 79646476}, {"id": 10869755, "quality": "sd", "file_type": "video/mp4", "width": 540, "height": 960, "fps": 24.0, "link": "https://videos.pexels.com/video-files/8513466/8513466-sd_540_960_24fps.mp4", "size": 3544030}, {"id": 10869860, "quality": "sd", "file_type": "video/mp4", "width": 360, "height": 640, "fps": 24.0, "link": "https://videos.pexels.com/video-files/8513466/8513466-sd_360_640_24fps.mp4", "size": 1499550}, {"id": 10870011, "quality": "hd", "file_type": "video/mp4", "width": 720, "height": 1280, "fps": 24.0, "link": "https://videos.pexels.com/video-files/8513466/8513466-hd_720_1280_24fps.mp4", "size": 6579816}], "video_pictures": [{"id": 8404918, "nr": 0, "picture": "https://images.pexels.com/videos/8513466/pictures/preview-0.jpeg"}, {"id": 8404976, "nr": 1, "picture": "https://images.pexels.com/videos/8513466/pictures/preview-1.jpeg"}, {"id": 8405063, "nr": 2, "picture": "https://images.pexels.com/videos/8513466/pictures/preview-2.jpeg"}, {"id": 8405120, "nr": 3, "picture": "https://images.pexels.com/videos/8513466/pictures/preview-3.jpeg"}, {"id": 8405210, "nr": 4, "picture": "https://images.pexels.com/videos/8513466/pictures/preview-4.jpeg"}, {"id": 8405282, "nr": 5, "picture": "https://images.pexels.com/videos/8513466/pictures/preview-5.jpeg"}, {"id": 8405390, "nr": 6, "picture": "https://images.pexels.com/videos/8513466/pictures/preview-6.jpeg"}, {"id": 8405470, "nr": 7, "picture": "https://images.pexels.com/videos/8513466/pictures/preview-7.jpeg"}, {"id": 8405569, "nr": 8, "picture": "https://images.pexels.com/videos/8513466/pictures/preview-8.jpeg"}, {"id": 8405646, "nr": 9, "picture": "https://images.pexels.com/videos/8513466/pictures/preview-9.jpeg"}, {"id": 8405740, "nr": 10, "picture": "https://images.pexels.com/videos/8513466/pictures/preview-10.jpeg"}, {"id": 8405816, "nr": 11, "picture": "https://images.pexels.com/videos/8513466/pictures/preview-11.jpeg"}, {"id": 8405887, "nr": 12, "picture": "https://images.pexels.com/videos/8513466/pictures/preview-12.jpeg"}, {"id": 8405972, "nr": 13, "picture": "https://images.pexels.com/videos/8513466/pictures/preview-13.jpeg"}, {"id": 8406055, "nr": 14, "picture": "https://images.pexels.com/videos/8513466/pictures/preview-14.jpeg"}]}, {"id": 8513980, "width": 2160, "height": 3840, "duration": 17, "full_res": null, "tags": [], "url": "https://www.pexels.com/video/a-woman-wearing-a-lab-gown-and-goggles-8513980/", "image": "https://images.pexels.com/videos/8513980/botanist-dermatologist-flower-store-freelance-8513980.jpeg?auto=compress&cs=tinysrgb&fit=crop&h=1200&w=630", "avg_color": null, "user": {"id": 649765, "name": "Yaroslav Shuraev", "url": "https://www.pexels.com/@yaroslav-shuraev"}, "video_files": [{"id": 10871038, "quality": "hd", "file_type": "video/mp4", "width": 1080, "height": 1920, "fps": 24.0, "link": "https://videos.pexels.com/video-files/8513980/8513980-hd_1080_1920_24fps.mp4", "size": 5096974}, {"id": 10871523, "quality": "uhd", "file_type": "video/mp4", "width": 1440, "height": 2560, "fps": 24.0, "link": "https://videos.pexels.com/video-files/8513980/8513980-uhd_1440_2560_24fps.mp4", "size": 11735638}, {"id": 10871744, "quality": "uhd", "file_type": "video/mp4", "width": 2160, "height": 3840, "fps": 24.0, "link": "https://videos.pexels.com/video-files/8513980/8513980-uhd_2160_3840_24fps.mp4", "size": 37721344}, {"id": 10872176, "quality": "sd", "file_type": "video/mp4", "width": 360, "height": 640, "fps": 24.0, "link": "https://videos.pexels.com/video-files/8513980/8513980-sd_360_640_24fps.mp4", "size": 742973}, {"id": 10872332, "quality": "hd", "file_type": "video/mp4", "width": 720, "height": 1280, "fps": 24.0, "link": "https://videos.pexels.com/video-files/8513980/8513980-hd_720_1280_24fps.mp4", "size": 2417192}, {"id": 10872405, "quality": "sd", "file_type": "video/mp4", "width": 240, "height": 426, "fps": 24.0, "link": "https://videos.pexels.com/video-files/8513980/8513980-sd_240_426_24fps.mp4", "size": 488581}, {"id": 10872450, "quality": "sd", "file_type": "video/mp4", "width": 540, "height": 960, "fps": 24.0, "link": "https://videos.pexels.com/video-files/8513980/8513980-sd_540_960_24fps.mp4", "size": 1386056}], "video_pictures": [{"id": 8409720, "nr": 0, "picture": "https://images.pexels.com/videos/8513980/pictures/preview-0.jpeg"}, {"id": 8409765, "nr": 1, "picture": "https://images.pexels.com/videos/8513980/pictures/preview-1.jpeg"}, {"id": 8409799, "nr": 2, "picture": "https://images.pexels.com/videos/8513980/pictures/preview-2.jpeg"}, {"id": 8409849, "nr": 3, "picture": "https://images.pexels.com/videos/8513980/pictures/preview-3.jpeg"}, {"id": 8409874, "nr": 4, "picture": "https://images.pexels.com/videos/8513980/pictures/preview-4.jpeg"}, {"id": 8409913, "nr": 5, "picture": "https://images.pexels.com/videos/8513980/pictures/preview-5.jpeg"}, {"id": 8409963, "nr": 6, "picture": "https://images.pexels.com/videos/8513980/pictures/preview-6.jpeg"}, {"id": 8409990, "nr": 7, "picture": "https://images.pexels.com/videos/8513980/pictures/preview-7.jpeg"}, {"id": 8410027, "nr": 8, "picture": "https://images.pexels.com/videos/8513980/pictures/preview-8.jpeg"}, {"id": 8410069, "nr": 9, "picture": "https://images.pexels.com/videos/8513980/pictures/preview-9.jpeg"}, {"id": 8410095, "nr": 10, "picture": "https://images.pexels.com/videos/8513980/pictures/preview-10.jpeg"}, {"id": 8410125, "nr": 11, "picture": "https://images.pexels.com/videos/8513980/pictures/preview-11.jpeg"}, {"id": 8410182, "nr": 12, "picture": "https://images.pexels.com/videos/8513980/pictures/preview-12.jpeg"}, {"id": 8410214, "nr": 13, "picture": "https://images.pexels.com/videos/8513980/pictures/preview-13.jpeg"}, {"id": 8410246, "nr": 14, "picture": "https://images.pexels.com/videos/8513980/pictures/preview-14.jpeg"}]}, {"id": 8513981, "width": 2160, "height": 3840, "duration": 17, "full_res": null, "tags": [], "url": "https://www.pexels.com/video/a-female-scientist-posing-with-safety-glasses-8513981/", "image": "https://images.pexels.com/videos/8513981/botanist-dermatologist-flower-store-freelance-8513981.jpeg?auto=compress&cs=tinysrgb&fit=crop&h=1200&w=630", "avg_color": null, "user": {"id": 649765, "name": "Yaroslav Shuraev", "url": "https://www.pexels.com/@yaroslav-shuraev"}, "video_files": [{"id": 10870537, "quality": "uhd", "file_type": "video/mp4", "width": 2160, "height": 3840, "fps": 24.0, "link": "https://videos.pexels.com/video-files/8513981/8513981-uhd_2160_3840_24fps.mp4", "size": 48717336}, {"id": 10870598, "quality": "hd", "file_type": "video/mp4", "width": 720, "height": 1280, "fps": 24.0, "link": "https://videos.pexels.com/video-files/8513981/8513981-hd_720_1280_24fps.mp4", "size": 3620041}, {"id": 10870652, "quality": "sd", "file_type": "video/mp4", "width": 360, "height": 640, "fps": 24.0, "link": "https://videos.pexels.com/video-files/8513981/8513981-sd_360_640_24fps.mp4", "size": 984364}, {"id": 10870690, "quality": "sd", "file_type": "video/mp4", "width": 240, "height": 426, "fps": 24.0, "link": "https://videos.pexels.com/video-files/8513981/8513981-sd_240_426_24fps.mp4", "size": 710718}, {"id": 10870715, "quality": "hd", "file_type": "video/mp4", "width": 1080, "height": 1920, "fps": 24.0, "link": "https://videos.pexels.com/video-files/8513981/8513981-hd_1080_1920_24fps.mp4", "size": 7275704}, {"id": 10870761, "quality": "sd", "file_type": "video/mp4", "width": 540, "height": 960, "fps": 24.0, "link": "https://videos.pexels.com/video-files/8513981/8513981-sd_540_960_24fps.mp4", "size": 2033076}, {"id": 10870857, "quality": "uhd", "file_type": "video/mp4", "width": 1440, "height": 2560, "fps": 24.0, "link": "https://videos.pexels.com/video-files/8513981/8513981-uhd_1440_2560_24fps.mp4", "size": 19197368}], "video_pictures": [{"id": 8409945, "nr": 0, "picture": "https://images.pexels.com/videos/8513981/pictures/preview-0.jpeg"}, {"id": 8409978, "nr": 1, "picture": "https://images.pexels.com/videos/8513981/pictures/preview-1.jpeg"}, {"id": 8410019, "nr": 2, "picture": "https://images.pexels.com/videos/8513981/pictures/preview-2.jpeg"}, {"id": 8410062, "nr": 3, "picture": "https://images.pexels.com/videos/8513981/pictures/preview-3.jpeg"}, {"id": 8410089, "nr": 4, "picture": "https://images.pexels.com/videos/8513981/pictures/preview-4.jpeg"}, {"id": 8410133, "nr": 5, "picture": "https://images.pexels.com/videos/8513981/pictures/preview-5.jpeg"}, {"id": 8410178, "nr": 6, "picture": "https://images.pexels.com/videos/8513981/pictures/preview-6.jpeg"}, {"id": 8410207, "nr": 7, "picture": "https://images.pexels.com/videos/8513981/pictures/preview-7.jpeg"}, {"id": 8410242, "nr": 8, "picture": "https://images.pexels.com/videos/8513981/pictures/preview-8.jpeg"}, {"id": 8410289, "nr": 9, "picture": "https://images.pexels.com/videos/8513981/pictures/preview-9.jpeg"}, {"id": 8410311, "nr": 10, "picture": "https://images.pexels.com/videos/8513981/pictures/preview-10.jpeg"}, {"id": 8410339, "nr": 11, "picture": "https://images.pexels.com/videos/8513981/pictures/preview-11.jpeg"}, {"id": 8410364, "nr": 12, "picture": "https://images.pexels.com/videos/8513981/pictures/preview-12.jpeg"}, {"id": 8410389, "nr": 13, "picture": "https://images.pexels.com/videos/8513981/pictures/preview-13.jpeg"}, {"id": 8410420, "nr": 14, "picture": "https://images.pexels.com/videos/8513981/pictures/preview-14.jpeg"}]}, {"id": 8514360, "width": 2160, "height": 3840, "duration": 8, "full_res": null, "tags": [], "url": "https://www.pexels.com/video/women-standing-near-the-plants-8514360/", "image": "https://images.pexels.com/videos/8514360/pexels-photo-8514360.jpeg?auto=compress&cs=tinysrgb&fit=crop&h=1200&w=630", "avg_color": null, "user": {"id": 649765, "name": "Yaroslav Shuraev", "url": "https://www.pexels.com/@yaroslav-shuraev"}, "video_files": [{"id": 10871195, "quality": "uhd", "file_type": "video/mp4", "width": 2160, "height": 3840, "fps": 24.0, "link": "https://videos.pexels.com/video-files/8514360/8514360-uhd_2160_3840_24fps.mp4", "size": 21305915}, {"id": 10871327, "quality": "uhd", "file_type": "video/mp4", "width": 1440, "height": 2560, "fps": 24.0, "link": "https://videos.pexels.com/video-files/8514360/8514360-uhd_1440_2560_24fps.mp4", "size": 11997398}, {"id": 10871390, "quality": "sd", "file_type": "video/mp4", "width": 360, "height": 640, "fps": 24.0, "link": "https://videos.pexels.com/video-files/8514360/8514360-sd_360_640_24fps.mp4", "size": 473454}, {"id": 10871564, "quality": "hd", "file_type": "video/mp4", "width": 720, "height": 1280, "fps": 24.0, "link": "https://videos.pexels.com/video-files/8514360/8514360-hd_720_1280_24fps.mp4", "size": 2336911}, {"id": 10871645, "quality": "hd", "file_type": "video/mp4", "width": 1080, "height": 1920, "fps": 24.0, "link": "https://videos.pexels.com/video-files/8514360/8514360-hd_1080_1920_24fps.mp4", "size": 4671008}, {"id": 10871817, "quality": "sd", "file_type": "video/mp4", "width": 540, "height": 960, "fps": 24.0, "link": "https://videos.pexels.com/video-files/8514360/8514360-sd_540_960_24fps.mp4", "size": 1404648}, {"id": 10872010, "quality": "sd", "file_type": "video/mp4", "width": 240, "height": 426, "fps": 24.0, "link": "https://videos.pexels.com/video-files/8514360/8514360-sd_240_426_24fps.mp4", "size": 341154}], "video_pictures": [{"id": 8411150, "nr": 0, "picture": "https://images.pexels.com/videos/8514360/pictures/preview-0.jpeg"}, {"id": 8411162, "nr": 1, "picture": "https://images.pexels.com/videos/8514360/pictures/preview-1.jpeg"}, {"id": 8411176, "nr": 2, "picture": "https://images.pexels.com/videos/8514360/pictures/preview-2.jpeg"}, {"id": 8411186, "nr": 3, "picture": "https://images.pexels.com/videos/8514360/pictures/preview-3.jpeg"}, {"id": 8411199, "nr": 4, "picture": "https://images.pexels.com/videos/8514360/pictures/preview-4.jpeg"}, {"id": 8411211, "nr": 5, "picture": "https://images.pexels.com/videos/8514360/pictures/preview-5.jpeg"}, {"id": 8411223, "nr": 6, "picture": "https://images.pexels.com/videos/8514360/pictures/preview-6.jpeg"}, {"id": 8411236, "nr": 7, "picture": "https://images.pexels.com/videos/8514360/pictures/preview-7.jpeg"}, {"id": 8411248, "nr": 8, "picture": "https://images.pexels.com/videos/8514360/pictures/preview-8.jpeg"}, {"id": 8411257, "nr": 9, "picture": "https://images.pexels.com/videos/8514360/pictures/preview-9.jpeg"}, {"id": 8411265, "nr": 10, "picture": "https://images.pexels.com/videos/8514360/pictures/preview-10.jpeg"}, {"id": 8411276, "nr": 11, "picture": "https://images.pexels.com/videos/8514360/pictures/preview-11.jpeg"}, {"id": 8411287, "nr": 12, "picture": "https://images.pexels.com/videos/8514360/pictures/preview-12.jpeg"}, {"id": 8411299, "nr": 13, "picture": "https://images.pexels.com/videos/8514360/pictures/preview-13.jpeg"}, {"id": 8411310, "nr": 14, "picture": "https://images.pexels.com/videos/8514360/pictures/preview-14.jpeg"}]}, {"id": 8514760, "width": 2160, "height": 3840, "duration": 16, "full_res": null, "tags": [], "url": "https://www.pexels.com/video/a-female-scientist-looking-at-a-flower-with-a-magnifying-glass-8514760/", "image": "https://images.pexels.com/videos/8514760/botanist-dermatologist-flower-store-freelance-8514760.jpeg?auto=compress&cs=tinysrgb&fit=crop&h=1200&w=630", "avg_color": null, "user": {"id": 649765, "name": "Yaroslav Shuraev", "url": "https://www.pexels.com/@yaroslav-shuraev"}, "video_files": [{"id": 10871116, "quality": "hd", "file_type": "video/mp4", "width": 720, "height": 1280, "fps": 24.0, "link": "https://videos.pexels.com/video-files/8514760/8514760-hd_720_1280_24fps.mp4", "size": 3515825}, {"id": 10871297, "quality": "uhd", "file_type": "video/mp4", "width": 1440, "height": 2560, "fps": 24.0, "link": "https://videos.pexels.com/video-files/8514760/8514760-uhd_1440_2560_24fps.mp4", "size": 18446571}, {"id": 10871333, "quality": "hd", "file_type": "video/mp4", "width": 1080, "height": 1920, "fps": 24.0, "link": "https://videos.pexels.com/video-files/8514760/8514760-hd_1080_1920_24fps.mp4", "size": 7781927}, {"id": 10871466, "quality": "sd", "file_type": "video/mp4", "width": 360, "height": 640, "fps": 24.0, "link": "https://videos.pexels.com/video-files/8514760/8514760-sd_360_640_24fps.mp4", "size": 940006}, {"id": 10871596, "quality": "sd", "file_type": "video/mp4", "width": 240, "height": 426, "fps": 24.0, "link": "https://videos.pexels.com/video-files/8514760/8514760-sd_240_426_24fps.mp4", "size": 633430}, {"id": 10871702, "quality": "uhd", "file_type": "video/mp4", "width": 2160, "height": 3840, "fps": 24.0, "link": "https://videos.pexels.com/video-files/8514760/8514760-uhd_2160_3840_24fps.mp4", "size": 41157168}, {"id": 10871773, "quality": "sd", "file_type": "video/mp4", "width": 540, "height": 960, "fps": 24.0, "link": "https://videos.pexels.com/video-files/8514760/8514760-sd_540_960_24fps.mp4", "size": 1891527}], "video_pictures": [{"id": 8411879, "nr": 0, "picture": "https://images.pexels.com/videos/8514760/pictures/preview-0.jpeg"}, {"id": 8411889, "nr": 1, "picture": "https://images.pexels.com/videos/8514760/pictures/preview-1.jpeg"}, {"id": 8411900, "nr": 2, "picture": "https://images.pexels.com/videos/8514760/pictures/preview-2.jpeg"}, {"id": 8411917, "nr": 3, "picture": "https://images.pexels.com/videos/8514760/pictures/preview-3.jpeg"}, {"id": 8411927, "nr": 4, "picture": "https://images.pexels.com/videos/8514760/pictures/preview-4.jpeg"}, {"id": 8411940, "nr": 5, "picture": "https://images.pexels.com/videos/8514760/pictures/preview-5.jpeg"}, {"id": 8411954, "nr": 6, "picture": "https://images.pexels.com/videos/8514760/pictures/preview-6.jpeg"}, {"id": 8411963, "nr": 7, "picture": "https://images.pexels.com/videos/8514760/pictures/preview-7.jpeg"}, {"id": 8411978, "nr": 8, "picture": "https://images.pexels.com/videos/8514760/pictures/preview-8.jpeg"}, {"id": 8411993, "nr": 9, "picture": "https://images.pexels.com/videos/8514760/pictures/preview-9.jpeg"}, {"id": 8412005, "nr": 10, "picture": "https://images.pexels.com/videos/8514760/pictures/preview-10.jpeg"}, {"id": 8412015, "nr": 11, "picture": "https://images.pexels.com/videos/8514760/pictures/preview-11.jpeg"}, {"id": 8412032, "nr": 12, "picture": "https://images.pexels.com/videos/8514760/pictures/preview-12.jpeg"}, {"id": 8412049, "nr": 13, "picture": "https://images.pexels.com/videos/8514760/pictures/preview-13.jpeg"}, {"id": 8412058, "nr": 14, "picture": "https://images.pexels.com/videos/8514760/pictures/preview-14.jpeg"}]}], "total_results": 8000, "next_page": "https://api.pexels.com/v1/videos/search/?orientation=portrait&page=2&per_page=8&query=plant+research", "url": "https://api-server.pexels.com/search/videos/plant%20research/"}, "timestamp": "2024-12-28T22:42:02.878585"}
