{"query": "europeans arrival", "response": {"page": 1, "per_page": 8, "videos": [{"id": 29243227, "width": 1080, "height": 1920, "duration": 17, "full_res": null, "tags": [], "url": "https://www.pexels.com/video/modern-train-arriving-at-an-urban-station-29243227/", "image": "https://images.pexels.com/videos/29243227/buildingheight-city-city-activity-forest-surroundings-29243227.jpeg?auto=compress&cs=tinysrgb&fit=crop&h=1200&w=630", "avg_color": null, "user": {"id": 536420752, "name": "Jesus  Alfonso", "url": "https://www.pexels.com/@jesus-alfonso-536420752"}, "video_files": [{"id": 12618917, "quality": null, "file_type": "video/mp4", "width": 360, "height": 640, "fps": 59.939998626708984, "link": "https://videos.pexels.com/video-files/29243227/12618917_360_640_60fps.mp4", "size": 5459842}, {"id": 12618918, "quality": null, "file_type": "video/mp4", "width": 540, "height": 960, "fps": 59.939998626708984, "link": "https://videos.pexels.com/video-files/29243227/12618918_540_960_60fps.mp4", "size": 9718170}, {"id": 12618919, "quality": null, "file_type": "video/mp4", "width": 720, "height": 1280, "fps": 59.939998626708984, "link": "https://videos.pexels.com/video-files/29243227/12618919_720_1280_60fps.mp4", "size": 14477129}, {"id": 12618920, "quality": null, "file_type": "video/mp4", "width": 1080, "height": 1920, "fps": 59.939998626708984, "link": "https://videos.pexels.com/video-files/29243227/12618920_1080_1920_60fps.mp4", "size": 29964954}], "video_pictures": [{"id": 23692994, "nr": 0, "picture": "https://images.pexels.com/videos/29243227/pictures/preview-0.jpg"}, {"id": 23692995, "nr": 1, "picture": "https://images.pexels.com/videos/29243227/pictures/preview-1.jpg"}, {"id": 23692996, "nr": 2, "picture": "https://images.pexels.com/videos/29243227/pictures/preview-2.jpg"}, {"id": 23692997, "nr": 3, "picture": "https://images.pexels.com/videos/29243227/pictures/preview-3.jpg"}, {"id": 23692998, "nr": 4, "picture": "https://images.pexels.com/videos/29243227/pictures/preview-4.jpg"}, {"id": 23692999, "nr": 5, "picture": "https://images.pexels.com/videos/29243227/pictures/preview-5.jpg"}, {"id": 23693000, "nr": 6, "picture": "https://images.pexels.com/videos/29243227/pictures/preview-6.jpg"}, {"id": 23693001, "nr": 7, "picture": "https://images.pexels.com/videos/29243227/pictures/preview-7.jpg"}, {"id": 23693002, "nr": 8, "picture": "https://images.pexels.com/videos/29243227/pictures/preview-8.jpg"}, {"id": 23693003, "nr": 9, "picture": "https://images.pexels.com/videos/29243227/pictures/preview-9.jpg"}, {"id": 23693004, "nr": 10, "picture": "https://images.pexels.com/videos/29243227/pictures/preview-10.jpg"}, {"id": 23693005, "nr": 11, "picture": "https://images.pexels.com/videos/29243227/pictures/preview-11.jpg"}, {"id": 23693006, "nr": 12, "picture": "https://images.pexels.com/videos/29243227/pictures/preview-12.jpg"}, {"id": 23693007, "nr": 13, "picture": "https://images.pexels.com/videos/29243227/pictures/preview-13.jpg"}, {"id": 23693008, "nr": 14, "picture": "https://images.pexels.com/videos/29243227/pictures/preview-14.jpg"}]}, {"id": 17468986, "width": 2160, "height": 3840, "duration": 25, "full_res": null, "tags": [], "url": "https://www.pexels.com/video/train-station-train-arrival-17468986/", "image": "https://images.pexels.com/videos/17468986/commute-land-transportation-train-train-arrived-17468986.jpeg?auto=compress&cs=tinysrgb&fit=crop&h=1200&w=630", "avg_color": null, "user": {"id": 172637206, "name": "Hossam Rabea", "url": "https://www.pexels.com/@adjustedfilm"}, "video_files": [{"id": 7278629, "quality": "sd", "file_type": "video/mp4", "width": 360, "height": 640, "fps": 30.0, "link": "https://videos.pexels.com/video-files/17468986/17468986-sd_360_640_30fps.mp4", "size": 3178488}, {"id": 7278630, "quality": "sd", "file_type": "video/mp4", "width": 540, "height": 960, "fps": 30.0, "link": "https://videos.pexels.com/video-files/17468986/17468986-sd_540_960_30fps.mp4", "size": 6057162}, {"id": 7278631, "quality": "sd", "file_type": "video/mp4", "width": 240, "height": 426, "fps": 30.0, "link": "https://videos.pexels.com/video-files/17468986/17468986-sd_240_426_30fps.mp4", "size": 1728515}, {"id": 7278632, "quality": "hd", "file_type": "video/mp4", "width": 1080, "height": 1920, "fps": 60.0, "link": "https://videos.pexels.com/video-files/17468986/17468986-hd_1080_1920_60fps.mp4", "size": 19236637}, {"id": 7278633, "quality": "hd", "file_type": "video/mp4", "width": 720, "height": 1280, "fps": 60.0, "link": "https://videos.pexels.com/video-files/17468986/17468986-hd_720_1280_60fps.mp4", "size": 9939533}, {"id": 7278634, "quality": "uhd", "file_type": "video/mp4", "width": 1440, "height": 2560, "fps": 60.0, "link": "https://videos.pexels.com/video-files/17468986/17468986-uhd_1440_2560_60fps.mp4", "size": 45259385}, {"id": 7278635, "quality": "uhd", "file_type": "video/mp4", "width": 2160, "height": 3840, "fps": 60.0, "link": "https://videos.pexels.com/video-files/17468986/17468986-uhd_2160_3840_60fps.mp4", "size": 82456441}], "video_pictures": [{"id": 18271951, "nr": 0, "picture": "https://images.pexels.com/videos/17468986/pictures/preview-0.jpeg"}, {"id": 18271953, "nr": 1, "picture": "https://images.pexels.com/videos/17468986/pictures/preview-1.jpeg"}, {"id": 18271956, "nr": 2, "picture": "https://images.pexels.com/videos/17468986/pictures/preview-2.jpeg"}, {"id": 18271958, "nr": 3, "picture": "https://images.pexels.com/videos/17468986/pictures/preview-3.jpeg"}, {"id": 18271960, "nr": 4, "picture": "https://images.pexels.com/videos/17468986/pictures/preview-4.jpeg"}, {"id": 18271962, "nr": 5, "picture": "https://images.pexels.com/videos/17468986/pictures/preview-5.jpeg"}, {"id": 18271965, "nr": 6, "picture": "https://images.pexels.com/videos/17468986/pictures/preview-6.jpeg"}, {"id": 18271968, "nr": 7, "picture": "https://images.pexels.com/videos/17468986/pictures/preview-7.jpeg"}, {"id": 18271970, "nr": 8, "picture": "https://images.pexels.com/videos/17468986/pictures/preview-8.jpeg"}, {"id": 18271972, "nr": 9, "picture": "https://images.pexels.com/videos/17468986/pictures/preview-9.jpeg"}, {"id": 18271973, "nr": 10, "picture": "https://images.pexels.com/videos/17468986/pictures/preview-10.jpeg"}, {"id": 18271974, "nr": 11, "picture": "https://images.pexels.com/videos/17468986/pictures/preview-11.jpeg"}, {"id": 18271975, "nr": 12, "picture": "https://images.pexels.com/videos/17468986/pictures/preview-12.jpeg"}, {"id": 18271976, "nr": 13, "picture": "https://images.pexels.com/videos/17468986/pictures/preview-13.jpeg"}, {"id": 18271977, "nr": 14, "picture": "https://images.pexels.com/videos/17468986/pictures/preview-14.jpeg"}]}, {"id": 29511421, "width": 1080, "height": 1920, "duration": 8, "full_res": null, "tags": [], "url": "https://www.pexels.com/video/modern-subway-train-arriving-at-station-platform-29511421/", "image": "https://images.pexels.com/videos/29511421/pexels-photo-29511421.jpeg?auto=compress&cs=tinysrgb&fit=crop&h=1200&w=630", "avg_color": null, "user": {"id": 1197162982, "name": "Oye Yogi", "url": "https://www.pexels.com/@oyeyogi"}, "video_files": [{"id": 12703027, "quality": null, "file_type": "video/mp4", "width": 360, "height": 640, "fps": 59.939998626708984, "link": "https://videos.pexels.com/video-files/29511421/12703027_360_640_60fps.mp4", "size": 2317677}, {"id": 12703028, "quality": null, "file_type": "video/mp4", "width": 540, "height": 960, "fps": 59.939998626708984, "link": "https://videos.pexels.com/video-files/29511421/12703028_540_960_60fps.mp4", "size": 4288591}, {"id": 12703029, "quality": null, "file_type": "video/mp4", "width": 720, "height": 1280, "fps": 59.939998626708984, "link": "https://videos.pexels.com/video-files/29511421/12703029_720_1280_60fps.mp4", "size": 6843382}, {"id": 12703030, "quality": null, "file_type": "video/mp4", "width": 1080, "height": 1920, "fps": 59.939998626708984, "link": "https://videos.pexels.com/video-files/29511421/12703030_1080_1920_60fps.mp4", "size": 14418698}], "video_pictures": [{"id": 23922303, "nr": 0, "picture": "https://images.pexels.com/videos/29511421/pictures/preview-0.jpg"}, {"id": 23922304, "nr": 1, "picture": "https://images.pexels.com/videos/29511421/pictures/preview-1.jpg"}, {"id": 23922305, "nr": 2, "picture": "https://images.pexels.com/videos/29511421/pictures/preview-2.jpg"}, {"id": 23922306, "nr": 3, "picture": "https://images.pexels.com/videos/29511421/pictures/preview-3.jpg"}, {"id": 23922307, "nr": 4, "picture": "https://images.pexels.com/videos/29511421/pictures/preview-4.jpg"}, {"id": 23922308, "nr": 5, "picture": "https://images.pexels.com/videos/29511421/pictures/preview-5.jpg"}, {"id": 23922309, "nr": 6, "picture": "https://images.pexels.com/videos/29511421/pictures/preview-6.jpg"}]}, {"id": 29538317, "width": 1080, "height": 1920, "duration": 13, "full_res": null, "tags": [], "url": "https://www.pexels.com/video/modern-tram-arriving-at-urban-station-29538317/", "image": "https://images.pexels.com/videos/29538317/european-travel-destination-tram-tram-platform-29538317.jpeg?auto=compress&cs=tinysrgb&fit=crop&h=1200&w=630", "avg_color": null, "user": {"id": 754610178, "name": "Renee B", "url": "https://www.pexels.com/@renee-b-754610178"}, "video_files": [{"id": 12715070, "quality": null, "file_type": "video/mp4", "width": 360, "height": 640, "fps": 30.0, "link": "https://videos.pexels.com/video-files/29538317/12715070_360_640_30fps.mp4", "size": 2953242}, {"id": 12715071, "quality": null, "file_type": "video/mp4", "width": 540, "height": 960, "fps": 30.0, "link": "https://videos.pexels.com/video-files/29538317/12715071_540_960_30fps.mp4", "size": 6272543}, {"id": 12715072, "quality": null, "file_type": "video/mp4", "width": 720, "height": 1280, "fps": 30.0, "link": "https://videos.pexels.com/video-files/29538317/12715072_720_1280_30fps.mp4", "size": 10454594}, {"id": 12715073, "quality": null, "file_type": "video/mp4", "width": 1080, "height": 1920, "fps": 30.0, "link": "https://videos.pexels.com/video-files/29538317/12715073_1080_1920_30fps.mp4", "size": 22323662}], "video_pictures": [{"id": 23948265, "nr": 0, "picture": "https://images.pexels.com/videos/29538317/pictures/preview-0.jpg"}, {"id": 23948266, "nr": 1, "picture": "https://images.pexels.com/videos/29538317/pictures/preview-1.jpg"}, {"id": 23948267, "nr": 2, "picture": "https://images.pexels.com/videos/29538317/pictures/preview-2.jpg"}, {"id": 23948268, "nr": 3, "picture": "https://images.pexels.com/videos/29538317/pictures/preview-3.jpg"}, {"id": 23948269, "nr": 4, "picture": "https://images.pexels.com/videos/29538317/pictures/preview-4.jpg"}, {"id": 23948270, "nr": 5, "picture": "https://images.pexels.com/videos/29538317/pictures/preview-5.jpg"}, {"id": 23948271, "nr": 6, "picture": "https://images.pexels.com/videos/29538317/pictures/preview-6.jpg"}, {"id": 23948272, "nr": 7, "picture": "https://images.pexels.com/videos/29538317/pictures/preview-7.jpg"}, {"id": 23948273, "nr": 8, "picture": "https://images.pexels.com/videos/29538317/pictures/preview-8.jpg"}, {"id": 23948274, "nr": 9, "picture": "https://images.pexels.com/videos/29538317/pictures/preview-9.jpg"}, {"id": 23948275, "nr": 10, "picture": "https://images.pexels.com/videos/29538317/pictures/preview-10.jpg"}, {"id": 23948276, "nr": 11, "picture": "https://images.pexels.com/videos/29538317/pictures/preview-11.jpg"}]}, {"id": 29927735, "width": 2160, "height": 3840, "duration": 8, "full_res": null, "tags": [], "url": "https://www.pexels.com/video/dynamic-metro-train-in-prague-subway-station-29927735/", "image": "https://images.pexels.com/videos/29927735/metro-prague-29927735.jpeg?auto=compress&cs=tinysrgb&fit=crop&h=1200&w=630", "avg_color": null, "user": {"id": 911292297, "name": "Petra M\u00e9sz\u00e1ros", "url": "https://www.pexels.com/@petra-meszaros-911292297"}, "video_files": [{"id": 12844426, "quality": null, "file_type": "video/mp4", "width": 360, "height": 640, "fps": 30.0, "link": "https://videos.pexels.com/video-files/29927735/12844426_360_640_30fps.mp4", "size": 1733956}, {"id": 12844427, "quality": null, "file_type": "video/mp4", "width": 540, "height": 960, "fps": 30.0, "link": "https://videos.pexels.com/video-files/29927735/12844427_540_960_30fps.mp4", "size": 3391369}, {"id": 12844428, "quality": null, "file_type": "video/mp4", "width": 720, "height": 1280, "fps": 30.0, "link": "https://videos.pexels.com/video-files/29927735/12844428_720_1280_30fps.mp4", "size": 5449381}, {"id": 12844429, "quality": null, "file_type": "video/mp4", "width": 1080, "height": 1920, "fps": 30.0, "link": "https://videos.pexels.com/video-files/29927735/12844429_1080_1920_30fps.mp4", "size": 10945616}, {"id": 12844430, "quality": null, "file_type": "video/mp4", "width": 1440, "height": 2560, "fps": 30.0, "link": "https://videos.pexels.com/video-files/29927735/12844430_1440_2560_30fps.mp4", "size": 17721555}, {"id": 12844431, "quality": null, "file_type": "video/mp4", "width": 2160, "height": 3840, "fps": 30.0, "link": "https://videos.pexels.com/video-files/29927735/12844431_2160_3840_30fps.mp4", "size": 33527745}], "video_pictures": [{"id": 24290135, "nr": 0, "picture": "https://images.pexels.com/videos/29927735/pictures/preview-0.jpg"}, {"id": 24290136, "nr": 1, "picture": "https://images.pexels.com/videos/29927735/pictures/preview-1.jpg"}, {"id": 24290137, "nr": 2, "picture": "https://images.pexels.com/videos/29927735/pictures/preview-2.jpg"}, {"id": 24290138, "nr": 3, "picture": "https://images.pexels.com/videos/29927735/pictures/preview-3.jpg"}, {"id": 24290139, "nr": 4, "picture": "https://images.pexels.com/videos/29927735/pictures/preview-4.jpg"}, {"id": 24290140, "nr": 5, "picture": "https://images.pexels.com/videos/29927735/pictures/preview-5.jpg"}, {"id": 24290141, "nr": 6, "picture": "https://images.pexels.com/videos/29927735/pictures/preview-6.jpg"}]}, {"id": 8345154, "width": 2160, "height": 3840, "duration": 31, "full_res": null, "tags": [], "url": "https://www.pexels.com/video/a-man-in-a-gray-suit-opening-the-car-door-for-his-boss-8345154/", "image": "https://images.pexels.com/videos/8345154/pexels-photo-8345154.jpeg?auto=compress&cs=tinysrgb&fit=crop&h=1200&w=630", "avg_color": null, "user": {"id": 2297095, "name": "Pavel Danilyuk", "url": "https://www.pexels.com/@pavel-danilyuk"}, "video_files": [{"id": 10787578, "quality": "sd", "file_type": "video/mp4", "width": 240, "height": 426, "fps": 25.0, "link": "https://videos.pexels.com/video-files/8345154/8345154-sd_240_426_25fps.mp4", "size": 1297577}, {"id": 10787650, "quality": "uhd", "file_type": "video/mp4", "width": 1440, "height": 2560, "fps": 25.0, "link": "https://videos.pexels.com/video-files/8345154/8345154-uhd_1440_2560_25fps.mp4", "size": 34850202}, {"id": 10787774, "quality": "hd", "file_type": "video/mp4", "width": 1080, "height": 1920, "fps": 25.0, "link": "https://videos.pexels.com/video-files/8345154/8345154-hd_1080_1920_25fps.mp4", "size": 19095106}, {"id": 10787866, "quality": "uhd", "file_type": "video/mp4", "width": 2160, "height": 3840, "fps": 25.0, "link": "https://videos.pexels.com/video-files/8345154/8345154-uhd_2160_3840_25fps.mp4", "size": 73913824}, {"id": 10787936, "quality": "sd", "file_type": "video/mp4", "width": 540, "height": 960, "fps": 25.0, "link": "https://videos.pexels.com/video-files/8345154/8345154-sd_540_960_25fps.mp4", "size": 5645948}, {"id": 10787986, "quality": "hd", "file_type": "video/mp4", "width": 720, "height": 1280, "fps": 25.0, "link": "https://videos.pexels.com/video-files/8345154/8345154-hd_720_1280_25fps.mp4", "size": 10182777}, {"id": 10788019, "quality": "sd", "file_type": "video/mp4", "width": 360, "height": 640, "fps": 25.0, "link": "https://videos.pexels.com/video-files/8345154/8345154-sd_360_640_25fps.mp4", "size": 2019843}], "video_pictures": [{"id": 8063813, "nr": 0, "picture": "https://images.pexels.com/videos/8345154/pictures/preview-0.jpeg"}, {"id": 8063822, "nr": 1, "picture": "https://images.pexels.com/videos/8345154/pictures/preview-1.jpeg"}, {"id": 8063832, "nr": 2, "picture": "https://images.pexels.com/videos/8345154/pictures/preview-2.jpeg"}, {"id": 8063841, "nr": 3, "picture": "https://images.pexels.com/videos/8345154/pictures/preview-3.jpeg"}, {"id": 8063845, "nr": 4, "picture": "https://images.pexels.com/videos/8345154/pictures/preview-4.jpeg"}, {"id": 8063852, "nr": 5, "picture": "https://images.pexels.com/videos/8345154/pictures/preview-5.jpeg"}, {"id": 8063858, "nr": 6, "picture": "https://images.pexels.com/videos/8345154/pictures/preview-6.jpeg"}, {"id": 8063862, "nr": 7, "picture": "https://images.pexels.com/videos/8345154/pictures/preview-7.jpeg"}, {"id": 8063868, "nr": 8, "picture": "https://images.pexels.com/videos/8345154/pictures/preview-8.jpeg"}, {"id": 8063875, "nr": 9, "picture": "https://images.pexels.com/videos/8345154/pictures/preview-9.jpeg"}, {"id": 8063883, "nr": 10, "picture": "https://images.pexels.com/videos/8345154/pictures/preview-10.jpeg"}, {"id": 8063891, "nr": 11, "picture": "https://images.pexels.com/videos/8345154/pictures/preview-11.jpeg"}, {"id": 8063899, "nr": 12, "picture": "https://images.pexels.com/videos/8345154/pictures/preview-12.jpeg"}, {"id": 8063906, "nr": 13, "picture": "https://images.pexels.com/videos/8345154/pictures/preview-13.jpeg"}, {"id": 8063913, "nr": 14, "picture": "https://images.pexels.com/videos/8345154/pictures/preview-14.jpeg"}]}, {"id": 7607100, "width": 1080, "height": 1920, "duration": 41, "full_res": null, "tags": [], "url": "https://www.pexels.com/video/fancy-couple-7607100/", "image": "https://images.pexels.com/videos/7607100/pexels-photo-7607100.jpeg?auto=compress&cs=tinysrgb&fit=crop&h=1200&w=630", "avg_color": null, "user": {"id": 2297095, "name": "Pavel Danilyuk", "url": "https://www.pexels.com/@pavel-danilyuk"}, "video_files": [{"id": 10500803, "quality": "hd", "file_type": "video/mp4", "width": 1080, "height": 1920, "fps": 25.0, "link": "https://videos.pexels.com/video-files/7607100/7607100-hd_1080_1920_25fps.mp4", "size": 28670156}, {"id": 10500811, "quality": "hd", "file_type": "video/mp4", "width": 720, "height": 1280, "fps": 25.0, "link": "https://videos.pexels.com/video-files/7607100/7607100-hd_720_1280_25fps.mp4", "size": 13237304}, {"id": 10500832, "quality": "sd", "file_type": "video/mp4", "width": 240, "height": 426, "fps": 25.0, "link": "https://videos.pexels.com/video-files/7607100/7607100-sd_240_426_25fps.mp4", "size": 1699839}, {"id": 10500855, "quality": "sd", "file_type": "video/mp4", "width": 360, "height": 640, "fps": 25.0, "link": "https://videos.pexels.com/video-files/7607100/7607100-sd_360_640_25fps.mp4", "size": 2563490}, {"id": 10500875, "quality": "sd", "file_type": "video/mp4", "width": 540, "height": 960, "fps": 25.0, "link": "https://videos.pexels.com/video-files/7607100/7607100-sd_540_960_25fps.mp4", "size": 7187664}], "video_pictures": [{"id": 6726925, "nr": 0, "picture": "https://images.pexels.com/videos/7607100/pictures/preview-0.jpeg"}, {"id": 6726926, "nr": 1, "picture": "https://images.pexels.com/videos/7607100/pictures/preview-1.jpeg"}, {"id": 6726929, "nr": 2, "picture": "https://images.pexels.com/videos/7607100/pictures/preview-2.jpeg"}, {"id": 6726931, "nr": 3, "picture": "https://images.pexels.com/videos/7607100/pictures/preview-3.jpeg"}, {"id": 6726934, "nr": 4, "picture": "https://images.pexels.com/videos/7607100/pictures/preview-4.jpeg"}, {"id": 6726936, "nr": 5, "picture": "https://images.pexels.com/videos/7607100/pictures/preview-5.jpeg"}, {"id": 6726938, "nr": 6, "picture": "https://images.pexels.com/videos/7607100/pictures/preview-6.jpeg"}, {"id": 6726941, "nr": 7, "picture": "https://images.pexels.com/videos/7607100/pictures/preview-7.jpeg"}, {"id": 6726944, "nr": 8, "picture": "https://images.pexels.com/videos/7607100/pictures/preview-8.jpeg"}, {"id": 6726947, "nr": 9, "picture": "https://images.pexels.com/videos/7607100/pictures/preview-9.jpeg"}, {"id": 6726950, "nr": 10, "picture": "https://images.pexels.com/videos/7607100/pictures/preview-10.jpeg"}, {"id": 6726954, "nr": 11, "picture": "https://images.pexels.com/videos/7607100/pictures/preview-11.jpeg"}, {"id": 6726956, "nr": 12, "picture": "https://images.pexels.com/videos/7607100/pictures/preview-12.jpeg"}, {"id": 6726960, "nr": 13, "picture": "https://images.pexels.com/videos/7607100/pictures/preview-13.jpeg"}, {"id": 6726962, "nr": 14, "picture": "https://images.pexels.com/videos/7607100/pictures/preview-14.jpeg"}]}, {"id": 7607089, "width": 1080, "height": 1920, "duration": 39, "full_res": null, "tags": [], "url": "https://www.pexels.com/video/fancy-couple-7607089/", "image": "https://images.pexels.com/videos/7607089/pexels-photo-7607089.jpeg?auto=compress&cs=tinysrgb&fit=crop&h=1200&w=630", "avg_color": null, "user": {"id": 2297095, "name": "Pavel Danilyuk", "url": "https://www.pexels.com/@pavel-danilyuk"}, "video_files": [{"id": 10500887, "quality": "hd", "file_type": "video/mp4", "width": 720, "height": 1280, "fps": 25.0, "link": "https://videos.pexels.com/video-files/7607089/7607089-hd_720_1280_25fps.mp4", "size": 12814347}, {"id": 10500893, "quality": "sd", "file_type": "video/mp4", "width": 240, "height": 426, "fps": 25.0, "link": "https://videos.pexels.com/video-files/7607089/7607089-sd_240_426_25fps.mp4", "size": 1633558}, {"id": 10500903, "quality": "sd", "file_type": "video/mp4", "width": 360, "height": 640, "fps": 25.0, "link": "https://videos.pexels.com/video-files/7607089/7607089-sd_360_640_25fps.mp4", "size": 2439494}, {"id": 10500911, "quality": "sd", "file_type": "video/mp4", "width": 540, "height": 960, "fps": 25.0, "link": "https://videos.pexels.com/video-files/7607089/7607089-sd_540_960_25fps.mp4", "size": 7198794}, {"id": 10500930, "quality": "hd", "file_type": "video/mp4", "width": 1080, "height": 1920, "fps": 25.0, "link": "https://videos.pexels.com/video-files/7607089/7607089-hd_1080_1920_25fps.mp4", "size": 26973854}], "video_pictures": [{"id": 6726940, "nr": 0, "picture": "https://images.pexels.com/videos/7607089/pictures/preview-0.jpeg"}, {"id": 6726943, "nr": 1, "picture": "https://images.pexels.com/videos/7607089/pictures/preview-1.jpeg"}, {"id": 6726946, "nr": 2, "picture": "https://images.pexels.com/videos/7607089/pictures/preview-2.jpeg"}, {"id": 6726949, "nr": 3, "picture": "https://images.pexels.com/videos/7607089/pictures/preview-3.jpeg"}, {"id": 6726953, "nr": 4, "picture": "https://images.pexels.com/videos/7607089/pictures/preview-4.jpeg"}, {"id": 6726955, "nr": 5, "picture": "https://images.pexels.com/videos/7607089/pictures/preview-5.jpeg"}, {"id": 6726958, "nr": 6, "picture": "https://images.pexels.com/videos/7607089/pictures/preview-6.jpeg"}, {"id": 6726961, "nr": 7, "picture": "https://images.pexels.com/videos/7607089/pictures/preview-7.jpeg"}, {"id": 6726963, "nr": 8, "picture": "https://images.pexels.com/videos/7607089/pictures/preview-8.jpeg"}, {"id": 6726965, "nr": 9, "picture": "https://images.pexels.com/videos/7607089/pictures/preview-9.jpeg"}, {"id": 6726966, "nr": 10, "picture": "https://images.pexels.com/videos/7607089/pictures/preview-10.jpeg"}, {"id": 6726967, "nr": 11, "picture": "https://images.pexels.com/videos/7607089/pictures/preview-11.jpeg"}, {"id": 6726968, "nr": 12, "picture": "https://images.pexels.com/videos/7607089/pictures/preview-12.jpeg"}, {"id": 6726969, "nr": 13, "picture": "https://images.pexels.com/videos/7607089/pictures/preview-13.jpeg"}, {"id": 6726970, "nr": 14, "picture": "https://images.pexels.com/videos/7607089/pictures/preview-14.jpeg"}]}], "total_results": 1889, "next_page": "https://api.pexels.com/v1/videos/search/?orientation=portrait&page=2&per_page=8&query=europeans+arrival", "url": "https://api-server.pexels.com/search/videos/europeans%20arrival/"}, "timestamp": "2024-12-30T19:43:47.811998"}
