{"query": "heaviest fruit", "response": {"page": 1, "per_page": 8, "videos": [{"id": 9969035, "width": 1152, "height": 2048, "duration": 15, "full_res": null, "tags": [], "url": "https://www.pexels.com/video/person-lighting-candle-with-matchstick-9969035/", "image": "https://images.pexels.com/videos/9969035/pexels-photo-9969035.jpeg?auto=compress&cs=tinysrgb&fit=crop&h=1200&w=630", "avg_color": null, "user": {"id": 2278756, "name": "Vlada Karpovich", "url": "https://www.pexels.com/@vlada-karpovich"}, "video_files": [{"id": 11195542, "quality": "sd", "file_type": "video/mp4", "width": 540, "height": 960, "fps": 25.0, "link": "https://videos.pexels.com/video-files/9969035/9969035-sd_540_960_25fps.mp4", "size": 1663116}, {"id": 11195635, "quality": "hd", "file_type": "video/mp4", "width": 1080, "height": 1920, "fps": 25.0, "link": "https://videos.pexels.com/video-files/9969035/9969035-hd_1080_1920_25fps.mp4", "size": 4478327}, {"id": 11195728, "quality": "hd", "file_type": "video/mp4", "width": 720, "height": 1280, "fps": 25.0, "link": "https://videos.pexels.com/video-files/9969035/9969035-hd_720_1280_25fps.mp4", "size": 2316472}, {"id": 11195942, "quality": "sd", "file_type": "video/mp4", "width": 360, "height": 640, "fps": 25.0, "link": "https://videos.pexels.com/video-files/9969035/9969035-sd_360_640_25fps.mp4", "size": 857765}], "video_pictures": [{"id": 10412240, "nr": 0, "picture": "https://images.pexels.com/videos/9969035/pictures/preview-0.jpeg"}, {"id": 10412246, "nr": 1, "picture": "https://images.pexels.com/videos/9969035/pictures/preview-1.jpeg"}, {"id": 10412250, "nr": 2, "picture": "https://images.pexels.com/videos/9969035/pictures/preview-2.jpeg"}, {"id": 10412255, "nr": 3, "picture": "https://images.pexels.com/videos/9969035/pictures/preview-3.jpeg"}, {"id": 10412262, "nr": 4, "picture": "https://images.pexels.com/videos/9969035/pictures/preview-4.jpeg"}, {"id": 10412270, "nr": 5, "picture": "https://images.pexels.com/videos/9969035/pictures/preview-5.jpeg"}, {"id": 10412276, "nr": 6, "picture": "https://images.pexels.com/videos/9969035/pictures/preview-6.jpeg"}, {"id": 10412287, "nr": 7, "picture": "https://images.pexels.com/videos/9969035/pictures/preview-7.jpeg"}, {"id": 10412294, "nr": 8, "picture": "https://images.pexels.com/videos/9969035/pictures/preview-8.jpeg"}, {"id": 10412302, "nr": 9, "picture": "https://images.pexels.com/videos/9969035/pictures/preview-9.jpeg"}, {"id": 10412314, "nr": 10, "picture": "https://images.pexels.com/videos/9969035/pictures/preview-10.jpeg"}, {"id": 10412323, "nr": 11, "picture": "https://images.pexels.com/videos/9969035/pictures/preview-11.jpeg"}, {"id": 10412332, "nr": 12, "picture": "https://images.pexels.com/videos/9969035/pictures/preview-12.jpeg"}, {"id": 10412342, "nr": 13, "picture": "https://images.pexels.com/videos/9969035/pictures/preview-13.jpeg"}, {"id": 10412354, "nr": 14, "picture": "https://images.pexels.com/videos/9969035/pictures/preview-14.jpeg"}]}, {"id": 7172249, "width": 2160, "height": 3840, "duration": 8, "full_res": null, "tags": [], "url": "https://www.pexels.com/video/grapes-and-sliced-pomelo-on-display-7172249/", "image": "https://images.pexels.com/videos/7172249/adult-apple-beige-tones-breakfast-7172249.jpeg?auto=compress&cs=tinysrgb&fit=crop&h=1200&w=630", "avg_color": null, "user": {"id": 3511482, "name": "Polina Kovaleva", "url": "https://www.pexels.com/@polina-kovaleva"}, "video_files": [{"id": 10328753, "quality": "sd", "file_type": "video/mp4", "width": 360, "height": 640, "fps": 25.0, "link": "https://videos.pexels.com/video-files/7172249/7172249-sd_360_640_25fps.mp4", "size": 483020}, {"id": 10328902, "quality": "sd", "file_type": "video/mp4", "width": 240, "height": 426, "fps": 25.0, "link": "https://videos.pexels.com/video-files/7172249/7172249-sd_240_426_25fps.mp4", "size": 306772}, {"id": 10328992, "quality": "uhd", "file_type": "video/mp4", "width": 2160, "height": 3840, "fps": 25.0, "link": "https://videos.pexels.com/video-files/7172249/7172249-uhd_2160_3840_25fps.mp4", "size": 22823555}, {"id": 10329158, "quality": "uhd", "file_type": "video/mp4", "width": 1440, "height": 2560, "fps": 25.0, "link": "https://videos.pexels.com/video-files/7172249/7172249-uhd_1440_2560_25fps.mp4", "size": 11981619}, {"id": 10329404, "quality": "hd", "file_type": "video/mp4", "width": 1080, "height": 1920, "fps": 25.0, "link": "https://videos.pexels.com/video-files/7172249/7172249-hd_1080_1920_25fps.mp4", "size": 4977395}, {"id": 10329538, "quality": "hd", "file_type": "video/mp4", "width": 720, "height": 1280, "fps": 25.0, "link": "https://videos.pexels.com/video-files/7172249/7172249-hd_720_1280_25fps.mp4", "size": 2355743}, {"id": 10329688, "quality": "sd", "file_type": "video/mp4", "width": 540, "height": 960, "fps": 25.0, "link": "https://videos.pexels.com/video-files/7172249/7172249-sd_540_960_25fps.mp4", "size": 1421082}], "video_pictures": [{"id": 5887333, "nr": 0, "picture": "https://images.pexels.com/videos/7172249/pictures/preview-0.jpeg"}, {"id": 5887337, "nr": 1, "picture": "https://images.pexels.com/videos/7172249/pictures/preview-1.jpeg"}, {"id": 5887340, "nr": 2, "picture": "https://images.pexels.com/videos/7172249/pictures/preview-2.jpeg"}, {"id": 5887345, "nr": 3, "picture": "https://images.pexels.com/videos/7172249/pictures/preview-3.jpeg"}, {"id": 5887349, "nr": 4, "picture": "https://images.pexels.com/videos/7172249/pictures/preview-4.jpeg"}, {"id": 5887354, "nr": 5, "picture": "https://images.pexels.com/videos/7172249/pictures/preview-5.jpeg"}, {"id": 5887359, "nr": 6, "picture": "https://images.pexels.com/videos/7172249/pictures/preview-6.jpeg"}, {"id": 5887366, "nr": 7, "picture": "https://images.pexels.com/videos/7172249/pictures/preview-7.jpeg"}, {"id": 5887372, "nr": 8, "picture": "https://images.pexels.com/videos/7172249/pictures/preview-8.jpeg"}, {"id": 5887375, "nr": 9, "picture": "https://images.pexels.com/videos/7172249/pictures/preview-9.jpeg"}, {"id": 5887380, "nr": 10, "picture": "https://images.pexels.com/videos/7172249/pictures/preview-10.jpeg"}, {"id": 5887384, "nr": 11, "picture": "https://images.pexels.com/videos/7172249/pictures/preview-11.jpeg"}, {"id": 5887387, "nr": 12, "picture": "https://images.pexels.com/videos/7172249/pictures/preview-12.jpeg"}, {"id": 5887392, "nr": 13, "picture": "https://images.pexels.com/videos/7172249/pictures/preview-13.jpeg"}, {"id": 5887401, "nr": 14, "picture": "https://images.pexels.com/videos/7172249/pictures/preview-14.jpeg"}]}, {"id": 5935123, "width": 1080, "height": 1920, "duration": 12, "full_res": null, "tags": [], "url": "https://www.pexels.com/video/putting-kiwi-slices-in-blender-5935123/", "image": "https://images.pexels.com/videos/5935123/pexels-photo-5935123.jpeg?auto=compress&cs=tinysrgb&fit=crop&h=1200&w=630", "avg_color": null, "user": {"id": 3660112, "name": "Charlotte May", "url": "https://www.pexels.com/@charlotte-may"}, "video_files": [{"id": 9860885, "quality": "hd", "file_type": "video/mp4", "width": 1080, "height": 1920, "fps": 25.0, "link": "https://videos.pexels.com/video-files/5935123/5935123-hd_1080_1920_25fps.mp4", "size": 5121693}, {"id": 9860988, "quality": "sd", "file_type": "video/mp4", "width": 540, "height": 960, "fps": 25.0, "link": "https://videos.pexels.com/video-files/5935123/5935123-sd_540_960_25fps.mp4", "size": 1430667}, {"id": 9861044, "quality": "hd", "file_type": "video/mp4", "width": 720, "height": 1280, "fps": 50.0, "link": "https://videos.pexels.com/video-files/5935123/5935123-hd_720_1280_50fps.mp4", "size": 2321786}, {"id": 9861094, "quality": "sd", "file_type": "video/mp4", "width": 360, "height": 640, "fps": 25.0, "link": "https://videos.pexels.com/video-files/5935123/5935123-sd_360_640_25fps.mp4", "size": 679728}, {"id": 9861137, "quality": "sd", "file_type": "video/mp4", "width": 240, "height": 426, "fps": 25.0, "link": "https://videos.pexels.com/video-files/5935123/5935123-sd_240_426_25fps.mp4", "size": 367622}], "video_pictures": [{"id": 3622668, "nr": 0, "picture": "https://images.pexels.com/videos/5935123/pictures/preview-0.jpeg"}, {"id": 3622704, "nr": 1, "picture": "https://images.pexels.com/videos/5935123/pictures/preview-1.jpeg"}, {"id": 3622749, "nr": 2, "picture": "https://images.pexels.com/videos/5935123/pictures/preview-2.jpeg"}, {"id": 3622778, "nr": 3, "picture": "https://images.pexels.com/videos/5935123/pictures/preview-3.jpeg"}, {"id": 3622822, "nr": 4, "picture": "https://images.pexels.com/videos/5935123/pictures/preview-4.jpeg"}, {"id": 3622857, "nr": 5, "picture": "https://images.pexels.com/videos/5935123/pictures/preview-5.jpeg"}, {"id": 3622891, "nr": 6, "picture": "https://images.pexels.com/videos/5935123/pictures/preview-6.jpeg"}, {"id": 3622927, "nr": 7, "picture": "https://images.pexels.com/videos/5935123/pictures/preview-7.jpeg"}, {"id": 3622970, "nr": 8, "picture": "https://images.pexels.com/videos/5935123/pictures/preview-8.jpeg"}, {"id": 3623057, "nr": 9, "picture": "https://images.pexels.com/videos/5935123/pictures/preview-9.jpeg"}, {"id": 3623079, "nr": 10, "picture": "https://images.pexels.com/videos/5935123/pictures/preview-10.jpeg"}, {"id": 3623101, "nr": 11, "picture": "https://images.pexels.com/videos/5935123/pictures/preview-11.jpeg"}, {"id": 3623121, "nr": 12, "picture": "https://images.pexels.com/videos/5935123/pictures/preview-12.jpeg"}, {"id": 3623136, "nr": 13, "picture": "https://images.pexels.com/videos/5935123/pictures/preview-13.jpeg"}, {"id": 3623144, "nr": 14, "picture": "https://images.pexels.com/videos/5935123/pictures/preview-14.jpeg"}]}, {"id": 5935119, "width": 1080, "height": 1920, "duration": 14, "full_res": null, "tags": [], "url": "https://www.pexels.com/video/pouring-orange-juice-on-a-glass-5935119/", "image": "https://images.pexels.com/videos/5935119/pexels-photo-5935119.jpeg?auto=compress&cs=tinysrgb&fit=crop&h=1200&w=630", "avg_color": null, "user": {"id": 3660112, "name": "Charlotte May", "url": "https://www.pexels.com/@charlotte-may"}, "video_files": [{"id": 9861158, "quality": "sd", "file_type": "video/mp4", "width": 540, "height": 960, "fps": 25.0, "link": "https://videos.pexels.com/video-files/5935119/5935119-sd_540_960_25fps.mp4", "size": 2169062}, {"id": 9861187, "quality": "hd", "file_type": "video/mp4", "width": 1080, "height": 1920, "fps": 25.0, "link": "https://videos.pexels.com/video-files/5935119/5935119-hd_1080_1920_25fps.mp4", "size": 7425397}, {"id": 9861271, "quality": "hd", "file_type": "video/mp4", "width": 720, "height": 1280, "fps": 50.0, "link": "https://videos.pexels.com/video-files/5935119/5935119-hd_720_1280_50fps.mp4", "size": 3881753}, {"id": 9861357, "quality": "sd", "file_type": "video/mp4", "width": 240, "height": 426, "fps": 25.0, "link": "https://videos.pexels.com/video-files/5935119/5935119-sd_240_426_25fps.mp4", "size": 598056}, {"id": 9861467, "quality": "sd", "file_type": "video/mp4", "width": 360, "height": 640, "fps": 25.0, "link": "https://videos.pexels.com/video-files/5935119/5935119-sd_360_640_25fps.mp4", "size": 1049845}], "video_pictures": [{"id": 3622622, "nr": 0, "picture": "https://images.pexels.com/videos/5935119/pictures/preview-0.jpeg"}, {"id": 3622657, "nr": 1, "picture": "https://images.pexels.com/videos/5935119/pictures/preview-1.jpeg"}, {"id": 3622692, "nr": 2, "picture": "https://images.pexels.com/videos/5935119/pictures/preview-2.jpeg"}, {"id": 3622736, "nr": 3, "picture": "https://images.pexels.com/videos/5935119/pictures/preview-3.jpeg"}, {"id": 3622780, "nr": 4, "picture": "https://images.pexels.com/videos/5935119/pictures/preview-4.jpeg"}, {"id": 3622819, "nr": 5, "picture": "https://images.pexels.com/videos/5935119/pictures/preview-5.jpeg"}, {"id": 3622855, "nr": 6, "picture": "https://images.pexels.com/videos/5935119/pictures/preview-6.jpeg"}, {"id": 3622899, "nr": 7, "picture": "https://images.pexels.com/videos/5935119/pictures/preview-7.jpeg"}, {"id": 3622926, "nr": 8, "picture": "https://images.pexels.com/videos/5935119/pictures/preview-8.jpeg"}, {"id": 3622960, "nr": 9, "picture": "https://images.pexels.com/videos/5935119/pictures/preview-9.jpeg"}, {"id": 3622997, "nr": 10, "picture": "https://images.pexels.com/videos/5935119/pictures/preview-10.jpeg"}, {"id": 3623036, "nr": 11, "picture": "https://images.pexels.com/videos/5935119/pictures/preview-11.jpeg"}, {"id": 3623062, "nr": 12, "picture": "https://images.pexels.com/videos/5935119/pictures/preview-12.jpeg"}, {"id": 3623090, "nr": 13, "picture": "https://images.pexels.com/videos/5935119/pictures/preview-13.jpeg"}, {"id": 3623140, "nr": 14, "picture": "https://images.pexels.com/videos/5935119/pictures/preview-14.jpeg"}]}, {"id": 5899710, "width": 2160, "height": 4096, "duration": 30, "full_res": null, "tags": [], "url": "https://www.pexels.com/video/a-person-getting-a-cracked-coconut-5899710/", "image": "https://images.pexels.com/videos/5899710/pexels-photo-5899710.jpeg?auto=compress&cs=tinysrgb&fit=crop&h=1200&w=630", "avg_color": null, "user": {"id": 1437723, "name": "cottonbro studio", "url": "https://www.pexels.com/@cottonbro"}, "video_files": [{"id": 9845100, "quality": "uhd", "file_type": "video/mp4", "width": 1440, "height": 2732, "fps": 25.0, "link": "https://videos.pexels.com/video-files/5899710/5899710-uhd_1440_2732_25fps.mp4", "size": 21758279}, {"id": 9845140, "quality": "uhd", "file_type": "video/mp4", "width": 2160, "height": 4096, "fps": 25.0, "link": "https://videos.pexels.com/video-files/5899710/5899710-uhd_2160_4096_25fps.mp4", "size": 58314106}, {"id": 9845187, "quality": "sd", "file_type": "video/mp4", "width": 506, "height": 960, "fps": 25.0, "link": "https://videos.pexels.com/video-files/5899710/5899710-sd_506_960_25fps.mp4", "size": 2555845}, {"id": 9845210, "quality": "hd", "file_type": "video/mp4", "width": 720, "height": 1366, "fps": 25.0, "link": "https://videos.pexels.com/video-files/5899710/5899710-hd_720_1366_25fps.mp4", "size": 5262686}, {"id": 9845291, "quality": "hd", "file_type": "video/mp4", "width": 1080, "height": 2048, "fps": 25.0, "link": "https://videos.pexels.com/video-files/5899710/5899710-hd_1080_2048_25fps.mp4", "size": 11739946}, {"id": 9845345, "quality": "sd", "file_type": "video/mp4", "width": 338, "height": 640, "fps": 25.0, "link": "https://videos.pexels.com/video-files/5899710/5899710-sd_338_640_25fps.mp4", "size": 1353138}, {"id": 9845368, "quality": "sd", "file_type": "video/mp4", "width": 226, "height": 426, "fps": 25.0, "link": "https://videos.pexels.com/video-files/5899710/5899710-sd_226_426_25fps.mp4", "size": 766735}], "video_pictures": [{"id": 3553247, "nr": 0, "picture": "https://images.pexels.com/videos/5899710/pictures/preview-0.jpeg"}, {"id": 3553255, "nr": 1, "picture": "https://images.pexels.com/videos/5899710/pictures/preview-1.jpeg"}, {"id": 3553264, "nr": 2, "picture": "https://images.pexels.com/videos/5899710/pictures/preview-2.jpeg"}, {"id": 3553271, "nr": 3, "picture": "https://images.pexels.com/videos/5899710/pictures/preview-3.jpeg"}, {"id": 3553277, "nr": 4, "picture": "https://images.pexels.com/videos/5899710/pictures/preview-4.jpeg"}, {"id": 3553285, "nr": 5, "picture": "https://images.pexels.com/videos/5899710/pictures/preview-5.jpeg"}, {"id": 3553292, "nr": 6, "picture": "https://images.pexels.com/videos/5899710/pictures/preview-6.jpeg"}, {"id": 3553306, "nr": 7, "picture": "https://images.pexels.com/videos/5899710/pictures/preview-7.jpeg"}, {"id": 3553313, "nr": 8, "picture": "https://images.pexels.com/videos/5899710/pictures/preview-8.jpeg"}, {"id": 3553323, "nr": 9, "picture": "https://images.pexels.com/videos/5899710/pictures/preview-9.jpeg"}, {"id": 3553341, "nr": 10, "picture": "https://images.pexels.com/videos/5899710/pictures/preview-10.jpeg"}, {"id": 3553358, "nr": 11, "picture": "https://images.pexels.com/videos/5899710/pictures/preview-11.jpeg"}, {"id": 3553374, "nr": 12, "picture": "https://images.pexels.com/videos/5899710/pictures/preview-12.jpeg"}, {"id": 3553396, "nr": 13, "picture": "https://images.pexels.com/videos/5899710/pictures/preview-13.jpeg"}, {"id": 3553414, "nr": 14, "picture": "https://images.pexels.com/videos/5899710/pictures/preview-14.jpeg"}]}, {"id": 8106325, "width": 1050, "height": 1682, "duration": 8, "full_res": null, "tags": [], "url": "https://www.pexels.com/video/person-pouring-milk-in-coffee-8106325/", "image": "https://images.pexels.com/videos/8106325/baking-bowl-breakfast-breakfast-flatlay-8106325.jpeg?auto=compress&cs=tinysrgb&fit=crop&h=1200&w=630", "avg_color": null, "user": {"id": 42373327, "name": "solod_sha", "url": "https://www.pexels.com/@solodsha"}, "video_files": [{"id": 10698108, "quality": "hd", "file_type": "video/mp4", "width": 720, "height": 1154, "fps": 30.0, "link": "https://videos.pexels.com/video-files/8106325/8106325-hd_720_1154_30fps.mp4", "size": 2469067}, {"id": 10698126, "quality": "sd", "file_type": "video/mp4", "width": 240, "height": 384, "fps": 30.0, "link": "https://videos.pexels.com/video-files/8106325/8106325-sd_240_384_30fps.mp4", "size": 167846}, {"id": 10698143, "quality": "sd", "file_type": "video/mp4", "width": 540, "height": 866, "fps": 30.0, "link": "https://videos.pexels.com/video-files/8106325/8106325-sd_540_866_30fps.mp4", "size": 1372173}, {"id": 10698174, "quality": "sd", "file_type": "video/mp4", "width": 360, "height": 578, "fps": 30.0, "link": "https://videos.pexels.com/video-files/8106325/8106325-sd_360_578_30fps.mp4", "size": 458249}, {"id": 10698271, "quality": "hd", "file_type": "video/mp4", "width": 1050, "height": 1682, "fps": 30.0, "link": "https://videos.pexels.com/video-files/8106325/8106325-hd_1050_1682_30fps.mp4", "size": 4905593}], "video_pictures": [{"id": 7627268, "nr": 0, "picture": "https://images.pexels.com/videos/8106325/pictures/preview-0.jpeg"}, {"id": 7627271, "nr": 1, "picture": "https://images.pexels.com/videos/8106325/pictures/preview-1.jpeg"}, {"id": 7627274, "nr": 2, "picture": "https://images.pexels.com/videos/8106325/pictures/preview-2.jpeg"}, {"id": 7627276, "nr": 3, "picture": "https://images.pexels.com/videos/8106325/pictures/preview-3.jpeg"}, {"id": 7627277, "nr": 4, "picture": "https://images.pexels.com/videos/8106325/pictures/preview-4.jpeg"}, {"id": 7627280, "nr": 5, "picture": "https://images.pexels.com/videos/8106325/pictures/preview-5.jpeg"}, {"id": 7627283, "nr": 6, "picture": "https://images.pexels.com/videos/8106325/pictures/preview-6.jpeg"}, {"id": 7627285, "nr": 7, "picture": "https://images.pexels.com/videos/8106325/pictures/preview-7.jpeg"}, {"id": 7627287, "nr": 8, "picture": "https://images.pexels.com/videos/8106325/pictures/preview-8.jpeg"}, {"id": 7627289, "nr": 9, "picture": "https://images.pexels.com/videos/8106325/pictures/preview-9.jpeg"}, {"id": 7627291, "nr": 10, "picture": "https://images.pexels.com/videos/8106325/pictures/preview-10.jpeg"}, {"id": 7627293, "nr": 11, "picture": "https://images.pexels.com/videos/8106325/pictures/preview-11.jpeg"}, {"id": 7627294, "nr": 12, "picture": "https://images.pexels.com/videos/8106325/pictures/preview-12.jpeg"}, {"id": 7627296, "nr": 13, "picture": "https://images.pexels.com/videos/8106325/pictures/preview-13.jpeg"}, {"id": 7627298, "nr": 14, "picture": "https://images.pexels.com/videos/8106325/pictures/preview-14.jpeg"}]}, {"id": 27633462, "width": 1080, "height": 1920, "duration": 13, "full_res": null, "tags": [], "url": "https://www.pexels.com/video/cut-the-cake-27633462/", "image": "https://images.pexels.com/videos/27633462/tart-27633462.jpeg?auto=compress&cs=tinysrgb&fit=crop&h=1200&w=630", "avg_color": null, "user": {"id": 1241784841, "name": "Nemika", "url": "https://www.pexels.com/@nemika-1241784841"}, "video_files": [{"id": 12189352, "quality": null, "file_type": "video/mp4", "width": 360, "height": 640, "fps": 25.0, "link": "https://videos.pexels.com/video-files/27633462/12189352_360_640_25fps.mp4", "size": 1504580}, {"id": 12189353, "quality": null, "file_type": "video/mp4", "width": 540, "height": 960, "fps": 25.0, "link": "https://videos.pexels.com/video-files/27633462/12189353_540_960_25fps.mp4", "size": 2950556}, {"id": 12189354, "quality": null, "file_type": "video/mp4", "width": 720, "height": 1280, "fps": 25.0, "link": "https://videos.pexels.com/video-files/27633462/12189354_720_1280_25fps.mp4", "size": 4770784}, {"id": 12189355, "quality": null, "file_type": "video/mp4", "width": 1080, "height": 1920, "fps": 25.0, "link": "https://videos.pexels.com/video-files/27633462/12189355_1080_1920_25fps.mp4", "size": 10554911}], "video_pictures": [{"id": 22573129, "nr": 0, "picture": "https://images.pexels.com/videos/27633462/pictures/preview-0.jpg"}, {"id": 22573130, "nr": 1, "picture": "https://images.pexels.com/videos/27633462/pictures/preview-1.jpg"}, {"id": 22573131, "nr": 2, "picture": "https://images.pexels.com/videos/27633462/pictures/preview-2.jpg"}, {"id": 22573132, "nr": 3, "picture": "https://images.pexels.com/videos/27633462/pictures/preview-3.jpg"}, {"id": 22573133, "nr": 4, "picture": "https://images.pexels.com/videos/27633462/pictures/preview-4.jpg"}, {"id": 22573134, "nr": 5, "picture": "https://images.pexels.com/videos/27633462/pictures/preview-5.jpg"}, {"id": 22573135, "nr": 6, "picture": "https://images.pexels.com/videos/27633462/pictures/preview-6.jpg"}, {"id": 22573136, "nr": 7, "picture": "https://images.pexels.com/videos/27633462/pictures/preview-7.jpg"}, {"id": 22573137, "nr": 8, "picture": "https://images.pexels.com/videos/27633462/pictures/preview-8.jpg"}, {"id": 22573138, "nr": 9, "picture": "https://images.pexels.com/videos/27633462/pictures/preview-9.jpg"}, {"id": 22573139, "nr": 10, "picture": "https://images.pexels.com/videos/27633462/pictures/preview-10.jpg"}, {"id": 22573140, "nr": 11, "picture": "https://images.pexels.com/videos/27633462/pictures/preview-11.jpg"}]}, {"id": 5430749, "width": 1080, "height": 1920, "duration": 29, "full_res": null, "tags": [], "url": "https://www.pexels.com/video/pouring-mulled-wine-on-a-glass-cup-with-cinnamon-sticks-and-lemon-slices-5430749/", "image": "https://images.pexels.com/videos/5430749/pexels-photo-5430749.jpeg?auto=compress&cs=tinysrgb&fit=crop&h=1200&w=630", "avg_color": null, "user": {"id": 3511482, "name": "Polina Kovaleva", "url": "https://www.pexels.com/@polina-kovaleva"}, "video_files": [{"id": 9699386, "quality": "sd", "file_type": "video/mp4", "width": 360, "height": 640, "fps": 25.0, "link": "https://videos.pexels.com/video-files/5430749/5430749-sd_360_640_25fps.mp4", "size": 1646592}, {"id": 9699472, "quality": "sd", "file_type": "video/mp4", "width": 540, "height": 960, "fps": 25.0, "link": "https://videos.pexels.com/video-files/5430749/5430749-sd_540_960_25fps.mp4", "size": 4557388}, {"id": 9699674, "quality": "hd", "file_type": "video/mp4", "width": 1080, "height": 1920, "fps": 25.0, "link": "https://videos.pexels.com/video-files/5430749/5430749-hd_1080_1920_25fps.mp4", "size": 20044445}, {"id": 9699906, "quality": "hd", "file_type": "video/mp4", "width": 720, "height": 1280, "fps": 50.0, "link": "https://videos.pexels.com/video-files/5430749/5430749-hd_720_1280_50fps.mp4", "size": 9845143}, {"id": 9700048, "quality": "sd", "file_type": "video/mp4", "width": 240, "height": 426, "fps": 25.0, "link": "https://videos.pexels.com/video-files/5430749/5430749-sd_240_426_25fps.mp4", "size": 877774}], "video_pictures": [{"id": 2819864, "nr": 0, "picture": "https://images.pexels.com/videos/5430749/pictures/preview-0.jpeg"}, {"id": 2819873, "nr": 1, "picture": "https://images.pexels.com/videos/5430749/pictures/preview-1.jpeg"}, {"id": 2819887, "nr": 2, "picture": "https://images.pexels.com/videos/5430749/pictures/preview-2.jpeg"}, {"id": 2819901, "nr": 3, "picture": "https://images.pexels.com/videos/5430749/pictures/preview-3.jpeg"}, {"id": 2819911, "nr": 4, "picture": "https://images.pexels.com/videos/5430749/pictures/preview-4.jpeg"}, {"id": 2819922, "nr": 5, "picture": "https://images.pexels.com/videos/5430749/pictures/preview-5.jpeg"}, {"id": 2819930, "nr": 6, "picture": "https://images.pexels.com/videos/5430749/pictures/preview-6.jpeg"}, {"id": 2819942, "nr": 7, "picture": "https://images.pexels.com/videos/5430749/pictures/preview-7.jpeg"}, {"id": 2819947, "nr": 8, "picture": "https://images.pexels.com/videos/5430749/pictures/preview-8.jpeg"}, {"id": 2819957, "nr": 9, "picture": "https://images.pexels.com/videos/5430749/pictures/preview-9.jpeg"}, {"id": 2819963, "nr": 10, "picture": "https://images.pexels.com/videos/5430749/pictures/preview-10.jpeg"}, {"id": 2819968, "nr": 11, "picture": "https://images.pexels.com/videos/5430749/pictures/preview-11.jpeg"}, {"id": 2819975, "nr": 12, "picture": "https://images.pexels.com/videos/5430749/pictures/preview-12.jpeg"}, {"id": 2819982, "nr": 13, "picture": "https://images.pexels.com/videos/5430749/pictures/preview-13.jpeg"}, {"id": 2819989, "nr": 14, "picture": "https://images.pexels.com/videos/5430749/pictures/preview-14.jpeg"}]}], "total_results": 2917, "next_page": "https://api.pexels.com/v1/videos/search/?orientation=portrait&page=2&per_page=8&query=heaviest+fruit", "url": "https://api-server.pexels.com/search/videos/heaviest%20fruit/"}, "timestamp": "2024-12-28T22:59:52.874727"}
