{"query": "houseplants indoor", "response": {"page": 1, "per_page": 8, "videos": [{"id": 5874502, "width": 2160, "height": 4096, "duration": 14, "full_res": null, "tags": [], "url": "https://www.pexels.com/video/person-arranging-flowers-in-a-vase-5874502/", "image": "https://images.pexels.com/videos/5874502/pexels-photo-5874502.jpeg?auto=compress&cs=tinysrgb&fit=crop&h=1200&w=630", "avg_color": null, "user": {"id": 3372733, "name": "Monstera Production", "url": "https://www.pexels.com/@gabby-k"}, "video_files": [{"id": 9832867, "quality": "hd", "file_type": "video/mp4", "width": 1080, "height": 2048, "fps": 30.0, "link": "https://videos.pexels.com/video-files/5874502/5874502-hd_1080_2048_30fps.mp4", "size": 5375258}, {"id": 9832917, "quality": "hd", "file_type": "video/mp4", "width": 720, "height": 1366, "fps": 30.0, "link": "https://videos.pexels.com/video-files/5874502/5874502-hd_720_1366_30fps.mp4", "size": 2509998}, {"id": 9832958, "quality": "uhd", "file_type": "video/mp4", "width": 2160, "height": 4096, "fps": 30.0, "link": "https://videos.pexels.com/video-files/5874502/5874502-uhd_2160_4096_30fps.mp4", "size": 23594546}, {"id": 9833011, "quality": "sd", "file_type": "video/mp4", "width": 338, "height": 640, "fps": 30.0, "link": "https://videos.pexels.com/video-files/5874502/5874502-sd_338_640_30fps.mp4", "size": 649864}, {"id": 9833086, "quality": "uhd", "file_type": "video/mp4", "width": 1440, "height": 2732, "fps": 30.0, "link": "https://videos.pexels.com/video-files/5874502/5874502-uhd_1440_2732_30fps.mp4", "size": 9427300}, {"id": 9833138, "quality": "sd", "file_type": "video/mp4", "width": 506, "height": 960, "fps": 30.0, "link": "https://videos.pexels.com/video-files/5874502/5874502-sd_506_960_30fps.mp4", "size": 1283179}, {"id": 9833217, "quality": "sd", "file_type": "video/mp4", "width": 226, "height": 426, "fps": 30.0, "link": "https://videos.pexels.com/video-files/5874502/5874502-sd_226_426_30fps.mp4", "size": 387470}], "video_pictures": [{"id": 3501968, "nr": 0, "picture": "https://images.pexels.com/videos/5874502/pictures/preview-0.jpeg"}, {"id": 3501978, "nr": 1, "picture": "https://images.pexels.com/videos/5874502/pictures/preview-1.jpeg"}, {"id": 3501989, "nr": 2, "picture": "https://images.pexels.com/videos/5874502/pictures/preview-2.jpeg"}, {"id": 3502002, "nr": 3, "picture": "https://images.pexels.com/videos/5874502/pictures/preview-3.jpeg"}, {"id": 3502021, "nr": 4, "picture": "https://images.pexels.com/videos/5874502/pictures/preview-4.jpeg"}, {"id": 3502032, "nr": 5, "picture": "https://images.pexels.com/videos/5874502/pictures/preview-5.jpeg"}, {"id": 3502041, "nr": 6, "picture": "https://images.pexels.com/videos/5874502/pictures/preview-6.jpeg"}, {"id": 3502057, "nr": 7, "picture": "https://images.pexels.com/videos/5874502/pictures/preview-7.jpeg"}, {"id": 3502068, "nr": 8, "picture": "https://images.pexels.com/videos/5874502/pictures/preview-8.jpeg"}, {"id": 3502080, "nr": 9, "picture": "https://images.pexels.com/videos/5874502/pictures/preview-9.jpeg"}, {"id": 3502095, "nr": 10, "picture": "https://images.pexels.com/videos/5874502/pictures/preview-10.jpeg"}, {"id": 3502111, "nr": 11, "picture": "https://images.pexels.com/videos/5874502/pictures/preview-11.jpeg"}, {"id": 3502122, "nr": 12, "picture": "https://images.pexels.com/videos/5874502/pictures/preview-12.jpeg"}, {"id": 3502137, "nr": 13, "picture": "https://images.pexels.com/videos/5874502/pictures/preview-13.jpeg"}, {"id": 3502159, "nr": 14, "picture": "https://images.pexels.com/videos/5874502/pictures/preview-14.jpeg"}]}, {"id": 5824197, "width": 2160, "height": 3840, "duration": 11, "full_res": null, "tags": [], "url": "https://www.pexels.com/video/video-of-a-living-room-5824197/", "image": "https://images.pexels.com/videos/5824197/pexels-photo-5824197.jpeg?auto=compress&cs=tinysrgb&fit=crop&h=1200&w=630", "avg_color": null, "user": {"id": 3660112, "name": "Charlotte May", "url": "https://www.pexels.com/@charlotte-may"}, "video_files": [{"id": 9812768, "quality": "uhd", "file_type": "video/mp4", "width": 1440, "height": 2560, "fps": 23.97599983215332, "link": "https://videos.pexels.com/video-files/5824197/5824197-uhd_1440_2560_24fps.mp4", "size": 11063949}, {"id": 9812789, "quality": "sd", "file_type": "video/mp4", "width": 540, "height": 960, "fps": 23.97599983215332, "link": "https://videos.pexels.com/video-files/5824197/5824197-sd_540_960_24fps.mp4", "size": 2228952}, {"id": 9812812, "quality": "hd", "file_type": "video/mp4", "width": 1080, "height": 1920, "fps": 23.97599983215332, "link": "https://videos.pexels.com/video-files/5824197/5824197-hd_1080_1920_24fps.mp4", "size": 6741914}, {"id": 9812830, "quality": "uhd", "file_type": "video/mp4", "width": 2160, "height": 3840, "fps": 23.97599983215332, "link": "https://videos.pexels.com/video-files/5824197/5824197-uhd_2160_3840_24fps.mp4", "size": 23132976}, {"id": 9812850, "quality": "sd", "file_type": "video/mp4", "width": 240, "height": 426, "fps": 23.97599983215332, "link": "https://videos.pexels.com/video-files/5824197/5824197-sd_240_426_24fps.mp4", "size": 517339}, {"id": 9812872, "quality": "sd", "file_type": "video/mp4", "width": 360, "height": 640, "fps": 23.97599983215332, "link": "https://videos.pexels.com/video-files/5824197/5824197-sd_360_640_24fps.mp4", "size": 878144}, {"id": 9812898, "quality": "hd", "file_type": "video/mp4", "width": 720, "height": 1280, "fps": 23.97599983215332, "link": "https://videos.pexels.com/video-files/5824197/5824197-hd_720_1280_24fps.mp4", "size": 3822834}], "video_pictures": [{"id": 3424635, "nr": 0, "picture": "https://images.pexels.com/videos/5824197/pictures/preview-0.jpeg"}, {"id": 3424642, "nr": 1, "picture": "https://images.pexels.com/videos/5824197/pictures/preview-1.jpeg"}, {"id": 3424659, "nr": 2, "picture": "https://images.pexels.com/videos/5824197/pictures/preview-2.jpeg"}, {"id": 3424673, "nr": 3, "picture": "https://images.pexels.com/videos/5824197/pictures/preview-3.jpeg"}, {"id": 3424686, "nr": 4, "picture": "https://images.pexels.com/videos/5824197/pictures/preview-4.jpeg"}, {"id": 3424701, "nr": 5, "picture": "https://images.pexels.com/videos/5824197/pictures/preview-5.jpeg"}, {"id": 3424711, "nr": 6, "picture": "https://images.pexels.com/videos/5824197/pictures/preview-6.jpeg"}, {"id": 3424726, "nr": 7, "picture": "https://images.pexels.com/videos/5824197/pictures/preview-7.jpeg"}, {"id": 3424740, "nr": 8, "picture": "https://images.pexels.com/videos/5824197/pictures/preview-8.jpeg"}, {"id": 3424754, "nr": 9, "picture": "https://images.pexels.com/videos/5824197/pictures/preview-9.jpeg"}, {"id": 3424771, "nr": 10, "picture": "https://images.pexels.com/videos/5824197/pictures/preview-10.jpeg"}, {"id": 3424779, "nr": 11, "picture": "https://images.pexels.com/videos/5824197/pictures/preview-11.jpeg"}, {"id": 3424792, "nr": 12, "picture": "https://images.pexels.com/videos/5824197/pictures/preview-12.jpeg"}, {"id": 3424805, "nr": 13, "picture": "https://images.pexels.com/videos/5824197/pictures/preview-13.jpeg"}, {"id": 3424818, "nr": 14, "picture": "https://images.pexels.com/videos/5824197/pictures/preview-14.jpeg"}]}, {"id": 9462912, "width": 2160, "height": 3840, "duration": 10, "full_res": null, "tags": [], "url": "https://www.pexels.com/video/a-person-arranging-indoor-plants-and-books-on-the-side-table-9462912/", "image": "https://images.pexels.com/videos/9462912/adult-bamboo-business-chair-9462912.jpeg?auto=compress&cs=tinysrgb&fit=crop&h=1200&w=630", "avg_color": null, "user": {"id": 20455535, "name": "Liliana Drew", "url": "https://www.pexels.com/@liliana-drew"}, "video_files": [{"id": 11106857, "quality": "sd", "file_type": "video/mp4", "width": 360, "height": 640, "fps": 23.97599983215332, "link": "https://videos.pexels.com/video-files/9462912/9462912-sd_360_640_24fps.mp4", "size": 609143}, {"id": 11106873, "quality": "sd", "file_type": "video/mp4", "width": 240, "height": 426, "fps": 23.97599983215332, "link": "https://videos.pexels.com/video-files/9462912/9462912-sd_240_426_24fps.mp4", "size": 431780}, {"id": 11106889, "quality": "hd", "file_type": "video/mp4", "width": 1080, "height": 1920, "fps": 23.97599983215332, "link": "https://videos.pexels.com/video-files/9462912/9462912-hd_1080_1920_24fps.mp4", "size": 5240554}, {"id": 11106905, "quality": "uhd", "file_type": "video/mp4", "width": 2160, "height": 3840, "fps": 23.97599983215332, "link": "https://videos.pexels.com/video-files/9462912/9462912-uhd_2160_3840_24fps.mp4", "size": 21774356}, {"id": 11106917, "quality": "uhd", "file_type": "video/mp4", "width": 1440, "height": 2560, "fps": 23.97599983215332, "link": "https://videos.pexels.com/video-files/9462912/9462912-uhd_1440_2560_24fps.mp4", "size": 9074624}, {"id": 11106934, "quality": "sd", "file_type": "video/mp4", "width": 540, "height": 960, "fps": 23.97599983215332, "link": "https://videos.pexels.com/video-files/9462912/9462912-sd_540_960_24fps.mp4", "size": 1459224}, {"id": 11106958, "quality": "hd", "file_type": "video/mp4", "width": 720, "height": 1280, "fps": 23.97599983215332, "link": "https://videos.pexels.com/video-files/9462912/9462912-hd_720_1280_24fps.mp4", "size": 2595396}], "video_pictures": [{"id": 9719003, "nr": 0, "picture": "https://images.pexels.com/videos/9462912/pictures/preview-0.jpeg"}, {"id": 9719009, "nr": 1, "picture": "https://images.pexels.com/videos/9462912/pictures/preview-1.jpeg"}, {"id": 9719015, "nr": 2, "picture": "https://images.pexels.com/videos/9462912/pictures/preview-2.jpeg"}, {"id": 9719022, "nr": 3, "picture": "https://images.pexels.com/videos/9462912/pictures/preview-3.jpeg"}, {"id": 9719030, "nr": 4, "picture": "https://images.pexels.com/videos/9462912/pictures/preview-4.jpeg"}, {"id": 9719037, "nr": 5, "picture": "https://images.pexels.com/videos/9462912/pictures/preview-5.jpeg"}, {"id": 9719044, "nr": 6, "picture": "https://images.pexels.com/videos/9462912/pictures/preview-6.jpeg"}, {"id": 9719049, "nr": 7, "picture": "https://images.pexels.com/videos/9462912/pictures/preview-7.jpeg"}, {"id": 9719053, "nr": 8, "picture": "https://images.pexels.com/videos/9462912/pictures/preview-8.jpeg"}, {"id": 9719056, "nr": 9, "picture": "https://images.pexels.com/videos/9462912/pictures/preview-9.jpeg"}, {"id": 9719061, "nr": 10, "picture": "https://images.pexels.com/videos/9462912/pictures/preview-10.jpeg"}, {"id": 9719065, "nr": 11, "picture": "https://images.pexels.com/videos/9462912/pictures/preview-11.jpeg"}, {"id": 9719068, "nr": 12, "picture": "https://images.pexels.com/videos/9462912/pictures/preview-12.jpeg"}, {"id": 9719074, "nr": 13, "picture": "https://images.pexels.com/videos/9462912/pictures/preview-13.jpeg"}, {"id": 9719082, "nr": 14, "picture": "https://images.pexels.com/videos/9462912/pictures/preview-14.jpeg"}]}, {"id": 8512883, "width": 2160, "height": 3840, "duration": 12, "full_res": null, "tags": [], "url": "https://www.pexels.com/video/different-plants-on-a-rack-8512883/", "image": "https://images.pexels.com/videos/8512883/beautiful-botanical-botanist-color-8512883.jpeg?auto=compress&cs=tinysrgb&fit=crop&h=1200&w=630", "avg_color": null, "user": {"id": 649765, "name": "Yaroslav Shuraev", "url": "https://www.pexels.com/@yaroslav-shuraev"}, "video_files": [{"id": 10867651, "quality": "sd", "file_type": "video/mp4", "width": 240, "height": 426, "fps": 24.0, "link": "https://videos.pexels.com/video-files/8512883/8512883-sd_240_426_24fps.mp4", "size": 493472}, {"id": 10867686, "quality": "hd", "file_type": "video/mp4", "width": 720, "height": 1280, "fps": 24.0, "link": "https://videos.pexels.com/video-files/8512883/8512883-hd_720_1280_24fps.mp4", "size": 3463813}, {"id": 10867722, "quality": "sd", "file_type": "video/mp4", "width": 540, "height": 960, "fps": 24.0, "link": "https://videos.pexels.com/video-files/8512883/8512883-sd_540_960_24fps.mp4", "size": 1756304}, {"id": 10867755, "quality": "hd", "file_type": "video/mp4", "width": 1080, "height": 1920, "fps": 24.0, "link": "https://videos.pexels.com/video-files/8512883/8512883-hd_1080_1920_24fps.mp4", "size": 6401861}, {"id": 10867843, "quality": "sd", "file_type": "video/mp4", "width": 360, "height": 640, "fps": 24.0, "link": "https://videos.pexels.com/video-files/8512883/8512883-sd_360_640_24fps.mp4", "size": 656930}, {"id": 10867935, "quality": "uhd", "file_type": "video/mp4", "width": 2160, "height": 3840, "fps": 24.0, "link": "https://videos.pexels.com/video-files/8512883/8512883-uhd_2160_3840_24fps.mp4", "size": 34843747}, {"id": 10868016, "quality": "uhd", "file_type": "video/mp4", "width": 1440, "height": 2560, "fps": 24.0, "link": "https://videos.pexels.com/video-files/8512883/8512883-uhd_1440_2560_24fps.mp4", "size": 18463391}], "video_pictures": [{"id": 8403460, "nr": 0, "picture": "https://images.pexels.com/videos/8512883/pictures/preview-0.jpeg"}, {"id": 8403502, "nr": 1, "picture": "https://images.pexels.com/videos/8512883/pictures/preview-1.jpeg"}, {"id": 8403545, "nr": 2, "picture": "https://images.pexels.com/videos/8512883/pictures/preview-2.jpeg"}, {"id": 8403579, "nr": 3, "picture": "https://images.pexels.com/videos/8512883/pictures/preview-3.jpeg"}, {"id": 8403627, "nr": 4, "picture": "https://images.pexels.com/videos/8512883/pictures/preview-4.jpeg"}, {"id": 8403657, "nr": 5, "picture": "https://images.pexels.com/videos/8512883/pictures/preview-5.jpeg"}, {"id": 8403690, "nr": 6, "picture": "https://images.pexels.com/videos/8512883/pictures/preview-6.jpeg"}, {"id": 8403718, "nr": 7, "picture": "https://images.pexels.com/videos/8512883/pictures/preview-7.jpeg"}, {"id": 8403757, "nr": 8, "picture": "https://images.pexels.com/videos/8512883/pictures/preview-8.jpeg"}, {"id": 8403789, "nr": 9, "picture": "https://images.pexels.com/videos/8512883/pictures/preview-9.jpeg"}, {"id": 8403820, "nr": 10, "picture": "https://images.pexels.com/videos/8512883/pictures/preview-10.jpeg"}, {"id": 8403865, "nr": 11, "picture": "https://images.pexels.com/videos/8512883/pictures/preview-11.jpeg"}, {"id": 8403908, "nr": 12, "picture": "https://images.pexels.com/videos/8512883/pictures/preview-12.jpeg"}, {"id": 8403965, "nr": 13, "picture": "https://images.pexels.com/videos/8512883/pictures/preview-13.jpeg"}, {"id": 8404010, "nr": 14, "picture": "https://images.pexels.com/videos/8512883/pictures/preview-14.jpeg"}]}, {"id": 9431536, "width": 2160, "height": 3840, "duration": 10, "full_res": null, "tags": [], "url": "https://www.pexels.com/video/a-man-kneeling-down-on-the-floor-9431536/", "image": "https://images.pexels.com/videos/9431536/adult-affection-beautiful-bride-9431536.jpeg?auto=compress&cs=tinysrgb&fit=crop&h=1200&w=630", "avg_color": null, "user": {"id": 20454705, "name": "Anna Pou", "url": "https://www.pexels.com/@anna-pou"}, "video_files": [{"id": 11103862, "quality": "uhd", "file_type": "video/mp4", "width": 1440, "height": 2560, "fps": 23.97599983215332, "link": "https://videos.pexels.com/video-files/9431536/9431536-uhd_1440_2560_24fps.mp4", "size": 13896430}, {"id": 11104118, "quality": "sd", "file_type": "video/mp4", "width": 240, "height": 426, "fps": 23.97599983215332, "link": "https://videos.pexels.com/video-files/9431536/9431536-sd_240_426_24fps.mp4", "size": 430066}, {"id": 11104250, "quality": "sd", "file_type": "video/mp4", "width": 360, "height": 640, "fps": 23.97599983215332, "link": "https://videos.pexels.com/video-files/9431536/9431536-sd_360_640_24fps.mp4", "size": 647685}, {"id": 11104464, "quality": "hd", "file_type": "video/mp4", "width": 1080, "height": 1920, "fps": 23.97599983215332, "link": "https://videos.pexels.com/video-files/9431536/9431536-hd_1080_1920_24fps.mp4", "size": 6778406}, {"id": 11104618, "quality": "hd", "file_type": "video/mp4", "width": 720, "height": 1280, "fps": 23.97599983215332, "link": "https://videos.pexels.com/video-files/9431536/9431536-hd_720_1280_24fps.mp4", "size": 3576160}, {"id": 11104767, "quality": "uhd", "file_type": "video/mp4", "width": 2160, "height": 3840, "fps": 23.97599983215332, "link": "https://videos.pexels.com/video-files/9431536/9431536-uhd_2160_3840_24fps.mp4", "size": 29049086}, {"id": 11104895, "quality": "sd", "file_type": "video/mp4", "width": 540, "height": 960, "fps": 23.97599983215332, "link": "https://videos.pexels.com/video-files/9431536/9431536-sd_540_960_24fps.mp4", "size": 1796404}], "video_pictures": [{"id": 9686667, "nr": 0, "picture": "https://images.pexels.com/videos/9431536/pictures/preview-0.jpeg"}, {"id": 9686688, "nr": 1, "picture": "https://images.pexels.com/videos/9431536/pictures/preview-1.jpeg"}, {"id": 9686704, "nr": 2, "picture": "https://images.pexels.com/videos/9431536/pictures/preview-2.jpeg"}, {"id": 9686720, "nr": 3, "picture": "https://images.pexels.com/videos/9431536/pictures/preview-3.jpeg"}, {"id": 9686740, "nr": 4, "picture": "https://images.pexels.com/videos/9431536/pictures/preview-4.jpeg"}, {"id": 9686757, "nr": 5, "picture": "https://images.pexels.com/videos/9431536/pictures/preview-5.jpeg"}, {"id": 9686774, "nr": 6, "picture": "https://images.pexels.com/videos/9431536/pictures/preview-6.jpeg"}, {"id": 9686786, "nr": 7, "picture": "https://images.pexels.com/videos/9431536/pictures/preview-7.jpeg"}, {"id": 9686808, "nr": 8, "picture": "https://images.pexels.com/videos/9431536/pictures/preview-8.jpeg"}, {"id": 9686826, "nr": 9, "picture": "https://images.pexels.com/videos/9431536/pictures/preview-9.jpeg"}, {"id": 9686848, "nr": 10, "picture": "https://images.pexels.com/videos/9431536/pictures/preview-10.jpeg"}, {"id": 9686868, "nr": 11, "picture": "https://images.pexels.com/videos/9431536/pictures/preview-11.jpeg"}, {"id": 9686879, "nr": 12, "picture": "https://images.pexels.com/videos/9431536/pictures/preview-12.jpeg"}, {"id": 9686892, "nr": 13, "picture": "https://images.pexels.com/videos/9431536/pictures/preview-13.jpeg"}, {"id": 9686905, "nr": 14, "picture": "https://images.pexels.com/videos/9431536/pictures/preview-14.jpeg"}]}, {"id": 4503298, "width": 2160, "height": 4096, "duration": 41, "full_res": null, "tags": [], "url": "https://www.pexels.com/video/a-woman-is-sitting-on-the-floor-in-a-room-with-plants-4503298/", "image": "https://images.pexels.com/videos/4503298/pexels-photo-4503298.jpeg?auto=compress&cs=tinysrgb&fit=crop&h=1200&w=630", "avg_color": null, "user": {"id": 1437723, "name": "cottonbro studio", "url": "https://www.pexels.com/@cottonbro"}, "video_files": [{"id": 9382355, "quality": "sd", "file_type": "video/mp4", "width": 506, "height": 960, "fps": 25.0, "link": "https://videos.pexels.com/video-files/4503298/4503298-sd_506_960_25fps.mp4", "size": 5800761}, {"id": 9382410, "quality": "hd", "file_type": "video/mp4", "width": 720, "height": 1366, "fps": 50.0, "link": "https://videos.pexels.com/video-files/4503298/4503298-hd_720_1366_50fps.mp4", "size": 10710960}, {"id": 9382483, "quality": "uhd", "file_type": "video/mp4", "width": 2160, "height": 4096, "fps": 25.0, "link": "https://videos.pexels.com/video-files/4503298/4503298-uhd_2160_4096_25fps.mp4", "size": 91439028}, {"id": 9382572, "quality": "sd", "file_type": "video/mp4", "width": 226, "height": 426, "fps": 25.0, "link": "https://videos.pexels.com/video-files/4503298/4503298-sd_226_426_25fps.mp4", "size": 1541400}, {"id": 9382619, "quality": "uhd", "file_type": "video/mp4", "width": 1440, "height": 2732, "fps": 25.0, "link": "https://videos.pexels.com/video-files/4503298/4503298-uhd_1440_2732_25fps.mp4", "size": 34834235}, {"id": 9382630, "quality": "hd", "file_type": "video/mp4", "width": 1080, "height": 2048, "fps": 25.0, "link": "https://videos.pexels.com/video-files/4503298/4503298-hd_1080_2048_25fps.mp4", "size": 20193096}, {"id": 9382641, "quality": "sd", "file_type": "video/mp4", "width": 338, "height": 640, "fps": 25.0, "link": "https://videos.pexels.com/video-files/4503298/4503298-sd_338_640_25fps.mp4", "size": 2463271}], "video_pictures": [{"id": 1598989, "nr": 0, "picture": "https://images.pexels.com/videos/4503298/pictures/preview-0.jpeg"}, {"id": 1598990, "nr": 1, "picture": "https://images.pexels.com/videos/4503298/pictures/preview-1.jpeg"}, {"id": 1598991, "nr": 2, "picture": "https://images.pexels.com/videos/4503298/pictures/preview-2.jpeg"}, {"id": 1598992, "nr": 3, "picture": "https://images.pexels.com/videos/4503298/pictures/preview-3.jpeg"}, {"id": 1598993, "nr": 4, "picture": "https://images.pexels.com/videos/4503298/pictures/preview-4.jpeg"}, {"id": 1598995, "nr": 5, "picture": "https://images.pexels.com/videos/4503298/pictures/preview-5.jpeg"}, {"id": 1598996, "nr": 6, "picture": "https://images.pexels.com/videos/4503298/pictures/preview-6.jpeg"}, {"id": 1598997, "nr": 7, "picture": "https://images.pexels.com/videos/4503298/pictures/preview-7.jpeg"}, {"id": 1598998, "nr": 8, "picture": "https://images.pexels.com/videos/4503298/pictures/preview-8.jpeg"}, {"id": 1598999, "nr": 9, "picture": "https://images.pexels.com/videos/4503298/pictures/preview-9.jpeg"}, {"id": 1599001, "nr": 10, "picture": "https://images.pexels.com/videos/4503298/pictures/preview-10.jpeg"}, {"id": 1599002, "nr": 11, "picture": "https://images.pexels.com/videos/4503298/pictures/preview-11.jpeg"}, {"id": 1599004, "nr": 12, "picture": "https://images.pexels.com/videos/4503298/pictures/preview-12.jpeg"}, {"id": 1599006, "nr": 13, "picture": "https://images.pexels.com/videos/4503298/pictures/preview-13.jpeg"}, {"id": 1599008, "nr": 14, "picture": "https://images.pexels.com/videos/4503298/pictures/preview-14.jpeg"}]}, {"id": 8079065, "width": 2160, "height": 4096, "duration": 22, "full_res": null, "tags": [], "url": "https://www.pexels.com/video/man-and-woman-kissing-8079065/", "image": "https://images.pexels.com/videos/8079065/pexels-photo-8079065.jpeg?auto=compress&cs=tinysrgb&fit=crop&h=1200&w=630", "avg_color": null, "user": {"id": 30039676, "name": "MART  PRODUCTION", "url": "https://www.pexels.com/@mart-production"}, "video_files": [{"id": 10683911, "quality": "hd", "file_type": "video/mp4", "width": 720, "height": 1366, "fps": 25.0, "link": "https://videos.pexels.com/video-files/8079065/8079065-hd_720_1366_25fps.mp4", "size": 4544866}, {"id": 10683973, "quality": "sd", "file_type": "video/mp4", "width": 338, "height": 640, "fps": 25.0, "link": "https://videos.pexels.com/video-files/8079065/8079065-sd_338_640_25fps.mp4", "size": 1289172}, {"id": 10684022, "quality": "sd", "file_type": "video/mp4", "width": 506, "height": 960, "fps": 25.0, "link": "https://videos.pexels.com/video-files/8079065/8079065-sd_506_960_25fps.mp4", "size": 2511662}, {"id": 10684058, "quality": "uhd", "file_type": "video/mp4", "width": 1440, "height": 2732, "fps": 25.0, "link": "https://videos.pexels.com/video-files/8079065/8079065-uhd_1440_2732_25fps.mp4", "size": 15375121}, {"id": 10684098, "quality": "hd", "file_type": "video/mp4", "width": 1080, "height": 2048, "fps": 25.0, "link": "https://videos.pexels.com/video-files/8079065/8079065-hd_1080_2048_25fps.mp4", "size": 8924638}, {"id": 10684118, "quality": "uhd", "file_type": "video/mp4", "width": 2160, "height": 4096, "fps": 25.0, "link": "https://videos.pexels.com/video-files/8079065/8079065-uhd_2160_4096_25fps.mp4", "size": 38957561}, {"id": 10684133, "quality": "sd", "file_type": "video/mp4", "width": 226, "height": 426, "fps": 25.0, "link": "https://videos.pexels.com/video-files/8079065/8079065-sd_226_426_25fps.mp4", "size": 923940}], "video_pictures": [{"id": 7563150, "nr": 0, "picture": "https://images.pexels.com/videos/8079065/pictures/preview-0.jpeg"}, {"id": 7563158, "nr": 1, "picture": "https://images.pexels.com/videos/8079065/pictures/preview-1.jpeg"}, {"id": 7563168, "nr": 2, "picture": "https://images.pexels.com/videos/8079065/pictures/preview-2.jpeg"}, {"id": 7563178, "nr": 3, "picture": "https://images.pexels.com/videos/8079065/pictures/preview-3.jpeg"}, {"id": 7563189, "nr": 4, "picture": "https://images.pexels.com/videos/8079065/pictures/preview-4.jpeg"}, {"id": 7563199, "nr": 5, "picture": "https://images.pexels.com/videos/8079065/pictures/preview-5.jpeg"}, {"id": 7563207, "nr": 6, "picture": "https://images.pexels.com/videos/8079065/pictures/preview-6.jpeg"}, {"id": 7563220, "nr": 7, "picture": "https://images.pexels.com/videos/8079065/pictures/preview-7.jpeg"}, {"id": 7563225, "nr": 8, "picture": "https://images.pexels.com/videos/8079065/pictures/preview-8.jpeg"}, {"id": 7563235, "nr": 9, "picture": "https://images.pexels.com/videos/8079065/pictures/preview-9.jpeg"}, {"id": 7563242, "nr": 10, "picture": "https://images.pexels.com/videos/8079065/pictures/preview-10.jpeg"}, {"id": 7563250, "nr": 11, "picture": "https://images.pexels.com/videos/8079065/pictures/preview-11.jpeg"}, {"id": 7563259, "nr": 12, "picture": "https://images.pexels.com/videos/8079065/pictures/preview-12.jpeg"}, {"id": 7563267, "nr": 13, "picture": "https://images.pexels.com/videos/8079065/pictures/preview-13.jpeg"}, {"id": 7563278, "nr": 14, "picture": "https://images.pexels.com/videos/8079065/pictures/preview-14.jpeg"}]}, {"id": 9474119, "width": 2160, "height": 3840, "duration": 12, "full_res": null, "tags": [], "url": "https://www.pexels.com/video/woman-drinking-from-a-straw-9474119/", "image": "https://images.pexels.com/videos/9474119/pexels-photo-9474119.jpeg?auto=compress&cs=tinysrgb&fit=crop&h=1200&w=630", "avg_color": null, "user": {"id": 48519361, "name": "Greta Hoffman", "url": "https://www.pexels.com/@greta-hoffman"}, "video_files": [{"id": 11110394, "quality": "hd", "file_type": "video/mp4", "width": 1080, "height": 1920, "fps": 23.97599983215332, "link": "https://videos.pexels.com/video-files/9474119/9474119-hd_1080_1920_24fps.mp4", "size": 3304465}, {"id": 11110579, "quality": "uhd", "file_type": "video/mp4", "width": 2160, "height": 3840, "fps": 23.97599983215332, "link": "https://videos.pexels.com/video-files/9474119/9474119-uhd_2160_3840_24fps.mp4", "size": 14245327}, {"id": 11111119, "quality": "hd", "file_type": "video/mp4", "width": 720, "height": 1280, "fps": 23.97599983215332, "link": "https://videos.pexels.com/video-files/9474119/9474119-hd_720_1280_24fps.mp4", "size": 1616702}, {"id": 11111742, "quality": "sd", "file_type": "video/mp4", "width": 360, "height": 640, "fps": 23.97599983215332, "link": "https://videos.pexels.com/video-files/9474119/9474119-sd_360_640_24fps.mp4", "size": 488372}, {"id": 11111881, "quality": "uhd", "file_type": "video/mp4", "width": 1440, "height": 2560, "fps": 23.97599983215332, "link": "https://videos.pexels.com/video-files/9474119/9474119-uhd_1440_2560_24fps.mp4", "size": 5617236}, {"id": 11112045, "quality": "sd", "file_type": "video/mp4", "width": 240, "height": 426, "fps": 23.97599983215332, "link": "https://videos.pexels.com/video-files/9474119/9474119-sd_240_426_24fps.mp4", "size": 321566}, {"id": 11112215, "quality": "sd", "file_type": "video/mp4", "width": 540, "height": 960, "fps": 23.97599983215332, "link": "https://videos.pexels.com/video-files/9474119/9474119-sd_540_960_24fps.mp4", "size": 969300}], "video_pictures": [{"id": 9741458, "nr": 0, "picture": "https://images.pexels.com/videos/9474119/pictures/preview-0.jpeg"}, {"id": 9741476, "nr": 1, "picture": "https://images.pexels.com/videos/9474119/pictures/preview-1.jpeg"}, {"id": 9741501, "nr": 2, "picture": "https://images.pexels.com/videos/9474119/pictures/preview-2.jpeg"}, {"id": 9741524, "nr": 3, "picture": "https://images.pexels.com/videos/9474119/pictures/preview-3.jpeg"}, {"id": 9741545, "nr": 4, "picture": "https://images.pexels.com/videos/9474119/pictures/preview-4.jpeg"}, {"id": 9741561, "nr": 5, "picture": "https://images.pexels.com/videos/9474119/pictures/preview-5.jpeg"}, {"id": 9741580, "nr": 6, "picture": "https://images.pexels.com/videos/9474119/pictures/preview-6.jpeg"}, {"id": 9741595, "nr": 7, "picture": "https://images.pexels.com/videos/9474119/pictures/preview-7.jpeg"}, {"id": 9741621, "nr": 8, "picture": "https://images.pexels.com/videos/9474119/pictures/preview-8.jpeg"}, {"id": 9741637, "nr": 9, "picture": "https://images.pexels.com/videos/9474119/pictures/preview-9.jpeg"}, {"id": 9741652, "nr": 10, "picture": "https://images.pexels.com/videos/9474119/pictures/preview-10.jpeg"}, {"id": 9741670, "nr": 11, "picture": "https://images.pexels.com/videos/9474119/pictures/preview-11.jpeg"}, {"id": 9741690, "nr": 12, "picture": "https://images.pexels.com/videos/9474119/pictures/preview-12.jpeg"}, {"id": 9741711, "nr": 13, "picture": "https://images.pexels.com/videos/9474119/pictures/preview-13.jpeg"}, {"id": 9741726, "nr": 14, "picture": "https://images.pexels.com/videos/9474119/pictures/preview-14.jpeg"}]}], "total_results": 8000, "next_page": "https://api.pexels.com/v1/videos/search/?orientation=portrait&page=2&per_page=8&query=houseplants+indoor", "url": "https://api-server.pexels.com/search/videos/houseplants%20indoor/"}, "timestamp": "2024-12-28T22:42:05.871906"}
