{"query": "many tomatoes plant", "response": {"page": 1, "per_page": 8, "videos": [{"id": 7601418, "width": 1080, "height": 1920, "duration": 10, "full_res": null, "tags": [], "url": "https://www.pexels.com/video/close-up-video-of-spices-7601418/", "image": "https://images.pexels.com/videos/7601418/pexels-photo-7601418.jpeg?auto=compress&cs=tinysrgb&fit=crop&h=1200&w=630", "avg_color": null, "user": {"id": 11924337, "name": "Los Muertos Crew", "url": "https://www.pexels.com/@cristian-rojas"}, "video_files": [{"id": 10498029, "quality": "sd", "file_type": "video/mp4", "width": 240, "height": 426, "fps": 23.97599983215332, "link": "https://videos.pexels.com/video-files/7601418/7601418-sd_240_426_24fps.mp4", "size": 414473}, {"id": 10498080, "quality": "sd", "file_type": "video/mp4", "width": 360, "height": 640, "fps": 23.97599983215332, "link": "https://videos.pexels.com/video-files/7601418/7601418-sd_360_640_24fps.mp4", "size": 565900}, {"id": 10498275, "quality": "hd", "file_type": "video/mp4", "width": 720, "height": 1280, "fps": 23.97599983215332, "link": "https://videos.pexels.com/video-files/7601418/7601418-hd_720_1280_24fps.mp4", "size": 2279011}, {"id": 10498408, "quality": "hd", "file_type": "video/mp4", "width": 1080, "height": 1920, "fps": 23.97599983215332, "link": "https://videos.pexels.com/video-files/7601418/7601418-hd_1080_1920_24fps.mp4", "size": 4884824}, {"id": 10498516, "quality": "sd", "file_type": "video/mp4", "width": 540, "height": 960, "fps": 23.97599983215332, "link": "https://videos.pexels.com/video-files/7601418/7601418-sd_540_960_24fps.mp4", "size": 1377381}], "video_pictures": [{"id": 6715448, "nr": 0, "picture": "https://images.pexels.com/videos/7601418/pictures/preview-0.jpeg"}, {"id": 6715451, "nr": 1, "picture": "https://images.pexels.com/videos/7601418/pictures/preview-1.jpeg"}, {"id": 6715457, "nr": 2, "picture": "https://images.pexels.com/videos/7601418/pictures/preview-2.jpeg"}, {"id": 6715463, "nr": 3, "picture": "https://images.pexels.com/videos/7601418/pictures/preview-3.jpeg"}, {"id": 6715474, "nr": 4, "picture": "https://images.pexels.com/videos/7601418/pictures/preview-4.jpeg"}, {"id": 6715486, "nr": 5, "picture": "https://images.pexels.com/videos/7601418/pictures/preview-5.jpeg"}, {"id": 6715496, "nr": 6, "picture": "https://images.pexels.com/videos/7601418/pictures/preview-6.jpeg"}, {"id": 6715507, "nr": 7, "picture": "https://images.pexels.com/videos/7601418/pictures/preview-7.jpeg"}, {"id": 6715519, "nr": 8, "picture": "https://images.pexels.com/videos/7601418/pictures/preview-8.jpeg"}, {"id": 6715532, "nr": 9, "picture": "https://images.pexels.com/videos/7601418/pictures/preview-9.jpeg"}, {"id": 6715547, "nr": 10, "picture": "https://images.pexels.com/videos/7601418/pictures/preview-10.jpeg"}, {"id": 6715563, "nr": 11, "picture": "https://images.pexels.com/videos/7601418/pictures/preview-11.jpeg"}, {"id": 6715576, "nr": 12, "picture": "https://images.pexels.com/videos/7601418/pictures/preview-12.jpeg"}, {"id": 6715592, "nr": 13, "picture": "https://images.pexels.com/videos/7601418/pictures/preview-13.jpeg"}, {"id": 6715607, "nr": 14, "picture": "https://images.pexels.com/videos/7601418/pictures/preview-14.jpeg"}]}, {"id": 6520461, "width": 2363, "height": 4096, "duration": 7, "full_res": null, "tags": [], "url": "https://www.pexels.com/video/close-up-of-unripe-tomatoes-6520461/", "image": "https://images.pexels.com/videos/6520461/pexels-photo-6520461.jpeg?auto=compress&cs=tinysrgb&fit=crop&h=1200&w=630", "avg_color": null, "user": {"id": 2678846, "name": "ROMAN ODINTSOV", "url": "https://www.pexels.com/@roman-odintsov"}, "video_files": [{"id": 10064065, "quality": "hd", "file_type": "video/mp4", "width": 720, "height": 1248, "fps": 29.969999313354492, "link": "https://videos.pexels.com/video-files/6520461/6520461-hd_720_1248_30fps.mp4", "size": 2435705}, {"id": 10064200, "quality": "sd", "file_type": "video/mp4", "width": 240, "height": 416, "fps": 29.969999313354492, "link": "https://videos.pexels.com/video-files/6520461/6520461-sd_240_416_30fps.mp4", "size": 311628}, {"id": 10064224, "quality": "hd", "file_type": "video/mp4", "width": 1080, "height": 1872, "fps": 29.969999313354492, "link": "https://videos.pexels.com/video-files/6520461/6520461-hd_1080_1872_30fps.mp4", "size": 4666423}, {"id": 10064249, "quality": "sd", "file_type": "video/mp4", "width": 540, "height": 936, "fps": 29.969999313354492, "link": "https://videos.pexels.com/video-files/6520461/6520461-sd_540_936_30fps.mp4", "size": 1480704}, {"id": 10064276, "quality": "uhd", "file_type": "video/mp4", "width": 2160, "height": 3744, "fps": 29.969999313354492, "link": "https://videos.pexels.com/video-files/6520461/6520461-uhd_2160_3744_30fps.mp4", "size": 20112219}, {"id": 10064315, "quality": "uhd", "file_type": "video/mp4", "width": 1440, "height": 2496, "fps": 29.969999313354492, "link": "https://videos.pexels.com/video-files/6520461/6520461-uhd_1440_2496_30fps.mp4", "size": 11273564}, {"id": 10064340, "quality": "sd", "file_type": "video/mp4", "width": 360, "height": 624, "fps": 29.969999313354492, "link": "https://videos.pexels.com/video-files/6520461/6520461-sd_360_624_30fps.mp4", "size": 535214}], "video_pictures": [{"id": 4572544, "nr": 0, "picture": "https://images.pexels.com/videos/6520461/pictures/preview-0.jpeg"}, {"id": 4572553, "nr": 1, "picture": "https://images.pexels.com/videos/6520461/pictures/preview-1.jpeg"}, {"id": 4572565, "nr": 2, "picture": "https://images.pexels.com/videos/6520461/pictures/preview-2.jpeg"}, {"id": 4572578, "nr": 3, "picture": "https://images.pexels.com/videos/6520461/pictures/preview-3.jpeg"}, {"id": 4572589, "nr": 4, "picture": "https://images.pexels.com/videos/6520461/pictures/preview-4.jpeg"}, {"id": 4572608, "nr": 5, "picture": "https://images.pexels.com/videos/6520461/pictures/preview-5.jpeg"}, {"id": 4572616, "nr": 6, "picture": "https://images.pexels.com/videos/6520461/pictures/preview-6.jpeg"}, {"id": 4572626, "nr": 7, "picture": "https://images.pexels.com/videos/6520461/pictures/preview-7.jpeg"}, {"id": 4572637, "nr": 8, "picture": "https://images.pexels.com/videos/6520461/pictures/preview-8.jpeg"}, {"id": 4572644, "nr": 9, "picture": "https://images.pexels.com/videos/6520461/pictures/preview-9.jpeg"}, {"id": 4572652, "nr": 10, "picture": "https://images.pexels.com/videos/6520461/pictures/preview-10.jpeg"}, {"id": 4572658, "nr": 11, "picture": "https://images.pexels.com/videos/6520461/pictures/preview-11.jpeg"}, {"id": 4572670, "nr": 12, "picture": "https://images.pexels.com/videos/6520461/pictures/preview-12.jpeg"}, {"id": 4572680, "nr": 13, "picture": "https://images.pexels.com/videos/6520461/pictures/preview-13.jpeg"}, {"id": 4572691, "nr": 14, "picture": "https://images.pexels.com/videos/6520461/pictures/preview-14.jpeg"}]}, {"id": 7116718, "width": 2160, "height": 3840, "duration": 9, "full_res": null, "tags": [], "url": "https://www.pexels.com/video/person-selecting-ripe-coffee-cherries-7116718/", "image": "https://images.pexels.com/videos/7116718/pexels-photo-7116718.jpeg?auto=compress&cs=tinysrgb&fit=crop&h=1200&w=630", "avg_color": null, "user": {"id": 33201649, "name": "Michael Burrows", "url": "https://www.pexels.com/@michael-burrows"}, "video_files": [{"id": 10308519, "quality": "sd", "file_type": "video/mp4", "width": 360, "height": 640, "fps": 25.0, "link": "https://videos.pexels.com/video-files/7116718/7116718-sd_360_640_25fps.mp4", "size": 536995}, {"id": 10308602, "quality": "hd", "file_type": "video/mp4", "width": 1080, "height": 1920, "fps": 25.0, "link": "https://videos.pexels.com/video-files/7116718/7116718-hd_1080_1920_25fps.mp4", "size": 5649232}, {"id": 10308758, "quality": "sd", "file_type": "video/mp4", "width": 540, "height": 960, "fps": 25.0, "link": "https://videos.pexels.com/video-files/7116718/7116718-sd_540_960_25fps.mp4", "size": 1599079}, {"id": 10308937, "quality": "uhd", "file_type": "video/mp4", "width": 1440, "height": 2560, "fps": 25.0, "link": "https://videos.pexels.com/video-files/7116718/7116718-uhd_1440_2560_25fps.mp4", "size": 13891027}, {"id": 10309044, "quality": "sd", "file_type": "video/mp4", "width": 240, "height": 426, "fps": 25.0, "link": "https://videos.pexels.com/video-files/7116718/7116718-sd_240_426_25fps.mp4", "size": 339533}, {"id": 10309147, "quality": "uhd", "file_type": "video/mp4", "width": 2160, "height": 3840, "fps": 25.0, "link": "https://videos.pexels.com/video-files/7116718/7116718-uhd_2160_3840_25fps.mp4", "size": 25302137}, {"id": 10309216, "quality": "hd", "file_type": "video/mp4", "width": 720, "height": 1280, "fps": 50.0, "link": "https://videos.pexels.com/video-files/7116718/7116718-hd_720_1280_50fps.mp4", "size": 2847200}], "video_pictures": [{"id": 5770894, "nr": 0, "picture": "https://images.pexels.com/videos/7116718/pictures/preview-0.jpeg"}, {"id": 5770895, "nr": 1, "picture": "https://images.pexels.com/videos/7116718/pictures/preview-1.jpeg"}, {"id": 5770896, "nr": 2, "picture": "https://images.pexels.com/videos/7116718/pictures/preview-2.jpeg"}, {"id": 5770897, "nr": 3, "picture": "https://images.pexels.com/videos/7116718/pictures/preview-3.jpeg"}, {"id": 5770898, "nr": 4, "picture": "https://images.pexels.com/videos/7116718/pictures/preview-4.jpeg"}, {"id": 5770899, "nr": 5, "picture": "https://images.pexels.com/videos/7116718/pictures/preview-5.jpeg"}, {"id": 5770900, "nr": 6, "picture": "https://images.pexels.com/videos/7116718/pictures/preview-6.jpeg"}, {"id": 5770901, "nr": 7, "picture": "https://images.pexels.com/videos/7116718/pictures/preview-7.jpeg"}, {"id": 5770903, "nr": 8, "picture": "https://images.pexels.com/videos/7116718/pictures/preview-8.jpeg"}, {"id": 5770905, "nr": 9, "picture": "https://images.pexels.com/videos/7116718/pictures/preview-9.jpeg"}, {"id": 5770906, "nr": 10, "picture": "https://images.pexels.com/videos/7116718/pictures/preview-10.jpeg"}, {"id": 5770908, "nr": 11, "picture": "https://images.pexels.com/videos/7116718/pictures/preview-11.jpeg"}, {"id": 5770909, "nr": 12, "picture": "https://images.pexels.com/videos/7116718/pictures/preview-12.jpeg"}, {"id": 5770910, "nr": 13, "picture": "https://images.pexels.com/videos/7116718/pictures/preview-13.jpeg"}, {"id": 5770911, "nr": 14, "picture": "https://images.pexels.com/videos/7116718/pictures/preview-14.jpeg"}]}, {"id": 5907132, "width": 1080, "height": 1920, "duration": 11, "full_res": null, "tags": [], "url": "https://www.pexels.com/video/mom-and-daughter-trying-a-pizza-5907132/", "image": "https://images.pexels.com/videos/5907132/pexels-photo-5907132.jpeg?auto=compress&cs=tinysrgb&fit=crop&h=1200&w=630", "avg_color": null, "user": {"id": 3660631, "name": "Katerina Holmes", "url": "https://www.pexels.com/@katerina-holmes"}, "video_files": [{"id": 9850036, "quality": "hd", "file_type": "video/mp4", "width": 720, "height": 1280, "fps": 50.0, "link": "https://videos.pexels.com/video-files/5907132/5907132-hd_720_1280_50fps.mp4", "size": 2662490}, {"id": 9850100, "quality": "sd", "file_type": "video/mp4", "width": 360, "height": 640, "fps": 25.0, "link": "https://videos.pexels.com/video-files/5907132/5907132-sd_360_640_25fps.mp4", "size": 733803}, {"id": 9850133, "quality": "sd", "file_type": "video/mp4", "width": 540, "height": 960, "fps": 25.0, "link": "https://videos.pexels.com/video-files/5907132/5907132-sd_540_960_25fps.mp4", "size": 1586816}, {"id": 9850167, "quality": "hd", "file_type": "video/mp4", "width": 1080, "height": 1920, "fps": 25.0, "link": "https://videos.pexels.com/video-files/5907132/5907132-hd_1080_1920_25fps.mp4", "size": 5661461}, {"id": 9850193, "quality": "sd", "file_type": "video/mp4", "width": 240, "height": 426, "fps": 25.0, "link": "https://videos.pexels.com/video-files/5907132/5907132-sd_240_426_25fps.mp4", "size": 414700}], "video_pictures": [{"id": 3568461, "nr": 0, "picture": "https://images.pexels.com/videos/5907132/pictures/preview-0.jpeg"}, {"id": 3568482, "nr": 1, "picture": "https://images.pexels.com/videos/5907132/pictures/preview-1.jpeg"}, {"id": 3568494, "nr": 2, "picture": "https://images.pexels.com/videos/5907132/pictures/preview-2.jpeg"}, {"id": 3568514, "nr": 3, "picture": "https://images.pexels.com/videos/5907132/pictures/preview-3.jpeg"}, {"id": 3568534, "nr": 4, "picture": "https://images.pexels.com/videos/5907132/pictures/preview-4.jpeg"}, {"id": 3568555, "nr": 5, "picture": "https://images.pexels.com/videos/5907132/pictures/preview-5.jpeg"}, {"id": 3568576, "nr": 6, "picture": "https://images.pexels.com/videos/5907132/pictures/preview-6.jpeg"}, {"id": 3568596, "nr": 7, "picture": "https://images.pexels.com/videos/5907132/pictures/preview-7.jpeg"}, {"id": 3568617, "nr": 8, "picture": "https://images.pexels.com/videos/5907132/pictures/preview-8.jpeg"}, {"id": 3568650, "nr": 9, "picture": "https://images.pexels.com/videos/5907132/pictures/preview-9.jpeg"}, {"id": 3568685, "nr": 10, "picture": "https://images.pexels.com/videos/5907132/pictures/preview-10.jpeg"}, {"id": 3568712, "nr": 11, "picture": "https://images.pexels.com/videos/5907132/pictures/preview-11.jpeg"}, {"id": 3568748, "nr": 12, "picture": "https://images.pexels.com/videos/5907132/pictures/preview-12.jpeg"}, {"id": 3568786, "nr": 13, "picture": "https://images.pexels.com/videos/5907132/pictures/preview-13.jpeg"}, {"id": 3568814, "nr": 14, "picture": "https://images.pexels.com/videos/5907132/pictures/preview-14.jpeg"}]}, {"id": 7677699, "width": 1080, "height": 1920, "duration": 9, "full_res": null, "tags": [], "url": "https://www.pexels.com/video/close-up-video-of-a-hazelnuts-7677699/", "image": "https://images.pexels.com/videos/7677699/abstract-art-background-balanced-diet-7677699.jpeg?auto=compress&cs=tinysrgb&fit=crop&h=1200&w=630", "avg_color": null, "user": {"id": 11437196, "name": "Mikhail Nilov", "url": "https://www.pexels.com/@mikhail-nilov"}, "video_files": [{"id": 10537012, "quality": "sd", "file_type": "video/mp4", "width": 240, "height": 426, "fps": 25.0, "link": "https://videos.pexels.com/video-files/7677699/7677699-sd_240_426_25fps.mp4", "size": 233184}, {"id": 10537106, "quality": "sd", "file_type": "video/mp4", "width": 360, "height": 640, "fps": 25.0, "link": "https://videos.pexels.com/video-files/7677699/7677699-sd_360_640_25fps.mp4", "size": 485376}, {"id": 10537272, "quality": "hd", "file_type": "video/mp4", "width": 1080, "height": 1920, "fps": 25.0, "link": "https://videos.pexels.com/video-files/7677699/7677699-hd_1080_1920_25fps.mp4", "size": 5170809}, {"id": 10537335, "quality": "sd", "file_type": "video/mp4", "width": 540, "height": 960, "fps": 25.0, "link": "https://videos.pexels.com/video-files/7677699/7677699-sd_540_960_25fps.mp4", "size": 1493298}, {"id": 10537428, "quality": "hd", "file_type": "video/mp4", "width": 720, "height": 1280, "fps": 25.0, "link": "https://videos.pexels.com/video-files/7677699/7677699-hd_720_1280_25fps.mp4", "size": 2568261}], "video_pictures": [{"id": 6868288, "nr": 0, "picture": "https://images.pexels.com/videos/7677699/pictures/preview-0.jpeg"}, {"id": 6868335, "nr": 1, "picture": "https://images.pexels.com/videos/7677699/pictures/preview-1.jpeg"}, {"id": 6868362, "nr": 2, "picture": "https://images.pexels.com/videos/7677699/pictures/preview-2.jpeg"}, {"id": 6868379, "nr": 3, "picture": "https://images.pexels.com/videos/7677699/pictures/preview-3.jpeg"}, {"id": 6868396, "nr": 4, "picture": "https://images.pexels.com/videos/7677699/pictures/preview-4.jpeg"}, {"id": 6868423, "nr": 5, "picture": "https://images.pexels.com/videos/7677699/pictures/preview-5.jpeg"}, {"id": 6868447, "nr": 6, "picture": "https://images.pexels.com/videos/7677699/pictures/preview-6.jpeg"}, {"id": 6868473, "nr": 7, "picture": "https://images.pexels.com/videos/7677699/pictures/preview-7.jpeg"}, {"id": 6868495, "nr": 8, "picture": "https://images.pexels.com/videos/7677699/pictures/preview-8.jpeg"}, {"id": 6868520, "nr": 9, "picture": "https://images.pexels.com/videos/7677699/pictures/preview-9.jpeg"}, {"id": 6868543, "nr": 10, "picture": "https://images.pexels.com/videos/7677699/pictures/preview-10.jpeg"}, {"id": 6868569, "nr": 11, "picture": "https://images.pexels.com/videos/7677699/pictures/preview-11.jpeg"}, {"id": 6868595, "nr": 12, "picture": "https://images.pexels.com/videos/7677699/pictures/preview-12.jpeg"}, {"id": 6868610, "nr": 13, "picture": "https://images.pexels.com/videos/7677699/pictures/preview-13.jpeg"}, {"id": 6868623, "nr": 14, "picture": "https://images.pexels.com/videos/7677699/pictures/preview-14.jpeg"}]}, {"id": 3943415, "width": 2160, "height": 4096, "duration": 33, "full_res": null, "tags": [], "url": "https://www.pexels.com/video/healthy-red-art-hand-3943415/", "image": "https://images.pexels.com/videos/3943415/agressive-art-berry-composition-3943415.jpeg?auto=compress&cs=tinysrgb&fit=crop&h=1200&w=630", "avg_color": null, "user": {"id": 1437723, "name": "cottonbro studio", "url": "https://www.pexels.com/@cottonbro"}, "video_files": [{"id": 9336518, "quality": "hd", "file_type": "video/mp4", "width": 720, "height": 1366, "fps": 50.0, "link": "https://videos.pexels.com/video-files/3943415/3943415-hd_720_1366_50fps.mp4", "size": 6088720}, {"id": 9336579, "quality": "sd", "file_type": "video/mp4", "width": 338, "height": 640, "fps": 25.0, "link": "https://videos.pexels.com/video-files/3943415/3943415-sd_338_640_25fps.mp4", "size": 995784}, {"id": 9336642, "quality": "hd", "file_type": "video/mp4", "width": 1080, "height": 2048, "fps": 25.0, "link": "https://videos.pexels.com/video-files/3943415/3943415-hd_1080_2048_25fps.mp4", "size": 15975781}, {"id": 9336722, "quality": "uhd", "file_type": "video/mp4", "width": 2160, "height": 4096, "fps": 25.0, "link": "https://videos.pexels.com/video-files/3943415/3943415-uhd_2160_4096_25fps.mp4", "size": 101453453}, {"id": 9336766, "quality": "sd", "file_type": "video/mp4", "width": 226, "height": 426, "fps": 25.0, "link": "https://videos.pexels.com/video-files/3943415/3943415-sd_226_426_25fps.mp4", "size": 577030}, {"id": 9336849, "quality": "uhd", "file_type": "video/mp4", "width": 1440, "height": 2732, "fps": 25.0, "link": "https://videos.pexels.com/video-files/3943415/3943415-uhd_1440_2732_25fps.mp4", "size": 34413184}, {"id": 9336919, "quality": "sd", "file_type": "video/mp4", "width": 506, "height": 960, "fps": 25.0, "link": "https://videos.pexels.com/video-files/3943415/3943415-sd_506_960_25fps.mp4", "size": 2326053}], "video_pictures": [{"id": 1008730, "nr": 0, "picture": "https://images.pexels.com/videos/3943415/pictures/preview-0.jpeg"}, {"id": 1008734, "nr": 1, "picture": "https://images.pexels.com/videos/3943415/pictures/preview-1.jpeg"}, {"id": 1008741, "nr": 2, "picture": "https://images.pexels.com/videos/3943415/pictures/preview-2.jpeg"}, {"id": 1008746, "nr": 3, "picture": "https://images.pexels.com/videos/3943415/pictures/preview-3.jpeg"}, {"id": 1008750, "nr": 4, "picture": "https://images.pexels.com/videos/3943415/pictures/preview-4.jpeg"}, {"id": 1008754, "nr": 5, "picture": "https://images.pexels.com/videos/3943415/pictures/preview-5.jpeg"}, {"id": 1008755, "nr": 6, "picture": "https://images.pexels.com/videos/3943415/pictures/preview-6.jpeg"}, {"id": 1008756, "nr": 7, "picture": "https://images.pexels.com/videos/3943415/pictures/preview-7.jpeg"}, {"id": 1008757, "nr": 8, "picture": "https://images.pexels.com/videos/3943415/pictures/preview-8.jpeg"}, {"id": 1008758, "nr": 9, "picture": "https://images.pexels.com/videos/3943415/pictures/preview-9.jpeg"}, {"id": 1008759, "nr": 10, "picture": "https://images.pexels.com/videos/3943415/pictures/preview-10.jpeg"}, {"id": 1008760, "nr": 11, "picture": "https://images.pexels.com/videos/3943415/pictures/preview-11.jpeg"}, {"id": 1008761, "nr": 12, "picture": "https://images.pexels.com/videos/3943415/pictures/preview-12.jpeg"}, {"id": 1008762, "nr": 13, "picture": "https://images.pexels.com/videos/3943415/pictures/preview-13.jpeg"}, {"id": 1008763, "nr": 14, "picture": "https://images.pexels.com/videos/3943415/pictures/preview-14.jpeg"}]}, {"id": 3943416, "width": 2160, "height": 4096, "duration": 8, "full_res": null, "tags": [], "url": "https://www.pexels.com/video/tossing-and-catching-a-fresh-tomato-in-the-air-3943416/", "image": "https://images.pexels.com/videos/3943416/agressive-art-berry-catch-3943416.jpeg?auto=compress&cs=tinysrgb&fit=crop&h=1200&w=630", "avg_color": null, "user": {"id": 1437723, "name": "cottonbro studio", "url": "https://www.pexels.com/@cottonbro"}, "video_files": [{"id": 9336287, "quality": "uhd", "file_type": "video/mp4", "width": 2160, "height": 4096, "fps": 25.0, "link": "https://videos.pexels.com/video-files/3943416/3943416-uhd_2160_4096_25fps.mp4", "size": 20498308}, {"id": 9336545, "quality": "uhd", "file_type": "video/mp4", "width": 1440, "height": 2732, "fps": 25.0, "link": "https://videos.pexels.com/video-files/3943416/3943416-uhd_1440_2732_25fps.mp4", "size": 12042982}, {"id": 9336674, "quality": "hd", "file_type": "video/mp4", "width": 720, "height": 1366, "fps": 50.0, "link": "https://videos.pexels.com/video-files/3943416/3943416-hd_720_1366_50fps.mp4", "size": 2342840}, {"id": 9336823, "quality": "sd", "file_type": "video/mp4", "width": 506, "height": 960, "fps": 25.0, "link": "https://videos.pexels.com/video-files/3943416/3943416-sd_506_960_25fps.mp4", "size": 1380846}, {"id": 9336921, "quality": "sd", "file_type": "video/mp4", "width": 338, "height": 640, "fps": 25.0, "link": "https://videos.pexels.com/video-files/3943416/3943416-sd_338_640_25fps.mp4", "size": 462701}, {"id": 9337243, "quality": "hd", "file_type": "video/mp4", "width": 1080, "height": 2048, "fps": 25.0, "link": "https://videos.pexels.com/video-files/3943416/3943416-hd_1080_2048_25fps.mp4", "size": 4901950}, {"id": 9337475, "quality": "sd", "file_type": "video/mp4", "width": 226, "height": 426, "fps": 25.0, "link": "https://videos.pexels.com/video-files/3943416/3943416-sd_226_426_25fps.mp4", "size": 283332}], "video_pictures": [{"id": 1008683, "nr": 0, "picture": "https://images.pexels.com/videos/3943416/pictures/preview-0.jpeg"}, {"id": 1008688, "nr": 1, "picture": "https://images.pexels.com/videos/3943416/pictures/preview-1.jpeg"}, {"id": 1008693, "nr": 2, "picture": "https://images.pexels.com/videos/3943416/pictures/preview-2.jpeg"}, {"id": 1008700, "nr": 3, "picture": "https://images.pexels.com/videos/3943416/pictures/preview-3.jpeg"}, {"id": 1008708, "nr": 4, "picture": "https://images.pexels.com/videos/3943416/pictures/preview-4.jpeg"}, {"id": 1008711, "nr": 5, "picture": "https://images.pexels.com/videos/3943416/pictures/preview-5.jpeg"}, {"id": 1008715, "nr": 6, "picture": "https://images.pexels.com/videos/3943416/pictures/preview-6.jpeg"}, {"id": 1008717, "nr": 7, "picture": "https://images.pexels.com/videos/3943416/pictures/preview-7.jpeg"}, {"id": 1008721, "nr": 8, "picture": "https://images.pexels.com/videos/3943416/pictures/preview-8.jpeg"}, {"id": 1008725, "nr": 9, "picture": "https://images.pexels.com/videos/3943416/pictures/preview-9.jpeg"}, {"id": 1008728, "nr": 10, "picture": "https://images.pexels.com/videos/3943416/pictures/preview-10.jpeg"}, {"id": 1008731, "nr": 11, "picture": "https://images.pexels.com/videos/3943416/pictures/preview-11.jpeg"}, {"id": 1008736, "nr": 12, "picture": "https://images.pexels.com/videos/3943416/pictures/preview-12.jpeg"}, {"id": 1008740, "nr": 13, "picture": "https://images.pexels.com/videos/3943416/pictures/preview-13.jpeg"}, {"id": 1008743, "nr": 14, "picture": "https://images.pexels.com/videos/3943416/pictures/preview-14.jpeg"}]}, {"id": 4443518, "width": 1080, "height": 1920, "duration": 2, "full_res": null, "tags": [], "url": "https://www.pexels.com/video/a-person-taking-fresh-strawberry-from-the-fridge-4443518/", "image": "https://images.pexels.com/videos/4443518/detox-fruits-healthy-juice-4443518.jpeg?auto=compress&cs=tinysrgb&fit=crop&h=1200&w=630", "avg_color": null, "user": {"id": 2104565, "name": "Polina Tankilevitch", "url": "https://www.pexels.com/@polina-tankilevitch"}, "video_files": [{"id": 9520910, "quality": "sd", "file_type": "video/mp4", "width": 240, "height": 426, "fps": 25.0, "link": "https://videos.pexels.com/video-files/4443518/4443518-sd_240_426_25fps.mp4", "size": 85444}, {"id": 9520933, "quality": "sd", "file_type": "video/mp4", "width": 360, "height": 640, "fps": 25.0, "link": "https://videos.pexels.com/video-files/4443518/4443518-sd_360_640_25fps.mp4", "size": 138540}, {"id": 9520977, "quality": "sd", "file_type": "video/mp4", "width": 540, "height": 960, "fps": 25.0, "link": "https://videos.pexels.com/video-files/4443518/4443518-sd_540_960_25fps.mp4", "size": 383946}, {"id": 9521004, "quality": "hd", "file_type": "video/mp4", "width": 1080, "height": 1920, "fps": 25.0, "link": "https://videos.pexels.com/video-files/4443518/4443518-hd_1080_1920_25fps.mp4", "size": 1219552}, {"id": 9521067, "quality": "hd", "file_type": "video/mp4", "width": 720, "height": 1280, "fps": 25.0, "link": "https://videos.pexels.com/video-files/4443518/4443518-hd_720_1280_25fps.mp4", "size": 661613}], "video_pictures": [{"id": 1521672, "nr": 0, "picture": "https://images.pexels.com/videos/4443518/pictures/preview-0.jpeg"}, {"id": 1521682, "nr": 1, "picture": "https://images.pexels.com/videos/4443518/pictures/preview-1.jpeg"}, {"id": 1521693, "nr": 2, "picture": "https://images.pexels.com/videos/4443518/pictures/preview-2.jpeg"}, {"id": 1521700, "nr": 3, "picture": "https://images.pexels.com/videos/4443518/pictures/preview-3.jpeg"}, {"id": 1521704, "nr": 4, "picture": "https://images.pexels.com/videos/4443518/pictures/preview-4.jpeg"}, {"id": 1521709, "nr": 5, "picture": "https://images.pexels.com/videos/4443518/pictures/preview-5.jpeg"}, {"id": 1521714, "nr": 6, "picture": "https://images.pexels.com/videos/4443518/pictures/preview-6.jpeg"}, {"id": 1521720, "nr": 7, "picture": "https://images.pexels.com/videos/4443518/pictures/preview-7.jpeg"}, {"id": 1521727, "nr": 8, "picture": "https://images.pexels.com/videos/4443518/pictures/preview-8.jpeg"}, {"id": 1521732, "nr": 9, "picture": "https://images.pexels.com/videos/4443518/pictures/preview-9.jpeg"}, {"id": 1521736, "nr": 10, "picture": "https://images.pexels.com/videos/4443518/pictures/preview-10.jpeg"}, {"id": 1521740, "nr": 11, "picture": "https://images.pexels.com/videos/4443518/pictures/preview-11.jpeg"}, {"id": 1521743, "nr": 12, "picture": "https://images.pexels.com/videos/4443518/pictures/preview-12.jpeg"}, {"id": 1521748, "nr": 13, "picture": "https://images.pexels.com/videos/4443518/pictures/preview-13.jpeg"}, {"id": 1521751, "nr": 14, "picture": "https://images.pexels.com/videos/4443518/pictures/preview-14.jpeg"}]}], "total_results": 8000, "next_page": "https://api.pexels.com/v1/videos/search/?orientation=portrait&page=2&per_page=8&query=many+tomatoes+plant", "url": "https://api-server.pexels.com/search/videos/many%20tomatoes%20plant/"}, "timestamp": "2024-12-28T22:18:11.895878"}
