{"query": "flowers moving", "response": {"page": 1, "per_page": 8, "videos": [{"id": 6907150, "width": 1080, "height": 1920, "duration": 16, "full_res": null, "tags": [], "url": "https://www.pexels.com/video/a-shadow-of-a-plant-6907150/", "image": "https://images.pexels.com/videos/6907150/aesthetic-blossom-flora-book-cherry-blossom-6907150.jpeg?auto=compress&cs=tinysrgb&fit=crop&h=1200&w=630", "avg_color": null, "user": {"id": 2946790, "name": "Leeloo The First", "url": "https://www.pexels.com/@leeloothefirst"}, "video_files": [{"id": 10221055, "quality": "sd", "file_type": "video/mp4", "width": 240, "height": 426, "fps": 29.969999313354492, "link": "https://videos.pexels.com/video-files/6907150/6907150-sd_240_426_30fps.mp4", "size": 625741}, {"id": 10221142, "quality": "hd", "file_type": "video/mp4", "width": 1080, "height": 1920, "fps": 29.969999313354492, "link": "https://videos.pexels.com/video-files/6907150/6907150-hd_1080_1920_30fps.mp4", "size": 9757166}, {"id": 10221178, "quality": "hd", "file_type": "video/mp4", "width": 720, "height": 1280, "fps": 29.969999313354492, "link": "https://videos.pexels.com/video-files/6907150/6907150-hd_720_1280_30fps.mp4", "size": 4305621}, {"id": 10221221, "quality": "sd", "file_type": "video/mp4", "width": 360, "height": 640, "fps": 29.969999313354492, "link": "https://videos.pexels.com/video-files/6907150/6907150-sd_360_640_30fps.mp4", "size": 1222566}, {"id": 10221301, "quality": "sd", "file_type": "video/mp4", "width": 540, "height": 960, "fps": 29.969999313354492, "link": "https://videos.pexels.com/video-files/6907150/6907150-sd_540_960_30fps.mp4", "size": 2666791}], "video_pictures": [{"id": 5341469, "nr": 0, "picture": "https://images.pexels.com/videos/6907150/pictures/preview-0.jpeg"}, {"id": 5341482, "nr": 1, "picture": "https://images.pexels.com/videos/6907150/pictures/preview-1.jpeg"}, {"id": 5341501, "nr": 2, "picture": "https://images.pexels.com/videos/6907150/pictures/preview-2.jpeg"}, {"id": 5341528, "nr": 3, "picture": "https://images.pexels.com/videos/6907150/pictures/preview-3.jpeg"}, {"id": 5341546, "nr": 4, "picture": "https://images.pexels.com/videos/6907150/pictures/preview-4.jpeg"}, {"id": 5341569, "nr": 5, "picture": "https://images.pexels.com/videos/6907150/pictures/preview-5.jpeg"}, {"id": 5341590, "nr": 6, "picture": "https://images.pexels.com/videos/6907150/pictures/preview-6.jpeg"}, {"id": 5341614, "nr": 7, "picture": "https://images.pexels.com/videos/6907150/pictures/preview-7.jpeg"}, {"id": 5341636, "nr": 8, "picture": "https://images.pexels.com/videos/6907150/pictures/preview-8.jpeg"}, {"id": 5341663, "nr": 9, "picture": "https://images.pexels.com/videos/6907150/pictures/preview-9.jpeg"}, {"id": 5341686, "nr": 10, "picture": "https://images.pexels.com/videos/6907150/pictures/preview-10.jpeg"}, {"id": 5341704, "nr": 11, "picture": "https://images.pexels.com/videos/6907150/pictures/preview-11.jpeg"}, {"id": 5341716, "nr": 12, "picture": "https://images.pexels.com/videos/6907150/pictures/preview-12.jpeg"}, {"id": 5341724, "nr": 13, "picture": "https://images.pexels.com/videos/6907150/pictures/preview-13.jpeg"}, {"id": 5341727, "nr": 14, "picture": "https://images.pexels.com/videos/6907150/pictures/preview-14.jpeg"}]}, {"id": 8028812, "width": 2160, "height": 3840, "duration": 20, "full_res": null, "tags": [], "url": "https://www.pexels.com/video/a-woman-riding-a-car-8028812/", "image": "https://images.pexels.com/videos/8028812/boho-freedom-girl-hippie-8028812.jpeg?auto=compress&cs=tinysrgb&fit=crop&h=1200&w=630", "avg_color": null, "user": {"id": 2441340, "name": "Anastasia  Shuraeva", "url": "https://www.pexels.com/@anastasia-shuraeva"}, "video_files": [{"id": 10655345, "quality": "hd", "file_type": "video/mp4", "width": 720, "height": 1280, "fps": 23.97599983215332, "link": "https://videos.pexels.com/video-files/8028812/8028812-hd_720_1280_24fps.mp4", "size": 6720265}, {"id": 10655411, "quality": "sd", "file_type": "video/mp4", "width": 240, "height": 426, "fps": 23.97599983215332, "link": "https://videos.pexels.com/video-files/8028812/8028812-sd_240_426_24fps.mp4", "size": 828715}, {"id": 10655472, "quality": "uhd", "file_type": "video/mp4", "width": 2160, "height": 3840, "fps": 23.97599983215332, "link": "https://videos.pexels.com/video-files/8028812/8028812-uhd_2160_3840_24fps.mp4", "size": 60106314}, {"id": 10655510, "quality": "sd", "file_type": "video/mp4", "width": 540, "height": 960, "fps": 23.97599983215332, "link": "https://videos.pexels.com/video-files/8028812/8028812-sd_540_960_24fps.mp4", "size": 3391770}, {"id": 10655568, "quality": "hd", "file_type": "video/mp4", "width": 1080, "height": 1920, "fps": 23.97599983215332, "link": "https://videos.pexels.com/video-files/8028812/8028812-hd_1080_1920_24fps.mp4", "size": 13418226}, {"id": 10655649, "quality": "uhd", "file_type": "video/mp4", "width": 1440, "height": 2560, "fps": 23.97599983215332, "link": "https://videos.pexels.com/video-files/8028812/8028812-uhd_1440_2560_24fps.mp4", "size": 32204218}, {"id": 10655681, "quality": "sd", "file_type": "video/mp4", "width": 360, "height": 640, "fps": 23.97599983215332, "link": "https://videos.pexels.com/video-files/8028812/8028812-sd_360_640_24fps.mp4", "size": 1235734}], "video_pictures": [{"id": 7453112, "nr": 0, "picture": "https://images.pexels.com/videos/8028812/pictures/preview-0.jpeg"}, {"id": 7453124, "nr": 1, "picture": "https://images.pexels.com/videos/8028812/pictures/preview-1.jpeg"}, {"id": 7453136, "nr": 2, "picture": "https://images.pexels.com/videos/8028812/pictures/preview-2.jpeg"}, {"id": 7453150, "nr": 3, "picture": "https://images.pexels.com/videos/8028812/pictures/preview-3.jpeg"}, {"id": 7453166, "nr": 4, "picture": "https://images.pexels.com/videos/8028812/pictures/preview-4.jpeg"}, {"id": 7453184, "nr": 5, "picture": "https://images.pexels.com/videos/8028812/pictures/preview-5.jpeg"}, {"id": 7453196, "nr": 6, "picture": "https://images.pexels.com/videos/8028812/pictures/preview-6.jpeg"}, {"id": 7453213, "nr": 7, "picture": "https://images.pexels.com/videos/8028812/pictures/preview-7.jpeg"}, {"id": 7453227, "nr": 8, "picture": "https://images.pexels.com/videos/8028812/pictures/preview-8.jpeg"}, {"id": 7453241, "nr": 9, "picture": "https://images.pexels.com/videos/8028812/pictures/preview-9.jpeg"}, {"id": 7453258, "nr": 10, "picture": "https://images.pexels.com/videos/8028812/pictures/preview-10.jpeg"}, {"id": 7453272, "nr": 11, "picture": "https://images.pexels.com/videos/8028812/pictures/preview-11.jpeg"}, {"id": 7453290, "nr": 12, "picture": "https://images.pexels.com/videos/8028812/pictures/preview-12.jpeg"}, {"id": 7453302, "nr": 13, "picture": "https://images.pexels.com/videos/8028812/pictures/preview-13.jpeg"}, {"id": 7453313, "nr": 14, "picture": "https://images.pexels.com/videos/8028812/pictures/preview-14.jpeg"}]}, {"id": 7814431, "width": 2160, "height": 3840, "duration": 10, "full_res": null, "tags": [], "url": "https://www.pexels.com/video/close-up-of-grape-hyacinths-7814431/", "image": "https://images.pexels.com/videos/7814431/pexels-photo-7814431.jpeg?auto=compress&cs=tinysrgb&fit=crop&h=1200&w=630", "avg_color": null, "user": {"id": 10955896, "name": "Anna Nekrashevich", "url": "https://www.pexels.com/@anna-nekrashevich"}, "video_files": [{"id": 10585541, "quality": "hd", "file_type": "video/mp4", "width": 1080, "height": 1920, "fps": 30.0, "link": "https://videos.pexels.com/video-files/7814431/7814431-hd_1080_1920_30fps.mp4", "size": 2279978}, {"id": 10585610, "quality": "hd", "file_type": "video/mp4", "width": 720, "height": 1280, "fps": 30.0, "link": "https://videos.pexels.com/video-files/7814431/7814431-hd_720_1280_30fps.mp4", "size": 1108943}, {"id": 10585709, "quality": "uhd", "file_type": "video/mp4", "width": 1440, "height": 2560, "fps": 30.0, "link": "https://videos.pexels.com/video-files/7814431/7814431-uhd_1440_2560_30fps.mp4", "size": 3868631}, {"id": 10585768, "quality": "uhd", "file_type": "video/mp4", "width": 2160, "height": 3840, "fps": 30.0, "link": "https://videos.pexels.com/video-files/7814431/7814431-uhd_2160_3840_30fps.mp4", "size": 9620979}, {"id": 10585885, "quality": "sd", "file_type": "video/mp4", "width": 360, "height": 640, "fps": 30.0, "link": "https://videos.pexels.com/video-files/7814431/7814431-sd_360_640_30fps.mp4", "size": 431101}, {"id": 10585995, "quality": "sd", "file_type": "video/mp4", "width": 540, "height": 960, "fps": 30.0, "link": "https://videos.pexels.com/video-files/7814431/7814431-sd_540_960_30fps.mp4", "size": 736928}, {"id": 10586120, "quality": "sd", "file_type": "video/mp4", "width": 240, "height": 426, "fps": 30.0, "link": "https://videos.pexels.com/video-files/7814431/7814431-sd_240_426_30fps.mp4", "size": 219793}], "video_pictures": [{"id": 7098694, "nr": 0, "picture": "https://images.pexels.com/videos/7814431/pictures/preview-0.jpeg"}, {"id": 7098699, "nr": 1, "picture": "https://images.pexels.com/videos/7814431/pictures/preview-1.jpeg"}, {"id": 7098706, "nr": 2, "picture": "https://images.pexels.com/videos/7814431/pictures/preview-2.jpeg"}, {"id": 7098710, "nr": 3, "picture": "https://images.pexels.com/videos/7814431/pictures/preview-3.jpeg"}, {"id": 7098711, "nr": 4, "picture": "https://images.pexels.com/videos/7814431/pictures/preview-4.jpeg"}, {"id": 7098712, "nr": 5, "picture": "https://images.pexels.com/videos/7814431/pictures/preview-5.jpeg"}, {"id": 7098713, "nr": 6, "picture": "https://images.pexels.com/videos/7814431/pictures/preview-6.jpeg"}, {"id": 7098714, "nr": 7, "picture": "https://images.pexels.com/videos/7814431/pictures/preview-7.jpeg"}, {"id": 7098715, "nr": 8, "picture": "https://images.pexels.com/videos/7814431/pictures/preview-8.jpeg"}, {"id": 7098716, "nr": 9, "picture": "https://images.pexels.com/videos/7814431/pictures/preview-9.jpeg"}, {"id": 7098717, "nr": 10, "picture": "https://images.pexels.com/videos/7814431/pictures/preview-10.jpeg"}, {"id": 7098718, "nr": 11, "picture": "https://images.pexels.com/videos/7814431/pictures/preview-11.jpeg"}, {"id": 7098719, "nr": 12, "picture": "https://images.pexels.com/videos/7814431/pictures/preview-12.jpeg"}, {"id": 7098720, "nr": 13, "picture": "https://images.pexels.com/videos/7814431/pictures/preview-13.jpeg"}, {"id": 7098721, "nr": 14, "picture": "https://images.pexels.com/videos/7814431/pictures/preview-14.jpeg"}]}, {"id": 8348414, "width": 2160, "height": 4096, "duration": 27, "full_res": null, "tags": [], "url": "https://www.pexels.com/video/a-common-white-lilac-plant-swaying-in-the-wind-8348414/", "image": "https://images.pexels.com/videos/8348414/pexels-photo-8348414.jpeg?auto=compress&cs=tinysrgb&fit=crop&h=1200&w=630", "avg_color": null, "user": {"id": 2678846, "name": "ROMAN ODINTSOV", "url": "https://www.pexels.com/@roman-odintsov"}, "video_files": [{"id": 10791236, "quality": "hd", "file_type": "video/mp4", "width": 1080, "height": 2048, "fps": 25.0, "link": "https://videos.pexels.com/video-files/8348414/8348414-hd_1080_2048_25fps.mp4", "size": 18766347}, {"id": 10791262, "quality": "sd", "file_type": "video/mp4", "width": 338, "height": 640, "fps": 25.0, "link": "https://videos.pexels.com/video-files/8348414/8348414-sd_338_640_25fps.mp4", "size": 1718724}, {"id": 10791480, "quality": "uhd", "file_type": "video/mp4", "width": 2160, "height": 4096, "fps": 25.0, "link": "https://videos.pexels.com/video-files/8348414/8348414-uhd_2160_4096_25fps.mp4", "size": 84307633}, {"id": 10791594, "quality": "hd", "file_type": "video/mp4", "width": 720, "height": 1366, "fps": 25.0, "link": "https://videos.pexels.com/video-files/8348414/8348414-hd_720_1366_25fps.mp4", "size": 9332450}, {"id": 10791672, "quality": "sd", "file_type": "video/mp4", "width": 226, "height": 426, "fps": 25.0, "link": "https://videos.pexels.com/video-files/8348414/8348414-sd_226_426_25fps.mp4", "size": 1138037}, {"id": 10791867, "quality": "uhd", "file_type": "video/mp4", "width": 1440, "height": 2732, "fps": 25.0, "link": "https://videos.pexels.com/video-files/8348414/8348414-uhd_1440_2732_25fps.mp4", "size": 45226464}, {"id": 10791993, "quality": "sd", "file_type": "video/mp4", "width": 506, "height": 960, "fps": 25.0, "link": "https://videos.pexels.com/video-files/8348414/8348414-sd_506_960_25fps.mp4", "size": 4929851}], "video_pictures": [{"id": 8074097, "nr": 0, "picture": "https://images.pexels.com/videos/8348414/pictures/preview-0.jpeg"}, {"id": 8074112, "nr": 1, "picture": "https://images.pexels.com/videos/8348414/pictures/preview-1.jpeg"}, {"id": 8074134, "nr": 2, "picture": "https://images.pexels.com/videos/8348414/pictures/preview-2.jpeg"}, {"id": 8074148, "nr": 3, "picture": "https://images.pexels.com/videos/8348414/pictures/preview-3.jpeg"}, {"id": 8074167, "nr": 4, "picture": "https://images.pexels.com/videos/8348414/pictures/preview-4.jpeg"}, {"id": 8074184, "nr": 5, "picture": "https://images.pexels.com/videos/8348414/pictures/preview-5.jpeg"}, {"id": 8074209, "nr": 6, "picture": "https://images.pexels.com/videos/8348414/pictures/preview-6.jpeg"}, {"id": 8074229, "nr": 7, "picture": "https://images.pexels.com/videos/8348414/pictures/preview-7.jpeg"}, {"id": 8074247, "nr": 8, "picture": "https://images.pexels.com/videos/8348414/pictures/preview-8.jpeg"}, {"id": 8074268, "nr": 9, "picture": "https://images.pexels.com/videos/8348414/pictures/preview-9.jpeg"}, {"id": 8074282, "nr": 10, "picture": "https://images.pexels.com/videos/8348414/pictures/preview-10.jpeg"}, {"id": 8074302, "nr": 11, "picture": "https://images.pexels.com/videos/8348414/pictures/preview-11.jpeg"}, {"id": 8074314, "nr": 12, "picture": "https://images.pexels.com/videos/8348414/pictures/preview-12.jpeg"}, {"id": 8074330, "nr": 13, "picture": "https://images.pexels.com/videos/8348414/pictures/preview-13.jpeg"}, {"id": 8074343, "nr": 14, "picture": "https://images.pexels.com/videos/8348414/pictures/preview-14.jpeg"}]}, {"id": 7946208, "width": 1512, "height": 2868, "duration": 10, "full_res": null, "tags": [], "url": "https://www.pexels.com/video/a-person-holding-a-bouquet-of-flowers-7946208/", "image": "https://images.pexels.com/videos/7946208/abstract-animation-background-beautiful-7946208.jpeg?auto=compress&cs=tinysrgb&fit=crop&h=1200&w=630", "avg_color": null, "user": {"id": 10955896, "name": "Anna Nekrashevich", "url": "https://www.pexels.com/@anna-nekrashevich"}, "video_files": [{"id": 10624509, "quality": "sd", "file_type": "video/mp4", "width": 338, "height": 640, "fps": 30.0, "link": "https://videos.pexels.com/video-files/7946208/7946208-sd_338_640_30fps.mp4", "size": 561943}, {"id": 10624547, "quality": "sd", "file_type": "video/mp4", "width": 226, "height": 426, "fps": 30.0, "link": "https://videos.pexels.com/video-files/7946208/7946208-sd_226_426_30fps.mp4", "size": 352040}, {"id": 10624613, "quality": "hd", "file_type": "video/mp4", "width": 720, "height": 1366, "fps": 30.0, "link": "https://videos.pexels.com/video-files/7946208/7946208-hd_720_1366_30fps.mp4", "size": 2538945}, {"id": 10624691, "quality": "sd", "file_type": "video/mp4", "width": 506, "height": 960, "fps": 30.0, "link": "https://videos.pexels.com/video-files/7946208/7946208-sd_506_960_30fps.mp4", "size": 1197997}, {"id": 10624789, "quality": "hd", "file_type": "video/mp4", "width": 1080, "height": 2048, "fps": 30.0, "link": "https://videos.pexels.com/video-files/7946208/7946208-hd_1080_2048_30fps.mp4", "size": 6499936}, {"id": 10624899, "quality": "uhd", "file_type": "video/mp4", "width": 1440, "height": 2732, "fps": 30.0, "link": "https://videos.pexels.com/video-files/7946208/7946208-uhd_1440_2732_30fps.mp4", "size": 16241199}], "video_pictures": [{"id": 7305838, "nr": 0, "picture": "https://images.pexels.com/videos/7946208/pictures/preview-0.jpeg"}, {"id": 7305845, "nr": 1, "picture": "https://images.pexels.com/videos/7946208/pictures/preview-1.jpeg"}, {"id": 7305854, "nr": 2, "picture": "https://images.pexels.com/videos/7946208/pictures/preview-2.jpeg"}, {"id": 7305867, "nr": 3, "picture": "https://images.pexels.com/videos/7946208/pictures/preview-3.jpeg"}, {"id": 7305878, "nr": 4, "picture": "https://images.pexels.com/videos/7946208/pictures/preview-4.jpeg"}, {"id": 7305888, "nr": 5, "picture": "https://images.pexels.com/videos/7946208/pictures/preview-5.jpeg"}, {"id": 7305916, "nr": 6, "picture": "https://images.pexels.com/videos/7946208/pictures/preview-6.jpeg"}, {"id": 7305929, "nr": 7, "picture": "https://images.pexels.com/videos/7946208/pictures/preview-7.jpeg"}, {"id": 7305937, "nr": 8, "picture": "https://images.pexels.com/videos/7946208/pictures/preview-8.jpeg"}, {"id": 7305953, "nr": 9, "picture": "https://images.pexels.com/videos/7946208/pictures/preview-9.jpeg"}, {"id": 7305962, "nr": 10, "picture": "https://images.pexels.com/videos/7946208/pictures/preview-10.jpeg"}, {"id": 7305972, "nr": 11, "picture": "https://images.pexels.com/videos/7946208/pictures/preview-11.jpeg"}, {"id": 7305986, "nr": 12, "picture": "https://images.pexels.com/videos/7946208/pictures/preview-12.jpeg"}, {"id": 7305994, "nr": 13, "picture": "https://images.pexels.com/videos/7946208/pictures/preview-13.jpeg"}, {"id": 7306008, "nr": 14, "picture": "https://images.pexels.com/videos/7946208/pictures/preview-14.jpeg"}]}, {"id": 8745451, "width": 1080, "height": 1920, "duration": 23, "full_res": null, "tags": [], "url": "https://www.pexels.com/video/close-up-of-a-flowering-plant-8745451/", "image": "https://images.pexels.com/videos/8745451/pexels-photo-8745451.jpeg?auto=compress&cs=tinysrgb&fit=crop&h=1200&w=630", "avg_color": null, "user": {"id": 2678846, "name": "ROMAN ODINTSOV", "url": "https://www.pexels.com/@roman-odintsov"}, "video_files": [{"id": 10937125, "quality": "hd", "file_type": "video/mp4", "width": 720, "height": 1280, "fps": 25.0, "link": "https://videos.pexels.com/video-files/8745451/8745451-hd_720_1280_25fps.mp4", "size": 6649968}, {"id": 10937274, "quality": "sd", "file_type": "video/mp4", "width": 540, "height": 960, "fps": 25.0, "link": "https://videos.pexels.com/video-files/8745451/8745451-sd_540_960_25fps.mp4", "size": 3243575}, {"id": 10937442, "quality": "sd", "file_type": "video/mp4", "width": 360, "height": 640, "fps": 25.0, "link": "https://videos.pexels.com/video-files/8745451/8745451-sd_360_640_25fps.mp4", "size": 1423179}, {"id": 10937610, "quality": "hd", "file_type": "video/mp4", "width": 1080, "height": 1920, "fps": 25.0, "link": "https://videos.pexels.com/video-files/8745451/8745451-hd_1080_1920_25fps.mp4", "size": 16679373}], "video_pictures": [{"id": 8752413, "nr": 0, "picture": "https://images.pexels.com/videos/8745451/pictures/preview-0.jpeg"}, {"id": 8752423, "nr": 1, "picture": "https://images.pexels.com/videos/8745451/pictures/preview-1.jpeg"}, {"id": 8752432, "nr": 2, "picture": "https://images.pexels.com/videos/8745451/pictures/preview-2.jpeg"}, {"id": 8752442, "nr": 3, "picture": "https://images.pexels.com/videos/8745451/pictures/preview-3.jpeg"}, {"id": 8752450, "nr": 4, "picture": "https://images.pexels.com/videos/8745451/pictures/preview-4.jpeg"}, {"id": 8752460, "nr": 5, "picture": "https://images.pexels.com/videos/8745451/pictures/preview-5.jpeg"}, {"id": 8752468, "nr": 6, "picture": "https://images.pexels.com/videos/8745451/pictures/preview-6.jpeg"}, {"id": 8752480, "nr": 7, "picture": "https://images.pexels.com/videos/8745451/pictures/preview-7.jpeg"}, {"id": 8752493, "nr": 8, "picture": "https://images.pexels.com/videos/8745451/pictures/preview-8.jpeg"}, {"id": 8752506, "nr": 9, "picture": "https://images.pexels.com/videos/8745451/pictures/preview-9.jpeg"}, {"id": 8752520, "nr": 10, "picture": "https://images.pexels.com/videos/8745451/pictures/preview-10.jpeg"}, {"id": 8752533, "nr": 11, "picture": "https://images.pexels.com/videos/8745451/pictures/preview-11.jpeg"}, {"id": 8752542, "nr": 12, "picture": "https://images.pexels.com/videos/8745451/pictures/preview-12.jpeg"}, {"id": 8752553, "nr": 13, "picture": "https://images.pexels.com/videos/8745451/pictures/preview-13.jpeg"}, {"id": 8752567, "nr": 14, "picture": "https://images.pexels.com/videos/8745451/pictures/preview-14.jpeg"}]}, {"id": 6907159, "width": 1080, "height": 1920, "duration": 16, "full_res": null, "tags": [], "url": "https://www.pexels.com/video/shaking-cherry-blossoms-in-a-pitcher-6907159/", "image": "https://images.pexels.com/videos/6907159/aesthetic-blossom-flora-book-cherry-blossom-6907159.jpeg?auto=compress&cs=tinysrgb&fit=crop&h=1200&w=630", "avg_color": null, "user": {"id": 2946790, "name": "Leeloo The First", "url": "https://www.pexels.com/@leeloothefirst"}, "video_files": [{"id": 10222271, "quality": "hd", "file_type": "video/mp4", "width": 1080, "height": 1920, "fps": 29.969999313354492, "link": "https://videos.pexels.com/video-files/6907159/6907159-hd_1080_1920_30fps.mp4", "size": 5418500}, {"id": 10222319, "quality": "hd", "file_type": "video/mp4", "width": 720, "height": 1280, "fps": 29.969999313354492, "link": "https://videos.pexels.com/video-files/6907159/6907159-hd_720_1280_30fps.mp4", "size": 2284852}, {"id": 10222382, "quality": "sd", "file_type": "video/mp4", "width": 540, "height": 960, "fps": 29.969999313354492, "link": "https://videos.pexels.com/video-files/6907159/6907159-sd_540_960_30fps.mp4", "size": 1672526}, {"id": 10222401, "quality": "sd", "file_type": "video/mp4", "width": 240, "height": 426, "fps": 29.969999313354492, "link": "https://videos.pexels.com/video-files/6907159/6907159-sd_240_426_30fps.mp4", "size": 393484}, {"id": 10222462, "quality": "sd", "file_type": "video/mp4", "width": 360, "height": 640, "fps": 29.969999313354492, "link": "https://videos.pexels.com/video-files/6907159/6907159-sd_360_640_30fps.mp4", "size": 836465}], "video_pictures": [{"id": 5341413, "nr": 0, "picture": "https://images.pexels.com/videos/6907159/pictures/preview-0.jpeg"}, {"id": 5341494, "nr": 1, "picture": "https://images.pexels.com/videos/6907159/pictures/preview-1.jpeg"}, {"id": 5341513, "nr": 2, "picture": "https://images.pexels.com/videos/6907159/pictures/preview-2.jpeg"}, {"id": 5341533, "nr": 3, "picture": "https://images.pexels.com/videos/6907159/pictures/preview-3.jpeg"}, {"id": 5341551, "nr": 4, "picture": "https://images.pexels.com/videos/6907159/pictures/preview-4.jpeg"}, {"id": 5341571, "nr": 5, "picture": "https://images.pexels.com/videos/6907159/pictures/preview-5.jpeg"}, {"id": 5341586, "nr": 6, "picture": "https://images.pexels.com/videos/6907159/pictures/preview-6.jpeg"}, {"id": 5341605, "nr": 7, "picture": "https://images.pexels.com/videos/6907159/pictures/preview-7.jpeg"}, {"id": 5341622, "nr": 8, "picture": "https://images.pexels.com/videos/6907159/pictures/preview-8.jpeg"}, {"id": 5341642, "nr": 9, "picture": "https://images.pexels.com/videos/6907159/pictures/preview-9.jpeg"}, {"id": 5341681, "nr": 10, "picture": "https://images.pexels.com/videos/6907159/pictures/preview-10.jpeg"}, {"id": 5341695, "nr": 11, "picture": "https://images.pexels.com/videos/6907159/pictures/preview-11.jpeg"}, {"id": 5341708, "nr": 12, "picture": "https://images.pexels.com/videos/6907159/pictures/preview-12.jpeg"}, {"id": 5341717, "nr": 13, "picture": "https://images.pexels.com/videos/6907159/pictures/preview-13.jpeg"}, {"id": 5341721, "nr": 14, "picture": "https://images.pexels.com/videos/6907159/pictures/preview-14.jpeg"}]}, {"id": 7581327, "width": 1080, "height": 1920, "duration": 13, "full_res": null, "tags": [], "url": "https://www.pexels.com/video/man-moving-to-his-new-office-7581327/", "image": "https://images.pexels.com/videos/7581327/boss-bright-office-brown-people-business-meeting-7581327.jpeg?auto=compress&cs=tinysrgb&fit=crop&h=1200&w=630", "avg_color": null, "user": {"id": 3149039, "name": "RDNE Stock project", "url": "https://www.pexels.com/@rdne"}, "video_files": [{"id": 10485990, "quality": "hd", "file_type": "video/mp4", "width": 1080, "height": 1920, "fps": 30.0, "link": "https://videos.pexels.com/video-files/7581327/7581327-hd_1080_1920_30fps.mp4", "size": 6467264}, {"id": 10486062, "quality": "sd", "file_type": "video/mp4", "width": 540, "height": 960, "fps": 30.0, "link": "https://videos.pexels.com/video-files/7581327/7581327-sd_540_960_30fps.mp4", "size": 1723782}, {"id": 10486159, "quality": "hd", "file_type": "video/mp4", "width": 720, "height": 1280, "fps": 30.0, "link": "https://videos.pexels.com/video-files/7581327/7581327-hd_720_1280_30fps.mp4", "size": 2956582}, {"id": 10486242, "quality": "sd", "file_type": "video/mp4", "width": 360, "height": 640, "fps": 30.0, "link": "https://videos.pexels.com/video-files/7581327/7581327-sd_360_640_30fps.mp4", "size": 768481}, {"id": 10486314, "quality": "sd", "file_type": "video/mp4", "width": 240, "height": 426, "fps": 30.0, "link": "https://videos.pexels.com/video-files/7581327/7581327-sd_240_426_30fps.mp4", "size": 530828}], "video_pictures": [{"id": 6669946, "nr": 0, "picture": "https://images.pexels.com/videos/7581327/pictures/preview-0.jpeg"}, {"id": 6669953, "nr": 1, "picture": "https://images.pexels.com/videos/7581327/pictures/preview-1.jpeg"}, {"id": 6669959, "nr": 2, "picture": "https://images.pexels.com/videos/7581327/pictures/preview-2.jpeg"}, {"id": 6669966, "nr": 3, "picture": "https://images.pexels.com/videos/7581327/pictures/preview-3.jpeg"}, {"id": 6669975, "nr": 4, "picture": "https://images.pexels.com/videos/7581327/pictures/preview-4.jpg"}, {"id": 6669981, "nr": 5, "picture": "https://images.pexels.com/videos/7581327/pictures/preview-5.jpeg"}, {"id": 6669989, "nr": 6, "picture": "https://images.pexels.com/videos/7581327/pictures/preview-6.jpeg"}, {"id": 6669998, "nr": 7, "picture": "https://images.pexels.com/videos/7581327/pictures/preview-7.jpeg"}, {"id": 6670007, "nr": 8, "picture": "https://images.pexels.com/videos/7581327/pictures/preview-8.jpeg"}, {"id": 6670014, "nr": 9, "picture": "https://images.pexels.com/videos/7581327/pictures/preview-9.jpeg"}, {"id": 6670021, "nr": 10, "picture": "https://images.pexels.com/videos/7581327/pictures/preview-10.jpeg"}, {"id": 6670026, "nr": 11, "picture": "https://images.pexels.com/videos/7581327/pictures/preview-11.jpeg"}, {"id": 6670030, "nr": 12, "picture": "https://images.pexels.com/videos/7581327/pictures/preview-12.jpeg"}, {"id": 6670033, "nr": 13, "picture": "https://images.pexels.com/videos/7581327/pictures/preview-13.jpeg"}, {"id": 6670037, "nr": 14, "picture": "https://images.pexels.com/videos/7581327/pictures/preview-14.jpeg"}]}], "total_results": 8000, "next_page": "https://api.pexels.com/v1/videos/search/?orientation=portrait&page=2&per_page=8&query=flowers+moving", "url": "https://api-server.pexels.com/search/videos/flowers%20moving/"}, "timestamp": "2024-12-28T22:37:01.891987"}
