{"query": "giant water lily", "response": {"page": 1, "per_page": 8, "videos": [{"id": 8195692, "width": 2160, "height": 4096, "duration": 9, "full_res": null, "tags": [], "url": "https://www.pexels.com/video/close-up-shot-of-waterlily-8195692/", "image": "https://images.pexels.com/videos/8195692/art-beautiful-cactus-color-8195692.jpeg?auto=compress&cs=tinysrgb&fit=crop&h=1200&w=630", "avg_color": null, "user": {"id": 2678846, "name": "ROMAN ODINTSOV", "url": "https://www.pexels.com/@roman-odintsov"}, "video_files": [{"id": 10741165, "quality": "sd", "file_type": "video/mp4", "width": 226, "height": 426, "fps": 29.969999313354492, "link": "https://videos.pexels.com/video-files/8195692/8195692-sd_226_426_30fps.mp4", "size": 383802}, {"id": 10741393, "quality": "sd", "file_type": "video/mp4", "width": 506, "height": 960, "fps": 29.969999313354492, "link": "https://videos.pexels.com/video-files/8195692/8195692-sd_506_960_30fps.mp4", "size": 1566363}, {"id": 10741514, "quality": "uhd", "file_type": "video/mp4", "width": 1440, "height": 2732, "fps": 29.969999313354492, "link": "https://videos.pexels.com/video-files/8195692/8195692-uhd_1440_2732_30fps.mp4", "size": 13500305}, {"id": 10741761, "quality": "hd", "file_type": "video/mp4", "width": 720, "height": 1366, "fps": 29.969999313354492, "link": "https://videos.pexels.com/video-files/8195692/8195692-hd_720_1366_30fps.mp4", "size": 2660550}, {"id": 10741858, "quality": "sd", "file_type": "video/mp4", "width": 338, "height": 640, "fps": 29.969999313354492, "link": "https://videos.pexels.com/video-files/8195692/8195692-sd_338_640_30fps.mp4", "size": 533068}, {"id": 10741935, "quality": "uhd", "file_type": "video/mp4", "width": 2160, "height": 4096, "fps": 29.969999313354492, "link": "https://videos.pexels.com/video-files/8195692/8195692-uhd_2160_4096_30fps.mp4", "size": 24670621}, {"id": 10742004, "quality": "hd", "file_type": "video/mp4", "width": 1080, "height": 2048, "fps": 29.969999313354492, "link": "https://videos.pexels.com/video-files/8195692/8195692-hd_1080_2048_30fps.mp4", "size": 5432823}], "video_pictures": [{"id": 7803050, "nr": 0, "picture": "https://images.pexels.com/videos/8195692/pictures/preview-0.jpeg"}, {"id": 7803069, "nr": 1, "picture": "https://images.pexels.com/videos/8195692/pictures/preview-1.jpeg"}, {"id": 7803095, "nr": 2, "picture": "https://images.pexels.com/videos/8195692/pictures/preview-2.jpeg"}, {"id": 7803120, "nr": 3, "picture": "https://images.pexels.com/videos/8195692/pictures/preview-3.jpeg"}, {"id": 7803150, "nr": 4, "picture": "https://images.pexels.com/videos/8195692/pictures/preview-4.jpeg"}, {"id": 7803189, "nr": 5, "picture": "https://images.pexels.com/videos/8195692/pictures/preview-5.jpeg"}, {"id": 7803231, "nr": 6, "picture": "https://images.pexels.com/videos/8195692/pictures/preview-6.jpeg"}, {"id": 7803253, "nr": 7, "picture": "https://images.pexels.com/videos/8195692/pictures/preview-7.jpeg"}, {"id": 7803277, "nr": 8, "picture": "https://images.pexels.com/videos/8195692/pictures/preview-8.jpeg"}, {"id": 7803297, "nr": 9, "picture": "https://images.pexels.com/videos/8195692/pictures/preview-9.jpeg"}, {"id": 7803321, "nr": 10, "picture": "https://images.pexels.com/videos/8195692/pictures/preview-10.jpeg"}, {"id": 7803342, "nr": 11, "picture": "https://images.pexels.com/videos/8195692/pictures/preview-11.jpeg"}, {"id": 7803361, "nr": 12, "picture": "https://images.pexels.com/videos/8195692/pictures/preview-12.jpeg"}, {"id": 7803375, "nr": 13, "picture": "https://images.pexels.com/videos/8195692/pictures/preview-13.jpeg"}, {"id": 7803389, "nr": 14, "picture": "https://images.pexels.com/videos/8195692/pictures/preview-14.jpeg"}]}, {"id": 19130256, "width": 2160, "height": 3840, "duration": 5, "full_res": null, "tags": [], "url": "https://www.pexels.com/video/sun-glare-on-water-plant-s-leaves-19130256/", "image": "https://images.pexels.com/videos/19130256/idyllic-instagram-stories-pound-sparkling-water-19130256.jpeg?auto=compress&cs=tinysrgb&fit=crop&h=1200&w=630", "avg_color": null, "user": {"id": 696965791, "name": "Taty  Gkiozos", "url": "https://www.pexels.com/@taty-gkiozos-696965791"}, "video_files": [{"id": 8232770, "quality": "uhd", "file_type": "video/mp4", "width": 2160, "height": 3840, "fps": 30.0, "link": "https://videos.pexels.com/video-files/19130256/19130256-uhd_2160_3840_30fps.mp4", "size": 16464020}, {"id": 8232771, "quality": "hd", "file_type": "video/mp4", "width": 720, "height": 1280, "fps": 30.0, "link": "https://videos.pexels.com/video-files/19130256/19130256-hd_720_1280_30fps.mp4", "size": 2019915}, {"id": 8232772, "quality": "sd", "file_type": "video/mp4", "width": 360, "height": 640, "fps": 30.0, "link": "https://videos.pexels.com/video-files/19130256/19130256-sd_360_640_30fps.mp4", "size": 628056}, {"id": 8232773, "quality": "sd", "file_type": "video/mp4", "width": 540, "height": 960, "fps": 30.0, "link": "https://videos.pexels.com/video-files/19130256/19130256-sd_540_960_30fps.mp4", "size": 1120641}, {"id": 8232774, "quality": "hd", "file_type": "video/mp4", "width": 1080, "height": 1920, "fps": 30.0, "link": "https://videos.pexels.com/video-files/19130256/19130256-hd_1080_1920_30fps.mp4", "size": 3689993}, {"id": 8232775, "quality": "uhd", "file_type": "video/mp4", "width": 1440, "height": 2560, "fps": 30.0, "link": "https://videos.pexels.com/video-files/19130256/19130256-uhd_1440_2560_30fps.mp4", "size": 7725329}, {"id": 8232776, "quality": "sd", "file_type": "video/mp4", "width": 240, "height": 426, "fps": 30.0, "link": "https://videos.pexels.com/video-files/19130256/19130256-sd_240_426_30fps.mp4", "size": 363688}], "video_pictures": [{"id": 19932989, "nr": 0, "picture": "https://images.pexels.com/videos/19130256/pictures/preview-0.jpeg"}, {"id": 19932990, "nr": 1, "picture": "https://images.pexels.com/videos/19130256/pictures/preview-1.jpeg"}, {"id": 19932992, "nr": 2, "picture": "https://images.pexels.com/videos/19130256/pictures/preview-2.jpeg"}, {"id": 19932994, "nr": 3, "picture": "https://images.pexels.com/videos/19130256/pictures/preview-3.jpeg"}, {"id": 19932995, "nr": 4, "picture": "https://images.pexels.com/videos/19130256/pictures/preview-4.jpeg"}, {"id": 19932998, "nr": 5, "picture": "https://images.pexels.com/videos/19130256/pictures/preview-5.jpeg"}, {"id": 19933001, "nr": 6, "picture": "https://images.pexels.com/videos/19130256/pictures/preview-6.jpeg"}, {"id": 19933004, "nr": 7, "picture": "https://images.pexels.com/videos/19130256/pictures/preview-7.jpeg"}, {"id": 19933009, "nr": 8, "picture": "https://images.pexels.com/videos/19130256/pictures/preview-8.jpeg"}, {"id": 19933012, "nr": 9, "picture": "https://images.pexels.com/videos/19130256/pictures/preview-9.jpeg"}, {"id": 19933017, "nr": 10, "picture": "https://images.pexels.com/videos/19130256/pictures/preview-10.jpeg"}, {"id": 19933022, "nr": 11, "picture": "https://images.pexels.com/videos/19130256/pictures/preview-11.jpeg"}, {"id": 19933027, "nr": 12, "picture": "https://images.pexels.com/videos/19130256/pictures/preview-12.jpeg"}, {"id": 19933031, "nr": 13, "picture": "https://images.pexels.com/videos/19130256/pictures/preview-13.jpeg"}, {"id": 19933035, "nr": 14, "picture": "https://images.pexels.com/videos/19130256/pictures/preview-14.jpeg"}]}, {"id": 12541024, "width": 2160, "height": 3840, "duration": 3, "full_res": null, "tags": [], "url": "https://www.pexels.com/video/beach-holiday-vacation-sand-12541024/", "image": "https://images.pexels.com/videos/12541024/pexels-photo-12541024.jpeg?auto=compress&cs=tinysrgb&fit=crop&h=1200&w=630", "avg_color": null, "user": {"id": 45786, "name": "Asad Photo Maldives", "url": "https://www.pexels.com/@asadphoto"}, "video_files": [{"id": 5488763, "quality": "sd", "file_type": "video/mp4", "width": 240, "height": 426, "fps": 24.0, "link": "https://videos.pexels.com/video-files/12541024/12541024-sd_240_426_24fps.mp4", "size": 228515}, {"id": 5488764, "quality": "sd", "file_type": "video/mp4", "width": 540, "height": 960, "fps": 24.0, "link": "https://videos.pexels.com/video-files/12541024/12541024-sd_540_960_24fps.mp4", "size": 712116}, {"id": 5488765, "quality": "uhd", "file_type": "video/mp4", "width": 2160, "height": 3840, "fps": 24.0, "link": "https://videos.pexels.com/video-files/12541024/12541024-uhd_2160_3840_24fps.mp4", "size": 10190514}, {"id": 5488766, "quality": "hd", "file_type": "video/mp4", "width": 720, "height": 1280, "fps": 24.0, "link": "https://videos.pexels.com/video-files/12541024/12541024-hd_720_1280_24fps.mp4", "size": 1309989}, {"id": 5488767, "quality": "sd", "file_type": "video/mp4", "width": 360, "height": 640, "fps": 24.0, "link": "https://videos.pexels.com/video-files/12541024/12541024-sd_360_640_24fps.mp4", "size": 365016}, {"id": 5488768, "quality": "hd", "file_type": "video/mp4", "width": 1080, "height": 1920, "fps": 24.0, "link": "https://videos.pexels.com/video-files/12541024/12541024-hd_1080_1920_24fps.mp4", "size": 2986923}, {"id": 5488769, "quality": "uhd", "file_type": "video/mp4", "width": 1440, "height": 2560, "fps": 24.0, "link": "https://videos.pexels.com/video-files/12541024/12541024-uhd_1440_2560_24fps.mp4", "size": 6055889}], "video_pictures": [{"id": 13579977, "nr": 0, "picture": "https://images.pexels.com/videos/12541024/pictures/preview-0.jpeg"}, {"id": 13579987, "nr": 1, "picture": "https://images.pexels.com/videos/12541024/pictures/preview-1.jpeg"}, {"id": 13580002, "nr": 2, "picture": "https://images.pexels.com/videos/12541024/pictures/preview-2.jpeg"}, {"id": 13580014, "nr": 3, "picture": "https://images.pexels.com/videos/12541024/pictures/preview-3.jpeg"}, {"id": 13580025, "nr": 4, "picture": "https://images.pexels.com/videos/12541024/pictures/preview-4.jpeg"}, {"id": 13580039, "nr": 5, "picture": "https://images.pexels.com/videos/12541024/pictures/preview-5.jpeg"}, {"id": 13580054, "nr": 6, "picture": "https://images.pexels.com/videos/12541024/pictures/preview-6.jpeg"}, {"id": 13580065, "nr": 7, "picture": "https://images.pexels.com/videos/12541024/pictures/preview-7.jpeg"}, {"id": 13580081, "nr": 8, "picture": "https://images.pexels.com/videos/12541024/pictures/preview-8.jpeg"}, {"id": 13580098, "nr": 9, "picture": "https://images.pexels.com/videos/12541024/pictures/preview-9.jpeg"}, {"id": 13580114, "nr": 10, "picture": "https://images.pexels.com/videos/12541024/pictures/preview-10.jpeg"}, {"id": 13580129, "nr": 11, "picture": "https://images.pexels.com/videos/12541024/pictures/preview-11.jpeg"}, {"id": 13580143, "nr": 12, "picture": "https://images.pexels.com/videos/12541024/pictures/preview-12.jpeg"}, {"id": 13580155, "nr": 13, "picture": "https://images.pexels.com/videos/12541024/pictures/preview-13.jpeg"}, {"id": 13580168, "nr": 14, "picture": "https://images.pexels.com/videos/12541024/pictures/preview-14.jpeg"}]}, {"id": 16272692, "width": 2160, "height": 3840, "duration": 12, "full_res": null, "tags": [], "url": "https://www.pexels.com/video/a-purple-water-lily-floating-in-a-pond-with-lily-pads-16272692/", "image": "https://images.pexels.com/videos/16272692/beautiful-flowers-beautiful-nature-botanic-garden-flower-16272692.jpeg?auto=compress&cs=tinysrgb&fit=crop&h=1200&w=630", "avg_color": null, "user": {"id": 723228, "name": "Deeana Arts", "url": "https://www.pexels.com/@deeanacreates"}, "video_files": [{"id": 6699108, "quality": "hd", "file_type": "video/mp4", "width": 720, "height": 1280, "fps": 60.0, "link": "https://videos.pexels.com/video-files/16272692/16272692-hd_720_1280_60fps.mp4", "size": 4732659}, {"id": 6699109, "quality": "sd", "file_type": "video/mp4", "width": 540, "height": 960, "fps": 30.0, "link": "https://videos.pexels.com/video-files/16272692/16272692-sd_540_960_30fps.mp4", "size": 2708890}, {"id": 6699110, "quality": "hd", "file_type": "video/mp4", "width": 1080, "height": 1920, "fps": 60.0, "link": "https://videos.pexels.com/video-files/16272692/16272692-hd_1080_1920_60fps.mp4", "size": 9468503}, {"id": 6699111, "quality": "sd", "file_type": "video/mp4", "width": 240, "height": 426, "fps": 30.0, "link": "https://videos.pexels.com/video-files/16272692/16272692-sd_240_426_30fps.mp4", "size": 549279}, {"id": 6699112, "quality": "uhd", "file_type": "video/mp4", "width": 1440, "height": 2560, "fps": 60.0, "link": "https://videos.pexels.com/video-files/16272692/16272692-uhd_1440_2560_60fps.mp4", "size": 18616726}, {"id": 6699113, "quality": "sd", "file_type": "video/mp4", "width": 360, "height": 640, "fps": 30.0, "link": "https://videos.pexels.com/video-files/16272692/16272692-sd_360_640_30fps.mp4", "size": 1269234}, {"id": 6699114, "quality": "uhd", "file_type": "video/mp4", "width": 2160, "height": 3840, "fps": 60.0, "link": "https://videos.pexels.com/video-files/16272692/16272692-uhd_2160_3840_60fps.mp4", "size": 37094271}], "video_pictures": [{"id": 17179735, "nr": 0, "picture": "https://images.pexels.com/videos/16272692/pictures/preview-0.jpeg"}, {"id": 17179739, "nr": 1, "picture": "https://images.pexels.com/videos/16272692/pictures/preview-1.jpeg"}, {"id": 17179745, "nr": 2, "picture": "https://images.pexels.com/videos/16272692/pictures/preview-2.jpeg"}, {"id": 17179748, "nr": 3, "picture": "https://images.pexels.com/videos/16272692/pictures/preview-3.jpeg"}, {"id": 17179753, "nr": 4, "picture": "https://images.pexels.com/videos/16272692/pictures/preview-4.jpeg"}, {"id": 17179756, "nr": 5, "picture": "https://images.pexels.com/videos/16272692/pictures/preview-5.jpeg"}, {"id": 17179758, "nr": 6, "picture": "https://images.pexels.com/videos/16272692/pictures/preview-6.jpeg"}, {"id": 17179761, "nr": 7, "picture": "https://images.pexels.com/videos/16272692/pictures/preview-7.jpeg"}, {"id": 17179766, "nr": 8, "picture": "https://images.pexels.com/videos/16272692/pictures/preview-8.jpeg"}, {"id": 17179768, "nr": 9, "picture": "https://images.pexels.com/videos/16272692/pictures/preview-9.jpeg"}, {"id": 17179782, "nr": 10, "picture": "https://images.pexels.com/videos/16272692/pictures/preview-10.jpeg"}, {"id": 17179802, "nr": 11, "picture": "https://images.pexels.com/videos/16272692/pictures/preview-11.jpeg"}, {"id": 17179818, "nr": 12, "picture": "https://images.pexels.com/videos/16272692/pictures/preview-12.jpeg"}, {"id": 17179843, "nr": 13, "picture": "https://images.pexels.com/videos/16272692/pictures/preview-13.jpeg"}, {"id": 17179865, "nr": 14, "picture": "https://images.pexels.com/videos/16272692/pictures/preview-14.jpeg"}]}, {"id": 26604198, "width": 2160, "height": 3840, "duration": 14, "full_res": null, "tags": [], "url": "https://www.pexels.com/video/a-pond-with-water-lilies-and-pink-flowers-26604198/", "image": "https://images.pexels.com/videos/26604198/pexels-photo-26604198.jpeg?auto=compress&cs=tinysrgb&fit=crop&h=1200&w=630", "avg_color": null, "user": {"id": 1413178437, "name": "Taya Dem", "url": "https://www.pexels.com/@taya-dem-1413178437"}, "video_files": [{"id": 11970992, "quality": null, "file_type": "video/mp4", "width": 360, "height": 640, "fps": 29.969999313354492, "link": "https://videos.pexels.com/video-files/26604198/11970992_360_640_30fps.mp4", "size": 5431566}, {"id": 11970993, "quality": null, "file_type": "video/mp4", "width": 540, "height": 960, "fps": 29.969999313354492, "link": "https://videos.pexels.com/video-files/26604198/11970993_540_960_30fps.mp4", "size": 10399575}, {"id": 11970994, "quality": null, "file_type": "video/mp4", "width": 720, "height": 1280, "fps": 29.969999313354492, "link": "https://videos.pexels.com/video-files/26604198/11970994_720_1280_30fps.mp4", "size": 16078031}, {"id": 11970995, "quality": null, "file_type": "video/mp4", "width": 1080, "height": 1920, "fps": 29.969999313354492, "link": "https://videos.pexels.com/video-files/26604198/11970995_1080_1920_30fps.mp4", "size": 28205963}, {"id": 11970996, "quality": null, "file_type": "video/mp4", "width": 1440, "height": 2560, "fps": 29.969999313354492, "link": "https://videos.pexels.com/video-files/26604198/11970996_1440_2560_30fps.mp4", "size": 43804350}, {"id": 11970997, "quality": null, "file_type": "video/mp4", "width": 2160, "height": 3840, "fps": 29.969999313354492, "link": "https://videos.pexels.com/video-files/26604198/11970997_2160_3840_30fps.mp4", "size": 73416018}], "video_pictures": [{"id": 22029928, "nr": 0, "picture": "https://images.pexels.com/videos/26604198/pictures/preview-0.jpg"}, {"id": 22029929, "nr": 1, "picture": "https://images.pexels.com/videos/26604198/pictures/preview-1.jpg"}, {"id": 22029930, "nr": 2, "picture": "https://images.pexels.com/videos/26604198/pictures/preview-2.jpg"}, {"id": 22029931, "nr": 3, "picture": "https://images.pexels.com/videos/26604198/pictures/preview-3.jpg"}, {"id": 22029932, "nr": 4, "picture": "https://images.pexels.com/videos/26604198/pictures/preview-4.jpg"}, {"id": 22029933, "nr": 5, "picture": "https://images.pexels.com/videos/26604198/pictures/preview-5.jpg"}, {"id": 22029934, "nr": 6, "picture": "https://images.pexels.com/videos/26604198/pictures/preview-6.jpg"}, {"id": 22029935, "nr": 7, "picture": "https://images.pexels.com/videos/26604198/pictures/preview-7.jpg"}, {"id": 22029936, "nr": 8, "picture": "https://images.pexels.com/videos/26604198/pictures/preview-8.jpg"}, {"id": 22029937, "nr": 9, "picture": "https://images.pexels.com/videos/26604198/pictures/preview-9.jpg"}, {"id": 22029938, "nr": 10, "picture": "https://images.pexels.com/videos/26604198/pictures/preview-10.jpg"}, {"id": 22029939, "nr": 11, "picture": "https://images.pexels.com/videos/26604198/pictures/preview-11.jpg"}, {"id": 22029940, "nr": 12, "picture": "https://images.pexels.com/videos/26604198/pictures/preview-12.jpg"}]}, {"id": 19086693, "width": 2160, "height": 3840, "duration": 18, "full_res": null, "tags": [], "url": "https://www.pexels.com/video/lotuses-19086693/", "image": "https://images.pexels.com/videos/19086693/lotuses-19086693.jpeg?auto=compress&cs=tinysrgb&fit=crop&h=1200&w=630", "avg_color": null, "user": {"id": 186686358, "name": "Anna Chip", "url": "https://www.pexels.com/@anya-chip"}, "video_files": [{"id": 8209323, "quality": "hd", "file_type": "video/mp4", "width": 720, "height": 1280, "fps": 60.0, "link": "https://videos.pexels.com/video-files/19086693/19086693-hd_720_1280_60fps.mp4", "size": 6679295}, {"id": 8209324, "quality": "uhd", "file_type": "video/mp4", "width": 1440, "height": 2560, "fps": 60.0, "link": "https://videos.pexels.com/video-files/19086693/19086693-uhd_1440_2560_60fps.mp4", "size": 32510853}, {"id": 8209325, "quality": "hd", "file_type": "video/mp4", "width": 1080, "height": 1920, "fps": 60.0, "link": "https://videos.pexels.com/video-files/19086693/19086693-hd_1080_1920_60fps.mp4", "size": 13410365}, {"id": 8209326, "quality": "uhd", "file_type": "video/mp4", "width": 2160, "height": 3840, "fps": 60.0, "link": "https://videos.pexels.com/video-files/19086693/19086693-uhd_2160_3840_60fps.mp4", "size": 59814262}, {"id": 8209327, "quality": "sd", "file_type": "video/mp4", "width": 540, "height": 960, "fps": 30.0, "link": "https://videos.pexels.com/video-files/19086693/19086693-sd_540_960_30fps.mp4", "size": 3515615}, {"id": 8209328, "quality": "sd", "file_type": "video/mp4", "width": 240, "height": 426, "fps": 30.0, "link": "https://videos.pexels.com/video-files/19086693/19086693-sd_240_426_30fps.mp4", "size": 771685}, {"id": 8209329, "quality": "sd", "file_type": "video/mp4", "width": 360, "height": 640, "fps": 30.0, "link": "https://videos.pexels.com/video-files/19086693/19086693-sd_360_640_30fps.mp4", "size": 1707357}], "video_pictures": [{"id": 19895580, "nr": 0, "picture": "https://images.pexels.com/videos/19086693/pictures/preview-0.jpeg"}, {"id": 19895581, "nr": 1, "picture": "https://images.pexels.com/videos/19086693/pictures/preview-1.jpeg"}, {"id": 19895582, "nr": 2, "picture": "https://images.pexels.com/videos/19086693/pictures/preview-2.jpeg"}, {"id": 19895583, "nr": 3, "picture": "https://images.pexels.com/videos/19086693/pictures/preview-3.jpeg"}, {"id": 19895584, "nr": 4, "picture": "https://images.pexels.com/videos/19086693/pictures/preview-4.jpeg"}, {"id": 19895585, "nr": 5, "picture": "https://images.pexels.com/videos/19086693/pictures/preview-5.jpeg"}, {"id": 19895586, "nr": 6, "picture": "https://images.pexels.com/videos/19086693/pictures/preview-6.jpeg"}, {"id": 19895587, "nr": 7, "picture": "https://images.pexels.com/videos/19086693/pictures/preview-7.jpeg"}, {"id": 19895588, "nr": 8, "picture": "https://images.pexels.com/videos/19086693/pictures/preview-8.jpeg"}, {"id": 19895590, "nr": 9, "picture": "https://images.pexels.com/videos/19086693/pictures/preview-9.jpeg"}, {"id": 19895592, "nr": 10, "picture": "https://images.pexels.com/videos/19086693/pictures/preview-10.jpeg"}, {"id": 19895595, "nr": 11, "picture": "https://images.pexels.com/videos/19086693/pictures/preview-11.jpeg"}, {"id": 19895597, "nr": 12, "picture": "https://images.pexels.com/videos/19086693/pictures/preview-12.jpeg"}, {"id": 19895599, "nr": 13, "picture": "https://images.pexels.com/videos/19086693/pictures/preview-13.jpeg"}, {"id": 19895603, "nr": 14, "picture": "https://images.pexels.com/videos/19086693/pictures/preview-14.jpeg"}]}, {"id": 25809354, "width": 1080, "height": 1920, "duration": 16, "full_res": null, "tags": [], "url": "https://www.pexels.com/video/lotus-2-25809354/", "image": "https://images.pexels.com/videos/25809354/4k-resolution-4k-video-beautiful-flowers-indian-lotus-25809354.jpeg?auto=compress&cs=tinysrgb&fit=crop&h=1200&w=630", "avg_color": null, "user": {"id": 3883782, "name": "Dikunj  Vaghela", "url": "https://www.pexels.com/@dikunjvaghela"}, "video_files": [{"id": 11911121, "quality": null, "file_type": "video/mp4", "width": 360, "height": 640, "fps": 30.0, "link": "https://videos.pexels.com/video-files/25809354/11911121_360_640_30fps.mp4", "size": 3801677}, {"id": 11911122, "quality": null, "file_type": "video/mp4", "width": 540, "height": 960, "fps": 30.0, "link": "https://videos.pexels.com/video-files/25809354/11911122_540_960_30fps.mp4", "size": 7200319}, {"id": 11911123, "quality": null, "file_type": "video/mp4", "width": 720, "height": 1280, "fps": 30.0, "link": "https://videos.pexels.com/video-files/25809354/11911123_720_1280_30fps.mp4", "size": 11272618}, {"id": 11911124, "quality": null, "file_type": "video/mp4", "width": 1080, "height": 1920, "fps": 30.0, "link": "https://videos.pexels.com/video-files/25809354/11911124_1080_1920_30fps.mp4", "size": 22250666}], "video_pictures": [{"id": 21879146, "nr": 0, "picture": "https://images.pexels.com/videos/25809354/pictures/preview-0.jpg"}, {"id": 21879147, "nr": 1, "picture": "https://images.pexels.com/videos/25809354/pictures/preview-1.jpg"}, {"id": 21879148, "nr": 2, "picture": "https://images.pexels.com/videos/25809354/pictures/preview-2.jpg"}, {"id": 21879149, "nr": 3, "picture": "https://images.pexels.com/videos/25809354/pictures/preview-3.jpg"}, {"id": 21879150, "nr": 4, "picture": "https://images.pexels.com/videos/25809354/pictures/preview-4.jpg"}, {"id": 21879151, "nr": 5, "picture": "https://images.pexels.com/videos/25809354/pictures/preview-5.jpg"}, {"id": 21879152, "nr": 6, "picture": "https://images.pexels.com/videos/25809354/pictures/preview-6.jpg"}, {"id": 21879153, "nr": 7, "picture": "https://images.pexels.com/videos/25809354/pictures/preview-7.jpg"}, {"id": 21879154, "nr": 8, "picture": "https://images.pexels.com/videos/25809354/pictures/preview-8.jpg"}, {"id": 21879155, "nr": 9, "picture": "https://images.pexels.com/videos/25809354/pictures/preview-9.jpg"}, {"id": 21879156, "nr": 10, "picture": "https://images.pexels.com/videos/25809354/pictures/preview-10.jpg"}, {"id": 21879157, "nr": 11, "picture": "https://images.pexels.com/videos/25809354/pictures/preview-11.jpg"}, {"id": 21879158, "nr": 12, "picture": "https://images.pexels.com/videos/25809354/pictures/preview-12.jpg"}, {"id": 21879159, "nr": 13, "picture": "https://images.pexels.com/videos/25809354/pictures/preview-13.jpg"}, {"id": 21879160, "nr": 14, "picture": "https://images.pexels.com/videos/25809354/pictures/preview-14.jpg"}]}, {"id": 25809332, "width": 1080, "height": 1920, "duration": 16, "full_res": null, "tags": [], "url": "https://www.pexels.com/video/white-lotus-25809332/", "image": "https://images.pexels.com/videos/25809332/beautiful-flower-blooming-flowers-indian-lotus-lotus-25809332.jpeg?auto=compress&cs=tinysrgb&fit=crop&h=1200&w=630", "avg_color": null, "user": {"id": 3883782, "name": "Dikunj  Vaghela", "url": "https://www.pexels.com/@dikunjvaghela"}, "video_files": [{"id": 11911010, "quality": null, "file_type": "video/mp4", "width": 360, "height": 640, "fps": 30.0, "link": "https://videos.pexels.com/video-files/25809332/11911010_360_640_30fps.mp4", "size": 1764409}, {"id": 11911011, "quality": null, "file_type": "video/mp4", "width": 540, "height": 960, "fps": 30.0, "link": "https://videos.pexels.com/video-files/25809332/11911011_540_960_30fps.mp4", "size": 3389317}, {"id": 11911012, "quality": null, "file_type": "video/mp4", "width": 720, "height": 1280, "fps": 30.0, "link": "https://videos.pexels.com/video-files/25809332/11911012_720_1280_30fps.mp4", "size": 5484394}, {"id": 11911013, "quality": null, "file_type": "video/mp4", "width": 1080, "height": 1920, "fps": 30.0, "link": "https://videos.pexels.com/video-files/25809332/11911013_1080_1920_30fps.mp4", "size": 12259784}], "video_pictures": [{"id": 21878910, "nr": 0, "picture": "https://images.pexels.com/videos/25809332/pictures/preview-0.jpg"}, {"id": 21878911, "nr": 1, "picture": "https://images.pexels.com/videos/25809332/pictures/preview-1.jpg"}, {"id": 21878912, "nr": 2, "picture": "https://images.pexels.com/videos/25809332/pictures/preview-2.jpg"}, {"id": 21878913, "nr": 3, "picture": "https://images.pexels.com/videos/25809332/pictures/preview-3.jpg"}, {"id": 21878914, "nr": 4, "picture": "https://images.pexels.com/videos/25809332/pictures/preview-4.jpg"}, {"id": 21878915, "nr": 5, "picture": "https://images.pexels.com/videos/25809332/pictures/preview-5.jpg"}, {"id": 21878916, "nr": 6, "picture": "https://images.pexels.com/videos/25809332/pictures/preview-6.jpg"}, {"id": 21878917, "nr": 7, "picture": "https://images.pexels.com/videos/25809332/pictures/preview-7.jpg"}, {"id": 21878918, "nr": 8, "picture": "https://images.pexels.com/videos/25809332/pictures/preview-8.jpg"}, {"id": 21878919, "nr": 9, "picture": "https://images.pexels.com/videos/25809332/pictures/preview-9.jpg"}, {"id": 21878920, "nr": 10, "picture": "https://images.pexels.com/videos/25809332/pictures/preview-10.jpg"}, {"id": 21878921, "nr": 11, "picture": "https://images.pexels.com/videos/25809332/pictures/preview-11.jpg"}, {"id": 21878922, "nr": 12, "picture": "https://images.pexels.com/videos/25809332/pictures/preview-12.jpg"}, {"id": 21878923, "nr": 13, "picture": "https://images.pexels.com/videos/25809332/pictures/preview-13.jpg"}, {"id": 21878924, "nr": 14, "picture": "https://images.pexels.com/videos/25809332/pictures/preview-14.jpg"}]}], "total_results": 8000, "next_page": "https://api.pexels.com/v1/videos/search/?orientation=portrait&page=2&per_page=8&query=giant+water+lily", "url": "https://api-server.pexels.com/search/videos/giant%20water%20lily/"}, "timestamp": "2024-12-28T22:59:56.973906"}
