{"query": "insect repellent", "response": {"page": 1, "per_page": 8, "videos": [{"id": 6243293, "width": 1080, "height": 1920, "duration": 11, "full_res": null, "tags": [], "url": "https://www.pexels.com/video/bee-pollinating-small-yellow-flower-6243293/", "image": "https://images.pexels.com/videos/6243293/beautiful-bee-bio-bloom-6243293.jpeg?auto=compress&cs=tinysrgb&fit=crop&h=1200&w=630", "avg_color": null, "user": {"id": 7396050, "name": "Bruchin Noeka", "url": "https://www.pexels.com/@kr8t"}, "video_files": [{"id": 10029895, "quality": "sd", "file_type": "video/mp4", "width": 540, "height": 960, "fps": 23.97599983215332, "link": "https://videos.pexels.com/video-files/6243293/6243293-sd_540_960_24fps.mp4", "size": 1671470}, {"id": 10029957, "quality": "sd", "file_type": "video/mp4", "width": 360, "height": 640, "fps": 23.97599983215332, "link": "https://videos.pexels.com/video-files/6243293/6243293-sd_360_640_24fps.mp4", "size": 771596}, {"id": 10030085, "quality": "hd", "file_type": "video/mp4", "width": 1080, "height": 1920, "fps": 23.97599983215332, "link": "https://videos.pexels.com/video-files/6243293/6243293-hd_1080_1920_24fps.mp4", "size": 6735357}, {"id": 10030224, "quality": "hd", "file_type": "video/mp4", "width": 720, "height": 1280, "fps": 23.97599983215332, "link": "https://videos.pexels.com/video-files/6243293/6243293-hd_720_1280_24fps.mp4", "size": 2527692}, {"id": 10030306, "quality": "sd", "file_type": "video/mp4", "width": 240, "height": 426, "fps": 23.97599983215332, "link": "https://videos.pexels.com/video-files/6243293/6243293-sd_240_426_24fps.mp4", "size": 419023}], "video_pictures": [{"id": 4137640, "nr": 0, "picture": "https://images.pexels.com/videos/6243293/pictures/preview-0.jpeg"}, {"id": 4137641, "nr": 1, "picture": "https://images.pexels.com/videos/6243293/pictures/preview-1.jpeg"}, {"id": 4137642, "nr": 2, "picture": "https://images.pexels.com/videos/6243293/pictures/preview-2.jpeg"}, {"id": 4137643, "nr": 3, "picture": "https://images.pexels.com/videos/6243293/pictures/preview-3.jpeg"}, {"id": 4137644, "nr": 4, "picture": "https://images.pexels.com/videos/6243293/pictures/preview-4.jpeg"}, {"id": 4137645, "nr": 5, "picture": "https://images.pexels.com/videos/6243293/pictures/preview-5.jpeg"}, {"id": 4137646, "nr": 6, "picture": "https://images.pexels.com/videos/6243293/pictures/preview-6.jpeg"}, {"id": 4137647, "nr": 7, "picture": "https://images.pexels.com/videos/6243293/pictures/preview-7.jpeg"}, {"id": 4137648, "nr": 8, "picture": "https://images.pexels.com/videos/6243293/pictures/preview-8.jpeg"}, {"id": 4137649, "nr": 9, "picture": "https://images.pexels.com/videos/6243293/pictures/preview-9.jpeg"}, {"id": 4137650, "nr": 10, "picture": "https://images.pexels.com/videos/6243293/pictures/preview-10.jpeg"}, {"id": 4137651, "nr": 11, "picture": "https://images.pexels.com/videos/6243293/pictures/preview-11.jpeg"}, {"id": 4137652, "nr": 12, "picture": "https://images.pexels.com/videos/6243293/pictures/preview-12.jpeg"}, {"id": 4137653, "nr": 13, "picture": "https://images.pexels.com/videos/6243293/pictures/preview-13.jpeg"}, {"id": 4137654, "nr": 14, "picture": "https://images.pexels.com/videos/6243293/pictures/preview-14.jpeg"}]}, {"id": 29368599, "width": 2160, "height": 3840, "duration": 59, "full_res": null, "tags": [], "url": "https://www.pexels.com/video/macro-close-up-of-a-vibrant-dragonfly-on-a-stick-29368599/", "image": "https://images.pexels.com/videos/29368599/animal-beautiful-beauty-biology-29368599.jpeg?auto=compress&cs=tinysrgb&fit=crop&h=1200&w=630", "avg_color": null, "user": {"id": 631997, "name": "Engin Akyurt", "url": "https://www.pexels.com/@enginakyurt"}, "video_files": [{"id": 12653111, "quality": null, "file_type": "video/mp4", "width": 360, "height": 640, "fps": 25.0, "link": "https://videos.pexels.com/video-files/29368599/12653111_360_640_25fps.mp4", "size": 18041024}, {"id": 12653112, "quality": null, "file_type": "video/mp4", "width": 540, "height": 960, "fps": 25.0, "link": "https://videos.pexels.com/video-files/29368599/12653112_540_960_25fps.mp4", "size": 35425626}, {"id": 12653113, "quality": null, "file_type": "video/mp4", "width": 720, "height": 1280, "fps": 25.0, "link": "https://videos.pexels.com/video-files/29368599/12653113_720_1280_25fps.mp4", "size": 57462357}, {"id": 12653114, "quality": null, "file_type": "video/mp4", "width": 1080, "height": 1920, "fps": 25.0, "link": "https://videos.pexels.com/video-files/29368599/12653114_1080_1920_25fps.mp4", "size": 124379672}, {"id": 12653115, "quality": null, "file_type": "video/mp4", "width": 1440, "height": 2560, "fps": 25.0, "link": "https://videos.pexels.com/video-files/29368599/12653115_1440_2560_25fps.mp4", "size": 232737895}, {"id": 12653116, "quality": null, "file_type": "video/mp4", "width": 2160, "height": 3840, "fps": 25.0, "link": "https://videos.pexels.com/video-files/29368599/12653116_2160_3840_25fps.mp4", "size": 540498608}], "video_pictures": [{"id": 23788591, "nr": 0, "picture": "https://images.pexels.com/videos/29368599/pictures/preview-0.jpg"}, {"id": 23788592, "nr": 1, "picture": "https://images.pexels.com/videos/29368599/pictures/preview-1.jpg"}, {"id": 23788593, "nr": 2, "picture": "https://images.pexels.com/videos/29368599/pictures/preview-2.jpg"}, {"id": 23788594, "nr": 3, "picture": "https://images.pexels.com/videos/29368599/pictures/preview-3.jpg"}, {"id": 23788595, "nr": 4, "picture": "https://images.pexels.com/videos/29368599/pictures/preview-4.jpg"}, {"id": 23788596, "nr": 5, "picture": "https://images.pexels.com/videos/29368599/pictures/preview-5.jpg"}, {"id": 23788597, "nr": 6, "picture": "https://images.pexels.com/videos/29368599/pictures/preview-6.jpg"}, {"id": 23788598, "nr": 7, "picture": "https://images.pexels.com/videos/29368599/pictures/preview-7.jpg"}, {"id": 23788599, "nr": 8, "picture": "https://images.pexels.com/videos/29368599/pictures/preview-8.jpg"}, {"id": 23788600, "nr": 9, "picture": "https://images.pexels.com/videos/29368599/pictures/preview-9.jpg"}, {"id": 23788601, "nr": 10, "picture": "https://images.pexels.com/videos/29368599/pictures/preview-10.jpg"}, {"id": 23788602, "nr": 11, "picture": "https://images.pexels.com/videos/29368599/pictures/preview-11.jpg"}, {"id": 23788603, "nr": 12, "picture": "https://images.pexels.com/videos/29368599/pictures/preview-12.jpg"}, {"id": 23788604, "nr": 13, "picture": "https://images.pexels.com/videos/29368599/pictures/preview-13.jpg"}, {"id": 23788605, "nr": 14, "picture": "https://images.pexels.com/videos/29368599/pictures/preview-14.jpg"}]}, {"id": 6701932, "width": 1080, "height": 1920, "duration": 9, "full_res": null, "tags": [], "url": "https://www.pexels.com/video/a-brown-butterfly-on-a-flower-6701932/", "image": "https://images.pexels.com/videos/6701932/butterfly-helping-pollination-butterfly-on-a-flower-pollination-6701932.jpeg?auto=compress&cs=tinysrgb&fit=crop&h=1200&w=630", "avg_color": null, "user": {"id": 3359314, "name": "Malabika Borah", "url": "https://www.pexels.com/@chance4clicks"}, "video_files": [{"id": 10149299, "quality": "sd", "file_type": "video/mp4", "width": 540, "height": 960, "fps": 29.00200080871582, "link": "https://videos.pexels.com/video-files/6701932/6701932-sd_540_960_29fps.mp4", "size": 1795523}, {"id": 10149328, "quality": "hd", "file_type": "video/mp4", "width": 1080, "height": 1920, "fps": 29.00200080871582, "link": "https://videos.pexels.com/video-files/6701932/6701932-hd_1080_1920_29fps.mp4", "size": 5222912}, {"id": 10149358, "quality": "sd", "file_type": "video/mp4", "width": 240, "height": 426, "fps": 29.00200080871582, "link": "https://videos.pexels.com/video-files/6701932/6701932-sd_240_426_29fps.mp4", "size": 382061}, {"id": 10149378, "quality": "hd", "file_type": "video/mp4", "width": 720, "height": 1280, "fps": 29.00200080871582, "link": "https://videos.pexels.com/video-files/6701932/6701932-hd_720_1280_29fps.mp4", "size": 2762773}, {"id": 10149399, "quality": "sd", "file_type": "video/mp4", "width": 360, "height": 640, "fps": 29.00200080871582, "link": "https://videos.pexels.com/video-files/6701932/6701932-sd_360_640_29fps.mp4", "size": 651852}], "video_pictures": [{"id": 4966097, "nr": 0, "picture": "https://images.pexels.com/videos/6701932/pictures/preview-0.jpeg"}, {"id": 4966098, "nr": 1, "picture": "https://images.pexels.com/videos/6701932/pictures/preview-1.jpeg"}, {"id": 4966099, "nr": 2, "picture": "https://images.pexels.com/videos/6701932/pictures/preview-2.jpeg"}, {"id": 4966100, "nr": 3, "picture": "https://images.pexels.com/videos/6701932/pictures/preview-3.jpeg"}, {"id": 4966101, "nr": 4, "picture": "https://images.pexels.com/videos/6701932/pictures/preview-4.jpeg"}, {"id": 4966102, "nr": 5, "picture": "https://images.pexels.com/videos/6701932/pictures/preview-5.jpeg"}, {"id": 4966103, "nr": 6, "picture": "https://images.pexels.com/videos/6701932/pictures/preview-6.jpeg"}, {"id": 4966104, "nr": 7, "picture": "https://images.pexels.com/videos/6701932/pictures/preview-7.jpeg"}, {"id": 4966106, "nr": 8, "picture": "https://images.pexels.com/videos/6701932/pictures/preview-8.jpeg"}, {"id": 4966108, "nr": 9, "picture": "https://images.pexels.com/videos/6701932/pictures/preview-9.jpeg"}, {"id": 4966110, "nr": 10, "picture": "https://images.pexels.com/videos/6701932/pictures/preview-10.jpeg"}, {"id": 4966112, "nr": 11, "picture": "https://images.pexels.com/videos/6701932/pictures/preview-11.jpeg"}, {"id": 4966114, "nr": 12, "picture": "https://images.pexels.com/videos/6701932/pictures/preview-12.jpeg"}, {"id": 4966116, "nr": 13, "picture": "https://images.pexels.com/videos/6701932/pictures/preview-13.jpeg"}, {"id": 4966117, "nr": 14, "picture": "https://images.pexels.com/videos/6701932/pictures/preview-14.jpeg"}]}, {"id": 5757715, "width": 1080, "height": 1920, "duration": 14, "full_res": null, "tags": [], "url": "https://www.pexels.com/video/blue-butterfly-sitting-on-a-hand-5757715/", "image": "https://images.pexels.com/videos/5757715/pexels-photo-5757715.jpeg?auto=compress&cs=tinysrgb&fit=crop&h=1200&w=630", "avg_color": null, "user": {"id": 3684321, "name": "Anna Bondarenko", "url": "https://www.pexels.com/@aaa333"}, "video_files": [{"id": 9809705, "quality": "sd", "file_type": "video/mp4", "width": 540, "height": 960, "fps": 29.969999313354492, "link": "https://videos.pexels.com/video-files/5757715/5757715-sd_540_960_30fps.mp4", "size": 2429439}, {"id": 9809845, "quality": "sd", "file_type": "video/mp4", "width": 360, "height": 640, "fps": 29.969999313354492, "link": "https://videos.pexels.com/video-files/5757715/5757715-sd_360_640_30fps.mp4", "size": 1039992}, {"id": 9809959, "quality": "sd", "file_type": "video/mp4", "width": 240, "height": 426, "fps": 29.969999313354492, "link": "https://videos.pexels.com/video-files/5757715/5757715-sd_240_426_30fps.mp4", "size": 604570}, {"id": 9809998, "quality": "hd", "file_type": "video/mp4", "width": 720, "height": 1280, "fps": 29.969999313354492, "link": "https://videos.pexels.com/video-files/5757715/5757715-hd_720_1280_30fps.mp4", "size": 4152121}, {"id": 9810087, "quality": "hd", "file_type": "video/mp4", "width": 1080, "height": 1920, "fps": 29.969999313354492, "link": "https://videos.pexels.com/video-files/5757715/5757715-hd_1080_1920_30fps.mp4", "size": 8417575}], "video_pictures": [{"id": 3325647, "nr": 0, "picture": "https://images.pexels.com/videos/5757715/pictures/preview-0.jpeg"}, {"id": 3325651, "nr": 1, "picture": "https://images.pexels.com/videos/5757715/pictures/preview-1.jpeg"}, {"id": 3325656, "nr": 2, "picture": "https://images.pexels.com/videos/5757715/pictures/preview-2.jpeg"}, {"id": 3325661, "nr": 3, "picture": "https://images.pexels.com/videos/5757715/pictures/preview-3.jpeg"}, {"id": 3325666, "nr": 4, "picture": "https://images.pexels.com/videos/5757715/pictures/preview-4.jpeg"}, {"id": 3325669, "nr": 5, "picture": "https://images.pexels.com/videos/5757715/pictures/preview-5.jpeg"}, {"id": 3325671, "nr": 6, "picture": "https://images.pexels.com/videos/5757715/pictures/preview-6.jpeg"}, {"id": 3325674, "nr": 7, "picture": "https://images.pexels.com/videos/5757715/pictures/preview-7.jpeg"}, {"id": 3325678, "nr": 8, "picture": "https://images.pexels.com/videos/5757715/pictures/preview-8.jpeg"}, {"id": 3325681, "nr": 9, "picture": "https://images.pexels.com/videos/5757715/pictures/preview-9.jpeg"}, {"id": 3325683, "nr": 10, "picture": "https://images.pexels.com/videos/5757715/pictures/preview-10.jpeg"}, {"id": 3325686, "nr": 11, "picture": "https://images.pexels.com/videos/5757715/pictures/preview-11.jpeg"}, {"id": 3325688, "nr": 12, "picture": "https://images.pexels.com/videos/5757715/pictures/preview-12.jpeg"}, {"id": 3325690, "nr": 13, "picture": "https://images.pexels.com/videos/5757715/pictures/preview-13.jpeg"}, {"id": 3325693, "nr": 14, "picture": "https://images.pexels.com/videos/5757715/pictures/preview-14.jpeg"}]}, {"id": 12887252, "width": 1080, "height": 1920, "duration": 1, "full_res": null, "tags": [], "url": "https://www.pexels.com/video/butterfly-perching-on-a-flower-12887252/", "image": "https://images.pexels.com/videos/12887252/pexels-photo-12887252.jpeg?auto=compress&cs=tinysrgb&fit=crop&h=1200&w=630", "avg_color": null, "user": {"id": 264145675, "name": "WAM Weerakoon", "url": "https://www.pexels.com/@wam-weerakoon-264145675"}, "video_files": [{"id": 5659805, "quality": "sd", "file_type": "video/mp4", "width": 540, "height": 960, "fps": 30.0, "link": "https://videos.pexels.com/video-files/12887252/12887252-sd_540_960_30fps.mp4", "size": 419233}, {"id": 5659806, "quality": "sd", "file_type": "video/mp4", "width": 360, "height": 640, "fps": 30.0, "link": "https://videos.pexels.com/video-files/12887252/12887252-sd_360_640_30fps.mp4", "size": 162603}, {"id": 5659807, "quality": "hd", "file_type": "video/mp4", "width": 1080, "height": 1920, "fps": 30.0, "link": "https://videos.pexels.com/video-files/12887252/12887252-hd_1080_1920_30fps.mp4", "size": 1407069}, {"id": 5659808, "quality": "sd", "file_type": "video/mp4", "width": 240, "height": 426, "fps": 30.0, "link": "https://videos.pexels.com/video-files/12887252/12887252-sd_240_426_30fps.mp4", "size": 118268}, {"id": 5659809, "quality": "hd", "file_type": "video/mp4", "width": 720, "height": 1280, "fps": 30.0, "link": "https://videos.pexels.com/video-files/12887252/12887252-hd_720_1280_30fps.mp4", "size": 787397}], "video_pictures": [{"id": 14084324, "nr": 0, "picture": "https://images.pexels.com/videos/12887252/pictures/preview-0.jpeg"}, {"id": 14084325, "nr": 1, "picture": "https://images.pexels.com/videos/12887252/pictures/preview-1.jpeg"}, {"id": 14084326, "nr": 2, "picture": "https://images.pexels.com/videos/12887252/pictures/preview-2.jpeg"}, {"id": 14084327, "nr": 3, "picture": "https://images.pexels.com/videos/12887252/pictures/preview-3.jpeg"}, {"id": 14084328, "nr": 4, "picture": "https://images.pexels.com/videos/12887252/pictures/preview-4.jpeg"}, {"id": 14084329, "nr": 5, "picture": "https://images.pexels.com/videos/12887252/pictures/preview-5.jpeg"}, {"id": 14084330, "nr": 6, "picture": "https://images.pexels.com/videos/12887252/pictures/preview-6.jpeg"}, {"id": 14084331, "nr": 7, "picture": "https://images.pexels.com/videos/12887252/pictures/preview-7.jpeg"}, {"id": 14084332, "nr": 8, "picture": "https://images.pexels.com/videos/12887252/pictures/preview-8.jpeg"}, {"id": 14084333, "nr": 9, "picture": "https://images.pexels.com/videos/12887252/pictures/preview-9.jpeg"}, {"id": 14084334, "nr": 10, "picture": "https://images.pexels.com/videos/12887252/pictures/preview-10.jpeg"}, {"id": 14084335, "nr": 11, "picture": "https://images.pexels.com/videos/12887252/pictures/preview-11.jpeg"}, {"id": 14084336, "nr": 12, "picture": "https://images.pexels.com/videos/12887252/pictures/preview-12.jpeg"}, {"id": 14084337, "nr": 13, "picture": "https://images.pexels.com/videos/12887252/pictures/preview-13.jpeg"}, {"id": 14084338, "nr": 14, "picture": "https://images.pexels.com/videos/12887252/pictures/preview-14.jpeg"}]}, {"id": 8458636, "width": 2160, "height": 4096, "duration": 17, "full_res": null, "tags": [], "url": "https://www.pexels.com/video/helpless-woman-trapped-with-spider-s-web-8458636/", "image": "https://images.pexels.com/videos/8458636/pexels-photo-8458636.jpeg?auto=compress&cs=tinysrgb&fit=crop&h=1200&w=630", "avg_color": null, "user": {"id": 30039676, "name": "MART  PRODUCTION", "url": "https://www.pexels.com/@mart-production"}, "video_files": [{"id": 10836949, "quality": "sd", "file_type": "video/mp4", "width": 338, "height": 640, "fps": 25.0, "link": "https://videos.pexels.com/video-files/8458636/8458636-sd_338_640_25fps.mp4", "size": 697589}, {"id": 10836978, "quality": "hd", "file_type": "video/mp4", "width": 1080, "height": 2048, "fps": 25.0, "link": "https://videos.pexels.com/video-files/8458636/8458636-hd_1080_2048_25fps.mp4", "size": 5551772}, {"id": 10837016, "quality": "uhd", "file_type": "video/mp4", "width": 2160, "height": 4096, "fps": 25.0, "link": "https://videos.pexels.com/video-files/8458636/8458636-uhd_2160_4096_25fps.mp4", "size": 22098550}, {"id": 10837036, "quality": "hd", "file_type": "video/mp4", "width": 720, "height": 1366, "fps": 25.0, "link": "https://videos.pexels.com/video-files/8458636/8458636-hd_720_1366_25fps.mp4", "size": 2591867}, {"id": 10837054, "quality": "sd", "file_type": "video/mp4", "width": 506, "height": 960, "fps": 25.0, "link": "https://videos.pexels.com/video-files/8458636/8458636-sd_506_960_25fps.mp4", "size": 1361790}, {"id": 10837123, "quality": "uhd", "file_type": "video/mp4", "width": 1440, "height": 2732, "fps": 25.0, "link": "https://videos.pexels.com/video-files/8458636/8458636-uhd_1440_2732_25fps.mp4", "size": 9353146}, {"id": 10837199, "quality": "sd", "file_type": "video/mp4", "width": 226, "height": 426, "fps": 25.0, "link": "https://videos.pexels.com/video-files/8458636/8458636-sd_226_426_25fps.mp4", "size": 391101}], "video_pictures": [{"id": 8272291, "nr": 0, "picture": "https://images.pexels.com/videos/8458636/pictures/preview-0.jpeg"}, {"id": 8272324, "nr": 1, "picture": "https://images.pexels.com/videos/8458636/pictures/preview-1.jpeg"}, {"id": 8272359, "nr": 2, "picture": "https://images.pexels.com/videos/8458636/pictures/preview-2.jpeg"}, {"id": 8272393, "nr": 3, "picture": "https://images.pexels.com/videos/8458636/pictures/preview-3.jpeg"}, {"id": 8272423, "nr": 4, "picture": "https://images.pexels.com/videos/8458636/pictures/preview-4.jpeg"}, {"id": 8272460, "nr": 5, "picture": "https://images.pexels.com/videos/8458636/pictures/preview-5.jpeg"}, {"id": 8272507, "nr": 6, "picture": "https://images.pexels.com/videos/8458636/pictures/preview-6.jpeg"}, {"id": 8272546, "nr": 7, "picture": "https://images.pexels.com/videos/8458636/pictures/preview-7.jpeg"}, {"id": 8272590, "nr": 8, "picture": "https://images.pexels.com/videos/8458636/pictures/preview-8.jpeg"}, {"id": 8272630, "nr": 9, "picture": "https://images.pexels.com/videos/8458636/pictures/preview-9.jpeg"}, {"id": 8272662, "nr": 10, "picture": "https://images.pexels.com/videos/8458636/pictures/preview-10.jpeg"}, {"id": 8272696, "nr": 11, "picture": "https://images.pexels.com/videos/8458636/pictures/preview-11.jpeg"}, {"id": 8272755, "nr": 12, "picture": "https://images.pexels.com/videos/8458636/pictures/preview-12.jpeg"}, {"id": 8272797, "nr": 13, "picture": "https://images.pexels.com/videos/8458636/pictures/preview-13.jpeg"}, {"id": 8272856, "nr": 14, "picture": "https://images.pexels.com/videos/8458636/pictures/preview-14.jpeg"}]}, {"id": 12177129, "width": 2144, "height": 3840, "duration": 12, "full_res": null, "tags": [], "url": "https://www.pexels.com/video/bee-around-flowers-12177129/", "image": "https://images.pexels.com/videos/12177129/pexels-photo-12177129.jpeg?auto=compress&cs=tinysrgb&fit=crop&h=1200&w=630", "avg_color": null, "user": {"id": 220481192, "name": "Abdulaziz Asiri", "url": "https://www.pexels.com/@abdulaziz-asiri-220481192"}, "video_files": [{"id": 5287540, "quality": "hd", "file_type": "video/mp4", "width": 1080, "height": 1934, "fps": 60.0, "link": "https://videos.pexels.com/video-files/12177129/12177129-hd_1080_1934_60fps.mp4", "size": 9179695}, {"id": 5287541, "quality": "sd", "file_type": "video/mp4", "width": 238, "height": 426, "fps": 30.0, "link": "https://videos.pexels.com/video-files/12177129/12177129-sd_238_426_30fps.mp4", "size": 827345}, {"id": 5287542, "quality": "uhd", "file_type": "video/mp4", "width": 2144, "height": 3840, "fps": 60.0, "link": "https://videos.pexels.com/video-files/12177129/12177129-uhd_2144_3840_60fps.mp4", "size": 40050583}, {"id": 5287543, "quality": "hd", "file_type": "video/mp4", "width": 720, "height": 1290, "fps": 60.0, "link": "https://videos.pexels.com/video-files/12177129/12177129-hd_720_1290_60fps.mp4", "size": 4733180}, {"id": 5287544, "quality": "sd", "file_type": "video/mp4", "width": 536, "height": 960, "fps": 30.0, "link": "https://videos.pexels.com/video-files/12177129/12177129-sd_536_960_30fps.mp4", "size": 2517062}, {"id": 5287545, "quality": "uhd", "file_type": "video/mp4", "width": 1440, "height": 2580, "fps": 60.0, "link": "https://videos.pexels.com/video-files/12177129/12177129-uhd_1440_2580_60fps.mp4", "size": 18944090}, {"id": 5287546, "quality": "sd", "file_type": "video/mp4", "width": 358, "height": 640, "fps": 30.0, "link": "https://videos.pexels.com/video-files/12177129/12177129-sd_358_640_30fps.mp4", "size": 1260913}], "video_pictures": [{"id": 12993117, "nr": 0, "picture": "https://images.pexels.com/videos/12177129/pictures/preview-0.jpeg"}, {"id": 12993118, "nr": 1, "picture": "https://images.pexels.com/videos/12177129/pictures/preview-1.jpeg"}, {"id": 12993119, "nr": 2, "picture": "https://images.pexels.com/videos/12177129/pictures/preview-2.jpeg"}, {"id": 12993120, "nr": 3, "picture": "https://images.pexels.com/videos/12177129/pictures/preview-3.jpeg"}, {"id": 12993121, "nr": 4, "picture": "https://images.pexels.com/videos/12177129/pictures/preview-4.jpeg"}, {"id": 12993122, "nr": 5, "picture": "https://images.pexels.com/videos/12177129/pictures/preview-5.jpeg"}, {"id": 12993123, "nr": 6, "picture": "https://images.pexels.com/videos/12177129/pictures/preview-6.jpeg"}, {"id": 12993124, "nr": 7, "picture": "https://images.pexels.com/videos/12177129/pictures/preview-7.jpeg"}, {"id": 12993125, "nr": 8, "picture": "https://images.pexels.com/videos/12177129/pictures/preview-8.jpeg"}, {"id": 12993126, "nr": 9, "picture": "https://images.pexels.com/videos/12177129/pictures/preview-9.jpeg"}, {"id": 12993128, "nr": 10, "picture": "https://images.pexels.com/videos/12177129/pictures/preview-10.jpeg"}, {"id": 12993130, "nr": 11, "picture": "https://images.pexels.com/videos/12177129/pictures/preview-11.jpeg"}, {"id": 12993132, "nr": 12, "picture": "https://images.pexels.com/videos/12177129/pictures/preview-12.jpeg"}, {"id": 12993135, "nr": 13, "picture": "https://images.pexels.com/videos/12177129/pictures/preview-13.jpeg"}, {"id": 12993137, "nr": 14, "picture": "https://images.pexels.com/videos/12177129/pictures/preview-14.jpeg"}]}, {"id": 6966497, "width": 2160, "height": 3840, "duration": 11, "full_res": null, "tags": [], "url": "https://www.pexels.com/video/a-bumblebee-pollinating-on-a-snowdrop-6966497/", "image": "https://images.pexels.com/videos/6966497/bumblebee-flowers-flying-bee-green-6966497.jpeg?auto=compress&cs=tinysrgb&fit=crop&h=1200&w=630", "avg_color": null, "user": {"id": 1458598, "name": "kokokara", "url": "https://www.pexels.com/@koko"}, "video_files": [{"id": 10269610, "quality": "uhd", "file_type": "video/mp4", "width": 2160, "height": 3840, "fps": 30.0, "link": "https://videos.pexels.com/video-files/6966497/6966497-uhd_2160_3840_30fps.mp4", "size": 26666726}, {"id": 10269622, "quality": "sd", "file_type": "video/mp4", "width": 540, "height": 960, "fps": 30.0, "link": "https://videos.pexels.com/video-files/6966497/6966497-sd_540_960_30fps.mp4", "size": 2149666}, {"id": 10269667, "quality": "hd", "file_type": "video/mp4", "width": 720, "height": 1280, "fps": 30.0, "link": "https://videos.pexels.com/video-files/6966497/6966497-hd_720_1280_30fps.mp4", "size": 4036486}, {"id": 10269725, "quality": "sd", "file_type": "video/mp4", "width": 360, "height": 640, "fps": 30.0, "link": "https://videos.pexels.com/video-files/6966497/6966497-sd_360_640_30fps.mp4", "size": 817556}, {"id": 10269747, "quality": "hd", "file_type": "video/mp4", "width": 1080, "height": 1920, "fps": 30.0, "link": "https://videos.pexels.com/video-files/6966497/6966497-hd_1080_1920_30fps.mp4", "size": 7413827}, {"id": 10269846, "quality": "uhd", "file_type": "video/mp4", "width": 1440, "height": 2560, "fps": 30.0, "link": "https://videos.pexels.com/video-files/6966497/6966497-uhd_1440_2560_30fps.mp4", "size": 17898287}], "video_pictures": [{"id": 5486659, "nr": 0, "picture": "https://images.pexels.com/videos/6966497/pictures/preview-0.jpeg"}, {"id": 5486661, "nr": 1, "picture": "https://images.pexels.com/videos/6966497/pictures/preview-1.jpeg"}, {"id": 5486662, "nr": 2, "picture": "https://images.pexels.com/videos/6966497/pictures/preview-2.jpeg"}, {"id": 5486664, "nr": 3, "picture": "https://images.pexels.com/videos/6966497/pictures/preview-3.jpeg"}, {"id": 5486666, "nr": 4, "picture": "https://images.pexels.com/videos/6966497/pictures/preview-4.jpeg"}, {"id": 5486667, "nr": 5, "picture": "https://images.pexels.com/videos/6966497/pictures/preview-5.jpeg"}, {"id": 5486668, "nr": 6, "picture": "https://images.pexels.com/videos/6966497/pictures/preview-6.jpeg"}, {"id": 5486669, "nr": 7, "picture": "https://images.pexels.com/videos/6966497/pictures/preview-7.jpeg"}, {"id": 5486671, "nr": 8, "picture": "https://images.pexels.com/videos/6966497/pictures/preview-8.jpeg"}, {"id": 5486673, "nr": 9, "picture": "https://images.pexels.com/videos/6966497/pictures/preview-9.jpeg"}, {"id": 5486679, "nr": 10, "picture": "https://images.pexels.com/videos/6966497/pictures/preview-10.jpeg"}, {"id": 5486683, "nr": 11, "picture": "https://images.pexels.com/videos/6966497/pictures/preview-11.jpeg"}, {"id": 5486686, "nr": 12, "picture": "https://images.pexels.com/videos/6966497/pictures/preview-12.jpeg"}, {"id": 5486689, "nr": 13, "picture": "https://images.pexels.com/videos/6966497/pictures/preview-13.jpeg"}, {"id": 5486694, "nr": 14, "picture": "https://images.pexels.com/videos/6966497/pictures/preview-14.jpeg"}]}], "total_results": 293, "next_page": "https://api.pexels.com/v1/videos/search/?orientation=portrait&page=2&per_page=8&query=insect+repellent", "url": "https://api-server.pexels.com/search/videos/insect%20repellent/"}, "timestamp": "2024-12-28T22:41:57.841565"}
