{"query": "air cleaning", "response": {"page": 1, "per_page": 8, "videos": [{"id": 8676947, "width": 2160, "height": 3840, "duration": 10, "full_res": null, "tags": [], "url": "https://www.pexels.com/video/close-up-of-bubbling-foam-8676947/", "image": "https://images.pexels.com/videos/8676947/pexels-photo-8676947.jpeg?auto=compress&cs=tinysrgb&fit=crop&h=1200&w=630", "avg_color": null, "user": {"id": 20455562, "name": "Timur Weber", "url": "https://www.pexels.com/@timur-weber"}, "video_files": [{"id": 10916903, "quality": "hd", "file_type": "video/mp4", "width": 1080, "height": 1920, "fps": 29.969999313354492, "link": "https://videos.pexels.com/video-files/8676947/8676947-hd_1080_1920_30fps.mp4", "size": 6651063}, {"id": 10916950, "quality": "sd", "file_type": "video/mp4", "width": 360, "height": 640, "fps": 29.969999313354492, "link": "https://videos.pexels.com/video-files/8676947/8676947-sd_360_640_30fps.mp4", "size": 659335}, {"id": 10917022, "quality": "uhd", "file_type": "video/mp4", "width": 2160, "height": 3840, "fps": 29.969999313354492, "link": "https://videos.pexels.com/video-files/8676947/8676947-uhd_2160_3840_30fps.mp4", "size": 24086834}, {"id": 10917072, "quality": "sd", "file_type": "video/mp4", "width": 240, "height": 426, "fps": 29.969999313354492, "link": "https://videos.pexels.com/video-files/8676947/8676947-sd_240_426_30fps.mp4", "size": 445965}, {"id": 10917123, "quality": "hd", "file_type": "video/mp4", "width": 720, "height": 1280, "fps": 59.940101623535156, "link": "https://videos.pexels.com/video-files/8676947/8676947-hd_720_1280_60fps.mp4", "size": 3571118}, {"id": 10917185, "quality": "uhd", "file_type": "video/mp4", "width": 1440, "height": 2560, "fps": 29.969999313354492, "link": "https://videos.pexels.com/video-files/8676947/8676947-uhd_1440_2560_30fps.mp4", "size": 12390307}, {"id": 10917251, "quality": "sd", "file_type": "video/mp4", "width": 540, "height": 960, "fps": 29.969999313354492, "link": "https://videos.pexels.com/video-files/8676947/8676947-sd_540_960_30fps.mp4", "size": 1745162}], "video_pictures": [{"id": 8646506, "nr": 0, "picture": "https://images.pexels.com/videos/8676947/pictures/preview-0.jpeg"}, {"id": 8646521, "nr": 1, "picture": "https://images.pexels.com/videos/8676947/pictures/preview-1.jpeg"}, {"id": 8646538, "nr": 2, "picture": "https://images.pexels.com/videos/8676947/pictures/preview-2.jpeg"}, {"id": 8646554, "nr": 3, "picture": "https://images.pexels.com/videos/8676947/pictures/preview-3.jpeg"}, {"id": 8646567, "nr": 4, "picture": "https://images.pexels.com/videos/8676947/pictures/preview-4.jpeg"}, {"id": 8646578, "nr": 5, "picture": "https://images.pexels.com/videos/8676947/pictures/preview-5.jpeg"}, {"id": 8646589, "nr": 6, "picture": "https://images.pexels.com/videos/8676947/pictures/preview-6.jpeg"}, {"id": 8646601, "nr": 7, "picture": "https://images.pexels.com/videos/8676947/pictures/preview-7.jpeg"}, {"id": 8646617, "nr": 8, "picture": "https://images.pexels.com/videos/8676947/pictures/preview-8.jpeg"}, {"id": 8646636, "nr": 9, "picture": "https://images.pexels.com/videos/8676947/pictures/preview-9.jpeg"}, {"id": 8646677, "nr": 10, "picture": "https://images.pexels.com/videos/8676947/pictures/preview-10.jpeg"}, {"id": 8646725, "nr": 11, "picture": "https://images.pexels.com/videos/8676947/pictures/preview-11.jpeg"}, {"id": 8646762, "nr": 12, "picture": "https://images.pexels.com/videos/8676947/pictures/preview-12.jpeg"}, {"id": 8646799, "nr": 13, "picture": "https://images.pexels.com/videos/8676947/pictures/preview-13.jpeg"}, {"id": 8646847, "nr": 14, "picture": "https://images.pexels.com/videos/8676947/pictures/preview-14.jpeg"}]}, {"id": 8516676, "width": 2160, "height": 3840, "duration": 9, "full_res": null, "tags": [], "url": "https://www.pexels.com/video/shadow-of-a-ponytail-palm-8516676/", "image": "https://images.pexels.com/videos/8516676/abstract-art-artistic-backdrop-8516676.jpeg?auto=compress&cs=tinysrgb&fit=crop&h=1200&w=630", "avg_color": null, "user": {"id": 10955896, "name": "Anna Nekrashevich", "url": "https://www.pexels.com/@anna-nekrashevich"}, "video_files": [{"id": 10872593, "quality": "sd", "file_type": "video/mp4", "width": 540, "height": 960, "fps": 30.0, "link": "https://videos.pexels.com/video-files/8516676/8516676-sd_540_960_30fps.mp4", "size": 1643572}, {"id": 10872612, "quality": "uhd", "file_type": "video/mp4", "width": 1440, "height": 2560, "fps": 30.0, "link": "https://videos.pexels.com/video-files/8516676/8516676-uhd_1440_2560_30fps.mp4", "size": 14672323}, {"id": 10872653, "quality": "sd", "file_type": "video/mp4", "width": 240, "height": 426, "fps": 30.0, "link": "https://videos.pexels.com/video-files/8516676/8516676-sd_240_426_30fps.mp4", "size": 175255}, {"id": 10872685, "quality": "sd", "file_type": "video/mp4", "width": 360, "height": 640, "fps": 30.0, "link": "https://videos.pexels.com/video-files/8516676/8516676-sd_360_640_30fps.mp4", "size": 528851}, {"id": 10872716, "quality": "hd", "file_type": "video/mp4", "width": 720, "height": 1280, "fps": 30.0, "link": "https://videos.pexels.com/video-files/8516676/8516676-hd_720_1280_30fps.mp4", "size": 2980086}, {"id": 10872783, "quality": "uhd", "file_type": "video/mp4", "width": 2160, "height": 3840, "fps": 30.0, "link": "https://videos.pexels.com/video-files/8516676/8516676-uhd_2160_3840_30fps.mp4", "size": 27019452}, {"id": 10872811, "quality": "hd", "file_type": "video/mp4", "width": 1080, "height": 1920, "fps": 30.0, "link": "https://videos.pexels.com/video-files/8516676/8516676-hd_1080_1920_30fps.mp4", "size": 5924448}], "video_pictures": [{"id": 8417565, "nr": 0, "picture": "https://images.pexels.com/videos/8516676/pictures/preview-0.jpeg"}, {"id": 8417578, "nr": 1, "picture": "https://images.pexels.com/videos/8516676/pictures/preview-1.jpeg"}, {"id": 8417590, "nr": 2, "picture": "https://images.pexels.com/videos/8516676/pictures/preview-2.jpeg"}, {"id": 8417609, "nr": 3, "picture": "https://images.pexels.com/videos/8516676/pictures/preview-3.jpeg"}, {"id": 8417621, "nr": 4, "picture": "https://images.pexels.com/videos/8516676/pictures/preview-4.jpeg"}, {"id": 8417642, "nr": 5, "picture": "https://images.pexels.com/videos/8516676/pictures/preview-5.jpeg"}, {"id": 8417664, "nr": 6, "picture": "https://images.pexels.com/videos/8516676/pictures/preview-6.jpeg"}, {"id": 8417675, "nr": 7, "picture": "https://images.pexels.com/videos/8516676/pictures/preview-7.jpeg"}, {"id": 8417687, "nr": 8, "picture": "https://images.pexels.com/videos/8516676/pictures/preview-8.jpeg"}, {"id": 8417704, "nr": 9, "picture": "https://images.pexels.com/videos/8516676/pictures/preview-9.jpeg"}, {"id": 8417719, "nr": 10, "picture": "https://images.pexels.com/videos/8516676/pictures/preview-10.jpeg"}, {"id": 8417735, "nr": 11, "picture": "https://images.pexels.com/videos/8516676/pictures/preview-11.jpeg"}, {"id": 8417753, "nr": 12, "picture": "https://images.pexels.com/videos/8516676/pictures/preview-12.jpeg"}, {"id": 8417762, "nr": 13, "picture": "https://images.pexels.com/videos/8516676/pictures/preview-13.jpeg"}, {"id": 8417772, "nr": 14, "picture": "https://images.pexels.com/videos/8516676/pictures/preview-14.jpeg"}]}, {"id": 8516623, "width": 2160, "height": 3840, "duration": 10, "full_res": null, "tags": [], "url": "https://www.pexels.com/video/a-shadow-of-a-plant-swaying-in-the-wind-8516623/", "image": "https://images.pexels.com/videos/8516623/abstract-aluminum-art-backdrop-8516623.jpeg?auto=compress&cs=tinysrgb&fit=crop&h=1200&w=630", "avg_color": null, "user": {"id": 10955896, "name": "Anna Nekrashevich", "url": "https://www.pexels.com/@anna-nekrashevich"}, "video_files": [{"id": 10872554, "quality": "hd", "file_type": "video/mp4", "width": 1080, "height": 1920, "fps": 30.0, "link": "https://videos.pexels.com/video-files/8516623/8516623-hd_1080_1920_30fps.mp4", "size": 1279844}, {"id": 10872563, "quality": "sd", "file_type": "video/mp4", "width": 240, "height": 426, "fps": 30.0, "link": "https://videos.pexels.com/video-files/8516623/8516623-sd_240_426_30fps.mp4", "size": 74825}, {"id": 10872576, "quality": "uhd", "file_type": "video/mp4", "width": 2160, "height": 3840, "fps": 30.0, "link": "https://videos.pexels.com/video-files/8516623/8516623-uhd_2160_3840_30fps.mp4", "size": 5759184}, {"id": 10872594, "quality": "hd", "file_type": "video/mp4", "width": 720, "height": 1280, "fps": 30.0, "link": "https://videos.pexels.com/video-files/8516623/8516623-hd_720_1280_30fps.mp4", "size": 527256}, {"id": 10872610, "quality": "sd", "file_type": "video/mp4", "width": 540, "height": 960, "fps": 30.0, "link": "https://videos.pexels.com/video-files/8516623/8516623-sd_540_960_30fps.mp4", "size": 320242}, {"id": 10872631, "quality": "sd", "file_type": "video/mp4", "width": 360, "height": 640, "fps": 30.0, "link": "https://videos.pexels.com/video-files/8516623/8516623-sd_360_640_30fps.mp4", "size": 169139}, {"id": 10872677, "quality": "uhd", "file_type": "video/mp4", "width": 1440, "height": 2560, "fps": 30.0, "link": "https://videos.pexels.com/video-files/8516623/8516623-uhd_1440_2560_30fps.mp4", "size": 2201827}], "video_pictures": [{"id": 8417041, "nr": 0, "picture": "https://images.pexels.com/videos/8516623/pictures/preview-0.jpeg"}, {"id": 8417058, "nr": 1, "picture": "https://images.pexels.com/videos/8516623/pictures/preview-1.jpeg"}, {"id": 8417074, "nr": 2, "picture": "https://images.pexels.com/videos/8516623/pictures/preview-2.jpeg"}, {"id": 8417098, "nr": 3, "picture": "https://images.pexels.com/videos/8516623/pictures/preview-3.jpeg"}, {"id": 8417119, "nr": 4, "picture": "https://images.pexels.com/videos/8516623/pictures/preview-4.jpeg"}, {"id": 8417144, "nr": 5, "picture": "https://images.pexels.com/videos/8516623/pictures/preview-5.jpeg"}, {"id": 8417163, "nr": 6, "picture": "https://images.pexels.com/videos/8516623/pictures/preview-6.jpeg"}, {"id": 8417186, "nr": 7, "picture": "https://images.pexels.com/videos/8516623/pictures/preview-7.jpeg"}, {"id": 8417208, "nr": 8, "picture": "https://images.pexels.com/videos/8516623/pictures/preview-8.jpeg"}, {"id": 8417232, "nr": 9, "picture": "https://images.pexels.com/videos/8516623/pictures/preview-9.jpeg"}, {"id": 8417264, "nr": 10, "picture": "https://images.pexels.com/videos/8516623/pictures/preview-10.jpeg"}, {"id": 8417293, "nr": 11, "picture": "https://images.pexels.com/videos/8516623/pictures/preview-11.jpeg"}, {"id": 8417304, "nr": 12, "picture": "https://images.pexels.com/videos/8516623/pictures/preview-12.jpeg"}, {"id": 8417325, "nr": 13, "picture": "https://images.pexels.com/videos/8516623/pictures/preview-13.jpeg"}, {"id": 8417345, "nr": 14, "picture": "https://images.pexels.com/videos/8516623/pictures/preview-14.jpeg"}]}, {"id": 6522160, "width": 1080, "height": 1920, "duration": 31, "full_res": null, "tags": [], "url": "https://www.pexels.com/video/factory-emitting-smoke-6522160/", "image": "https://images.pexels.com/videos/6522160/pexels-photo-6522160.jpeg?auto=compress&cs=tinysrgb&fit=crop&h=1200&w=630", "avg_color": null, "user": {"id": 3701026, "name": "Roman Skrypnyk", "url": "https://www.pexels.com/@timesnewroman14"}, "video_files": [{"id": 10077324, "quality": "sd", "file_type": "video/mp4", "width": 540, "height": 960, "fps": 24.0, "link": "https://videos.pexels.com/video-files/6522160/6522160-sd_540_960_24fps.mp4", "size": 2643752}, {"id": 10077386, "quality": "hd", "file_type": "video/mp4", "width": 720, "height": 1280, "fps": 24.0, "link": "https://videos.pexels.com/video-files/6522160/6522160-hd_720_1280_24fps.mp4", "size": 4155179}, {"id": 10077447, "quality": "sd", "file_type": "video/mp4", "width": 360, "height": 640, "fps": 24.0, "link": "https://videos.pexels.com/video-files/6522160/6522160-sd_360_640_24fps.mp4", "size": 1243212}, {"id": 10077517, "quality": "hd", "file_type": "video/mp4", "width": 1080, "height": 1920, "fps": 24.0, "link": "https://videos.pexels.com/video-files/6522160/6522160-hd_1080_1920_24fps.mp4", "size": 15245079}, {"id": 10077554, "quality": "sd", "file_type": "video/mp4", "width": 240, "height": 426, "fps": 24.0, "link": "https://videos.pexels.com/video-files/6522160/6522160-sd_240_426_24fps.mp4", "size": 543190}], "video_pictures": [{"id": 4576827, "nr": 0, "picture": "https://images.pexels.com/videos/6522160/pictures/preview-0.jpeg"}, {"id": 4576830, "nr": 1, "picture": "https://images.pexels.com/videos/6522160/pictures/preview-1.jpeg"}, {"id": 4576834, "nr": 2, "picture": "https://images.pexels.com/videos/6522160/pictures/preview-2.jpeg"}, {"id": 4576837, "nr": 3, "picture": "https://images.pexels.com/videos/6522160/pictures/preview-3.jpeg"}, {"id": 4576840, "nr": 4, "picture": "https://images.pexels.com/videos/6522160/pictures/preview-4.jpeg"}, {"id": 4576843, "nr": 5, "picture": "https://images.pexels.com/videos/6522160/pictures/preview-5.jpeg"}, {"id": 4576849, "nr": 6, "picture": "https://images.pexels.com/videos/6522160/pictures/preview-6.jpeg"}, {"id": 4576853, "nr": 7, "picture": "https://images.pexels.com/videos/6522160/pictures/preview-7.jpeg"}, {"id": 4576857, "nr": 8, "picture": "https://images.pexels.com/videos/6522160/pictures/preview-8.jpeg"}, {"id": 4576861, "nr": 9, "picture": "https://images.pexels.com/videos/6522160/pictures/preview-9.jpeg"}, {"id": 4576866, "nr": 10, "picture": "https://images.pexels.com/videos/6522160/pictures/preview-10.jpeg"}, {"id": 4576869, "nr": 11, "picture": "https://images.pexels.com/videos/6522160/pictures/preview-11.jpeg"}, {"id": 4576874, "nr": 12, "picture": "https://images.pexels.com/videos/6522160/pictures/preview-12.jpeg"}, {"id": 4576878, "nr": 13, "picture": "https://images.pexels.com/videos/6522160/pictures/preview-13.jpeg"}, {"id": 4576882, "nr": 14, "picture": "https://images.pexels.com/videos/6522160/pictures/preview-14.jpeg"}]}, {"id": 5647338, "width": 1080, "height": 1920, "duration": 12, "full_res": null, "tags": [], "url": "https://www.pexels.com/video/close-up-view-of-a-water-bubbles-5647338/", "image": "https://images.pexels.com/videos/5647338/pexels-photo-5647338.jpeg?auto=compress&cs=tinysrgb&fit=crop&h=1200&w=630", "avg_color": null, "user": {"id": 3088726, "name": "Tima Miroshnichenko", "url": "https://www.pexels.com/@tima-miroshnichenko"}, "video_files": [{"id": 9757288, "quality": "hd", "file_type": "video/mp4", "width": 1080, "height": 1920, "fps": 25.0, "link": "https://videos.pexels.com/video-files/5647338/5647338-hd_1080_1920_25fps.mp4", "size": 7244932}, {"id": 9757397, "quality": "sd", "file_type": "video/mp4", "width": 540, "height": 960, "fps": 25.0, "link": "https://videos.pexels.com/video-files/5647338/5647338-sd_540_960_25fps.mp4", "size": 2535640}, {"id": 9757464, "quality": "hd", "file_type": "video/mp4", "width": 720, "height": 1280, "fps": 25.0, "link": "https://videos.pexels.com/video-files/5647338/5647338-hd_720_1280_25fps.mp4", "size": 3677640}, {"id": 9757520, "quality": "sd", "file_type": "video/mp4", "width": 240, "height": 426, "fps": 25.0, "link": "https://videos.pexels.com/video-files/5647338/5647338-sd_240_426_25fps.mp4", "size": 511460}, {"id": 9757546, "quality": "sd", "file_type": "video/mp4", "width": 360, "height": 640, "fps": 25.0, "link": "https://videos.pexels.com/video-files/5647338/5647338-sd_360_640_25fps.mp4", "size": 848168}], "video_pictures": [{"id": 3137703, "nr": 0, "picture": "https://images.pexels.com/videos/5647338/pictures/preview-0.jpeg"}, {"id": 3137704, "nr": 1, "picture": "https://images.pexels.com/videos/5647338/pictures/preview-1.jpeg"}, {"id": 3137706, "nr": 2, "picture": "https://images.pexels.com/videos/5647338/pictures/preview-2.jpeg"}, {"id": 3137707, "nr": 3, "picture": "https://images.pexels.com/videos/5647338/pictures/preview-3.jpeg"}, {"id": 3137708, "nr": 4, "picture": "https://images.pexels.com/videos/5647338/pictures/preview-4.jpeg"}, {"id": 3137710, "nr": 5, "picture": "https://images.pexels.com/videos/5647338/pictures/preview-5.jpeg"}, {"id": 3137711, "nr": 6, "picture": "https://images.pexels.com/videos/5647338/pictures/preview-6.jpeg"}, {"id": 3137712, "nr": 7, "picture": "https://images.pexels.com/videos/5647338/pictures/preview-7.jpeg"}, {"id": 3137713, "nr": 8, "picture": "https://images.pexels.com/videos/5647338/pictures/preview-8.jpeg"}, {"id": 3137714, "nr": 9, "picture": "https://images.pexels.com/videos/5647338/pictures/preview-9.jpeg"}, {"id": 3137715, "nr": 10, "picture": "https://images.pexels.com/videos/5647338/pictures/preview-10.jpeg"}, {"id": 3137716, "nr": 11, "picture": "https://images.pexels.com/videos/5647338/pictures/preview-11.jpeg"}, {"id": 3137717, "nr": 12, "picture": "https://images.pexels.com/videos/5647338/pictures/preview-12.jpeg"}, {"id": 3137719, "nr": 13, "picture": "https://images.pexels.com/videos/5647338/pictures/preview-13.jpeg"}, {"id": 3137720, "nr": 14, "picture": "https://images.pexels.com/videos/5647338/pictures/preview-14.jpeg"}]}, {"id": 6197072, "width": 2160, "height": 3840, "duration": 20, "full_res": null, "tags": [], "url": "https://www.pexels.com/video/man-acting-out-with-a-hoover-accessory-6197072/", "image": "https://images.pexels.com/videos/6197072/pexels-photo-6197072.jpeg?auto=compress&cs=tinysrgb&fit=crop&h=1200&w=630", "avg_color": null, "user": {"id": 3088726, "name": "Tima Miroshnichenko", "url": "https://www.pexels.com/@tima-miroshnichenko"}, "video_files": [{"id": 9956462, "quality": "uhd", "file_type": "video/mp4", "width": 2160, "height": 3840, "fps": 25.0, "link": "https://videos.pexels.com/video-files/6197072/6197072-uhd_2160_3840_25fps.mp4", "size": 35904836}, {"id": 9956498, "quality": "sd", "file_type": "video/mp4", "width": 360, "height": 640, "fps": 25.0, "link": "https://videos.pexels.com/video-files/6197072/6197072-sd_360_640_25fps.mp4", "size": 1213132}, {"id": 9956534, "quality": "hd", "file_type": "video/mp4", "width": 1080, "height": 1920, "fps": 25.0, "link": "https://videos.pexels.com/video-files/6197072/6197072-hd_1080_1920_25fps.mp4", "size": 9503273}, {"id": 9956570, "quality": "hd", "file_type": "video/mp4", "width": 720, "height": 1280, "fps": 25.0, "link": "https://videos.pexels.com/video-files/6197072/6197072-hd_720_1280_25fps.mp4", "size": 5069113}, {"id": 9956590, "quality": "sd", "file_type": "video/mp4", "width": 240, "height": 426, "fps": 25.0, "link": "https://videos.pexels.com/video-files/6197072/6197072-sd_240_426_25fps.mp4", "size": 740252}, {"id": 9956632, "quality": "sd", "file_type": "video/mp4", "width": 540, "height": 960, "fps": 25.0, "link": "https://videos.pexels.com/video-files/6197072/6197072-sd_540_960_25fps.mp4", "size": 2769906}, {"id": 9956657, "quality": "uhd", "file_type": "video/mp4", "width": 1440, "height": 2560, "fps": 25.0, "link": "https://videos.pexels.com/video-files/6197072/6197072-uhd_1440_2560_25fps.mp4", "size": 16173842}], "video_pictures": [{"id": 4060698, "nr": 0, "picture": "https://images.pexels.com/videos/6197072/pictures/preview-0.jpeg"}, {"id": 4060702, "nr": 1, "picture": "https://images.pexels.com/videos/6197072/pictures/preview-1.jpeg"}, {"id": 4060705, "nr": 2, "picture": "https://images.pexels.com/videos/6197072/pictures/preview-2.jpeg"}, {"id": 4060710, "nr": 3, "picture": "https://images.pexels.com/videos/6197072/pictures/preview-3.jpeg"}, {"id": 4060713, "nr": 4, "picture": "https://images.pexels.com/videos/6197072/pictures/preview-4.jpeg"}, {"id": 4060716, "nr": 5, "picture": "https://images.pexels.com/videos/6197072/pictures/preview-5.jpeg"}, {"id": 4060719, "nr": 6, "picture": "https://images.pexels.com/videos/6197072/pictures/preview-6.jpeg"}, {"id": 4060720, "nr": 7, "picture": "https://images.pexels.com/videos/6197072/pictures/preview-7.jpeg"}, {"id": 4060721, "nr": 8, "picture": "https://images.pexels.com/videos/6197072/pictures/preview-8.jpeg"}, {"id": 4060725, "nr": 9, "picture": "https://images.pexels.com/videos/6197072/pictures/preview-9.jpeg"}, {"id": 4060729, "nr": 10, "picture": "https://images.pexels.com/videos/6197072/pictures/preview-10.jpeg"}, {"id": 4060731, "nr": 11, "picture": "https://images.pexels.com/videos/6197072/pictures/preview-11.jpeg"}, {"id": 4060735, "nr": 12, "picture": "https://images.pexels.com/videos/6197072/pictures/preview-12.jpeg"}, {"id": 4060739, "nr": 13, "picture": "https://images.pexels.com/videos/6197072/pictures/preview-13.jpeg"}, {"id": 4060743, "nr": 14, "picture": "https://images.pexels.com/videos/6197072/pictures/preview-14.jpeg"}]}, {"id": 6845416, "width": 2160, "height": 3840, "duration": 10, "full_res": null, "tags": [], "url": "https://www.pexels.com/video/laundry-hanging-on-a-clothesline-to-dry-6845416/", "image": "https://images.pexels.com/videos/6845416/pexels-photo-6845416.jpeg?auto=compress&cs=tinysrgb&fit=crop&h=1200&w=630", "avg_color": null, "user": {"id": 19162587, "name": "Teona Swift", "url": "https://www.pexels.com/@teona-swift"}, "video_files": [{"id": 10203613, "quality": "hd", "file_type": "video/mp4", "width": 1080, "height": 1920, "fps": 25.0, "link": "https://videos.pexels.com/video-files/6845416/6845416-hd_1080_1920_25fps.mp4", "size": 6238227}, {"id": 10203668, "quality": "uhd", "file_type": "video/mp4", "width": 1440, "height": 2560, "fps": 25.0, "link": "https://videos.pexels.com/video-files/6845416/6845416-uhd_1440_2560_25fps.mp4", "size": 15292946}, {"id": 10203736, "quality": "sd", "file_type": "video/mp4", "width": 540, "height": 960, "fps": 25.0, "link": "https://videos.pexels.com/video-files/6845416/6845416-sd_540_960_25fps.mp4", "size": 1768747}, {"id": 10203821, "quality": "hd", "file_type": "video/mp4", "width": 720, "height": 1280, "fps": 50.0, "link": "https://videos.pexels.com/video-files/6845416/6845416-hd_720_1280_50fps.mp4", "size": 3084555}, {"id": 10203918, "quality": "sd", "file_type": "video/mp4", "width": 240, "height": 426, "fps": 25.0, "link": "https://videos.pexels.com/video-files/6845416/6845416-sd_240_426_25fps.mp4", "size": 364608}, {"id": 10204043, "quality": "uhd", "file_type": "video/mp4", "width": 2160, "height": 3840, "fps": 25.0, "link": "https://videos.pexels.com/video-files/6845416/6845416-uhd_2160_3840_25fps.mp4", "size": 27689538}, {"id": 10204091, "quality": "sd", "file_type": "video/mp4", "width": 360, "height": 640, "fps": 25.0, "link": "https://videos.pexels.com/video-files/6845416/6845416-sd_360_640_25fps.mp4", "size": 593889}], "video_pictures": [{"id": 5233518, "nr": 0, "picture": "https://images.pexels.com/videos/6845416/pictures/preview-0.jpeg"}, {"id": 5233525, "nr": 1, "picture": "https://images.pexels.com/videos/6845416/pictures/preview-1.jpeg"}, {"id": 5233542, "nr": 2, "picture": "https://images.pexels.com/videos/6845416/pictures/preview-2.jpeg"}, {"id": 5233559, "nr": 3, "picture": "https://images.pexels.com/videos/6845416/pictures/preview-3.jpeg"}, {"id": 5233577, "nr": 4, "picture": "https://images.pexels.com/videos/6845416/pictures/preview-4.jpeg"}, {"id": 5233598, "nr": 5, "picture": "https://images.pexels.com/videos/6845416/pictures/preview-5.jpeg"}, {"id": 5233614, "nr": 6, "picture": "https://images.pexels.com/videos/6845416/pictures/preview-6.jpeg"}, {"id": 5233634, "nr": 7, "picture": "https://images.pexels.com/videos/6845416/pictures/preview-7.jpeg"}, {"id": 5233662, "nr": 8, "picture": "https://images.pexels.com/videos/6845416/pictures/preview-8.jpeg"}, {"id": 5233697, "nr": 9, "picture": "https://images.pexels.com/videos/6845416/pictures/preview-9.jpeg"}, {"id": 5233743, "nr": 10, "picture": "https://images.pexels.com/videos/6845416/pictures/preview-10.jpeg"}, {"id": 5233790, "nr": 11, "picture": "https://images.pexels.com/videos/6845416/pictures/preview-11.jpeg"}, {"id": 5233814, "nr": 12, "picture": "https://images.pexels.com/videos/6845416/pictures/preview-12.jpeg"}, {"id": 5233840, "nr": 13, "picture": "https://images.pexels.com/videos/6845416/pictures/preview-13.jpeg"}, {"id": 5233864, "nr": 14, "picture": "https://images.pexels.com/videos/6845416/pictures/preview-14.jpeg"}]}, {"id": 7640342, "width": 1080, "height": 1920, "duration": 15, "full_res": null, "tags": [], "url": "https://www.pexels.com/video/close-up-video-of-soap-bubbles-7640342/", "image": "https://images.pexels.com/videos/7640342/abstract-aluminum-artsy-background-7640342.jpeg?auto=compress&cs=tinysrgb&fit=crop&h=1200&w=630", "avg_color": null, "user": {"id": 3540511, "name": "Eva Bronzini", "url": "https://www.pexels.com/@eva-bronzini"}, "video_files": [{"id": 10508709, "quality": "sd", "file_type": "video/mp4", "width": 360, "height": 640, "fps": 29.969999313354492, "link": "https://videos.pexels.com/video-files/7640342/7640342-sd_360_640_30fps.mp4", "size": 1197528}, {"id": 10508756, "quality": "hd", "file_type": "video/mp4", "width": 720, "height": 1280, "fps": 29.969999313354492, "link": "https://videos.pexels.com/video-files/7640342/7640342-hd_720_1280_30fps.mp4", "size": 5848907}, {"id": 10508788, "quality": "sd", "file_type": "video/mp4", "width": 540, "height": 960, "fps": 29.969999313354492, "link": "https://videos.pexels.com/video-files/7640342/7640342-sd_540_960_30fps.mp4", "size": 3046695}, {"id": 10508847, "quality": "hd", "file_type": "video/mp4", "width": 1080, "height": 1920, "fps": 29.969999313354492, "link": "https://videos.pexels.com/video-files/7640342/7640342-hd_1080_1920_30fps.mp4", "size": 11279362}], "video_pictures": [{"id": 6772428, "nr": 0, "picture": "https://images.pexels.com/videos/7640342/pictures/preview-0.jpeg"}, {"id": 6772430, "nr": 1, "picture": "https://images.pexels.com/videos/7640342/pictures/preview-1.jpeg"}, {"id": 6772432, "nr": 2, "picture": "https://images.pexels.com/videos/7640342/pictures/preview-2.jpeg"}, {"id": 6772436, "nr": 3, "picture": "https://images.pexels.com/videos/7640342/pictures/preview-3.jpeg"}, {"id": 6772439, "nr": 4, "picture": "https://images.pexels.com/videos/7640342/pictures/preview-4.jpeg"}, {"id": 6772442, "nr": 5, "picture": "https://images.pexels.com/videos/7640342/pictures/preview-5.jpeg"}, {"id": 6772446, "nr": 6, "picture": "https://images.pexels.com/videos/7640342/pictures/preview-6.jpeg"}, {"id": 6772449, "nr": 7, "picture": "https://images.pexels.com/videos/7640342/pictures/preview-7.jpeg"}, {"id": 6772451, "nr": 8, "picture": "https://images.pexels.com/videos/7640342/pictures/preview-8.jpeg"}, {"id": 6772455, "nr": 9, "picture": "https://images.pexels.com/videos/7640342/pictures/preview-9.jpeg"}, {"id": 6772458, "nr": 10, "picture": "https://images.pexels.com/videos/7640342/pictures/preview-10.jpeg"}, {"id": 6772461, "nr": 11, "picture": "https://images.pexels.com/videos/7640342/pictures/preview-11.jpeg"}, {"id": 6772464, "nr": 12, "picture": "https://images.pexels.com/videos/7640342/pictures/preview-12.jpeg"}, {"id": 6772467, "nr": 13, "picture": "https://images.pexels.com/videos/7640342/pictures/preview-13.jpeg"}, {"id": 6772469, "nr": 14, "picture": "https://images.pexels.com/videos/7640342/pictures/preview-14.jpeg"}]}], "total_results": 8000, "next_page": "https://api.pexels.com/v1/videos/search/?orientation=portrait&page=2&per_page=8&query=air+cleaning", "url": "https://api-server.pexels.com/search/videos/air%20cleaning/"}, "timestamp": "2024-12-28T22:42:07.856708"}
