{"query": "sunny garden", "response": {"page": 1, "per_page": 8, "videos": [{"id": 5585433, "width": 720, "height": 1280, "duration": 8, "full_res": null, "tags": [], "url": "https://www.pexels.com/video/push-in-shot-of-a-blooming-white-flower-5585433/", "image": "https://images.pexels.com/videos/5585433/rose-whit-5585433.jpeg?auto=compress&cs=tinysrgb&fit=crop&h=1200&w=630", "avg_color": null, "user": {"id": 2644155, "name": "Arif Hussain", "url": "https://www.pexels.com/@arif-hussain-2644155"}, "video_files": [{"id": 9748874, "quality": "sd", "file_type": "video/mp4", "width": 240, "height": 426, "fps": 29.969999313354492, "link": "https://videos.pexels.com/video-files/5585433/5585433-sd_240_426_30fps.mp4", "size": 351674}, {"id": 9748963, "quality": "sd", "file_type": "video/mp4", "width": 540, "height": 960, "fps": 29.969999313354492, "link": "https://videos.pexels.com/video-files/5585433/5585433-sd_540_960_30fps.mp4", "size": 1667049}, {"id": 9749154, "quality": "hd", "file_type": "video/mp4", "width": 720, "height": 1280, "fps": 29.969999313354492, "link": "https://videos.pexels.com/video-files/5585433/5585433-hd_720_1280_30fps.mp4", "size": 2591343}, {"id": 9749182, "quality": "sd", "file_type": "video/mp4", "width": 360, "height": 640, "fps": 29.969999313354492, "link": "https://videos.pexels.com/video-files/5585433/5585433-sd_360_640_30fps.mp4", "size": 585107}], "video_pictures": [{"id": 3038804, "nr": 0, "picture": "https://images.pexels.com/videos/5585433/pictures/preview-0.jpeg"}, {"id": 3038805, "nr": 1, "picture": "https://images.pexels.com/videos/5585433/pictures/preview-1.jpeg"}, {"id": 3038806, "nr": 2, "picture": "https://images.pexels.com/videos/5585433/pictures/preview-2.jpeg"}, {"id": 3038807, "nr": 3, "picture": "https://images.pexels.com/videos/5585433/pictures/preview-3.jpeg"}, {"id": 3038809, "nr": 4, "picture": "https://images.pexels.com/videos/5585433/pictures/preview-4.jpeg"}, {"id": 3038810, "nr": 5, "picture": "https://images.pexels.com/videos/5585433/pictures/preview-5.jpeg"}, {"id": 3038811, "nr": 6, "picture": "https://images.pexels.com/videos/5585433/pictures/preview-6.jpeg"}, {"id": 3038812, "nr": 7, "picture": "https://images.pexels.com/videos/5585433/pictures/preview-7.jpeg"}, {"id": 3038814, "nr": 8, "picture": "https://images.pexels.com/videos/5585433/pictures/preview-8.jpeg"}, {"id": 3038815, "nr": 9, "picture": "https://images.pexels.com/videos/5585433/pictures/preview-9.jpeg"}, {"id": 3038816, "nr": 10, "picture": "https://images.pexels.com/videos/5585433/pictures/preview-10.jpeg"}, {"id": 3038817, "nr": 11, "picture": "https://images.pexels.com/videos/5585433/pictures/preview-11.jpeg"}, {"id": 3038819, "nr": 12, "picture": "https://images.pexels.com/videos/5585433/pictures/preview-12.jpeg"}, {"id": 3038820, "nr": 13, "picture": "https://images.pexels.com/videos/5585433/pictures/preview-13.jpeg"}, {"id": 3038821, "nr": 14, "picture": "https://images.pexels.com/videos/5585433/pictures/preview-14.jpeg"}]}, {"id": 7858356, "width": 1080, "height": 1920, "duration": 8, "full_res": null, "tags": [], "url": "https://www.pexels.com/video/young-woman-hanging-clothes-on-tree-7858356/", "image": "https://images.pexels.com/videos/7858356/aesthetic-beautiful-child-country-7858356.jpeg?auto=compress&cs=tinysrgb&fit=crop&h=1200&w=630", "avg_color": null, "user": {"id": 2946790, "name": "Leeloo The First", "url": "https://www.pexels.com/@leeloothefirst"}, "video_files": [{"id": 10599223, "quality": "sd", "file_type": "video/mp4", "width": 360, "height": 640, "fps": 29.969999313354492, "link": "https://videos.pexels.com/video-files/7858356/7858356-sd_360_640_30fps.mp4", "size": 610956}, {"id": 10599260, "quality": "hd", "file_type": "video/mp4", "width": 720, "height": 1280, "fps": 29.969999313354492, "link": "https://videos.pexels.com/video-files/7858356/hd_30fps.mp4", "size": 2769688}, {"id": 10599299, "quality": "hd", "file_type": "video/mp4", "width": 1080, "height": 1920, "fps": 29.969999313354492, "link": "https://videos.pexels.com/video-files/7858356/7858356-hd_1080_1920_30fps.mp4", "size": 5248875}, {"id": 10599346, "quality": "sd", "file_type": "video/mp4", "width": 540, "height": 960, "fps": 29.969999313354492, "link": "https://videos.pexels.com/video-files/7858356/7858356-sd_540_960_30fps.mp4", "size": 1730264}], "video_pictures": [{"id": 7173671, "nr": 0, "picture": "https://images.pexels.com/videos/7858356/pictures/preview-0.jpeg"}, {"id": 7173675, "nr": 1, "picture": "https://images.pexels.com/videos/7858356/pictures/preview-1.jpeg"}, {"id": 7173679, "nr": 2, "picture": "https://images.pexels.com/videos/7858356/pictures/preview-2.jpeg"}, {"id": 7173686, "nr": 3, "picture": "https://images.pexels.com/videos/7858356/pictures/preview-3.jpeg"}, {"id": 7173688, "nr": 4, "picture": "https://images.pexels.com/videos/7858356/pictures/preview-4.jpeg"}, {"id": 7173693, "nr": 5, "picture": "https://images.pexels.com/videos/7858356/pictures/preview-5.jpeg"}, {"id": 7173699, "nr": 6, "picture": "https://images.pexels.com/videos/7858356/pictures/preview-6.jpeg"}, {"id": 7173706, "nr": 7, "picture": "https://images.pexels.com/videos/7858356/pictures/preview-7.jpeg"}, {"id": 7173711, "nr": 8, "picture": "https://images.pexels.com/videos/7858356/pictures/preview-8.jpeg"}, {"id": 7173717, "nr": 9, "picture": "https://images.pexels.com/videos/7858356/pictures/preview-9.jpeg"}, {"id": 7173725, "nr": 10, "picture": "https://images.pexels.com/videos/7858356/pictures/preview-10.jpeg"}, {"id": 7173732, "nr": 11, "picture": "https://images.pexels.com/videos/7858356/pictures/preview-11.jpeg"}, {"id": 7173738, "nr": 12, "picture": "https://images.pexels.com/videos/7858356/pictures/preview-12.jpeg"}, {"id": 7173744, "nr": 13, "picture": "https://images.pexels.com/videos/7858356/pictures/preview-13.jpeg"}, {"id": 7173752, "nr": 14, "picture": "https://images.pexels.com/videos/7858356/pictures/preview-14.jpeg"}]}, {"id": 8195676, "width": 2160, "height": 4096, "duration": 10, "full_res": null, "tags": [], "url": "https://www.pexels.com/video/a-beautiful-yellow-rose-in-bloom-8195676/", "image": "https://images.pexels.com/videos/8195676/beautiful-blooming-bright-color-8195676.jpeg?auto=compress&cs=tinysrgb&fit=crop&h=1200&w=630", "avg_color": null, "user": {"id": 2678846, "name": "ROMAN ODINTSOV", "url": "https://www.pexels.com/@roman-odintsov"}, "video_files": [{"id": 10739575, "quality": "uhd", "file_type": "video/mp4", "width": 2160, "height": 4096, "fps": 29.969999313354492, "link": "https://videos.pexels.com/video-files/8195676/8195676-uhd_2160_4096_30fps.mp4", "size": 22137212}, {"id": 10739624, "quality": "sd", "file_type": "video/mp4", "width": 338, "height": 640, "fps": 29.969999313354492, "link": "https://videos.pexels.com/video-files/8195676/8195676-sd_338_640_30fps.mp4", "size": 652893}, {"id": 10739666, "quality": "hd", "file_type": "video/mp4", "width": 720, "height": 1366, "fps": 29.969999313354492, "link": "https://videos.pexels.com/video-files/8195676/8195676-hd_720_1366_30fps.mp4", "size": 3522954}, {"id": 10739724, "quality": "sd", "file_type": "video/mp4", "width": 226, "height": 426, "fps": 29.969999313354492, "link": "https://videos.pexels.com/video-files/8195676/8195676-sd_226_426_30fps.mp4", "size": 440936}, {"id": 10739821, "quality": "hd", "file_type": "video/mp4", "width": 1080, "height": 2048, "fps": 29.969999313354492, "link": "https://videos.pexels.com/video-files/8195676/8195676-hd_1080_2048_30fps.mp4", "size": 7159578}, {"id": 10739889, "quality": "uhd", "file_type": "video/mp4", "width": 1440, "height": 2732, "fps": 29.969999313354492, "link": "https://videos.pexels.com/video-files/8195676/8195676-uhd_1440_2732_30fps.mp4", "size": 14135459}, {"id": 10739965, "quality": "sd", "file_type": "video/mp4", "width": 506, "height": 960, "fps": 29.969999313354492, "link": "https://videos.pexels.com/video-files/8195676/8195676-sd_506_960_30fps.mp4", "size": 1821006}], "video_pictures": [{"id": 7802927, "nr": 0, "picture": "https://images.pexels.com/videos/8195676/pictures/preview-0.jpeg"}, {"id": 7802986, "nr": 1, "picture": "https://images.pexels.com/videos/8195676/pictures/preview-1.jpeg"}, {"id": 7803011, "nr": 2, "picture": "https://images.pexels.com/videos/8195676/pictures/preview-2.jpeg"}, {"id": 7803034, "nr": 3, "picture": "https://images.pexels.com/videos/8195676/pictures/preview-3.jpeg"}, {"id": 7803070, "nr": 4, "picture": "https://images.pexels.com/videos/8195676/pictures/preview-4.jpeg"}, {"id": 7803102, "nr": 5, "picture": "https://images.pexels.com/videos/8195676/pictures/preview-5.jpeg"}, {"id": 7803126, "nr": 6, "picture": "https://images.pexels.com/videos/8195676/pictures/preview-6.jpeg"}, {"id": 7803154, "nr": 7, "picture": "https://images.pexels.com/videos/8195676/pictures/preview-7.jpeg"}, {"id": 7803188, "nr": 8, "picture": "https://images.pexels.com/videos/8195676/pictures/preview-8.jpeg"}, {"id": 7803219, "nr": 9, "picture": "https://images.pexels.com/videos/8195676/pictures/preview-9.jpeg"}, {"id": 7803252, "nr": 10, "picture": "https://images.pexels.com/videos/8195676/pictures/preview-10.jpeg"}, {"id": 7803280, "nr": 11, "picture": "https://images.pexels.com/videos/8195676/pictures/preview-11.jpeg"}, {"id": 7803303, "nr": 12, "picture": "https://images.pexels.com/videos/8195676/pictures/preview-12.jpeg"}, {"id": 7803323, "nr": 13, "picture": "https://images.pexels.com/videos/8195676/pictures/preview-13.jpeg"}, {"id": 7803343, "nr": 14, "picture": "https://images.pexels.com/videos/8195676/pictures/preview-14.jpeg"}]}, {"id": 27777053, "width": 1080, "height": 1920, "duration": 25, "full_res": null, "tags": [], "url": "https://www.pexels.com/video/girasoli-27777053/", "image": "https://images.pexels.com/videos/27777053/clouds-fields-flowers-leaves-27777053.jpeg?auto=compress&cs=tinysrgb&fit=crop&h=1200&w=630", "avg_color": null, "user": {"id": 144982256, "name": "Davide Menegatti", "url": "https://www.pexels.com/@davide-menegatti-144982256"}, "video_files": [{"id": 12221906, "quality": null, "file_type": "video/mp4", "width": 360, "height": 640, "fps": 30.0, "link": "https://videos.pexels.com/video-files/27777053/12221906_360_640_30fps.mp4", "size": 5470236}, {"id": 12221907, "quality": null, "file_type": "video/mp4", "width": 540, "height": 960, "fps": 30.0, "link": "https://videos.pexels.com/video-files/27777053/12221907_540_960_30fps.mp4", "size": 11437956}, {"id": 12221908, "quality": null, "file_type": "video/mp4", "width": 720, "height": 1280, "fps": 30.0, "link": "https://videos.pexels.com/video-files/27777053/12221908_720_1280_30fps.mp4", "size": 18302500}, {"id": 12221909, "quality": null, "file_type": "video/mp4", "width": 1080, "height": 1920, "fps": 30.0, "link": "https://videos.pexels.com/video-files/27777053/12221909_1080_1920_30fps.mp4", "size": 42516332}], "video_pictures": [{"id": 22650318, "nr": 0, "picture": "https://images.pexels.com/videos/27777053/pictures/preview-0.jpg"}, {"id": 22650319, "nr": 1, "picture": "https://images.pexels.com/videos/27777053/pictures/preview-1.jpg"}, {"id": 22650320, "nr": 2, "picture": "https://images.pexels.com/videos/27777053/pictures/preview-2.jpg"}, {"id": 22650321, "nr": 3, "picture": "https://images.pexels.com/videos/27777053/pictures/preview-3.jpg"}, {"id": 22650322, "nr": 4, "picture": "https://images.pexels.com/videos/27777053/pictures/preview-4.jpg"}, {"id": 22650323, "nr": 5, "picture": "https://images.pexels.com/videos/27777053/pictures/preview-5.jpg"}, {"id": 22650324, "nr": 6, "picture": "https://images.pexels.com/videos/27777053/pictures/preview-6.jpg"}, {"id": 22650325, "nr": 7, "picture": "https://images.pexels.com/videos/27777053/pictures/preview-7.jpg"}, {"id": 22650326, "nr": 8, "picture": "https://images.pexels.com/videos/27777053/pictures/preview-8.jpg"}, {"id": 22650327, "nr": 9, "picture": "https://images.pexels.com/videos/27777053/pictures/preview-9.jpg"}, {"id": 22650328, "nr": 10, "picture": "https://images.pexels.com/videos/27777053/pictures/preview-10.jpg"}, {"id": 22650329, "nr": 11, "picture": "https://images.pexels.com/videos/27777053/pictures/preview-11.jpg"}, {"id": 22650330, "nr": 12, "picture": "https://images.pexels.com/videos/27777053/pictures/preview-12.jpg"}, {"id": 22650331, "nr": 13, "picture": "https://images.pexels.com/videos/27777053/pictures/preview-13.jpg"}, {"id": 22650332, "nr": 14, "picture": "https://images.pexels.com/videos/27777053/pictures/preview-14.jpg"}]}, {"id": 3111343, "width": 720, "height": 1280, "duration": 25, "full_res": null, "tags": [], "url": "https://www.pexels.com/video/yellow-flowers-in-bloom-3111343/", "image": "https://images.pexels.com/videos/3111343/free-video-3111343.jpg?auto=compress&cs=tinysrgb&fit=crop&h=1200&w=630", "avg_color": null, "user": {"id": 200393, "name": "Rahul Shah", "url": "https://www.pexels.com/@-rahulshah-"}, "video_files": [{"id": 229916, "quality": "sd", "file_type": "video/mp4", "width": 240, "height": 426, "fps": 25.0, "link": "https://videos.pexels.com/video-files/3111343/3111343-sd_240_426_25fps.mp4", "size": 1192125}, {"id": 229917, "quality": "hd", "file_type": "video/mp4", "width": 720, "height": 1280, "fps": 25.0, "link": "https://videos.pexels.com/video-files/3111343/3111343-hd_720_1280_25fps.mp4", "size": 9719788}, {"id": 229918, "quality": "sd", "file_type": "video/mp4", "width": 360, "height": 640, "fps": 25.0, "link": "https://videos.pexels.com/video-files/3111343/3111343-sd_360_640_25fps.mp4", "size": 1961301}, {"id": 229919, "quality": "sd", "file_type": "video/mp4", "width": 540, "height": 960, "fps": 25.0, "link": "https://videos.pexels.com/video-files/3111343/3111343-sd_540_960_25fps.mp4", "size": 5480143}], "video_pictures": [{"id": 521925, "nr": 0, "picture": "https://images.pexels.com/videos/3111343/pictures/preview-0.jpeg"}, {"id": 521928, "nr": 1, "picture": "https://images.pexels.com/videos/3111343/pictures/preview-1.jpeg"}, {"id": 521930, "nr": 2, "picture": "https://images.pexels.com/videos/3111343/pictures/preview-2.jpeg"}, {"id": 521934, "nr": 3, "picture": "https://images.pexels.com/videos/3111343/pictures/preview-3.jpeg"}, {"id": 521937, "nr": 4, "picture": "https://images.pexels.com/videos/3111343/pictures/preview-4.jpeg"}, {"id": 521938, "nr": 5, "picture": "https://images.pexels.com/videos/3111343/pictures/preview-5.jpeg"}, {"id": 521941, "nr": 6, "picture": "https://images.pexels.com/videos/3111343/pictures/preview-6.jpeg"}, {"id": 521944, "nr": 7, "picture": "https://images.pexels.com/videos/3111343/pictures/preview-7.jpeg"}, {"id": 521947, "nr": 8, "picture": "https://images.pexels.com/videos/3111343/pictures/preview-8.jpeg"}, {"id": 521949, "nr": 9, "picture": "https://images.pexels.com/videos/3111343/pictures/preview-9.jpeg"}, {"id": 521951, "nr": 10, "picture": "https://images.pexels.com/videos/3111343/pictures/preview-10.jpeg"}, {"id": 521952, "nr": 11, "picture": "https://images.pexels.com/videos/3111343/pictures/preview-11.jpeg"}, {"id": 521954, "nr": 12, "picture": "https://images.pexels.com/videos/3111343/pictures/preview-12.jpeg"}, {"id": 521956, "nr": 13, "picture": "https://images.pexels.com/videos/3111343/pictures/preview-13.jpeg"}, {"id": 521957, "nr": 14, "picture": "https://images.pexels.com/videos/3111343/pictures/preview-14.jpeg"}]}, {"id": 4465077, "width": 2160, "height": 3840, "duration": 12, "full_res": null, "tags": [], "url": "https://www.pexels.com/video/curious-gray-cat-4465077/", "image": "https://images.pexels.com/videos/4465077/animal-cat-garden-nature-4465077.jpeg?auto=compress&cs=tinysrgb&fit=crop&h=1200&w=630", "avg_color": null, "user": {"id": 2046359, "name": "Artyom Saqib", "url": "https://www.pexels.com/@artsqb"}, "video_files": [{"id": 9449026, "quality": "uhd", "file_type": "video/mp4", "width": 2160, "height": 3840, "fps": 25.0, "link": "https://videos.pexels.com/video-files/4465077/4465077-uhd_2160_3840_25fps.mp4", "size": 27186377}, {"id": 9449078, "quality": "sd", "file_type": "video/mp4", "width": 540, "height": 960, "fps": 25.0, "link": "https://videos.pexels.com/video-files/4465077/4465077-sd_540_960_25fps.mp4", "size": 1069455}, {"id": 9449168, "quality": "uhd", "file_type": "video/mp4", "width": 1440, "height": 2560, "fps": 25.0, "link": "https://videos.pexels.com/video-files/4465077/4465077-uhd_1440_2560_25fps.mp4", "size": 11279668}, {"id": 9449243, "quality": "hd", "file_type": "video/mp4", "width": 720, "height": 1280, "fps": 25.0, "link": "https://videos.pexels.com/video-files/4465077/4465077-hd_720_1280_25fps.mp4", "size": 2384967}, {"id": 9449365, "quality": "hd", "file_type": "video/mp4", "width": 1080, "height": 1920, "fps": 25.0, "link": "https://videos.pexels.com/video-files/4465077/4465077-hd_1080_1920_25fps.mp4", "size": 5739557}, {"id": 9449403, "quality": "sd", "file_type": "video/mp4", "width": 360, "height": 640, "fps": 25.0, "link": "https://videos.pexels.com/video-files/4465077/4465077-sd_360_640_25fps.mp4", "size": 425965}, {"id": 9449433, "quality": "sd", "file_type": "video/mp4", "width": 240, "height": 426, "fps": 25.0, "link": "https://videos.pexels.com/video-files/4465077/4465077-sd_240_426_25fps.mp4", "size": 220564}], "video_pictures": [{"id": 1549174, "nr": 0, "picture": "https://images.pexels.com/videos/4465077/pictures/preview-0.jpeg"}, {"id": 1549175, "nr": 1, "picture": "https://images.pexels.com/videos/4465077/pictures/preview-1.jpeg"}, {"id": 1549176, "nr": 2, "picture": "https://images.pexels.com/videos/4465077/pictures/preview-2.jpeg"}, {"id": 1549177, "nr": 3, "picture": "https://images.pexels.com/videos/4465077/pictures/preview-3.jpeg"}, {"id": 1549178, "nr": 4, "picture": "https://images.pexels.com/videos/4465077/pictures/preview-4.jpeg"}, {"id": 1549179, "nr": 5, "picture": "https://images.pexels.com/videos/4465077/pictures/preview-5.jpeg"}, {"id": 1549180, "nr": 6, "picture": "https://images.pexels.com/videos/4465077/pictures/preview-6.jpeg"}, {"id": 1549181, "nr": 7, "picture": "https://images.pexels.com/videos/4465077/pictures/preview-7.jpeg"}, {"id": 1549182, "nr": 8, "picture": "https://images.pexels.com/videos/4465077/pictures/preview-8.jpeg"}, {"id": 1549183, "nr": 9, "picture": "https://images.pexels.com/videos/4465077/pictures/preview-9.jpeg"}, {"id": 1549184, "nr": 10, "picture": "https://images.pexels.com/videos/4465077/pictures/preview-10.jpeg"}, {"id": 1549185, "nr": 11, "picture": "https://images.pexels.com/videos/4465077/pictures/preview-11.jpeg"}, {"id": 1549186, "nr": 12, "picture": "https://images.pexels.com/videos/4465077/pictures/preview-12.jpeg"}, {"id": 1549187, "nr": 13, "picture": "https://images.pexels.com/videos/4465077/pictures/preview-13.jpeg"}, {"id": 1549188, "nr": 14, "picture": "https://images.pexels.com/videos/4465077/pictures/preview-14.jpeg"}]}, {"id": 5617548, "width": 1080, "height": 1920, "duration": 11, "full_res": null, "tags": [], "url": "https://www.pexels.com/video/woman-holding-sunflowers-on-a-field-5617548/", "image": "https://images.pexels.com/videos/5617548/athletic-field-autumn-autumn-atmosphere-autumn-color-5617548.jpeg?auto=compress&cs=tinysrgb&fit=crop&h=1200&w=630", "avg_color": null, "user": {"id": 2713790, "name": "Maksim Goncharenok", "url": "https://www.pexels.com/@maksgelatin"}, "video_files": [{"id": 9746591, "quality": "hd", "file_type": "video/mp4", "width": 1080, "height": 1920, "fps": 30.0, "link": "https://videos.pexels.com/video-files/5617548/5617548-hd_1080_1920_30fps.mp4", "size": 8042933}, {"id": 9746615, "quality": "sd", "file_type": "video/mp4", "width": 360, "height": 640, "fps": 30.0, "link": "https://videos.pexels.com/video-files/5617548/5617548-sd_360_640_30fps.mp4", "size": 852710}, {"id": 9746632, "quality": "sd", "file_type": "video/mp4", "width": 240, "height": 426, "fps": 30.0, "link": "https://videos.pexels.com/video-files/5617548/5617548-sd_240_426_30fps.mp4", "size": 519234}, {"id": 9746647, "quality": "sd", "file_type": "video/mp4", "width": 540, "height": 960, "fps": 30.0, "link": "https://videos.pexels.com/video-files/5617548/5617548-sd_540_960_30fps.mp4", "size": 2216420}, {"id": 9746704, "quality": "hd", "file_type": "video/mp4", "width": 720, "height": 1280, "fps": 30.0, "link": "https://videos.pexels.com/video-files/5617548/5617548-hd_720_1280_30fps.mp4", "size": 3938513}], "video_pictures": [{"id": 3096363, "nr": 0, "picture": "https://images.pexels.com/videos/5617548/pictures/preview-0.jpeg"}, {"id": 3096364, "nr": 1, "picture": "https://images.pexels.com/videos/5617548/pictures/preview-1.jpeg"}, {"id": 3096366, "nr": 2, "picture": "https://images.pexels.com/videos/5617548/pictures/preview-2.jpeg"}, {"id": 3096367, "nr": 3, "picture": "https://images.pexels.com/videos/5617548/pictures/preview-3.jpeg"}, {"id": 3096368, "nr": 4, "picture": "https://images.pexels.com/videos/5617548/pictures/preview-4.jpeg"}, {"id": 3096370, "nr": 5, "picture": "https://images.pexels.com/videos/5617548/pictures/preview-5.jpeg"}, {"id": 3096371, "nr": 6, "picture": "https://images.pexels.com/videos/5617548/pictures/preview-6.jpeg"}, {"id": 3096372, "nr": 7, "picture": "https://images.pexels.com/videos/5617548/pictures/preview-7.jpeg"}, {"id": 3096374, "nr": 8, "picture": "https://images.pexels.com/videos/5617548/pictures/preview-8.jpeg"}, {"id": 3096375, "nr": 9, "picture": "https://images.pexels.com/videos/5617548/pictures/preview-9.jpeg"}, {"id": 3096377, "nr": 10, "picture": "https://images.pexels.com/videos/5617548/pictures/preview-10.jpeg"}, {"id": 3096378, "nr": 11, "picture": "https://images.pexels.com/videos/5617548/pictures/preview-11.jpeg"}, {"id": 3096380, "nr": 12, "picture": "https://images.pexels.com/videos/5617548/pictures/preview-12.jpeg"}, {"id": 3096381, "nr": 13, "picture": "https://images.pexels.com/videos/5617548/pictures/preview-13.jpeg"}, {"id": 3096382, "nr": 14, "picture": "https://images.pexels.com/videos/5617548/pictures/preview-14.jpeg"}]}, {"id": 9252757, "width": 1080, "height": 1920, "duration": 12, "full_res": null, "tags": [], "url": "https://www.pexels.com/video/person-playing-with-dogs-9252757/", "image": "https://images.pexels.com/videos/9252757/pexels-photo-9252757.jpeg?auto=compress&cs=tinysrgb&fit=crop&h=1200&w=630", "avg_color": null, "user": {"id": 3684321, "name": "Anna Bondarenko", "url": "https://www.pexels.com/@aaa333"}, "video_files": [{"id": 11086610, "quality": "sd", "file_type": "video/mp4", "width": 540, "height": 960, "fps": 29.969999313354492, "link": "https://videos.pexels.com/video-files/9252757/9252757-sd_540_960_30fps.mp4", "size": 2463659}, {"id": 11086674, "quality": "hd", "file_type": "video/mp4", "width": 720, "height": 1280, "fps": 29.969999313354492, "link": "https://videos.pexels.com/video-files/9252757/9252757-hd_720_1280_30fps.mp4", "size": 4510775}, {"id": 11086790, "quality": "hd", "file_type": "video/mp4", "width": 1080, "height": 1920, "fps": 29.969999313354492, "link": "https://videos.pexels.com/video-files/9252757/9252757-hd_1080_1920_30fps.mp4", "size": 8566346}, {"id": 11086849, "quality": "sd", "file_type": "video/mp4", "width": 360, "height": 640, "fps": 29.969999313354492, "link": "https://videos.pexels.com/video-files/9252757/9252757-sd_360_640_30fps.mp4", "size": 928769}], "video_pictures": [{"id": 9517186, "nr": 0, "picture": "https://images.pexels.com/videos/9252757/pictures/preview-0.jpeg"}, {"id": 9517269, "nr": 1, "picture": "https://images.pexels.com/videos/9252757/pictures/preview-1.jpeg"}, {"id": 9517365, "nr": 2, "picture": "https://images.pexels.com/videos/9252757/pictures/preview-2.jpeg"}, {"id": 9517474, "nr": 3, "picture": "https://images.pexels.com/videos/9252757/pictures/preview-3.jpeg"}, {"id": 9517646, "nr": 4, "picture": "https://images.pexels.com/videos/9252757/pictures/preview-4.jpeg"}, {"id": 9517740, "nr": 5, "picture": "https://images.pexels.com/videos/9252757/pictures/preview-5.jpeg"}, {"id": 9517880, "nr": 6, "picture": "https://images.pexels.com/videos/9252757/pictures/preview-6.jpeg"}, {"id": 9518023, "nr": 7, "picture": "https://images.pexels.com/videos/9252757/pictures/preview-7.jpeg"}, {"id": 9518173, "nr": 8, "picture": "https://images.pexels.com/videos/9252757/pictures/preview-8.jpeg"}, {"id": 9518299, "nr": 9, "picture": "https://images.pexels.com/videos/9252757/pictures/preview-9.jpeg"}, {"id": 9518494, "nr": 10, "picture": "https://images.pexels.com/videos/9252757/pictures/preview-10.jpeg"}, {"id": 9518685, "nr": 11, "picture": "https://images.pexels.com/videos/9252757/pictures/preview-11.jpeg"}, {"id": 9518850, "nr": 12, "picture": "https://images.pexels.com/videos/9252757/pictures/preview-12.jpeg"}, {"id": 9518989, "nr": 13, "picture": "https://images.pexels.com/videos/9252757/pictures/preview-13.jpeg"}, {"id": 9519143, "nr": 14, "picture": "https://images.pexels.com/videos/9252757/pictures/preview-14.jpeg"}]}], "total_results": 8000, "next_page": "https://api.pexels.com/v1/videos/search/?orientation=portrait&page=2&per_page=8&query=sunny+garden", "url": "https://api-server.pexels.com/search/videos/sunny%20garden/"}, "timestamp": "2024-12-28T22:41:58.865370"}
