{"query": "90 percent", "response": {"page": 1, "per_page": 8, "videos": [{"id": 5644246, "width": 2160, "height": 4096, "duration": 10, "full_res": null, "tags": [], "url": "https://www.pexels.com/video/using-a-balloon-to-announce-discount-sales-5644246/", "image": "https://images.pexels.com/videos/5644246/discount-hand-promotion-sale-5644246.jpeg?auto=compress&cs=tinysrgb&fit=crop&h=1200&w=630", "avg_color": null, "user": {"id": 2332540, "name": "Photo By: Kaboompics.com", "url": "https://www.pexels.com/@karolina-grabowska"}, "video_files": [{"id": 9753586, "quality": "uhd", "file_type": "video/mp4", "width": 1440, "height": 2732, "fps": 25.0, "link": "https://videos.pexels.com/video-files/5644246/5644246-uhd_1440_2732_25fps.mp4", "size": 14377306}, {"id": 9753748, "quality": "sd", "file_type": "video/mp4", "width": 226, "height": 426, "fps": 25.0, "link": "https://videos.pexels.com/video-files/5644246/5644246-sd_226_426_25fps.mp4", "size": 355004}, {"id": 9753871, "quality": "hd", "file_type": "video/mp4", "width": 1080, "height": 2048, "fps": 25.0, "link": "https://videos.pexels.com/video-files/5644246/5644246-hd_1080_2048_25fps.mp4", "size": 5990249}, {"id": 9754081, "quality": "hd", "file_type": "video/mp4", "width": 720, "height": 1366, "fps": 25.0, "link": "https://videos.pexels.com/video-files/5644246/5644246-hd_720_1366_25fps.mp4", "size": 2836012}, {"id": 9754139, "quality": "uhd", "file_type": "video/mp4", "width": 2160, "height": 4096, "fps": 25.0, "link": "https://videos.pexels.com/video-files/5644246/5644246-uhd_2160_4096_25fps.mp4", "size": 25512353}, {"id": 9754257, "quality": "sd", "file_type": "video/mp4", "width": 506, "height": 960, "fps": 25.0, "link": "https://videos.pexels.com/video-files/5644246/5644246-sd_506_960_25fps.mp4", "size": 1710665}, {"id": 9754402, "quality": "sd", "file_type": "video/mp4", "width": 338, "height": 640, "fps": 25.0, "link": "https://videos.pexels.com/video-files/5644246/5644246-sd_338_640_25fps.mp4", "size": 577853}], "video_pictures": [{"id": 3130968, "nr": 0, "picture": "https://images.pexels.com/videos/5644246/pictures/preview-0.jpeg"}, {"id": 3130972, "nr": 1, "picture": "https://images.pexels.com/videos/5644246/pictures/preview-1.jpeg"}, {"id": 3130976, "nr": 2, "picture": "https://images.pexels.com/videos/5644246/pictures/preview-2.jpeg"}, {"id": 3130979, "nr": 3, "picture": "https://images.pexels.com/videos/5644246/pictures/preview-3.jpeg"}, {"id": 3130981, "nr": 4, "picture": "https://images.pexels.com/videos/5644246/pictures/preview-4.jpeg"}, {"id": 3130986, "nr": 5, "picture": "https://images.pexels.com/videos/5644246/pictures/preview-5.jpeg"}, {"id": 3130990, "nr": 6, "picture": "https://images.pexels.com/videos/5644246/pictures/preview-6.jpeg"}, {"id": 3130997, "nr": 7, "picture": "https://images.pexels.com/videos/5644246/pictures/preview-7.jpeg"}, {"id": 3131005, "nr": 8, "picture": "https://images.pexels.com/videos/5644246/pictures/preview-8.jpeg"}, {"id": 3131010, "nr": 9, "picture": "https://images.pexels.com/videos/5644246/pictures/preview-9.jpeg"}, {"id": 3131017, "nr": 10, "picture": "https://images.pexels.com/videos/5644246/pictures/preview-10.jpeg"}, {"id": 3131026, "nr": 11, "picture": "https://images.pexels.com/videos/5644246/pictures/preview-11.jpeg"}, {"id": 3131032, "nr": 12, "picture": "https://images.pexels.com/videos/5644246/pictures/preview-12.jpeg"}, {"id": 3131038, "nr": 13, "picture": "https://images.pexels.com/videos/5644246/pictures/preview-13.jpeg"}, {"id": 3131044, "nr": 14, "picture": "https://images.pexels.com/videos/5644246/pictures/preview-14.jpeg"}]}, {"id": 6120114, "width": 1080, "height": 1920, "duration": 10, "full_res": null, "tags": [], "url": "https://www.pexels.com/video/a-person-writing-on-a-notebook-while-working-6120114/", "image": "https://images.pexels.com/videos/6120114/analysis-app-bank-banking-6120114.jpeg?auto=compress&cs=tinysrgb&fit=crop&h=1200&w=630", "avg_color": null, "user": {"id": 2906295, "name": "Nataliya Vaitkevich", "url": "https://www.pexels.com/@n-voitkevich"}, "video_files": [{"id": 9921155, "quality": "sd", "file_type": "video/mp4", "width": 540, "height": 960, "fps": 29.969999313354492, "link": "https://videos.pexels.com/video-files/6120114/6120114-sd_540_960_30fps.mp4", "size": 1997309}, {"id": 9921189, "quality": "sd", "file_type": "video/mp4", "width": 360, "height": 640, "fps": 29.969999313354492, "link": "https://videos.pexels.com/video-files/6120114/6120114-sd_360_640_30fps.mp4", "size": 707464}, {"id": 9921202, "quality": "sd", "file_type": "video/mp4", "width": 240, "height": 426, "fps": 29.969999313354492, "link": "https://videos.pexels.com/video-files/6120114/6120114-sd_240_426_30fps.mp4", "size": 412522}, {"id": 9921224, "quality": "hd", "file_type": "video/mp4", "width": 1080, "height": 1920, "fps": 29.969999313354492, "link": "https://videos.pexels.com/video-files/6120114/6120114-hd_1080_1920_30fps.mp4", "size": 6298366}, {"id": 9921241, "quality": "hd", "file_type": "video/mp4", "width": 720, "height": 1280, "fps": 29.969999313354492, "link": "https://videos.pexels.com/video-files/6120114/6120114-hd_720_1280_30fps.mp4", "size": 3233177}], "video_pictures": [{"id": 3916537, "nr": 0, "picture": "https://images.pexels.com/videos/6120114/pictures/preview-0.jpeg"}, {"id": 3916547, "nr": 1, "picture": "https://images.pexels.com/videos/6120114/pictures/preview-1.jpeg"}, {"id": 3916562, "nr": 2, "picture": "https://images.pexels.com/videos/6120114/pictures/preview-2.jpeg"}, {"id": 3916571, "nr": 3, "picture": "https://images.pexels.com/videos/6120114/pictures/preview-3.jpeg"}, {"id": 3916583, "nr": 4, "picture": "https://images.pexels.com/videos/6120114/pictures/preview-4.jpeg"}, {"id": 3916596, "nr": 5, "picture": "https://images.pexels.com/videos/6120114/pictures/preview-5.jpeg"}, {"id": 3916603, "nr": 6, "picture": "https://images.pexels.com/videos/6120114/pictures/preview-6.jpeg"}, {"id": 3916612, "nr": 7, "picture": "https://images.pexels.com/videos/6120114/pictures/preview-7.jpeg"}, {"id": 3916618, "nr": 8, "picture": "https://images.pexels.com/videos/6120114/pictures/preview-8.jpeg"}, {"id": 3916624, "nr": 9, "picture": "https://images.pexels.com/videos/6120114/pictures/preview-9.jpeg"}, {"id": 3916631, "nr": 10, "picture": "https://images.pexels.com/videos/6120114/pictures/preview-10.jpeg"}, {"id": 3916636, "nr": 11, "picture": "https://images.pexels.com/videos/6120114/pictures/preview-11.jpeg"}, {"id": 3916640, "nr": 12, "picture": "https://images.pexels.com/videos/6120114/pictures/preview-12.jpeg"}, {"id": 3916643, "nr": 13, "picture": "https://images.pexels.com/videos/6120114/pictures/preview-13.jpeg"}, {"id": 3916644, "nr": 14, "picture": "https://images.pexels.com/videos/6120114/pictures/preview-14.jpeg"}]}, {"id": 6120116, "width": 1080, "height": 1920, "duration": 7, "full_res": null, "tags": [], "url": "https://www.pexels.com/video/graphs-and-a-magnifying-glass-6120116/", "image": "https://images.pexels.com/videos/6120116/analysis-app-bank-banking-6120116.jpeg?auto=compress&cs=tinysrgb&fit=crop&h=1200&w=630", "avg_color": null, "user": {"id": 2906295, "name": "Nataliya Vaitkevich", "url": "https://www.pexels.com/@n-voitkevich"}, "video_files": [{"id": 9921373, "quality": "sd", "file_type": "video/mp4", "width": 540, "height": 960, "fps": 29.969999313354492, "link": "https://videos.pexels.com/video-files/6120116/6120116-sd_540_960_30fps.mp4", "size": 1479844}, {"id": 9921467, "quality": "sd", "file_type": "video/mp4", "width": 360, "height": 640, "fps": 29.969999313354492, "link": "https://videos.pexels.com/video-files/6120116/6120116-sd_360_640_30fps.mp4", "size": 532798}, {"id": 9921521, "quality": "hd", "file_type": "video/mp4", "width": 720, "height": 1280, "fps": 29.969999313354492, "link": "https://videos.pexels.com/video-files/6120116/6120116-hd_720_1280_30fps.mp4", "size": 2492780}, {"id": 9921595, "quality": "sd", "file_type": "video/mp4", "width": 240, "height": 426, "fps": 29.969999313354492, "link": "https://videos.pexels.com/video-files/6120116/6120116-sd_240_426_30fps.mp4", "size": 313099}, {"id": 9921626, "quality": "hd", "file_type": "video/mp4", "width": 1080, "height": 1920, "fps": 29.969999313354492, "link": "https://videos.pexels.com/video-files/6120116/6120116-hd_1080_1920_30fps.mp4", "size": 4721048}], "video_pictures": [{"id": 3916830, "nr": 0, "picture": "https://images.pexels.com/videos/6120116/pictures/preview-0.jpeg"}, {"id": 3916831, "nr": 1, "picture": "https://images.pexels.com/videos/6120116/pictures/preview-1.jpeg"}, {"id": 3916832, "nr": 2, "picture": "https://images.pexels.com/videos/6120116/pictures/preview-2.jpeg"}, {"id": 3916833, "nr": 3, "picture": "https://images.pexels.com/videos/6120116/pictures/preview-3.jpeg"}, {"id": 3916835, "nr": 4, "picture": "https://images.pexels.com/videos/6120116/pictures/preview-4.jpeg"}, {"id": 3916843, "nr": 5, "picture": "https://images.pexels.com/videos/6120116/pictures/preview-5.jpeg"}, {"id": 3916846, "nr": 6, "picture": "https://images.pexels.com/videos/6120116/pictures/preview-6.jpeg"}, {"id": 3916847, "nr": 7, "picture": "https://images.pexels.com/videos/6120116/pictures/preview-7.jpeg"}, {"id": 3916850, "nr": 8, "picture": "https://images.pexels.com/videos/6120116/pictures/preview-8.jpeg"}, {"id": 3916854, "nr": 9, "picture": "https://images.pexels.com/videos/6120116/pictures/preview-9.jpeg"}, {"id": 3916857, "nr": 10, "picture": "https://images.pexels.com/videos/6120116/pictures/preview-10.jpeg"}, {"id": 3916860, "nr": 11, "picture": "https://images.pexels.com/videos/6120116/pictures/preview-11.jpeg"}, {"id": 3916861, "nr": 12, "picture": "https://images.pexels.com/videos/6120116/pictures/preview-12.jpeg"}, {"id": 3916863, "nr": 13, "picture": "https://images.pexels.com/videos/6120116/pictures/preview-13.jpeg"}, {"id": 3916865, "nr": 14, "picture": "https://images.pexels.com/videos/6120116/pictures/preview-14.jpeg"}]}, {"id": 6120115, "width": 1080, "height": 1920, "duration": 16, "full_res": null, "tags": [], "url": "https://www.pexels.com/video/a-person-using-a-eraser-on-erasing-notes-6120115/", "image": "https://images.pexels.com/videos/6120115/analysis-app-bank-banking-6120115.jpeg?auto=compress&cs=tinysrgb&fit=crop&h=1200&w=630", "avg_color": null, "user": {"id": 2906295, "name": "Nataliya Vaitkevich", "url": "https://www.pexels.com/@n-voitkevich"}, "video_files": [{"id": 9923727, "quality": "sd", "file_type": "video/mp4", "width": 360, "height": 640, "fps": 29.969999313354492, "link": "https://videos.pexels.com/video-files/6120115/6120115-sd_360_640_30fps.mp4", "size": 1052964}, {"id": 9923779, "quality": "sd", "file_type": "video/mp4", "width": 540, "height": 960, "fps": 29.969999313354492, "link": "https://videos.pexels.com/video-files/6120115/6120115-sd_540_960_30fps.mp4", "size": 2091469}, {"id": 9923879, "quality": "hd", "file_type": "video/mp4", "width": 720, "height": 1280, "fps": 29.969999313354492, "link": "https://videos.pexels.com/video-files/6120115/6120115-hd_720_1280_30fps.mp4", "size": 3373306}, {"id": 9923910, "quality": "hd", "file_type": "video/mp4", "width": 1080, "height": 1920, "fps": 29.969999313354492, "link": "https://videos.pexels.com/video-files/6120115/6120115-hd_1080_1920_30fps.mp4", "size": 7170911}, {"id": 9924058, "quality": "sd", "file_type": "video/mp4", "width": 240, "height": 426, "fps": 29.969999313354492, "link": "https://videos.pexels.com/video-files/6120115/6120115-sd_240_426_30fps.mp4", "size": 599844}], "video_pictures": [{"id": 3916649, "nr": 0, "picture": "https://images.pexels.com/videos/6120115/pictures/preview-0.jpeg"}, {"id": 3916652, "nr": 1, "picture": "https://images.pexels.com/videos/6120115/pictures/preview-1.jpeg"}, {"id": 3916655, "nr": 2, "picture": "https://images.pexels.com/videos/6120115/pictures/preview-2.jpeg"}, {"id": 3916657, "nr": 3, "picture": "https://images.pexels.com/videos/6120115/pictures/preview-3.jpeg"}, {"id": 3916663, "nr": 4, "picture": "https://images.pexels.com/videos/6120115/pictures/preview-4.jpeg"}, {"id": 3916666, "nr": 5, "picture": "https://images.pexels.com/videos/6120115/pictures/preview-5.jpeg"}, {"id": 3916671, "nr": 6, "picture": "https://images.pexels.com/videos/6120115/pictures/preview-6.jpeg"}, {"id": 3916673, "nr": 7, "picture": "https://images.pexels.com/videos/6120115/pictures/preview-7.jpeg"}, {"id": 3916678, "nr": 8, "picture": "https://images.pexels.com/videos/6120115/pictures/preview-8.jpeg"}, {"id": 3916690, "nr": 9, "picture": "https://images.pexels.com/videos/6120115/pictures/preview-9.jpeg"}, {"id": 3916698, "nr": 10, "picture": "https://images.pexels.com/videos/6120115/pictures/preview-10.jpeg"}, {"id": 3916702, "nr": 11, "picture": "https://images.pexels.com/videos/6120115/pictures/preview-11.jpeg"}, {"id": 3916710, "nr": 12, "picture": "https://images.pexels.com/videos/6120115/pictures/preview-12.jpeg"}, {"id": 3916712, "nr": 13, "picture": "https://images.pexels.com/videos/6120115/pictures/preview-13.jpeg"}, {"id": 3916716, "nr": 14, "picture": "https://images.pexels.com/videos/6120115/pictures/preview-14.jpeg"}]}, {"id": 7563824, "width": 1080, "height": 1920, "duration": 8, "full_res": null, "tags": [], "url": "https://www.pexels.com/video/hand-holding-percent-tag-7563824/", "image": "https://images.pexels.com/videos/7563824/pexels-photo-7563824.jpeg?auto=compress&cs=tinysrgb&fit=crop&h=1200&w=630", "avg_color": null, "user": {"id": 3149039, "name": "RDNE Stock project", "url": "https://www.pexels.com/@rdne"}, "video_files": [{"id": 10473676, "quality": "hd", "file_type": "video/mp4", "width": 1080, "height": 1920, "fps": 30.0, "link": "https://videos.pexels.com/video-files/7563824/7563824-hd_1080_1920_30fps.mp4", "size": 5207090}, {"id": 10473781, "quality": "sd", "file_type": "video/mp4", "width": 240, "height": 426, "fps": 30.0, "link": "https://videos.pexels.com/video-files/7563824/7563824-sd_240_426_30fps.mp4", "size": 214988}, {"id": 10473872, "quality": "sd", "file_type": "video/mp4", "width": 360, "height": 640, "fps": 30.0, "link": "https://videos.pexels.com/video-files/7563824/7563824-sd_360_640_30fps.mp4", "size": 500479}, {"id": 10473932, "quality": "sd", "file_type": "video/mp4", "width": 540, "height": 960, "fps": 30.0, "link": "https://videos.pexels.com/video-files/7563824/7563824-sd_540_960_30fps.mp4", "size": 1525613}, {"id": 10474026, "quality": "hd", "file_type": "video/mp4", "width": 720, "height": 1280, "fps": 30.0, "link": "https://videos.pexels.com/video-files/7563824/7563824-hd_720_1280_30fps.mp4", "size": 2556297}], "video_pictures": [{"id": 6613644, "nr": 0, "picture": "https://images.pexels.com/videos/7563824/pictures/preview-0.jpeg"}, {"id": 6613654, "nr": 1, "picture": "https://images.pexels.com/videos/7563824/pictures/preview-1.jpeg"}, {"id": 6613656, "nr": 2, "picture": "https://images.pexels.com/videos/7563824/pictures/preview-2.jpeg"}, {"id": 6613663, "nr": 3, "picture": "https://images.pexels.com/videos/7563824/pictures/preview-3.jpeg"}, {"id": 6613669, "nr": 4, "picture": "https://images.pexels.com/videos/7563824/pictures/preview-4.jpeg"}, {"id": 6613675, "nr": 5, "picture": "https://images.pexels.com/videos/7563824/pictures/preview-5.jpeg"}, {"id": 6613682, "nr": 6, "picture": "https://images.pexels.com/videos/7563824/pictures/preview-6.jpeg"}, {"id": 6613689, "nr": 7, "picture": "https://images.pexels.com/videos/7563824/pictures/preview-7.jpeg"}, {"id": 6613695, "nr": 8, "picture": "https://images.pexels.com/videos/7563824/pictures/preview-8.jpeg"}, {"id": 6613701, "nr": 9, "picture": "https://images.pexels.com/videos/7563824/pictures/preview-9.jpeg"}, {"id": 6613708, "nr": 10, "picture": "https://images.pexels.com/videos/7563824/pictures/preview-10.jpeg"}, {"id": 6613715, "nr": 11, "picture": "https://images.pexels.com/videos/7563824/pictures/preview-11.jpeg"}, {"id": 6613721, "nr": 12, "picture": "https://images.pexels.com/videos/7563824/pictures/preview-12.jpeg"}, {"id": 6613729, "nr": 13, "picture": "https://images.pexels.com/videos/7563824/pictures/preview-13.jpeg"}, {"id": 6613737, "nr": 14, "picture": "https://images.pexels.com/videos/7563824/pictures/preview-14.jpeg"}]}, {"id": 6120121, "width": 1080, "height": 1920, "duration": 7, "full_res": null, "tags": [], "url": "https://www.pexels.com/video/falling-gold-coins-6120121/", "image": "https://images.pexels.com/videos/6120121/analysis-app-bank-banking-6120121.jpeg?auto=compress&cs=tinysrgb&fit=crop&h=1200&w=630", "avg_color": null, "user": {"id": 2906295, "name": "Nataliya Vaitkevich", "url": "https://www.pexels.com/@n-voitkevich"}, "video_files": [{"id": 9921630, "quality": "sd", "file_type": "video/mp4", "width": 540, "height": 960, "fps": 29.969999313354492, "link": "https://videos.pexels.com/video-files/6120121/6120121-sd_540_960_30fps.mp4", "size": 1443239}, {"id": 9921834, "quality": "sd", "file_type": "video/mp4", "width": 240, "height": 426, "fps": 29.969999313354492, "link": "https://videos.pexels.com/video-files/6120121/6120121-sd_240_426_30fps.mp4", "size": 298121}, {"id": 9921906, "quality": "hd", "file_type": "video/mp4", "width": 1080, "height": 1920, "fps": 29.969999313354492, "link": "https://videos.pexels.com/video-files/6120121/6120121-hd_1080_1920_30fps.mp4", "size": 4660019}, {"id": 9921991, "quality": "sd", "file_type": "video/mp4", "width": 360, "height": 640, "fps": 29.969999313354492, "link": "https://videos.pexels.com/video-files/6120121/6120121-sd_360_640_30fps.mp4", "size": 516876}, {"id": 9922073, "quality": "hd", "file_type": "video/mp4", "width": 720, "height": 1280, "fps": 29.969999313354492, "link": "https://videos.pexels.com/video-files/6120121/6120121-hd_720_1280_30fps.mp4", "size": 2345934}], "video_pictures": [{"id": 3916499, "nr": 0, "picture": "https://images.pexels.com/videos/6120121/pictures/preview-0.jpeg"}, {"id": 3916511, "nr": 1, "picture": "https://images.pexels.com/videos/6120121/pictures/preview-1.jpeg"}, {"id": 3916536, "nr": 2, "picture": "https://images.pexels.com/videos/6120121/pictures/preview-2.jpeg"}, {"id": 3916544, "nr": 3, "picture": "https://images.pexels.com/videos/6120121/pictures/preview-3.jpeg"}, {"id": 3916555, "nr": 4, "picture": "https://images.pexels.com/videos/6120121/pictures/preview-4.jpeg"}, {"id": 3916566, "nr": 5, "picture": "https://images.pexels.com/videos/6120121/pictures/preview-5.jpeg"}, {"id": 3916580, "nr": 6, "picture": "https://images.pexels.com/videos/6120121/pictures/preview-6.jpeg"}, {"id": 3916591, "nr": 7, "picture": "https://images.pexels.com/videos/6120121/pictures/preview-7.jpeg"}, {"id": 3916599, "nr": 8, "picture": "https://images.pexels.com/videos/6120121/pictures/preview-8.jpeg"}, {"id": 3916607, "nr": 9, "picture": "https://images.pexels.com/videos/6120121/pictures/preview-9.jpeg"}, {"id": 3916615, "nr": 10, "picture": "https://images.pexels.com/videos/6120121/pictures/preview-10.jpeg"}, {"id": 3916619, "nr": 11, "picture": "https://images.pexels.com/videos/6120121/pictures/preview-11.jpeg"}, {"id": 3916625, "nr": 12, "picture": "https://images.pexels.com/videos/6120121/pictures/preview-12.jpeg"}, {"id": 3916630, "nr": 13, "picture": "https://images.pexels.com/videos/6120121/pictures/preview-13.jpeg"}, {"id": 3916635, "nr": 14, "picture": "https://images.pexels.com/videos/6120121/pictures/preview-14.jpeg"}]}, {"id": 7867566, "width": 1080, "height": 1920, "duration": 11, "full_res": null, "tags": [], "url": "https://www.pexels.com/video/an-elderly-woman-blowing-candles-on-cupcakes-7867566/", "image": "https://images.pexels.com/videos/7867566/50-years-55-years-60-years-70-years-7867566.jpeg?auto=compress&cs=tinysrgb&fit=crop&h=1200&w=630", "avg_color": null, "user": {"id": 3149039, "name": "RDNE Stock project", "url": "https://www.pexels.com/@rdne"}, "video_files": [{"id": 10601038, "quality": "sd", "file_type": "video/mp4", "width": 540, "height": 960, "fps": 30.0, "link": "https://videos.pexels.com/video-files/7867566/7867566-sd_540_960_30fps.mp4", "size": 1750677}, {"id": 10601099, "quality": "sd", "file_type": "video/mp4", "width": 240, "height": 426, "fps": 30.0, "link": "https://videos.pexels.com/video-files/7867566/7867566-sd_240_426_30fps.mp4", "size": 453781}, {"id": 10601195, "quality": "hd", "file_type": "video/mp4", "width": 720, "height": 1280, "fps": 30.0, "link": "https://videos.pexels.com/video-files/7867566/7867566-hd_720_1280_30fps.mp4", "size": 3113975}, {"id": 10601263, "quality": "sd", "file_type": "video/mp4", "width": 360, "height": 640, "fps": 30.0, "link": "https://videos.pexels.com/video-files/7867566/7867566-sd_360_640_30fps.mp4", "size": 655593}, {"id": 10601339, "quality": "hd", "file_type": "video/mp4", "width": 1080, "height": 1920, "fps": 30.0, "link": "https://videos.pexels.com/video-files/7867566/7867566-hd_1080_1920_30fps.mp4", "size": 6517265}], "video_pictures": [{"id": 7185610, "nr": 0, "picture": "https://images.pexels.com/videos/7867566/pictures/preview-0.jpeg"}, {"id": 7185639, "nr": 1, "picture": "https://images.pexels.com/videos/7867566/pictures/preview-1.jpeg"}, {"id": 7185664, "nr": 2, "picture": "https://images.pexels.com/videos/7867566/pictures/preview-2.jpeg"}, {"id": 7185679, "nr": 3, "picture": "https://images.pexels.com/videos/7867566/pictures/preview-3.jpeg"}, {"id": 7185697, "nr": 4, "picture": "https://images.pexels.com/videos/7867566/pictures/preview-4.jpeg"}, {"id": 7185713, "nr": 5, "picture": "https://images.pexels.com/videos/7867566/pictures/preview-5.jpeg"}, {"id": 7185727, "nr": 6, "picture": "https://images.pexels.com/videos/7867566/pictures/preview-6.jpeg"}, {"id": 7185739, "nr": 7, "picture": "https://images.pexels.com/videos/7867566/pictures/preview-7.jpeg"}, {"id": 7185753, "nr": 8, "picture": "https://images.pexels.com/videos/7867566/pictures/preview-8.jpeg"}, {"id": 7185767, "nr": 9, "picture": "https://images.pexels.com/videos/7867566/pictures/preview-9.jpeg"}, {"id": 7185778, "nr": 10, "picture": "https://images.pexels.com/videos/7867566/pictures/preview-10.jpeg"}, {"id": 7185785, "nr": 11, "picture": "https://images.pexels.com/videos/7867566/pictures/preview-11.jpeg"}, {"id": 7185795, "nr": 12, "picture": "https://images.pexels.com/videos/7867566/pictures/preview-12.jpeg"}, {"id": 7185800, "nr": 13, "picture": "https://images.pexels.com/videos/7867566/pictures/preview-13.jpeg"}, {"id": 7185808, "nr": 14, "picture": "https://images.pexels.com/videos/7867566/pictures/preview-14.jpeg"}]}, {"id": 8680128, "width": 1280, "height": 1920, "duration": 10, "full_res": null, "tags": [], "url": "https://www.pexels.com/video/a-breast-cancer-themed-stop-motion-animation-8680128/", "image": "https://images.pexels.com/videos/8680128/abstract-art-breast-cancer-color-8680128.jpeg?auto=compress&cs=tinysrgb&fit=crop&h=1200&w=630", "avg_color": null, "user": {"id": 2359851, "name": "Nadezhda Moryak", "url": "https://www.pexels.com/@nadezhda-moryak"}, "video_files": [{"id": 10918207, "quality": "sd", "file_type": "video/mp4", "width": 540, "height": 810, "fps": 16.0, "link": "https://videos.pexels.com/video-files/8680128/8680128-sd_540_810_16fps.mp4", "size": 386364}, {"id": 10918338, "quality": "hd", "file_type": "video/mp4", "width": 720, "height": 1080, "fps": 16.0, "link": "https://videos.pexels.com/video-files/8680128/8680128-hd_720_1080_16fps.mp4", "size": 340966}, {"id": 10918423, "quality": "hd", "file_type": "video/mp4", "width": 1080, "height": 1620, "fps": 16.0, "link": "https://videos.pexels.com/video-files/8680128/8680128-hd_1080_1620_16fps.mp4", "size": 624520}, {"id": 10918529, "quality": "sd", "file_type": "video/mp4", "width": 240, "height": 360, "fps": 16.0, "link": "https://videos.pexels.com/video-files/8680128/8680128-sd_240_360_16fps.mp4", "size": 89783}, {"id": 10918641, "quality": "sd", "file_type": "video/mp4", "width": 360, "height": 540, "fps": 16.0, "link": "https://videos.pexels.com/video-files/8680128/8680128-sd_360_540_16fps.mp4", "size": 192295}], "video_pictures": [{"id": 8652206, "nr": 0, "picture": "https://images.pexels.com/videos/8680128/pictures/preview-0.jpeg"}, {"id": 8652207, "nr": 1, "picture": "https://images.pexels.com/videos/8680128/pictures/preview-1.jpeg"}, {"id": 8652208, "nr": 2, "picture": "https://images.pexels.com/videos/8680128/pictures/preview-2.jpeg"}, {"id": 8652209, "nr": 3, "picture": "https://images.pexels.com/videos/8680128/pictures/preview-3.jpeg"}, {"id": 8652210, "nr": 4, "picture": "https://images.pexels.com/videos/8680128/pictures/preview-4.jpeg"}, {"id": 8652211, "nr": 5, "picture": "https://images.pexels.com/videos/8680128/pictures/preview-5.jpeg"}, {"id": 8652212, "nr": 6, "picture": "https://images.pexels.com/videos/8680128/pictures/preview-6.jpeg"}, {"id": 8652213, "nr": 7, "picture": "https://images.pexels.com/videos/8680128/pictures/preview-7.jpeg"}, {"id": 8652214, "nr": 8, "picture": "https://images.pexels.com/videos/8680128/pictures/preview-8.jpeg"}, {"id": 8652215, "nr": 9, "picture": "https://images.pexels.com/videos/8680128/pictures/preview-9.jpeg"}, {"id": 8652216, "nr": 10, "picture": "https://images.pexels.com/videos/8680128/pictures/preview-10.jpeg"}, {"id": 8652217, "nr": 11, "picture": "https://images.pexels.com/videos/8680128/pictures/preview-11.jpeg"}, {"id": 8652218, "nr": 12, "picture": "https://images.pexels.com/videos/8680128/pictures/preview-12.jpeg"}, {"id": 8652219, "nr": 13, "picture": "https://images.pexels.com/videos/8680128/pictures/preview-13.jpeg"}, {"id": 8652221, "nr": 14, "picture": "https://images.pexels.com/videos/8680128/pictures/preview-14.jpeg"}]}], "total_results": 15, "next_page": "https://api.pexels.com/v1/videos/search/?orientation=portrait&page=2&per_page=8&query=90+percent", "url": "https://api-server.pexels.com/search/videos/90%20percent/"}, "timestamp": "2024-12-30T19:43:48.423903"}
