{"query": "garden fruits", "response": {"page": 1, "per_page": 8, "videos": [{"id": 6800636, "width": 1080, "height": 1920, "duration": 6, "full_res": null, "tags": [], "url": "https://www.pexels.com/video/book-and-clips-on-the-picnic-blanket-6800636/", "image": "https://images.pexels.com/videos/6800636/aesthetic-book-leisure-picnic-6800636.jpeg?auto=compress&cs=tinysrgb&fit=crop&h=1200&w=630", "avg_color": null, "user": {"id": 2946790, "name": "Leeloo The First", "url": "https://www.pexels.com/@leeloothefirst"}, "video_files": [{"id": 10183611, "quality": "hd", "file_type": "video/mp4", "width": 1080, "height": 1920, "fps": 29.969999313354492, "link": "https://videos.pexels.com/video-files/6800636/6800636-hd_1080_1920_30fps.mp4", "size": 4130771}, {"id": 10183634, "quality": "sd", "file_type": "video/mp4", "width": 360, "height": 640, "fps": 29.969999313354492, "link": "https://videos.pexels.com/video-files/6800636/6800636-sd_360_640_30fps.mp4", "size": 470365}, {"id": 10183723, "quality": "sd", "file_type": "video/mp4", "width": 240, "height": 426, "fps": 29.969999313354492, "link": "https://videos.pexels.com/video-files/6800636/6800636-sd_240_426_30fps.mp4", "size": 277363}, {"id": 10183823, "quality": "hd", "file_type": "video/mp4", "width": 720, "height": 1280, "fps": 29.969999313354492, "link": "https://videos.pexels.com/video-files/6800636/6800636-hd_720_1280_30fps.mp4", "size": 2098655}, {"id": 10183973, "quality": "sd", "file_type": "video/mp4", "width": 540, "height": 960, "fps": 29.969999313354492, "link": "https://videos.pexels.com/video-files/6800636/6800636-sd_540_960_30fps.mp4", "size": 1308661}], "video_pictures": [{"id": 5142166, "nr": 0, "picture": "https://images.pexels.com/videos/6800636/pictures/preview-0.jpeg"}, {"id": 5142170, "nr": 1, "picture": "https://images.pexels.com/videos/6800636/pictures/preview-1.jpeg"}, {"id": 5142173, "nr": 2, "picture": "https://images.pexels.com/videos/6800636/pictures/preview-2.jpeg"}, {"id": 5142176, "nr": 3, "picture": "https://images.pexels.com/videos/6800636/pictures/preview-3.jpeg"}, {"id": 5142178, "nr": 4, "picture": "https://images.pexels.com/videos/6800636/pictures/preview-4.jpeg"}, {"id": 5142182, "nr": 5, "picture": "https://images.pexels.com/videos/6800636/pictures/preview-5.jpeg"}, {"id": 5142187, "nr": 6, "picture": "https://images.pexels.com/videos/6800636/pictures/preview-6.jpeg"}, {"id": 5142194, "nr": 7, "picture": "https://images.pexels.com/videos/6800636/pictures/preview-7.jpeg"}, {"id": 5142200, "nr": 8, "picture": "https://images.pexels.com/videos/6800636/pictures/preview-8.jpeg"}, {"id": 5142210, "nr": 9, "picture": "https://images.pexels.com/videos/6800636/pictures/preview-9.jpeg"}, {"id": 5142214, "nr": 10, "picture": "https://images.pexels.com/videos/6800636/pictures/preview-10.jpeg"}, {"id": 5142217, "nr": 11, "picture": "https://images.pexels.com/videos/6800636/pictures/preview-11.jpeg"}, {"id": 5142220, "nr": 12, "picture": "https://images.pexels.com/videos/6800636/pictures/preview-12.jpeg"}, {"id": 5142225, "nr": 13, "picture": "https://images.pexels.com/videos/6800636/pictures/preview-13.jpeg"}, {"id": 5142227, "nr": 14, "picture": "https://images.pexels.com/videos/6800636/pictures/preview-14.jpeg"}]}, {"id": 5527320, "width": 2160, "height": 3840, "duration": 10, "full_res": null, "tags": [], "url": "https://www.pexels.com/video/an-apple-tree-full-of-fruit-bearings-5527320/", "image": "https://images.pexels.com/videos/5527320/pexels-photo-5527320.jpeg?auto=compress&cs=tinysrgb&fit=crop&h=1200&w=630", "avg_color": null, "user": {"id": 3651179, "name": "Zen Chung", "url": "https://www.pexels.com/@zen-chung"}, "video_files": [{"id": 9719255, "quality": "hd", "file_type": "video/mp4", "width": 1080, "height": 1920, "fps": 23.97599983215332, "link": "https://videos.pexels.com/video-files/5527320/5527320-hd_1080_1920_24fps.mp4", "size": 7166918}, {"id": 9719306, "quality": "sd", "file_type": "video/mp4", "width": 360, "height": 640, "fps": 23.97599983215332, "link": "https://videos.pexels.com/video-files/5527320/5527320-sd_360_640_24fps.mp4", "size": 786913}, {"id": 9719363, "quality": "sd", "file_type": "video/mp4", "width": 240, "height": 426, "fps": 23.97599983215332, "link": "https://videos.pexels.com/video-files/5527320/5527320-sd_240_426_24fps.mp4", "size": 473892}, {"id": 9719442, "quality": "uhd", "file_type": "video/mp4", "width": 2160, "height": 3840, "fps": 23.97599983215332, "link": "https://videos.pexels.com/video-files/5527320/5527320-uhd_2160_3840_24fps.mp4", "size": 27637535}, {"id": 9719511, "quality": "hd", "file_type": "video/mp4", "width": 720, "height": 1280, "fps": 23.97599983215332, "link": "https://videos.pexels.com/video-files/5527320/5527320-hd_720_1280_24fps.mp4", "size": 3793913}, {"id": 9719612, "quality": "uhd", "file_type": "video/mp4", "width": 1440, "height": 2560, "fps": 23.97599983215332, "link": "https://videos.pexels.com/video-files/5527320/5527320-uhd_1440_2560_24fps.mp4", "size": 16148050}, {"id": 9719714, "quality": "sd", "file_type": "video/mp4", "width": 540, "height": 960, "fps": 23.97599983215332, "link": "https://videos.pexels.com/video-files/5527320/5527320-sd_540_960_24fps.mp4", "size": 2115781}], "video_pictures": [{"id": 2945348, "nr": 0, "picture": "https://images.pexels.com/videos/5527320/pictures/preview-0.jpeg"}, {"id": 2945357, "nr": 1, "picture": "https://images.pexels.com/videos/5527320/pictures/preview-1.jpeg"}, {"id": 2945372, "nr": 2, "picture": "https://images.pexels.com/videos/5527320/pictures/preview-2.jpeg"}, {"id": 2945394, "nr": 3, "picture": "https://images.pexels.com/videos/5527320/pictures/preview-3.jpeg"}, {"id": 2945417, "nr": 4, "picture": "https://images.pexels.com/videos/5527320/pictures/preview-4.jpeg"}, {"id": 2945442, "nr": 5, "picture": "https://images.pexels.com/videos/5527320/pictures/preview-5.jpeg"}, {"id": 2945459, "nr": 6, "picture": "https://images.pexels.com/videos/5527320/pictures/preview-6.jpeg"}, {"id": 2945475, "nr": 7, "picture": "https://images.pexels.com/videos/5527320/pictures/preview-7.jpeg"}, {"id": 2945498, "nr": 8, "picture": "https://images.pexels.com/videos/5527320/pictures/preview-8.jpeg"}, {"id": 2945520, "nr": 9, "picture": "https://images.pexels.com/videos/5527320/pictures/preview-9.jpeg"}, {"id": 2945542, "nr": 10, "picture": "https://images.pexels.com/videos/5527320/pictures/preview-10.jpeg"}, {"id": 2945572, "nr": 11, "picture": "https://images.pexels.com/videos/5527320/pictures/preview-11.jpeg"}, {"id": 2945616, "nr": 12, "picture": "https://images.pexels.com/videos/5527320/pictures/preview-12.jpeg"}, {"id": 2945679, "nr": 13, "picture": "https://images.pexels.com/videos/5527320/pictures/preview-13.jpeg"}, {"id": 2945773, "nr": 14, "picture": "https://images.pexels.com/videos/5527320/pictures/preview-14.jpeg"}]}, {"id": 3943416, "width": 2160, "height": 4096, "duration": 8, "full_res": null, "tags": [], "url": "https://www.pexels.com/video/tossing-and-catching-a-fresh-tomato-in-the-air-3943416/", "image": "https://images.pexels.com/videos/3943416/agressive-art-berry-catch-3943416.jpeg?auto=compress&cs=tinysrgb&fit=crop&h=1200&w=630", "avg_color": null, "user": {"id": 1437723, "name": "cottonbro studio", "url": "https://www.pexels.com/@cottonbro"}, "video_files": [{"id": 9336287, "quality": "uhd", "file_type": "video/mp4", "width": 2160, "height": 4096, "fps": 25.0, "link": "https://videos.pexels.com/video-files/3943416/3943416-uhd_2160_4096_25fps.mp4", "size": 20498308}, {"id": 9336545, "quality": "uhd", "file_type": "video/mp4", "width": 1440, "height": 2732, "fps": 25.0, "link": "https://videos.pexels.com/video-files/3943416/3943416-uhd_1440_2732_25fps.mp4", "size": 12042982}, {"id": 9336674, "quality": "hd", "file_type": "video/mp4", "width": 720, "height": 1366, "fps": 50.0, "link": "https://videos.pexels.com/video-files/3943416/3943416-hd_720_1366_50fps.mp4", "size": 2342840}, {"id": 9336823, "quality": "sd", "file_type": "video/mp4", "width": 506, "height": 960, "fps": 25.0, "link": "https://videos.pexels.com/video-files/3943416/3943416-sd_506_960_25fps.mp4", "size": 1380846}, {"id": 9336921, "quality": "sd", "file_type": "video/mp4", "width": 338, "height": 640, "fps": 25.0, "link": "https://videos.pexels.com/video-files/3943416/3943416-sd_338_640_25fps.mp4", "size": 462701}, {"id": 9337243, "quality": "hd", "file_type": "video/mp4", "width": 1080, "height": 2048, "fps": 25.0, "link": "https://videos.pexels.com/video-files/3943416/3943416-hd_1080_2048_25fps.mp4", "size": 4901950}, {"id": 9337475, "quality": "sd", "file_type": "video/mp4", "width": 226, "height": 426, "fps": 25.0, "link": "https://videos.pexels.com/video-files/3943416/3943416-sd_226_426_25fps.mp4", "size": 283332}], "video_pictures": [{"id": 1008683, "nr": 0, "picture": "https://images.pexels.com/videos/3943416/pictures/preview-0.jpeg"}, {"id": 1008688, "nr": 1, "picture": "https://images.pexels.com/videos/3943416/pictures/preview-1.jpeg"}, {"id": 1008693, "nr": 2, "picture": "https://images.pexels.com/videos/3943416/pictures/preview-2.jpeg"}, {"id": 1008700, "nr": 3, "picture": "https://images.pexels.com/videos/3943416/pictures/preview-3.jpeg"}, {"id": 1008708, "nr": 4, "picture": "https://images.pexels.com/videos/3943416/pictures/preview-4.jpeg"}, {"id": 1008711, "nr": 5, "picture": "https://images.pexels.com/videos/3943416/pictures/preview-5.jpeg"}, {"id": 1008715, "nr": 6, "picture": "https://images.pexels.com/videos/3943416/pictures/preview-6.jpeg"}, {"id": 1008717, "nr": 7, "picture": "https://images.pexels.com/videos/3943416/pictures/preview-7.jpeg"}, {"id": 1008721, "nr": 8, "picture": "https://images.pexels.com/videos/3943416/pictures/preview-8.jpeg"}, {"id": 1008725, "nr": 9, "picture": "https://images.pexels.com/videos/3943416/pictures/preview-9.jpeg"}, {"id": 1008728, "nr": 10, "picture": "https://images.pexels.com/videos/3943416/pictures/preview-10.jpeg"}, {"id": 1008731, "nr": 11, "picture": "https://images.pexels.com/videos/3943416/pictures/preview-11.jpeg"}, {"id": 1008736, "nr": 12, "picture": "https://images.pexels.com/videos/3943416/pictures/preview-12.jpeg"}, {"id": 1008740, "nr": 13, "picture": "https://images.pexels.com/videos/3943416/pictures/preview-13.jpeg"}, {"id": 1008743, "nr": 14, "picture": "https://images.pexels.com/videos/3943416/pictures/preview-14.jpeg"}]}, {"id": 6231075, "width": 1080, "height": 1920, "duration": 8, "full_res": null, "tags": [], "url": "https://www.pexels.com/video/close-up-of-small-fruit-on-tree-6231075/", "image": "https://images.pexels.com/videos/6231075/pexels-photo-6231075.jpeg?auto=compress&cs=tinysrgb&fit=crop&h=1200&w=630", "avg_color": null, "user": {"id": 6928068, "name": "Gary  Barnes", "url": "https://www.pexels.com/@gary-barnes"}, "video_files": [{"id": 9969313, "quality": "hd", "file_type": "video/mp4", "width": 1080, "height": 1920, "fps": 25.0, "link": "https://videos.pexels.com/video-files/6231075/6231075-hd_1080_1920_25fps.mp4", "size": 5333791}, {"id": 9969368, "quality": "hd", "file_type": "video/mp4", "width": 720, "height": 1280, "fps": 50.0, "link": "https://videos.pexels.com/video-files/6231075/6231075-hd_720_1280_50fps.mp4", "size": 2792678}, {"id": 9969464, "quality": "sd", "file_type": "video/mp4", "width": 540, "height": 960, "fps": 25.0, "link": "https://videos.pexels.com/video-files/6231075/6231075-sd_540_960_25fps.mp4", "size": 1796856}, {"id": 9969500, "quality": "sd", "file_type": "video/mp4", "width": 360, "height": 640, "fps": 25.0, "link": "https://videos.pexels.com/video-files/6231075/6231075-sd_360_640_25fps.mp4", "size": 624708}, {"id": 9969559, "quality": "sd", "file_type": "video/mp4", "width": 240, "height": 426, "fps": 25.0, "link": "https://videos.pexels.com/video-files/6231075/6231075-sd_240_426_25fps.mp4", "size": 371037}], "video_pictures": [{"id": 4118364, "nr": 0, "picture": "https://images.pexels.com/videos/6231075/pictures/preview-0.jpeg"}, {"id": 4118395, "nr": 1, "picture": "https://images.pexels.com/videos/6231075/pictures/preview-1.jpeg"}, {"id": 4118425, "nr": 2, "picture": "https://images.pexels.com/videos/6231075/pictures/preview-2.jpeg"}, {"id": 4118466, "nr": 3, "picture": "https://images.pexels.com/videos/6231075/pictures/preview-3.jpeg"}, {"id": 4118505, "nr": 4, "picture": "https://images.pexels.com/videos/6231075/pictures/preview-4.jpeg"}, {"id": 4118545, "nr": 5, "picture": "https://images.pexels.com/videos/6231075/pictures/preview-5.jpeg"}, {"id": 4118591, "nr": 6, "picture": "https://images.pexels.com/videos/6231075/pictures/preview-6.jpeg"}, {"id": 4118634, "nr": 7, "picture": "https://images.pexels.com/videos/6231075/pictures/preview-7.jpeg"}, {"id": 4118664, "nr": 8, "picture": "https://images.pexels.com/videos/6231075/pictures/preview-8.jpeg"}, {"id": 4118699, "nr": 9, "picture": "https://images.pexels.com/videos/6231075/pictures/preview-9.jpeg"}, {"id": 4118743, "nr": 10, "picture": "https://images.pexels.com/videos/6231075/pictures/preview-10.jpeg"}, {"id": 4118772, "nr": 11, "picture": "https://images.pexels.com/videos/6231075/pictures/preview-11.jpeg"}, {"id": 4118799, "nr": 12, "picture": "https://images.pexels.com/videos/6231075/pictures/preview-12.jpeg"}, {"id": 4118824, "nr": 13, "picture": "https://images.pexels.com/videos/6231075/pictures/preview-13.jpeg"}, {"id": 4118841, "nr": 14, "picture": "https://images.pexels.com/videos/6231075/pictures/preview-14.jpeg"}]}, {"id": 5944926, "width": 1080, "height": 1920, "duration": 13, "full_res": null, "tags": [], "url": "https://www.pexels.com/video/faceless-person-washing-oranges-5944926/", "image": "https://images.pexels.com/videos/5944926/pexels-photo-5944926.jpeg?auto=compress&cs=tinysrgb&fit=crop&h=1200&w=630", "avg_color": null, "user": {"id": 3660000, "name": "Any Lane", "url": "https://www.pexels.com/@any-lane"}, "video_files": [{"id": 9864604, "quality": "hd", "file_type": "video/mp4", "width": 1080, "height": 1920, "fps": 25.0, "link": "https://videos.pexels.com/video-files/5944926/5944926-hd_1080_1920_25fps.mp4", "size": 9593529}, {"id": 9864647, "quality": "sd", "file_type": "video/mp4", "width": 540, "height": 960, "fps": 25.0, "link": "https://videos.pexels.com/video-files/5944926/5944926-sd_540_960_25fps.mp4", "size": 3020244}, {"id": 9864704, "quality": "sd", "file_type": "video/mp4", "width": 240, "height": 426, "fps": 25.0, "link": "https://videos.pexels.com/video-files/5944926/5944926-sd_240_426_25fps.mp4", "size": 658440}, {"id": 9864729, "quality": "hd", "file_type": "video/mp4", "width": 720, "height": 1280, "fps": 50.0, "link": "https://videos.pexels.com/video-files/5944926/5944926-hd_720_1280_50fps.mp4", "size": 4520271}, {"id": 9864759, "quality": "sd", "file_type": "video/mp4", "width": 360, "height": 640, "fps": 25.0, "link": "https://videos.pexels.com/video-files/5944926/5944926-sd_360_640_25fps.mp4", "size": 1115828}], "video_pictures": [{"id": 3644090, "nr": 0, "picture": "https://images.pexels.com/videos/5944926/pictures/preview-0.jpeg"}, {"id": 3644099, "nr": 1, "picture": "https://images.pexels.com/videos/5944926/pictures/preview-1.jpeg"}, {"id": 3644112, "nr": 2, "picture": "https://images.pexels.com/videos/5944926/pictures/preview-2.jpeg"}, {"id": 3644135, "nr": 3, "picture": "https://images.pexels.com/videos/5944926/pictures/preview-3.jpeg"}, {"id": 3644155, "nr": 4, "picture": "https://images.pexels.com/videos/5944926/pictures/preview-4.jpeg"}, {"id": 3644183, "nr": 5, "picture": "https://images.pexels.com/videos/5944926/pictures/preview-5.jpeg"}, {"id": 3644210, "nr": 6, "picture": "https://images.pexels.com/videos/5944926/pictures/preview-6.jpeg"}, {"id": 3644242, "nr": 7, "picture": "https://images.pexels.com/videos/5944926/pictures/preview-7.jpeg"}, {"id": 3644273, "nr": 8, "picture": "https://images.pexels.com/videos/5944926/pictures/preview-8.jpeg"}, {"id": 3644300, "nr": 9, "picture": "https://images.pexels.com/videos/5944926/pictures/preview-9.jpeg"}, {"id": 3644324, "nr": 10, "picture": "https://images.pexels.com/videos/5944926/pictures/preview-10.jpeg"}, {"id": 3644352, "nr": 11, "picture": "https://images.pexels.com/videos/5944926/pictures/preview-11.jpeg"}, {"id": 3644385, "nr": 12, "picture": "https://images.pexels.com/videos/5944926/pictures/preview-12.jpeg"}, {"id": 3644409, "nr": 13, "picture": "https://images.pexels.com/videos/5944926/pictures/preview-13.jpeg"}, {"id": 3644440, "nr": 14, "picture": "https://images.pexels.com/videos/5944926/pictures/preview-14.jpeg"}]}, {"id": 5944931, "width": 1080, "height": 1920, "duration": 11, "full_res": null, "tags": [], "url": "https://www.pexels.com/video/water-falling-on-bowl-of-citrus-fruits-5944931/", "image": "https://images.pexels.com/videos/5944931/pexels-photo-5944931.jpeg?auto=compress&cs=tinysrgb&fit=crop&h=1200&w=630", "avg_color": null, "user": {"id": 3660000, "name": "Any Lane", "url": "https://www.pexels.com/@any-lane"}, "video_files": [{"id": 9865343, "quality": "sd", "file_type": "video/mp4", "width": 360, "height": 640, "fps": 25.0, "link": "https://videos.pexels.com/video-files/5944931/5944931-sd_360_640_25fps.mp4", "size": 822835}, {"id": 9865359, "quality": "hd", "file_type": "video/mp4", "width": 720, "height": 1280, "fps": 50.0, "link": "https://videos.pexels.com/video-files/5944931/5944931-hd_720_1280_50fps.mp4", "size": 3733310}, {"id": 9865369, "quality": "sd", "file_type": "video/mp4", "width": 540, "height": 960, "fps": 25.0, "link": "https://videos.pexels.com/video-files/5944931/5944931-sd_540_960_25fps.mp4", "size": 2129818}, {"id": 9865376, "quality": "hd", "file_type": "video/mp4", "width": 1080, "height": 1920, "fps": 25.0, "link": "https://videos.pexels.com/video-files/5944931/5944931-hd_1080_1920_25fps.mp4", "size": 6798737}, {"id": 9865382, "quality": "sd", "file_type": "video/mp4", "width": 240, "height": 426, "fps": 25.0, "link": "https://videos.pexels.com/video-files/5944931/5944931-sd_240_426_25fps.mp4", "size": 498471}], "video_pictures": [{"id": 3644110, "nr": 0, "picture": "https://images.pexels.com/videos/5944931/pictures/preview-0.jpeg"}, {"id": 3644129, "nr": 1, "picture": "https://images.pexels.com/videos/5944931/pictures/preview-1.jpeg"}, {"id": 3644148, "nr": 2, "picture": "https://images.pexels.com/videos/5944931/pictures/preview-2.jpeg"}, {"id": 3644169, "nr": 3, "picture": "https://images.pexels.com/videos/5944931/pictures/preview-3.jpeg"}, {"id": 3644203, "nr": 4, "picture": "https://images.pexels.com/videos/5944931/pictures/preview-4.jpeg"}, {"id": 3644235, "nr": 5, "picture": "https://images.pexels.com/videos/5944931/pictures/preview-5.jpeg"}, {"id": 3644263, "nr": 6, "picture": "https://images.pexels.com/videos/5944931/pictures/preview-6.jpeg"}, {"id": 3644295, "nr": 7, "picture": "https://images.pexels.com/videos/5944931/pictures/preview-7.jpeg"}, {"id": 3644319, "nr": 8, "picture": "https://images.pexels.com/videos/5944931/pictures/preview-8.jpeg"}, {"id": 3644354, "nr": 9, "picture": "https://images.pexels.com/videos/5944931/pictures/preview-9.jpeg"}, {"id": 3644380, "nr": 10, "picture": "https://images.pexels.com/videos/5944931/pictures/preview-10.jpeg"}, {"id": 3644403, "nr": 11, "picture": "https://images.pexels.com/videos/5944931/pictures/preview-11.jpeg"}, {"id": 3644425, "nr": 12, "picture": "https://images.pexels.com/videos/5944931/pictures/preview-12.jpeg"}, {"id": 3644449, "nr": 13, "picture": "https://images.pexels.com/videos/5944931/pictures/preview-13.jpeg"}, {"id": 3644469, "nr": 14, "picture": "https://images.pexels.com/videos/5944931/pictures/preview-14.jpeg"}]}, {"id": 10034025, "width": 2160, "height": 4096, "duration": 82, "full_res": null, "tags": [], "url": "https://www.pexels.com/video/romantic-couple-dancing-at-picnic-table-in-garden-10034025/", "image": "https://images.pexels.com/videos/10034025/pexels-photo-10034025.jpeg?auto=compress&cs=tinysrgb&fit=crop&h=1200&w=630", "avg_color": null, "user": {"id": 1437723, "name": "cottonbro studio", "url": "https://www.pexels.com/@cottonbro"}, "video_files": [{"id": 11207473, "quality": "hd", "file_type": "video/mp4", "width": 720, "height": 1366, "fps": 25.0, "link": "https://videos.pexels.com/video-files/10034025/10034025-hd_720_1366_25fps.mp4", "size": 19328895}, {"id": 11207544, "quality": "uhd", "file_type": "video/mp4", "width": 1440, "height": 2732, "fps": 25.0, "link": "https://videos.pexels.com/video-files/10034025/10034025-uhd_1440_2732_25fps.mp4", "size": 64885086}, {"id": 11207555, "quality": "hd", "file_type": "video/mp4", "width": 1080, "height": 2048, "fps": 25.0, "link": "https://videos.pexels.com/video-files/10034025/10034025-hd_1080_2048_25fps.mp4", "size": 36549513}, {"id": 11207620, "quality": "uhd", "file_type": "video/mp4", "width": 2160, "height": 4096, "fps": 25.0, "link": "https://videos.pexels.com/video-files/10034025/10034025-uhd_2160_4096_25fps.mp4", "size": 153194744}, {"id": 11207663, "quality": "sd", "file_type": "video/mp4", "width": 226, "height": 426, "fps": 25.0, "link": "https://videos.pexels.com/video-files/10034025/10034025-sd_226_426_25fps.mp4", "size": 3409288}, {"id": 11207718, "quality": "sd", "file_type": "video/mp4", "width": 338, "height": 640, "fps": 25.0, "link": "https://videos.pexels.com/video-files/10034025/10034025-sd_338_640_25fps.mp4", "size": 4712071}, {"id": 11207764, "quality": "sd", "file_type": "video/mp4", "width": 506, "height": 960, "fps": 25.0, "link": "https://videos.pexels.com/video-files/10034025/10034025-sd_506_960_25fps.mp4", "size": 10916030}], "video_pictures": [{"id": 10498769, "nr": 0, "picture": "https://images.pexels.com/videos/10034025/pictures/preview-0.jpeg"}, {"id": 10498778, "nr": 1, "picture": "https://images.pexels.com/videos/10034025/pictures/preview-1.jpeg"}, {"id": 10498788, "nr": 2, "picture": "https://images.pexels.com/videos/10034025/pictures/preview-2.jpeg"}, {"id": 10498796, "nr": 3, "picture": "https://images.pexels.com/videos/10034025/pictures/preview-3.jpeg"}, {"id": 10498799, "nr": 4, "picture": "https://images.pexels.com/videos/10034025/pictures/preview-4.jpeg"}, {"id": 10498807, "nr": 5, "picture": "https://images.pexels.com/videos/10034025/pictures/preview-5.jpeg"}, {"id": 10498814, "nr": 6, "picture": "https://images.pexels.com/videos/10034025/pictures/preview-6.jpeg"}, {"id": 10498822, "nr": 7, "picture": "https://images.pexels.com/videos/10034025/pictures/preview-7.jpeg"}, {"id": 10498828, "nr": 8, "picture": "https://images.pexels.com/videos/10034025/pictures/preview-8.jpeg"}, {"id": 10498831, "nr": 9, "picture": "https://images.pexels.com/videos/10034025/pictures/preview-9.jpeg"}, {"id": 10498835, "nr": 10, "picture": "https://images.pexels.com/videos/10034025/pictures/preview-10.jpeg"}, {"id": 10498840, "nr": 11, "picture": "https://images.pexels.com/videos/10034025/pictures/preview-11.jpeg"}, {"id": 10498849, "nr": 12, "picture": "https://images.pexels.com/videos/10034025/pictures/preview-12.jpeg"}, {"id": 10498859, "nr": 13, "picture": "https://images.pexels.com/videos/10034025/pictures/preview-13.jpeg"}, {"id": 10498867, "nr": 14, "picture": "https://images.pexels.com/videos/10034025/pictures/preview-14.jpeg"}]}, {"id": 7121084, "width": 2160, "height": 3840, "duration": 9, "full_res": null, "tags": [], "url": "https://www.pexels.com/video/coffee-cherries-on-coffea-plant-7121084/", "image": "https://images.pexels.com/videos/7121084/pexels-photo-7121084.jpeg?auto=compress&cs=tinysrgb&fit=crop&h=1200&w=630", "avg_color": null, "user": {"id": 33201649, "name": "Michael Burrows", "url": "https://www.pexels.com/@michael-burrows"}, "video_files": [{"id": 10310963, "quality": "sd", "file_type": "video/mp4", "width": 240, "height": 426, "fps": 25.0, "link": "https://videos.pexels.com/video-files/7121084/7121084-sd_240_426_25fps.mp4", "size": 327340}, {"id": 10311002, "quality": "sd", "file_type": "video/mp4", "width": 540, "height": 960, "fps": 25.0, "link": "https://videos.pexels.com/video-files/7121084/7121084-sd_540_960_25fps.mp4", "size": 1617118}, {"id": 10311039, "quality": "hd", "file_type": "video/mp4", "width": 720, "height": 1280, "fps": 50.0, "link": "https://videos.pexels.com/video-files/7121084/7121084-hd_720_1280_50fps.mp4", "size": 3054291}, {"id": 10311052, "quality": "hd", "file_type": "video/mp4", "width": 1080, "height": 1920, "fps": 25.0, "link": "https://videos.pexels.com/video-files/7121084/7121084-hd_1080_1920_25fps.mp4", "size": 5862595}, {"id": 10311093, "quality": "uhd", "file_type": "video/mp4", "width": 1440, "height": 2560, "fps": 25.0, "link": "https://videos.pexels.com/video-files/7121084/7121084-uhd_1440_2560_25fps.mp4", "size": 13634201}, {"id": 10311169, "quality": "sd", "file_type": "video/mp4", "width": 360, "height": 640, "fps": 25.0, "link": "https://videos.pexels.com/video-files/7121084/7121084-sd_360_640_25fps.mp4", "size": 532744}, {"id": 10311188, "quality": "uhd", "file_type": "video/mp4", "width": 2160, "height": 3840, "fps": 25.0, "link": "https://videos.pexels.com/video-files/7121084/7121084-uhd_2160_3840_25fps.mp4", "size": 24802752}], "video_pictures": [{"id": 5785474, "nr": 0, "picture": "https://images.pexels.com/videos/7121084/pictures/preview-0.jpeg"}, {"id": 5785484, "nr": 1, "picture": "https://images.pexels.com/videos/7121084/pictures/preview-1.jpeg"}, {"id": 5785500, "nr": 2, "picture": "https://images.pexels.com/videos/7121084/pictures/preview-2.jpeg"}, {"id": 5785526, "nr": 3, "picture": "https://images.pexels.com/videos/7121084/pictures/preview-3.jpeg"}, {"id": 5785561, "nr": 4, "picture": "https://images.pexels.com/videos/7121084/pictures/preview-4.jpeg"}, {"id": 5785602, "nr": 5, "picture": "https://images.pexels.com/videos/7121084/pictures/preview-5.jpeg"}, {"id": 5785639, "nr": 6, "picture": "https://images.pexels.com/videos/7121084/pictures/preview-6.jpeg"}, {"id": 5785674, "nr": 7, "picture": "https://images.pexels.com/videos/7121084/pictures/preview-7.jpeg"}, {"id": 5785682, "nr": 8, "picture": "https://images.pexels.com/videos/7121084/pictures/preview-8.jpeg"}, {"id": 5785696, "nr": 9, "picture": "https://images.pexels.com/videos/7121084/pictures/preview-9.jpeg"}, {"id": 5785709, "nr": 10, "picture": "https://images.pexels.com/videos/7121084/pictures/preview-10.jpeg"}, {"id": 5785726, "nr": 11, "picture": "https://images.pexels.com/videos/7121084/pictures/preview-11.jpeg"}, {"id": 5785744, "nr": 12, "picture": "https://images.pexels.com/videos/7121084/pictures/preview-12.jpeg"}, {"id": 5785756, "nr": 13, "picture": "https://images.pexels.com/videos/7121084/pictures/preview-13.jpeg"}, {"id": 5785770, "nr": 14, "picture": "https://images.pexels.com/videos/7121084/pictures/preview-14.jpeg"}]}], "total_results": 7765, "next_page": "https://api.pexels.com/v1/videos/search/?orientation=portrait&page=2&per_page=8&query=garden+fruits", "url": "https://api-server.pexels.com/search/videos/garden%20fruits/"}, "timestamp": "2024-12-28T22:42:00.951617"}
