{"query": "coffee cup", "response": {"page": 1, "per_page": 8, "videos": [{"id": 4973718, "width": 1080, "height": 1920, "duration": 15, "full_res": null, "tags": [], "url": "https://www.pexels.com/video/a-cup-of-coffee-and-a-book-on-a-table-4973718/", "image": "https://images.pexels.com/videos/4973718/black-coffee-caffeine-cinemagraph-cinemagraphy-4973718.jpeg?auto=compress&cs=tinysrgb&fit=crop&h=1200&w=630", "avg_color": null, "user": {"id": 1522664, "name": "Taryn Elliott", "url": "https://www.pexels.com/@taryn-elliott"}, "video_files": [{"id": 9429119, "quality": "sd", "file_type": "video/mp4", "width": 240, "height": 426, "fps": 25.0, "link": "https://videos.pexels.com/video-files/4973718/4973718-sd_240_426_25fps.mp4", "size": 381009}, {"id": 9429356, "quality": "sd", "file_type": "video/mp4", "width": 540, "height": 960, "fps": 25.0, "link": "https://videos.pexels.com/video-files/4973718/4973718-sd_540_960_25fps.mp4", "size": 1753845}, {"id": 9429447, "quality": "hd", "file_type": "video/mp4", "width": 1080, "height": 1920, "fps": 25.0, "link": "https://videos.pexels.com/video-files/4973718/4973718-hd_1080_1920_25fps.mp4", "size": 6744697}, {"id": 9429545, "quality": "hd", "file_type": "video/mp4", "width": 720, "height": 1280, "fps": 25.0, "link": "https://videos.pexels.com/video-files/4973718/4973718-hd_720_1280_25fps.mp4", "size": 2672386}, {"id": 9429723, "quality": "sd", "file_type": "video/mp4", "width": 360, "height": 640, "fps": 25.0, "link": "https://videos.pexels.com/video-files/4973718/4973718-sd_360_640_25fps.mp4", "size": 762892}], "video_pictures": [{"id": 2194151, "nr": 0, "picture": "https://images.pexels.com/videos/4973718/pictures/preview-0.jpeg"}, {"id": 2194154, "nr": 1, "picture": "https://images.pexels.com/videos/4973718/pictures/preview-1.jpeg"}, {"id": 2194158, "nr": 2, "picture": "https://images.pexels.com/videos/4973718/pictures/preview-2.jpeg"}, {"id": 2194162, "nr": 3, "picture": "https://images.pexels.com/videos/4973718/pictures/preview-3.jpeg"}, {"id": 2194165, "nr": 4, "picture": "https://images.pexels.com/videos/4973718/pictures/preview-4.jpeg"}, {"id": 2194169, "nr": 5, "picture": "https://images.pexels.com/videos/4973718/pictures/preview-5.jpeg"}, {"id": 2194173, "nr": 6, "picture": "https://images.pexels.com/videos/4973718/pictures/preview-6.jpeg"}, {"id": 2194179, "nr": 7, "picture": "https://images.pexels.com/videos/4973718/pictures/preview-7.jpeg"}, {"id": 2194182, "nr": 8, "picture": "https://images.pexels.com/videos/4973718/pictures/preview-8.jpeg"}, {"id": 2194187, "nr": 9, "picture": "https://images.pexels.com/videos/4973718/pictures/preview-9.jpeg"}, {"id": 2194192, "nr": 10, "picture": "https://images.pexels.com/videos/4973718/pictures/preview-10.jpeg"}, {"id": 2194195, "nr": 11, "picture": "https://images.pexels.com/videos/4973718/pictures/preview-11.jpeg"}, {"id": 2194201, "nr": 12, "picture": "https://images.pexels.com/videos/4973718/pictures/preview-12.jpeg"}, {"id": 2194205, "nr": 13, "picture": "https://images.pexels.com/videos/4973718/pictures/preview-13.jpeg"}, {"id": 2194209, "nr": 14, "picture": "https://images.pexels.com/videos/4973718/pictures/preview-14.jpeg"}]}, {"id": 3832273, "width": 2160, "height": 4096, "duration": 7, "full_res": null, "tags": [], "url": "https://www.pexels.com/video/passing-a-hot-drink-of-coffee-to-another-person-3832273/", "image": "https://images.pexels.com/videos/3832273/brick-coffee-to-go-drink-coffee-hand-3832273.jpeg?auto=compress&cs=tinysrgb&fit=crop&h=1200&w=630", "avg_color": null, "user": {"id": 1437723, "name": "cottonbro studio", "url": "https://www.pexels.com/@cottonbro"}, "video_files": [{"id": 9326356, "quality": "uhd", "file_type": "video/mp4", "width": 1440, "height": 2732, "fps": 25.0, "link": "https://videos.pexels.com/video-files/3832273/3832273-uhd_1440_2732_25fps.mp4", "size": 10018017}, {"id": 9326415, "quality": "sd", "file_type": "video/mp4", "width": 506, "height": 960, "fps": 25.0, "link": "https://videos.pexels.com/video-files/3832273/3832273-sd_506_960_25fps.mp4", "size": 1194070}, {"id": 9326491, "quality": "uhd", "file_type": "video/mp4", "width": 2160, "height": 4096, "fps": 25.0, "link": "https://videos.pexels.com/video-files/3832273/3832273-uhd_2160_4096_25fps.mp4", "size": 18689138}, {"id": 9326556, "quality": "hd", "file_type": "video/mp4", "width": 720, "height": 1366, "fps": 50.0, "link": "https://videos.pexels.com/video-files/3832273/3832273-hd_720_1366_50fps.mp4", "size": 2139841}, {"id": 9326681, "quality": "hd", "file_type": "video/mp4", "width": 1080, "height": 2048, "fps": 25.0, "link": "https://videos.pexels.com/video-files/3832273/3832273-hd_1080_2048_25fps.mp4", "size": 4121366}, {"id": 9326776, "quality": "sd", "file_type": "video/mp4", "width": 226, "height": 426, "fps": 25.0, "link": "https://videos.pexels.com/video-files/3832273/3832273-sd_226_426_25fps.mp4", "size": 243286}, {"id": 9326874, "quality": "sd", "file_type": "video/mp4", "width": 338, "height": 640, "fps": 25.0, "link": "https://videos.pexels.com/video-files/3832273/3832273-sd_338_640_25fps.mp4", "size": 402856}], "video_pictures": [{"id": 956714, "nr": 0, "picture": "https://images.pexels.com/videos/3832273/pictures/preview-0.jpeg"}, {"id": 956723, "nr": 1, "picture": "https://images.pexels.com/videos/3832273/pictures/preview-1.jpeg"}, {"id": 956731, "nr": 2, "picture": "https://images.pexels.com/videos/3832273/pictures/preview-2.jpeg"}, {"id": 956741, "nr": 3, "picture": "https://images.pexels.com/videos/3832273/pictures/preview-3.jpeg"}, {"id": 956751, "nr": 4, "picture": "https://images.pexels.com/videos/3832273/pictures/preview-4.jpeg"}, {"id": 956761, "nr": 5, "picture": "https://images.pexels.com/videos/3832273/pictures/preview-5.jpeg"}, {"id": 956772, "nr": 6, "picture": "https://images.pexels.com/videos/3832273/pictures/preview-6.jpeg"}, {"id": 956783, "nr": 7, "picture": "https://images.pexels.com/videos/3832273/pictures/preview-7.jpeg"}, {"id": 956793, "nr": 8, "picture": "https://images.pexels.com/videos/3832273/pictures/preview-8.jpeg"}, {"id": 956800, "nr": 9, "picture": "https://images.pexels.com/videos/3832273/pictures/preview-9.jpeg"}, {"id": 956807, "nr": 10, "picture": "https://images.pexels.com/videos/3832273/pictures/preview-10.jpeg"}, {"id": 956811, "nr": 11, "picture": "https://images.pexels.com/videos/3832273/pictures/preview-11.jpeg"}, {"id": 956813, "nr": 12, "picture": "https://images.pexels.com/videos/3832273/pictures/preview-12.jpeg"}, {"id": 956814, "nr": 13, "picture": "https://images.pexels.com/videos/3832273/pictures/preview-13.jpeg"}, {"id": 956815, "nr": 14, "picture": "https://images.pexels.com/videos/3832273/pictures/preview-14.jpeg"}]}, {"id": 4764769, "width": 2160, "height": 3840, "duration": 11, "full_res": null, "tags": [], "url": "https://www.pexels.com/video/video-of-coffee-on-top-of-book-4764769/", "image": "https://images.pexels.com/videos/4764769/dalgona-coffee-4764769.jpeg?auto=compress&cs=tinysrgb&fit=crop&h=1200&w=630", "avg_color": null, "user": {"id": 2242986, "name": "alleksana", "url": "https://www.pexels.com/@alleksana"}, "video_files": [{"id": 9562146, "quality": "uhd", "file_type": "video/mp4", "width": 2160, "height": 3840, "fps": 30.0, "link": "https://videos.pexels.com/video-files/4764769/4764769-uhd_2160_3840_30fps.mp4", "size": 10933854}, {"id": 9562230, "quality": "sd", "file_type": "video/mp4", "width": 240, "height": 426, "fps": 30.0, "link": "https://videos.pexels.com/video-files/4764769/4764769-sd_240_426_30fps.mp4", "size": 206655}, {"id": 9562264, "quality": "sd", "file_type": "video/mp4", "width": 540, "height": 960, "fps": 30.0, "link": "https://videos.pexels.com/video-files/4764769/4764769-sd_540_960_30fps.mp4", "size": 884381}, {"id": 9562374, "quality": "uhd", "file_type": "video/mp4", "width": 1440, "height": 2560, "fps": 30.0, "link": "https://videos.pexels.com/video-files/4764769/4764769-uhd_1440_2560_30fps.mp4", "size": 5082017}, {"id": 9562471, "quality": "sd", "file_type": "video/mp4", "width": 360, "height": 640, "fps": 30.0, "link": "https://videos.pexels.com/video-files/4764769/4764769-sd_360_640_30fps.mp4", "size": 411853}, {"id": 9562537, "quality": "hd", "file_type": "video/mp4", "width": 1080, "height": 1920, "fps": 30.0, "link": "https://videos.pexels.com/video-files/4764769/4764769-hd_1080_1920_30fps.mp4", "size": 3180990}, {"id": 9562605, "quality": "hd", "file_type": "video/mp4", "width": 720, "height": 1280, "fps": 30.0, "link": "https://videos.pexels.com/video-files/4764769/4764769-hd_720_1280_30fps.mp4", "size": 1261813}], "video_pictures": [{"id": 1912194, "nr": 0, "picture": "https://images.pexels.com/videos/4764769/pictures/preview-0.jpeg"}, {"id": 1912200, "nr": 1, "picture": "https://images.pexels.com/videos/4764769/pictures/preview-1.jpeg"}, {"id": 1912203, "nr": 2, "picture": "https://images.pexels.com/videos/4764769/pictures/preview-2.jpeg"}, {"id": 1912206, "nr": 3, "picture": "https://images.pexels.com/videos/4764769/pictures/preview-3.jpeg"}, {"id": 1912212, "nr": 4, "picture": "https://images.pexels.com/videos/4764769/pictures/preview-4.jpeg"}, {"id": 1912217, "nr": 5, "picture": "https://images.pexels.com/videos/4764769/pictures/preview-5.jpeg"}, {"id": 1912222, "nr": 6, "picture": "https://images.pexels.com/videos/4764769/pictures/preview-6.jpeg"}, {"id": 1912227, "nr": 7, "picture": "https://images.pexels.com/videos/4764769/pictures/preview-7.jpeg"}, {"id": 1912232, "nr": 8, "picture": "https://images.pexels.com/videos/4764769/pictures/preview-8.jpeg"}, {"id": 1912239, "nr": 9, "picture": "https://images.pexels.com/videos/4764769/pictures/preview-9.jpeg"}, {"id": 1912246, "nr": 10, "picture": "https://images.pexels.com/videos/4764769/pictures/preview-10.jpeg"}, {"id": 1912250, "nr": 11, "picture": "https://images.pexels.com/videos/4764769/pictures/preview-11.jpeg"}, {"id": 1912254, "nr": 12, "picture": "https://images.pexels.com/videos/4764769/pictures/preview-12.jpeg"}, {"id": 1912257, "nr": 13, "picture": "https://images.pexels.com/videos/4764769/pictures/preview-13.jpeg"}, {"id": 1912260, "nr": 14, "picture": "https://images.pexels.com/videos/4764769/pictures/preview-14.jpeg"}]}, {"id": 7118100, "width": 2160, "height": 3840, "duration": 11, "full_res": null, "tags": [], "url": "https://www.pexels.com/video/pouring-black-coffee-into-a-cup-7118100/", "image": "https://images.pexels.com/videos/7118100/pexels-photo-7118100.jpeg?auto=compress&cs=tinysrgb&fit=crop&h=1200&w=630", "avg_color": null, "user": {"id": 33201649, "name": "Michael Burrows", "url": "https://www.pexels.com/@michael-burrows"}, "video_files": [{"id": 10308599, "quality": "hd", "file_type": "video/mp4", "width": 1080, "height": 1920, "fps": 25.0, "link": "https://videos.pexels.com/video-files/7118100/7118100-hd_1080_1920_25fps.mp4", "size": 4531652}, {"id": 10308701, "quality": "uhd", "file_type": "video/mp4", "width": 2160, "height": 3840, "fps": 25.0, "link": "https://videos.pexels.com/video-files/7118100/7118100-uhd_2160_3840_25fps.mp4", "size": 19233954}, {"id": 10308941, "quality": "uhd", "file_type": "video/mp4", "width": 1440, "height": 2560, "fps": 25.0, "link": "https://videos.pexels.com/video-files/7118100/7118100-uhd_1440_2560_25fps.mp4", "size": 7691226}, {"id": 10309067, "quality": "sd", "file_type": "video/mp4", "width": 240, "height": 426, "fps": 25.0, "link": "https://videos.pexels.com/video-files/7118100/7118100-sd_240_426_25fps.mp4", "size": 356602}, {"id": 10309179, "quality": "hd", "file_type": "video/mp4", "width": 720, "height": 1280, "fps": 50.0, "link": "https://videos.pexels.com/video-files/7118100/7118100-hd_720_1280_50fps.mp4", "size": 2365829}, {"id": 10309226, "quality": "sd", "file_type": "video/mp4", "width": 540, "height": 960, "fps": 25.0, "link": "https://videos.pexels.com/video-files/7118100/7118100-sd_540_960_25fps.mp4", "size": 1130010}, {"id": 10309318, "quality": "sd", "file_type": "video/mp4", "width": 360, "height": 640, "fps": 25.0, "link": "https://videos.pexels.com/video-files/7118100/7118100-sd_360_640_25fps.mp4", "size": 616647}], "video_pictures": [{"id": 5774992, "nr": 0, "picture": "https://images.pexels.com/videos/7118100/pictures/preview-0.jpeg"}, {"id": 5775009, "nr": 1, "picture": "https://images.pexels.com/videos/7118100/pictures/preview-1.jpeg"}, {"id": 5775030, "nr": 2, "picture": "https://images.pexels.com/videos/7118100/pictures/preview-2.jpeg"}, {"id": 5775055, "nr": 3, "picture": "https://images.pexels.com/videos/7118100/pictures/preview-3.jpeg"}, {"id": 5775082, "nr": 4, "picture": "https://images.pexels.com/videos/7118100/pictures/preview-4.jpeg"}, {"id": 5775134, "nr": 5, "picture": "https://images.pexels.com/videos/7118100/pictures/preview-5.jpeg"}, {"id": 5775152, "nr": 6, "picture": "https://images.pexels.com/videos/7118100/pictures/preview-6.jpeg"}, {"id": 5775182, "nr": 7, "picture": "https://images.pexels.com/videos/7118100/pictures/preview-7.jpeg"}, {"id": 5775208, "nr": 8, "picture": "https://images.pexels.com/videos/7118100/pictures/preview-8.jpeg"}, {"id": 5775234, "nr": 9, "picture": "https://images.pexels.com/videos/7118100/pictures/preview-9.jpeg"}, {"id": 5775264, "nr": 10, "picture": "https://images.pexels.com/videos/7118100/pictures/preview-10.jpeg"}, {"id": 5775282, "nr": 11, "picture": "https://images.pexels.com/videos/7118100/pictures/preview-11.jpeg"}, {"id": 5775313, "nr": 12, "picture": "https://images.pexels.com/videos/7118100/pictures/preview-12.jpeg"}, {"id": 5775341, "nr": 13, "picture": "https://images.pexels.com/videos/7118100/pictures/preview-13.jpeg"}, {"id": 5775371, "nr": 14, "picture": "https://images.pexels.com/videos/7118100/pictures/preview-14.jpeg"}]}, {"id": 4057150, "width": 2160, "height": 4096, "duration": 18, "full_res": null, "tags": [], "url": "https://www.pexels.com/video/woman-coffee-laptop-girl-4057150/", "image": "https://images.pexels.com/videos/4057150/pexels-photo-4057150.jpeg?auto=compress&cs=tinysrgb&fit=crop&h=1200&w=630", "avg_color": null, "user": {"id": 1437723, "name": "cottonbro studio", "url": "https://www.pexels.com/@cottonbro"}, "video_files": [{"id": 9343399, "quality": "uhd", "file_type": "video/mp4", "width": 1440, "height": 2732, "fps": 25.0, "link": "https://videos.pexels.com/video-files/4057150/4057150-uhd_1440_2732_25fps.mp4", "size": 11232291}, {"id": 9343502, "quality": "hd", "file_type": "video/mp4", "width": 1080, "height": 2048, "fps": 25.0, "link": "https://videos.pexels.com/video-files/4057150/4057150-hd_1080_2048_25fps.mp4", "size": 6431657}, {"id": 9343635, "quality": "hd", "file_type": "video/mp4", "width": 720, "height": 1366, "fps": 50.0, "link": "https://videos.pexels.com/video-files/4057150/4057150-hd_720_1366_50fps.mp4", "size": 3631066}, {"id": 9343741, "quality": "uhd", "file_type": "video/mp4", "width": 2160, "height": 4096, "fps": 25.0, "link": "https://videos.pexels.com/video-files/4057150/4057150-uhd_2160_4096_25fps.mp4", "size": 30112758}, {"id": 9343811, "quality": "sd", "file_type": "video/mp4", "width": 338, "height": 640, "fps": 25.0, "link": "https://videos.pexels.com/video-files/4057150/4057150-sd_338_640_25fps.mp4", "size": 1028659}, {"id": 9343934, "quality": "sd", "file_type": "video/mp4", "width": 506, "height": 960, "fps": 25.0, "link": "https://videos.pexels.com/video-files/4057150/4057150-sd_506_960_25fps.mp4", "size": 1878473}, {"id": 9344043, "quality": "sd", "file_type": "video/mp4", "width": 226, "height": 426, "fps": 25.0, "link": "https://videos.pexels.com/video-files/4057150/4057150-sd_226_426_25fps.mp4", "size": 617593}], "video_pictures": [{"id": 1105389, "nr": 0, "picture": "https://images.pexels.com/videos/4057150/pictures/preview-0.jpeg"}, {"id": 1105391, "nr": 1, "picture": "https://images.pexels.com/videos/4057150/pictures/preview-1.jpeg"}, {"id": 1105394, "nr": 2, "picture": "https://images.pexels.com/videos/4057150/pictures/preview-2.jpeg"}, {"id": 1105399, "nr": 3, "picture": "https://images.pexels.com/videos/4057150/pictures/preview-3.jpeg"}, {"id": 1105403, "nr": 4, "picture": "https://images.pexels.com/videos/4057150/pictures/preview-4.jpeg"}, {"id": 1105407, "nr": 5, "picture": "https://images.pexels.com/videos/4057150/pictures/preview-5.jpeg"}, {"id": 1105413, "nr": 6, "picture": "https://images.pexels.com/videos/4057150/pictures/preview-6.jpeg"}, {"id": 1105420, "nr": 7, "picture": "https://images.pexels.com/videos/4057150/pictures/preview-7.jpeg"}, {"id": 1105427, "nr": 8, "picture": "https://images.pexels.com/videos/4057150/pictures/preview-8.jpeg"}, {"id": 1105432, "nr": 9, "picture": "https://images.pexels.com/videos/4057150/pictures/preview-9.jpeg"}, {"id": 1105440, "nr": 10, "picture": "https://images.pexels.com/videos/4057150/pictures/preview-10.jpeg"}, {"id": 1105454, "nr": 11, "picture": "https://images.pexels.com/videos/4057150/pictures/preview-11.jpeg"}, {"id": 1105464, "nr": 12, "picture": "https://images.pexels.com/videos/4057150/pictures/preview-12.jpeg"}, {"id": 1105479, "nr": 13, "picture": "https://images.pexels.com/videos/4057150/pictures/preview-13.jpeg"}, {"id": 1105496, "nr": 14, "picture": "https://images.pexels.com/videos/4057150/pictures/preview-14.jpeg"}]}, {"id": 4057257, "width": 2160, "height": 4096, "duration": 26, "full_res": null, "tags": [], "url": "https://www.pexels.com/video/woman-coffee-apple-iphone-4057257/", "image": "https://images.pexels.com/videos/4057257/pexels-photo-4057257.jpeg?auto=compress&cs=tinysrgb&fit=crop&h=1200&w=630", "avg_color": null, "user": {"id": 1437723, "name": "cottonbro studio", "url": "https://www.pexels.com/@cottonbro"}, "video_files": [{"id": 9343145, "quality": "uhd", "file_type": "video/mp4", "width": 2160, "height": 4096, "fps": 25.0, "link": "https://videos.pexels.com/video-files/4057257/4057257-uhd_2160_4096_25fps.mp4", "size": 37462255}, {"id": 9343238, "quality": "hd", "file_type": "video/mp4", "width": 1080, "height": 2048, "fps": 25.0, "link": "https://videos.pexels.com/video-files/4057257/4057257-hd_1080_2048_25fps.mp4", "size": 7887761}, {"id": 9343384, "quality": "sd", "file_type": "video/mp4", "width": 226, "height": 426, "fps": 25.0, "link": "https://videos.pexels.com/video-files/4057257/4057257-sd_226_426_25fps.mp4", "size": 772744}, {"id": 9343521, "quality": "uhd", "file_type": "video/mp4", "width": 1440, "height": 2732, "fps": 25.0, "link": "https://videos.pexels.com/video-files/4057257/4057257-uhd_1440_2732_25fps.mp4", "size": 13630456}, {"id": 9343576, "quality": "sd", "file_type": "video/mp4", "width": 338, "height": 640, "fps": 25.0, "link": "https://videos.pexels.com/video-files/4057257/4057257-sd_338_640_25fps.mp4", "size": 1279328}, {"id": 9343756, "quality": "sd", "file_type": "video/mp4", "width": 506, "height": 960, "fps": 25.0, "link": "https://videos.pexels.com/video-files/4057257/4057257-sd_506_960_25fps.mp4", "size": 2226093}, {"id": 9343910, "quality": "hd", "file_type": "video/mp4", "width": 720, "height": 1366, "fps": 50.0, "link": "https://videos.pexels.com/video-files/4057257/4057257-hd_720_1366_50fps.mp4", "size": 4289732}], "video_pictures": [{"id": 1105603, "nr": 0, "picture": "https://images.pexels.com/videos/4057257/pictures/preview-0.jpeg"}, {"id": 1105607, "nr": 1, "picture": "https://images.pexels.com/videos/4057257/pictures/preview-1.jpeg"}, {"id": 1105612, "nr": 2, "picture": "https://images.pexels.com/videos/4057257/pictures/preview-2.jpeg"}, {"id": 1105617, "nr": 3, "picture": "https://images.pexels.com/videos/4057257/pictures/preview-3.jpeg"}, {"id": 1105622, "nr": 4, "picture": "https://images.pexels.com/videos/4057257/pictures/preview-4.jpeg"}, {"id": 1105628, "nr": 5, "picture": "https://images.pexels.com/videos/4057257/pictures/preview-5.jpeg"}, {"id": 1105635, "nr": 6, "picture": "https://images.pexels.com/videos/4057257/pictures/preview-6.jpeg"}, {"id": 1105642, "nr": 7, "picture": "https://images.pexels.com/videos/4057257/pictures/preview-7.jpeg"}, {"id": 1105649, "nr": 8, "picture": "https://images.pexels.com/videos/4057257/pictures/preview-8.jpeg"}, {"id": 1105658, "nr": 9, "picture": "https://images.pexels.com/videos/4057257/pictures/preview-9.jpeg"}, {"id": 1105668, "nr": 10, "picture": "https://images.pexels.com/videos/4057257/pictures/preview-10.jpeg"}, {"id": 1105675, "nr": 11, "picture": "https://images.pexels.com/videos/4057257/pictures/preview-11.jpeg"}, {"id": 1105683, "nr": 12, "picture": "https://images.pexels.com/videos/4057257/pictures/preview-12.jpeg"}, {"id": 1105697, "nr": 13, "picture": "https://images.pexels.com/videos/4057257/pictures/preview-13.jpeg"}, {"id": 1105702, "nr": 14, "picture": "https://images.pexels.com/videos/4057257/pictures/preview-14.jpeg"}]}, {"id": 5430707, "width": 1080, "height": 1920, "duration": 10, "full_res": null, "tags": [], "url": "https://www.pexels.com/video/adding-milk-to-a-cup-of-coffee-5430707/", "image": "https://images.pexels.com/videos/5430707/pexels-photo-5430707.jpeg?auto=compress&cs=tinysrgb&fit=crop&h=1200&w=630", "avg_color": null, "user": {"id": 3511482, "name": "Polina \u2800", "url": "https://www.pexels.com/@polina-kovaleva"}, "video_files": [{"id": 9699407, "quality": "hd", "file_type": "video/mp4", "width": 720, "height": 1280, "fps": 50.0, "link": "https://videos.pexels.com/video-files/5430707/5430707-hd_720_1280_50fps.mp4", "size": 2051003}, {"id": 9699492, "quality": "hd", "file_type": "video/mp4", "width": 1080, "height": 1920, "fps": 25.0, "link": "https://videos.pexels.com/video-files/5430707/5430707-hd_1080_1920_25fps.mp4", "size": 5150550}, {"id": 9699672, "quality": "sd", "file_type": "video/mp4", "width": 540, "height": 960, "fps": 25.0, "link": "https://videos.pexels.com/video-files/5430707/5430707-sd_540_960_25fps.mp4", "size": 1055031}, {"id": 9700035, "quality": "sd", "file_type": "video/mp4", "width": 240, "height": 426, "fps": 25.0, "link": "https://videos.pexels.com/video-files/5430707/5430707-sd_240_426_25fps.mp4", "size": 235303}, {"id": 9700234, "quality": "sd", "file_type": "video/mp4", "width": 360, "height": 640, "fps": 25.0, "link": "https://videos.pexels.com/video-files/5430707/5430707-sd_360_640_25fps.mp4", "size": 433902}], "video_pictures": [{"id": 2819701, "nr": 0, "picture": "https://images.pexels.com/videos/5430707/pictures/preview-0.jpeg"}, {"id": 2819719, "nr": 1, "picture": "https://images.pexels.com/videos/5430707/pictures/preview-1.jpeg"}, {"id": 2819729, "nr": 2, "picture": "https://images.pexels.com/videos/5430707/pictures/preview-2.jpeg"}, {"id": 2819740, "nr": 3, "picture": "https://images.pexels.com/videos/5430707/pictures/preview-3.jpeg"}, {"id": 2819750, "nr": 4, "picture": "https://images.pexels.com/videos/5430707/pictures/preview-4.jpeg"}, {"id": 2819758, "nr": 5, "picture": "https://images.pexels.com/videos/5430707/pictures/preview-5.jpeg"}, {"id": 2819767, "nr": 6, "picture": "https://images.pexels.com/videos/5430707/pictures/preview-6.jpeg"}, {"id": 2819775, "nr": 7, "picture": "https://images.pexels.com/videos/5430707/pictures/preview-7.jpeg"}, {"id": 2819782, "nr": 8, "picture": "https://images.pexels.com/videos/5430707/pictures/preview-8.jpeg"}, {"id": 2819791, "nr": 9, "picture": "https://images.pexels.com/videos/5430707/pictures/preview-9.jpeg"}, {"id": 2819800, "nr": 10, "picture": "https://images.pexels.com/videos/5430707/pictures/preview-10.jpeg"}, {"id": 2819812, "nr": 11, "picture": "https://images.pexels.com/videos/5430707/pictures/preview-11.jpeg"}, {"id": 2819821, "nr": 12, "picture": "https://images.pexels.com/videos/5430707/pictures/preview-12.jpeg"}, {"id": 2819831, "nr": 13, "picture": "https://images.pexels.com/videos/5430707/pictures/preview-13.jpeg"}, {"id": 2819839, "nr": 14, "picture": "https://images.pexels.com/videos/5430707/pictures/preview-14.jpeg"}]}, {"id": 8106308, "width": 1080, "height": 1920, "duration": 9, "full_res": null, "tags": [], "url": "https://www.pexels.com/video/breakfast-flat-lay-8106308/", "image": "https://images.pexels.com/videos/8106308/baking-bread-breakfast-breakfast-flatlay-8106308.jpeg?auto=compress&cs=tinysrgb&fit=crop&h=1200&w=630", "avg_color": null, "user": {"id": 42373327, "name": "solod_sha", "url": "https://www.pexels.com/@solodsha"}, "video_files": [{"id": 10698193, "quality": "sd", "file_type": "video/mp4", "width": 540, "height": 960, "fps": 30.0, "link": "https://videos.pexels.com/video-files/8106308/8106308-sd_540_960_30fps.mp4", "size": 1581153}, {"id": 10698257, "quality": "hd", "file_type": "video/mp4", "width": 1080, "height": 1920, "fps": 30.0, "link": "https://videos.pexels.com/video-files/8106308/8106308-hd_1080_1920_30fps.mp4", "size": 5511594}, {"id": 10698307, "quality": "sd", "file_type": "video/mp4", "width": 240, "height": 426, "fps": 30.0, "link": "https://videos.pexels.com/video-files/8106308/8106308-sd_240_426_30fps.mp4", "size": 359580}, {"id": 10698363, "quality": "sd", "file_type": "video/mp4", "width": 360, "height": 640, "fps": 30.0, "link": "https://videos.pexels.com/video-files/8106308/8106308-sd_360_640_30fps.mp4", "size": 526361}, {"id": 10698391, "quality": "hd", "file_type": "video/mp4", "width": 720, "height": 1280, "fps": 30.0, "link": "https://videos.pexels.com/video-files/8106308/8106308-hd_720_1280_30fps.mp4", "size": 2636046}], "video_pictures": [{"id": 7627113, "nr": 0, "picture": "https://images.pexels.com/videos/8106308/pictures/preview-0.jpeg"}, {"id": 7627119, "nr": 1, "picture": "https://images.pexels.com/videos/8106308/pictures/preview-1.jpeg"}, {"id": 7627122, "nr": 2, "picture": "https://images.pexels.com/videos/8106308/pictures/preview-2.jpeg"}, {"id": 7627126, "nr": 3, "picture": "https://images.pexels.com/videos/8106308/pictures/preview-3.jpeg"}, {"id": 7627129, "nr": 4, "picture": "https://images.pexels.com/videos/8106308/pictures/preview-4.jpeg"}, {"id": 7627131, "nr": 5, "picture": "https://images.pexels.com/videos/8106308/pictures/preview-5.jpeg"}, {"id": 7627132, "nr": 6, "picture": "https://images.pexels.com/videos/8106308/pictures/preview-6.jpeg"}, {"id": 7627134, "nr": 7, "picture": "https://images.pexels.com/videos/8106308/pictures/preview-7.jpeg"}, {"id": 7627136, "nr": 8, "picture": "https://images.pexels.com/videos/8106308/pictures/preview-8.jpeg"}, {"id": 7627137, "nr": 9, "picture": "https://images.pexels.com/videos/8106308/pictures/preview-9.jpeg"}, {"id": 7627140, "nr": 10, "picture": "https://images.pexels.com/videos/8106308/pictures/preview-10.jpeg"}, {"id": 7627141, "nr": 11, "picture": "https://images.pexels.com/videos/8106308/pictures/preview-11.jpeg"}, {"id": 7627143, "nr": 12, "picture": "https://images.pexels.com/videos/8106308/pictures/preview-12.jpeg"}, {"id": 7627145, "nr": 13, "picture": "https://images.pexels.com/videos/8106308/pictures/preview-13.jpeg"}, {"id": 7627146, "nr": 14, "picture": "https://images.pexels.com/videos/8106308/pictures/preview-14.jpeg"}]}], "total_results": 5974, "next_page": "https://api.pexels.com/v1/videos/search?orientation=portrait&page=2&per_page=8&query=coffee+cup", "url": "https://api-server.pexels.com/search/videos/coffee%20cup/"}, "timestamp": "2025-01-24T18:07:41.966058"}
