{"query": "giant pumpkin", "response": {"page": 1, "per_page": 8, "videos": [{"id": 9969035, "width": 1152, "height": 2048, "duration": 15, "full_res": null, "tags": [], "url": "https://www.pexels.com/video/person-lighting-candle-with-matchstick-9969035/", "image": "https://images.pexels.com/videos/9969035/pexels-photo-9969035.jpeg?auto=compress&cs=tinysrgb&fit=crop&h=1200&w=630", "avg_color": null, "user": {"id": 2278756, "name": "Vlada Karpovich", "url": "https://www.pexels.com/@vlada-karpovich"}, "video_files": [{"id": 11195542, "quality": "sd", "file_type": "video/mp4", "width": 540, "height": 960, "fps": 25.0, "link": "https://videos.pexels.com/video-files/9969035/9969035-sd_540_960_25fps.mp4", "size": 1663116}, {"id": 11195635, "quality": "hd", "file_type": "video/mp4", "width": 1080, "height": 1920, "fps": 25.0, "link": "https://videos.pexels.com/video-files/9969035/9969035-hd_1080_1920_25fps.mp4", "size": 4478327}, {"id": 11195728, "quality": "hd", "file_type": "video/mp4", "width": 720, "height": 1280, "fps": 25.0, "link": "https://videos.pexels.com/video-files/9969035/9969035-hd_720_1280_25fps.mp4", "size": 2316472}, {"id": 11195942, "quality": "sd", "file_type": "video/mp4", "width": 360, "height": 640, "fps": 25.0, "link": "https://videos.pexels.com/video-files/9969035/9969035-sd_360_640_25fps.mp4", "size": 857765}], "video_pictures": [{"id": 10412240, "nr": 0, "picture": "https://images.pexels.com/videos/9969035/pictures/preview-0.jpeg"}, {"id": 10412246, "nr": 1, "picture": "https://images.pexels.com/videos/9969035/pictures/preview-1.jpeg"}, {"id": 10412250, "nr": 2, "picture": "https://images.pexels.com/videos/9969035/pictures/preview-2.jpeg"}, {"id": 10412255, "nr": 3, "picture": "https://images.pexels.com/videos/9969035/pictures/preview-3.jpeg"}, {"id": 10412262, "nr": 4, "picture": "https://images.pexels.com/videos/9969035/pictures/preview-4.jpeg"}, {"id": 10412270, "nr": 5, "picture": "https://images.pexels.com/videos/9969035/pictures/preview-5.jpeg"}, {"id": 10412276, "nr": 6, "picture": "https://images.pexels.com/videos/9969035/pictures/preview-6.jpeg"}, {"id": 10412287, "nr": 7, "picture": "https://images.pexels.com/videos/9969035/pictures/preview-7.jpeg"}, {"id": 10412294, "nr": 8, "picture": "https://images.pexels.com/videos/9969035/pictures/preview-8.jpeg"}, {"id": 10412302, "nr": 9, "picture": "https://images.pexels.com/videos/9969035/pictures/preview-9.jpeg"}, {"id": 10412314, "nr": 10, "picture": "https://images.pexels.com/videos/9969035/pictures/preview-10.jpeg"}, {"id": 10412323, "nr": 11, "picture": "https://images.pexels.com/videos/9969035/pictures/preview-11.jpeg"}, {"id": 10412332, "nr": 12, "picture": "https://images.pexels.com/videos/9969035/pictures/preview-12.jpeg"}, {"id": 10412342, "nr": 13, "picture": "https://images.pexels.com/videos/9969035/pictures/preview-13.jpeg"}, {"id": 10412354, "nr": 14, "picture": "https://images.pexels.com/videos/9969035/pictures/preview-14.jpeg"}]}, {"id": 9968975, "width": 1152, "height": 2048, "duration": 7, "full_res": null, "tags": [], "url": "https://www.pexels.com/video/eyeglasses-beside-a-cup-and-a-saucer-9968975/", "image": "https://images.pexels.com/videos/9968975/pexels-photo-9968975.jpeg?auto=compress&cs=tinysrgb&fit=crop&h=1200&w=630", "avg_color": null, "user": {"id": 2278756, "name": "Vlada Karpovich", "url": "https://www.pexels.com/@vlada-karpovich"}, "video_files": [{"id": 11194978, "quality": "sd", "file_type": "video/mp4", "width": 540, "height": 960, "fps": 25.0, "link": "https://videos.pexels.com/video-files/9968975/9968975-sd_540_960_25fps.mp4", "size": 1484646}, {"id": 11194994, "quality": "hd", "file_type": "video/mp4", "width": 1080, "height": 1920, "fps": 25.0, "link": "https://videos.pexels.com/video-files/9968975/9968975-hd_1080_1920_25fps.mp4", "size": 4492415}, {"id": 11195007, "quality": "sd", "file_type": "video/mp4", "width": 360, "height": 640, "fps": 25.0, "link": "https://videos.pexels.com/video-files/9968975/9968975-sd_360_640_25fps.mp4", "size": 526084}, {"id": 11195022, "quality": "hd", "file_type": "video/mp4", "width": 720, "height": 1280, "fps": 25.0, "link": "https://videos.pexels.com/video-files/9968975/9968975-hd_720_1280_25fps.mp4", "size": 2412266}], "video_pictures": [{"id": 10412166, "nr": 0, "picture": "https://images.pexels.com/videos/9968975/pictures/preview-0.jpeg"}, {"id": 10412170, "nr": 1, "picture": "https://images.pexels.com/videos/9968975/pictures/preview-1.jpeg"}, {"id": 10412172, "nr": 2, "picture": "https://images.pexels.com/videos/9968975/pictures/preview-2.jpeg"}, {"id": 10412177, "nr": 3, "picture": "https://images.pexels.com/videos/9968975/pictures/preview-3.jpeg"}, {"id": 10412182, "nr": 4, "picture": "https://images.pexels.com/videos/9968975/pictures/preview-4.jpeg"}, {"id": 10412184, "nr": 5, "picture": "https://images.pexels.com/videos/9968975/pictures/preview-5.jpeg"}, {"id": 10412192, "nr": 6, "picture": "https://images.pexels.com/videos/9968975/pictures/preview-6.jpeg"}, {"id": 10412193, "nr": 7, "picture": "https://images.pexels.com/videos/9968975/pictures/preview-7.jpeg"}, {"id": 10412199, "nr": 8, "picture": "https://images.pexels.com/videos/9968975/pictures/preview-8.jpeg"}, {"id": 10412204, "nr": 9, "picture": "https://images.pexels.com/videos/9968975/pictures/preview-9.jpeg"}, {"id": 10412208, "nr": 10, "picture": "https://images.pexels.com/videos/9968975/pictures/preview-10.jpeg"}, {"id": 10412211, "nr": 11, "picture": "https://images.pexels.com/videos/9968975/pictures/preview-11.jpeg"}, {"id": 10412215, "nr": 12, "picture": "https://images.pexels.com/videos/9968975/pictures/preview-12.jpeg"}, {"id": 10412220, "nr": 13, "picture": "https://images.pexels.com/videos/9968975/pictures/preview-13.jpeg"}, {"id": 10412226, "nr": 14, "picture": "https://images.pexels.com/videos/9968975/pictures/preview-14.jpeg"}]}, {"id": 19132443, "width": 1080, "height": 2046, "duration": 8, "full_res": null, "tags": [], "url": "https://www.pexels.com/video/pumpkin-candle-and-candle-holder-on-white-cloth-19132443/", "image": "https://images.pexels.com/videos/19132443/pexels-photo-19132443.jpeg?auto=compress&cs=tinysrgb&fit=crop&h=1200&w=630", "avg_color": null, "user": {"id": 279977530, "name": "Beyzaa Yurtkuran", "url": "https://www.pexels.com/@beyzaa-yurtkuran-279977530"}, "video_files": [{"id": 8237743, "quality": "sd", "file_type": "video/mp4", "width": 506, "height": 960, "fps": 30.0, "link": "https://videos.pexels.com/video-files/19132443/19132443-sd_506_960_30fps.mp4", "size": 920347}, {"id": 8237744, "quality": "sd", "file_type": "video/mp4", "width": 224, "height": 426, "fps": 30.0, "link": "https://videos.pexels.com/video-files/19132443/19132443-sd_224_426_30fps.mp4", "size": 401035}, {"id": 8237745, "quality": "sd", "file_type": "video/mp4", "width": 338, "height": 640, "fps": 30.0, "link": "https://videos.pexels.com/video-files/19132443/19132443-sd_338_640_30fps.mp4", "size": 584845}, {"id": 8237746, "quality": "hd", "file_type": "video/mp4", "width": 720, "height": 1364, "fps": 30.0, "link": "https://videos.pexels.com/video-files/19132443/19132443-hd_720_1364_30fps.mp4", "size": 1579332}, {"id": 8237747, "quality": "hd", "file_type": "video/mp4", "width": 1080, "height": 2046, "fps": 30.0, "link": "https://videos.pexels.com/video-files/19132443/19132443-hd_1080_2046_30fps.mp4", "size": 4103932}], "video_pictures": [{"id": 19940215, "nr": 0, "picture": "https://images.pexels.com/videos/19132443/pictures/preview-0.jpeg"}, {"id": 19940217, "nr": 1, "picture": "https://images.pexels.com/videos/19132443/pictures/preview-1.jpeg"}, {"id": 19940219, "nr": 2, "picture": "https://images.pexels.com/videos/19132443/pictures/preview-2.jpeg"}, {"id": 19940223, "nr": 3, "picture": "https://images.pexels.com/videos/19132443/pictures/preview-3.jpeg"}, {"id": 19940226, "nr": 4, "picture": "https://images.pexels.com/videos/19132443/pictures/preview-4.jpeg"}, {"id": 19940229, "nr": 5, "picture": "https://images.pexels.com/videos/19132443/pictures/preview-5.jpeg"}, {"id": 19940231, "nr": 6, "picture": "https://images.pexels.com/videos/19132443/pictures/preview-6.jpeg"}, {"id": 19940234, "nr": 7, "picture": "https://images.pexels.com/videos/19132443/pictures/preview-7.jpeg"}, {"id": 19940236, "nr": 8, "picture": "https://images.pexels.com/videos/19132443/pictures/preview-8.jpeg"}, {"id": 19940238, "nr": 9, "picture": "https://images.pexels.com/videos/19132443/pictures/preview-9.jpeg"}, {"id": 19940241, "nr": 10, "picture": "https://images.pexels.com/videos/19132443/pictures/preview-10.jpeg"}, {"id": 19940243, "nr": 11, "picture": "https://images.pexels.com/videos/19132443/pictures/preview-11.jpeg"}, {"id": 19940245, "nr": 12, "picture": "https://images.pexels.com/videos/19132443/pictures/preview-12.jpeg"}, {"id": 19940247, "nr": 13, "picture": "https://images.pexels.com/videos/19132443/pictures/preview-13.jpeg"}, {"id": 19940248, "nr": 14, "picture": "https://images.pexels.com/videos/19132443/pictures/preview-14.jpeg"}]}, {"id": 5491915, "width": 1080, "height": 1920, "duration": 15, "full_res": null, "tags": [], "url": "https://www.pexels.com/video/a-lighted-candle-blown-out-near-a-carved-pumpkin-5491915/", "image": "https://images.pexels.com/videos/5491915/pexels-photo-5491915.jpeg?auto=compress&cs=tinysrgb&fit=crop&h=1200&w=630", "avg_color": null, "user": {"id": 2638647, "name": "olia danilevich", "url": "https://www.pexels.com/@olia-danilevich"}, "video_files": [{"id": 9714354, "quality": "sd", "file_type": "video/mp4", "width": 360, "height": 640, "fps": 25.0, "link": "https://videos.pexels.com/video-files/5491915/5491915-sd_360_640_25fps.mp4", "size": 783399}, {"id": 9714389, "quality": "sd", "file_type": "video/mp4", "width": 240, "height": 426, "fps": 25.0, "link": "https://videos.pexels.com/video-files/5491915/5491915-sd_240_426_25fps.mp4", "size": 344984}, {"id": 9714418, "quality": "hd", "file_type": "video/mp4", "width": 720, "height": 1280, "fps": 25.0, "link": "https://videos.pexels.com/video-files/5491915/5491915-hd_720_1280_25fps.mp4", "size": 2551650}, {"id": 9714458, "quality": "sd", "file_type": "video/mp4", "width": 540, "height": 960, "fps": 25.0, "link": "https://videos.pexels.com/video-files/5491915/5491915-sd_540_960_25fps.mp4", "size": 1674358}, {"id": 9714497, "quality": "hd", "file_type": "video/mp4", "width": 1080, "height": 1920, "fps": 25.0, "link": "https://videos.pexels.com/video-files/5491915/5491915-hd_1080_1920_25fps.mp4", "size": 7443038}], "video_pictures": [{"id": 2902264, "nr": 0, "picture": "https://images.pexels.com/videos/5491915/pictures/preview-0.jpeg"}, {"id": 2902265, "nr": 1, "picture": "https://images.pexels.com/videos/5491915/pictures/preview-1.jpeg"}, {"id": 2902266, "nr": 2, "picture": "https://images.pexels.com/videos/5491915/pictures/preview-2.jpeg"}, {"id": 2902267, "nr": 3, "picture": "https://images.pexels.com/videos/5491915/pictures/preview-3.jpeg"}, {"id": 2902268, "nr": 4, "picture": "https://images.pexels.com/videos/5491915/pictures/preview-4.jpeg"}, {"id": 2902269, "nr": 5, "picture": "https://images.pexels.com/videos/5491915/pictures/preview-5.jpeg"}, {"id": 2902270, "nr": 6, "picture": "https://images.pexels.com/videos/5491915/pictures/preview-6.jpeg"}, {"id": 2902271, "nr": 7, "picture": "https://images.pexels.com/videos/5491915/pictures/preview-7.jpeg"}, {"id": 2902272, "nr": 8, "picture": "https://images.pexels.com/videos/5491915/pictures/preview-8.jpeg"}, {"id": 2902273, "nr": 9, "picture": "https://images.pexels.com/videos/5491915/pictures/preview-9.jpeg"}, {"id": 2902274, "nr": 10, "picture": "https://images.pexels.com/videos/5491915/pictures/preview-10.jpeg"}, {"id": 2902275, "nr": 11, "picture": "https://images.pexels.com/videos/5491915/pictures/preview-11.jpeg"}, {"id": 2902276, "nr": 12, "picture": "https://images.pexels.com/videos/5491915/pictures/preview-12.jpeg"}, {"id": 2902277, "nr": 13, "picture": "https://images.pexels.com/videos/5491915/pictures/preview-13.jpeg"}, {"id": 2902278, "nr": 14, "picture": "https://images.pexels.com/videos/5491915/pictures/preview-14.jpeg"}]}, {"id": 5848514, "width": 1080, "height": 1920, "duration": 9, "full_res": null, "tags": [], "url": "https://www.pexels.com/video/table-setting-setting-for-the-thanksgiving-dinner-5848514/", "image": "https://images.pexels.com/videos/5848514/pexels-photo-5848514.jpeg?auto=compress&cs=tinysrgb&fit=crop&h=1200&w=630", "avg_color": null, "user": {"id": 3149039, "name": "RDNE Stock project", "url": "https://www.pexels.com/@rdne"}, "video_files": [{"id": 9820303, "quality": "sd", "file_type": "video/mp4", "width": 240, "height": 426, "fps": 23.97599983215332, "link": "https://videos.pexels.com/video-files/5848514/5848514-sd_240_426_24fps.mp4", "size": 334942}, {"id": 9820382, "quality": "sd", "file_type": "video/mp4", "width": 360, "height": 640, "fps": 23.97599983215332, "link": "https://videos.pexels.com/video-files/5848514/5848514-sd_360_640_24fps.mp4", "size": 543718}, {"id": 9820402, "quality": "hd", "file_type": "video/mp4", "width": 720, "height": 1280, "fps": 23.97599983215332, "link": "https://videos.pexels.com/video-files/5848514/5848514-hd_720_1280_24fps.mp4", "size": 2814364}, {"id": 9820444, "quality": "hd", "file_type": "video/mp4", "width": 1080, "height": 1920, "fps": 23.97599983215332, "link": "https://videos.pexels.com/video-files/5848514/5848514-hd_1080_1920_24fps.mp4", "size": 5564201}, {"id": 9820503, "quality": "sd", "file_type": "video/mp4", "width": 540, "height": 960, "fps": 23.97599983215332, "link": "https://videos.pexels.com/video-files/5848514/5848514-sd_540_960_24fps.mp4", "size": 1609822}], "video_pictures": [{"id": 3460888, "nr": 0, "picture": "https://images.pexels.com/videos/5848514/pictures/preview-0.jpeg"}, {"id": 3460894, "nr": 1, "picture": "https://images.pexels.com/videos/5848514/pictures/preview-1.jpeg"}, {"id": 3460901, "nr": 2, "picture": "https://images.pexels.com/videos/5848514/pictures/preview-2.jpeg"}, {"id": 3460906, "nr": 3, "picture": "https://images.pexels.com/videos/5848514/pictures/preview-3.jpeg"}, {"id": 3460910, "nr": 4, "picture": "https://images.pexels.com/videos/5848514/pictures/preview-4.jpeg"}, {"id": 3460914, "nr": 5, "picture": "https://images.pexels.com/videos/5848514/pictures/preview-5.jpeg"}, {"id": 3460919, "nr": 6, "picture": "https://images.pexels.com/videos/5848514/pictures/preview-6.jpeg"}, {"id": 3460924, "nr": 7, "picture": "https://images.pexels.com/videos/5848514/pictures/preview-7.jpeg"}, {"id": 3460930, "nr": 8, "picture": "https://images.pexels.com/videos/5848514/pictures/preview-8.jpeg"}, {"id": 3460936, "nr": 9, "picture": "https://images.pexels.com/videos/5848514/pictures/preview-9.jpeg"}, {"id": 3460939, "nr": 10, "picture": "https://images.pexels.com/videos/5848514/pictures/preview-10.jpeg"}, {"id": 3460948, "nr": 11, "picture": "https://images.pexels.com/videos/5848514/pictures/preview-11.jpeg"}, {"id": 3460955, "nr": 12, "picture": "https://images.pexels.com/videos/5848514/pictures/preview-12.jpeg"}, {"id": 3460962, "nr": 13, "picture": "https://images.pexels.com/videos/5848514/pictures/preview-13.jpeg"}, {"id": 3460973, "nr": 14, "picture": "https://images.pexels.com/videos/5848514/pictures/preview-14.jpeg"}]}, {"id": 3139876, "width": 1080, "height": 1920, "duration": 7, "full_res": null, "tags": [], "url": "https://www.pexels.com/video/a-lighted-jack-o-lantern-on-display-at-hallowween-3139876/", "image": "https://images.pexels.com/videos/3139876/free-video-3139876.jpg?auto=compress&cs=tinysrgb&fit=crop&h=1200&w=630", "avg_color": null, "user": {"id": 177895, "name": "Matheus Bertelli", "url": "https://www.pexels.com/@bertellifotografia"}, "video_files": [{"id": 9301006, "quality": "hd", "file_type": "video/mp4", "width": 720, "height": 1280, "fps": 29.969999313354492, "link": "https://videos.pexels.com/video-files/3139876/3139876-hd_720_1280_30fps.mp4", "size": 2384491}, {"id": 9301068, "quality": "sd", "file_type": "video/mp4", "width": 360, "height": 640, "fps": 29.969999313354492, "link": "https://videos.pexels.com/video-files/3139876/3139876-sd_360_640_30fps.mp4", "size": 401829}, {"id": 9301127, "quality": "sd", "file_type": "video/mp4", "width": 540, "height": 960, "fps": 29.969999313354492, "link": "https://videos.pexels.com/video-files/3139876/3139876-sd_540_960_30fps.mp4", "size": 1232386}, {"id": 9301191, "quality": "sd", "file_type": "video/mp4", "width": 240, "height": 426, "fps": 29.969999313354492, "link": "https://videos.pexels.com/video-files/3139876/3139876-sd_240_426_30fps.mp4", "size": 244152}, {"id": 9301254, "quality": "hd", "file_type": "video/mp4", "width": 1080, "height": 1920, "fps": 29.969999313354492, "link": "https://videos.pexels.com/video-files/3139876/3139876-hd_1080_1920_30fps.mp4", "size": 4417267}], "video_pictures": [{"id": 542791, "nr": 0, "picture": "https://images.pexels.com/videos/3139876/pictures/preview-0.jpeg"}, {"id": 542796, "nr": 1, "picture": "https://images.pexels.com/videos/3139876/pictures/preview-1.jpeg"}, {"id": 542803, "nr": 2, "picture": "https://images.pexels.com/videos/3139876/pictures/preview-2.jpeg"}, {"id": 542810, "nr": 3, "picture": "https://images.pexels.com/videos/3139876/pictures/preview-3.jpeg"}, {"id": 542818, "nr": 4, "picture": "https://images.pexels.com/videos/3139876/pictures/preview-4.jpeg"}, {"id": 542824, "nr": 5, "picture": "https://images.pexels.com/videos/3139876/pictures/preview-5.jpeg"}, {"id": 542831, "nr": 6, "picture": "https://images.pexels.com/videos/3139876/pictures/preview-6.jpeg"}, {"id": 542840, "nr": 7, "picture": "https://images.pexels.com/videos/3139876/pictures/preview-7.jpeg"}, {"id": 542848, "nr": 8, "picture": "https://images.pexels.com/videos/3139876/pictures/preview-8.jpeg"}, {"id": 542854, "nr": 9, "picture": "https://images.pexels.com/videos/3139876/pictures/preview-9.jpeg"}, {"id": 542860, "nr": 10, "picture": "https://images.pexels.com/videos/3139876/pictures/preview-10.jpeg"}, {"id": 542866, "nr": 11, "picture": "https://images.pexels.com/videos/3139876/pictures/preview-11.jpeg"}, {"id": 542873, "nr": 12, "picture": "https://images.pexels.com/videos/3139876/pictures/preview-12.jpeg"}, {"id": 542882, "nr": 13, "picture": "https://images.pexels.com/videos/3139876/pictures/preview-13.jpeg"}, {"id": 542889, "nr": 14, "picture": "https://images.pexels.com/videos/3139876/pictures/preview-14.jpeg"}]}, {"id": 5678950, "width": 2160, "height": 4096, "duration": 11, "full_res": null, "tags": [], "url": "https://www.pexels.com/video/people-putting-mugs-on-the-table-5678950/", "image": "https://images.pexels.com/videos/5678950/pexels-photo-5678950.jpeg?auto=compress&cs=tinysrgb&fit=crop&h=1200&w=630", "avg_color": null, "user": {"id": 3372733, "name": "Monstera Production", "url": "https://www.pexels.com/@gabby-k"}, "video_files": [{"id": 9766891, "quality": "uhd", "file_type": "video/mp4", "width": 2160, "height": 4096, "fps": 30.0, "link": "https://videos.pexels.com/video-files/5678950/5678950-uhd_2160_4096_30fps.mp4", "size": 11948794}, {"id": 9766943, "quality": "sd", "file_type": "video/mp4", "width": 506, "height": 960, "fps": 30.0, "link": "https://videos.pexels.com/video-files/5678950/5678950-sd_506_960_30fps.mp4", "size": 571882}, {"id": 9766995, "quality": "sd", "file_type": "video/mp4", "width": 338, "height": 640, "fps": 30.0, "link": "https://videos.pexels.com/video-files/5678950/5678950-sd_338_640_30fps.mp4", "size": 304851}, {"id": 9767080, "quality": "hd", "file_type": "video/mp4", "width": 1080, "height": 2048, "fps": 30.0, "link": "https://videos.pexels.com/video-files/5678950/5678950-hd_1080_2048_30fps.mp4", "size": 2305888}, {"id": 9767169, "quality": "hd", "file_type": "video/mp4", "width": 720, "height": 1366, "fps": 30.0, "link": "https://videos.pexels.com/video-files/5678950/5678950-hd_720_1366_30fps.mp4", "size": 1011805}, {"id": 9767214, "quality": "sd", "file_type": "video/mp4", "width": 226, "height": 426, "fps": 30.0, "link": "https://videos.pexels.com/video-files/5678950/5678950-sd_226_426_30fps.mp4", "size": 180629}, {"id": 9767260, "quality": "uhd", "file_type": "video/mp4", "width": 1440, "height": 2732, "fps": 30.0, "link": "https://videos.pexels.com/video-files/5678950/5678950-uhd_1440_2732_30fps.mp4", "size": 4084739}], "video_pictures": [{"id": 3185755, "nr": 0, "picture": "https://images.pexels.com/videos/5678950/pictures/preview-0.jpeg"}, {"id": 3185761, "nr": 1, "picture": "https://images.pexels.com/videos/5678950/pictures/preview-1.jpeg"}, {"id": 3185766, "nr": 2, "picture": "https://images.pexels.com/videos/5678950/pictures/preview-2.jpeg"}, {"id": 3185771, "nr": 3, "picture": "https://images.pexels.com/videos/5678950/pictures/preview-3.jpeg"}, {"id": 3185779, "nr": 4, "picture": "https://images.pexels.com/videos/5678950/pictures/preview-4.jpeg"}, {"id": 3185799, "nr": 5, "picture": "https://images.pexels.com/videos/5678950/pictures/preview-5.jpeg"}, {"id": 3185807, "nr": 6, "picture": "https://images.pexels.com/videos/5678950/pictures/preview-6.jpeg"}, {"id": 3185821, "nr": 7, "picture": "https://images.pexels.com/videos/5678950/pictures/preview-7.jpeg"}, {"id": 3185833, "nr": 8, "picture": "https://images.pexels.com/videos/5678950/pictures/preview-8.jpeg"}, {"id": 3185849, "nr": 9, "picture": "https://images.pexels.com/videos/5678950/pictures/preview-9.jpeg"}, {"id": 3185874, "nr": 10, "picture": "https://images.pexels.com/videos/5678950/pictures/preview-10.jpeg"}, {"id": 3185889, "nr": 11, "picture": "https://images.pexels.com/videos/5678950/pictures/preview-11.jpeg"}, {"id": 3185909, "nr": 12, "picture": "https://images.pexels.com/videos/5678950/pictures/preview-12.jpeg"}, {"id": 3185923, "nr": 13, "picture": "https://images.pexels.com/videos/5678950/pictures/preview-13.jpeg"}, {"id": 3185943, "nr": 14, "picture": "https://images.pexels.com/videos/5678950/pictures/preview-14.jpeg"}]}, {"id": 5435325, "width": 2160, "height": 4096, "duration": 7, "full_res": null, "tags": [], "url": "https://www.pexels.com/video/kids-wearing-halloween-costumes-5435325/", "image": "https://images.pexels.com/videos/5435325/boo-celebration-costume-creepy-5435325.jpeg?auto=compress&cs=tinysrgb&fit=crop&h=1200&w=630", "avg_color": null, "user": {"id": 1437723, "name": "cottonbro studio", "url": "https://www.pexels.com/@cottonbro"}, "video_files": [{"id": 9700298, "quality": "uhd", "file_type": "video/mp4", "width": 2160, "height": 4096, "fps": 25.0, "link": "https://videos.pexels.com/video-files/5435325/5435325-uhd_2160_4096_25fps.mp4", "size": 20094073}, {"id": 9700364, "quality": "uhd", "file_type": "video/mp4", "width": 1440, "height": 2732, "fps": 25.0, "link": "https://videos.pexels.com/video-files/5435325/5435325-uhd_1440_2732_25fps.mp4", "size": 10570687}, {"id": 9700435, "quality": "sd", "file_type": "video/mp4", "width": 226, "height": 426, "fps": 25.0, "link": "https://videos.pexels.com/video-files/5435325/5435325-sd_226_426_25fps.mp4", "size": 258899}, {"id": 9700487, "quality": "sd", "file_type": "video/mp4", "width": 506, "height": 960, "fps": 25.0, "link": "https://videos.pexels.com/video-files/5435325/5435325-sd_506_960_25fps.mp4", "size": 1264812}, {"id": 9700581, "quality": "hd", "file_type": "video/mp4", "width": 1080, "height": 2048, "fps": 25.0, "link": "https://videos.pexels.com/video-files/5435325/5435325-hd_1080_2048_25fps.mp4", "size": 4346397}, {"id": 9700606, "quality": "hd", "file_type": "video/mp4", "width": 720, "height": 1366, "fps": 25.0, "link": "https://videos.pexels.com/video-files/5435325/5435325-hd_720_1366_25fps.mp4", "size": 2117565}, {"id": 9700643, "quality": "sd", "file_type": "video/mp4", "width": 338, "height": 640, "fps": 25.0, "link": "https://videos.pexels.com/video-files/5435325/5435325-sd_338_640_25fps.mp4", "size": 427135}], "video_pictures": [{"id": 2827852, "nr": 0, "picture": "https://images.pexels.com/videos/5435325/pictures/preview-0.jpeg"}, {"id": 2827855, "nr": 1, "picture": "https://images.pexels.com/videos/5435325/pictures/preview-1.jpeg"}, {"id": 2827859, "nr": 2, "picture": "https://images.pexels.com/videos/5435325/pictures/preview-2.jpeg"}, {"id": 2827862, "nr": 3, "picture": "https://images.pexels.com/videos/5435325/pictures/preview-3.jpeg"}, {"id": 2827864, "nr": 4, "picture": "https://images.pexels.com/videos/5435325/pictures/preview-4.jpeg"}, {"id": 2827868, "nr": 5, "picture": "https://images.pexels.com/videos/5435325/pictures/preview-5.jpeg"}, {"id": 2827870, "nr": 6, "picture": "https://images.pexels.com/videos/5435325/pictures/preview-6.jpeg"}, {"id": 2827872, "nr": 7, "picture": "https://images.pexels.com/videos/5435325/pictures/preview-7.jpeg"}, {"id": 2827874, "nr": 8, "picture": "https://images.pexels.com/videos/5435325/pictures/preview-8.jpeg"}, {"id": 2827877, "nr": 9, "picture": "https://images.pexels.com/videos/5435325/pictures/preview-9.jpeg"}, {"id": 2827880, "nr": 10, "picture": "https://images.pexels.com/videos/5435325/pictures/preview-10.jpeg"}, {"id": 2827882, "nr": 11, "picture": "https://images.pexels.com/videos/5435325/pictures/preview-11.jpeg"}, {"id": 2827885, "nr": 12, "picture": "https://images.pexels.com/videos/5435325/pictures/preview-12.jpeg"}, {"id": 2827887, "nr": 13, "picture": "https://images.pexels.com/videos/5435325/pictures/preview-13.jpeg"}, {"id": 2827891, "nr": 14, "picture": "https://images.pexels.com/videos/5435325/pictures/preview-14.jpeg"}]}], "total_results": 570, "next_page": "https://api.pexels.com/v1/videos/search?orientation=portrait&page=2&per_page=8&query=giant+pumpkin", "url": "https://api-server.pexels.com/search/videos/giant%20pumpkin/"}, "timestamp": "2025-01-24T18:07:43.861065"}
