{"query": "roasted seeds", "response": {"page": 1, "per_page": 8, "videos": [{"id": 7930809, "width": 2160, "height": 3840, "duration": 10, "full_res": null, "tags": [], "url": "https://www.pexels.com/video/close-up-footage-of-salted-pumpkin-seeds-7930809/", "image": "https://images.pexels.com/videos/7930809/pexels-photo-7930809.jpeg?auto=compress&cs=tinysrgb&fit=crop&h=1200&w=630", "avg_color": null, "user": {"id": 48864519, "name": "Nicola Barts", "url": "https://www.pexels.com/@nicola-barts"}, "video_files": [{"id": 10618237, "quality": "hd", "file_type": "video/mp4", "width": 720, "height": 1280, "fps": 23.97599983215332, "link": "https://videos.pexels.com/video-files/7930809/7930809-hd_720_1280_24fps.mp4", "size": 1421880}, {"id": 10618415, "quality": "uhd", "file_type": "video/mp4", "width": 1440, "height": 2560, "fps": 23.97599983215332, "link": "https://videos.pexels.com/video-files/7930809/7930809-uhd_1440_2560_24fps.mp4", "size": 5866178}, {"id": 10618523, "quality": "sd", "file_type": "video/mp4", "width": 360, "height": 640, "fps": 23.97599983215332, "link": "https://videos.pexels.com/video-files/7930809/7930809-sd_360_640_24fps.mp4", "size": 395777}, {"id": 10618667, "quality": "sd", "file_type": "video/mp4", "width": 540, "height": 960, "fps": 23.97599983215332, "link": "https://videos.pexels.com/video-files/7930809/7930809-sd_540_960_24fps.mp4", "size": 813587}, {"id": 10618729, "quality": "hd", "file_type": "video/mp4", "width": 1080, "height": 1920, "fps": 23.97599983215332, "link": "https://videos.pexels.com/video-files/7930809/7930809-hd_1080_1920_24fps.mp4", "size": 3231118}, {"id": 10618831, "quality": "sd", "file_type": "video/mp4", "width": 240, "height": 426, "fps": 23.97599983215332, "link": "https://videos.pexels.com/video-files/7930809/7930809-sd_240_426_24fps.mp4", "size": 259832}, {"id": 10618944, "quality": "uhd", "file_type": "video/mp4", "width": 2160, "height": 3840, "fps": 23.97599983215332, "link": "https://videos.pexels.com/video-files/7930809/7930809-uhd_2160_3840_24fps.mp4", "size": 16445065}], "video_pictures": [{"id": 7281534, "nr": 0, "picture": "https://images.pexels.com/videos/7930809/pictures/preview-0.jpeg"}, {"id": 7281566, "nr": 1, "picture": "https://images.pexels.com/videos/7930809/pictures/preview-1.jpeg"}, {"id": 7281606, "nr": 2, "picture": "https://images.pexels.com/videos/7930809/pictures/preview-2.jpeg"}, {"id": 7281642, "nr": 3, "picture": "https://images.pexels.com/videos/7930809/pictures/preview-3.jpeg"}, {"id": 7281691, "nr": 4, "picture": "https://images.pexels.com/videos/7930809/pictures/preview-4.jpeg"}, {"id": 7281755, "nr": 5, "picture": "https://images.pexels.com/videos/7930809/pictures/preview-5.jpeg"}, {"id": 7281784, "nr": 6, "picture": "https://images.pexels.com/videos/7930809/pictures/preview-6.jpeg"}, {"id": 7281809, "nr": 7, "picture": "https://images.pexels.com/videos/7930809/pictures/preview-7.jpeg"}, {"id": 7281899, "nr": 8, "picture": "https://images.pexels.com/videos/7930809/pictures/preview-8.jpeg"}, {"id": 7282013, "nr": 9, "picture": "https://images.pexels.com/videos/7930809/pictures/preview-9.jpeg"}, {"id": 7282108, "nr": 10, "picture": "https://images.pexels.com/videos/7930809/pictures/preview-10.jpeg"}, {"id": 7282166, "nr": 11, "picture": "https://images.pexels.com/videos/7930809/pictures/preview-11.jpeg"}, {"id": 7282209, "nr": 12, "picture": "https://images.pexels.com/videos/7930809/pictures/preview-12.jpeg"}, {"id": 7282228, "nr": 13, "picture": "https://images.pexels.com/videos/7930809/pictures/preview-13.jpeg"}, {"id": 7282308, "nr": 14, "picture": "https://images.pexels.com/videos/7930809/pictures/preview-14.jpeg"}]}, {"id": 4815783, "width": 1080, "height": 1920, "duration": 16, "full_res": null, "tags": [], "url": "https://www.pexels.com/video/roasting-coffee-bean-4815783/", "image": "https://images.pexels.com/videos/4815783/black-coffee-coffee-coffee-bean-coffee-beans-4815783.jpeg?auto=compress&cs=tinysrgb&fit=crop&h=1200&w=630", "avg_color": null, "user": {"id": 2713790, "name": "Maksim Goncharenok", "url": "https://www.pexels.com/@maksgelatin"}, "video_files": [{"id": 9566853, "quality": "hd", "file_type": "video/mp4", "width": 720, "height": 1280, "fps": 30.0, "link": "https://videos.pexels.com/video-files/4815783/4815783-hd_720_1280_30fps.mp4", "size": 5104939}, {"id": 9566900, "quality": "sd", "file_type": "video/mp4", "width": 240, "height": 426, "fps": 30.0, "link": "https://videos.pexels.com/video-files/4815783/4815783-sd_240_426_30fps.mp4", "size": 695340}, {"id": 9566941, "quality": "hd", "file_type": "video/mp4", "width": 1080, "height": 1920, "fps": 30.0, "link": "https://videos.pexels.com/video-files/4815783/4815783-hd_1080_1920_30fps.mp4", "size": 10191762}, {"id": 9566991, "quality": "sd", "file_type": "video/mp4", "width": 360, "height": 640, "fps": 30.0, "link": "https://videos.pexels.com/video-files/4815783/4815783-sd_360_640_30fps.mp4", "size": 1147711}, {"id": 9567068, "quality": "sd", "file_type": "video/mp4", "width": 540, "height": 960, "fps": 30.0, "link": "https://videos.pexels.com/video-files/4815783/4815783-sd_540_960_30fps.mp4", "size": 3347991}], "video_pictures": [{"id": 1965604, "nr": 0, "picture": "https://images.pexels.com/videos/4815783/pictures/preview-0.jpeg"}, {"id": 1965605, "nr": 1, "picture": "https://images.pexels.com/videos/4815783/pictures/preview-1.jpeg"}, {"id": 1965606, "nr": 2, "picture": "https://images.pexels.com/videos/4815783/pictures/preview-2.jpeg"}, {"id": 1965607, "nr": 3, "picture": "https://images.pexels.com/videos/4815783/pictures/preview-3.jpeg"}, {"id": 1965608, "nr": 4, "picture": "https://images.pexels.com/videos/4815783/pictures/preview-4.jpeg"}, {"id": 1965609, "nr": 5, "picture": "https://images.pexels.com/videos/4815783/pictures/preview-5.jpeg"}, {"id": 1965610, "nr": 6, "picture": "https://images.pexels.com/videos/4815783/pictures/preview-6.jpeg"}, {"id": 1965611, "nr": 7, "picture": "https://images.pexels.com/videos/4815783/pictures/preview-7.jpeg"}, {"id": 1965612, "nr": 8, "picture": "https://images.pexels.com/videos/4815783/pictures/preview-8.jpeg"}, {"id": 1965613, "nr": 9, "picture": "https://images.pexels.com/videos/4815783/pictures/preview-9.jpeg"}, {"id": 1965614, "nr": 10, "picture": "https://images.pexels.com/videos/4815783/pictures/preview-10.jpeg"}, {"id": 1965615, "nr": 11, "picture": "https://images.pexels.com/videos/4815783/pictures/preview-11.jpeg"}, {"id": 1965616, "nr": 12, "picture": "https://images.pexels.com/videos/4815783/pictures/preview-12.jpeg"}, {"id": 1965617, "nr": 13, "picture": "https://images.pexels.com/videos/4815783/pictures/preview-13.jpeg"}, {"id": 1965618, "nr": 14, "picture": "https://images.pexels.com/videos/4815783/pictures/preview-14.jpeg"}]}, {"id": 7657782, "width": 1080, "height": 1920, "duration": 8, "full_res": null, "tags": [], "url": "https://www.pexels.com/video/coffee-beans-7657782/", "image": "https://images.pexels.com/videos/7657782/arabica-coffee-coffe-lover-coffee-coffee-art-7657782.jpeg?auto=compress&cs=tinysrgb&fit=crop&h=1200&w=630", "avg_color": null, "user": {"id": 3716105, "name": "Cup of  Couple", "url": "https://www.pexels.com/@cup-of-couple"}, "video_files": [{"id": 10520049, "quality": "sd", "file_type": "video/mp4", "width": 540, "height": 960, "fps": 25.0, "link": "https://videos.pexels.com/video-files/7657782/7657782-sd_540_960_25fps.mp4", "size": 1365763}, {"id": 10520067, "quality": "hd", "file_type": "video/mp4", "width": 720, "height": 1280, "fps": 50.0, "link": "https://videos.pexels.com/video-files/7657782/7657782-hd_720_1280_50fps.mp4", "size": 2601967}, {"id": 10520080, "quality": "sd", "file_type": "video/mp4", "width": 360, "height": 640, "fps": 25.0, "link": "https://videos.pexels.com/video-files/7657782/7657782-sd_360_640_25fps.mp4", "size": 467971}, {"id": 10520095, "quality": "sd", "file_type": "video/mp4", "width": 240, "height": 426, "fps": 25.0, "link": "https://videos.pexels.com/video-files/7657782/7657782-sd_240_426_25fps.mp4", "size": 183209}, {"id": 10520109, "quality": "hd", "file_type": "video/mp4", "width": 1080, "height": 1920, "fps": 25.0, "link": "https://videos.pexels.com/video-files/7657782/7657782-hd_1080_1920_25fps.mp4", "size": 4641248}], "video_pictures": [{"id": 6814263, "nr": 0, "picture": "https://images.pexels.com/videos/7657782/pictures/preview-0.jpeg"}, {"id": 6814270, "nr": 1, "picture": "https://images.pexels.com/videos/7657782/pictures/preview-1.jpeg"}, {"id": 6814276, "nr": 2, "picture": "https://images.pexels.com/videos/7657782/pictures/preview-2.jpeg"}, {"id": 6814283, "nr": 3, "picture": "https://images.pexels.com/videos/7657782/pictures/preview-3.jpeg"}, {"id": 6814293, "nr": 4, "picture": "https://images.pexels.com/videos/7657782/pictures/preview-4.jpeg"}, {"id": 6814305, "nr": 5, "picture": "https://images.pexels.com/videos/7657782/pictures/preview-5.jpeg"}, {"id": 6814318, "nr": 6, "picture": "https://images.pexels.com/videos/7657782/pictures/preview-6.jpeg"}, {"id": 6814329, "nr": 7, "picture": "https://images.pexels.com/videos/7657782/pictures/preview-7.jpeg"}, {"id": 6814340, "nr": 8, "picture": "https://images.pexels.com/videos/7657782/pictures/preview-8.jpeg"}, {"id": 6814350, "nr": 9, "picture": "https://images.pexels.com/videos/7657782/pictures/preview-9.jpeg"}, {"id": 6814362, "nr": 10, "picture": "https://images.pexels.com/videos/7657782/pictures/preview-10.jpeg"}, {"id": 6814373, "nr": 11, "picture": "https://images.pexels.com/videos/7657782/pictures/preview-11.jpeg"}, {"id": 6814384, "nr": 12, "picture": "https://images.pexels.com/videos/7657782/pictures/preview-12.jpeg"}, {"id": 6814399, "nr": 13, "picture": "https://images.pexels.com/videos/7657782/pictures/preview-13.jpeg"}, {"id": 6814411, "nr": 14, "picture": "https://images.pexels.com/videos/7657782/pictures/preview-14.jpeg"}]}, {"id": 30353172, "width": 1080, "height": 1920, "duration": 7, "full_res": null, "tags": [], "url": "https://www.pexels.com/video/hands-holding-coffee-beans-on-vibrant-red-background-30353172/", "image": "https://images.pexels.com/videos/30353172/4k-video-bean-cafe-coffee-bean-30353172.jpeg?auto=compress&cs=tinysrgb&fit=crop&h=1200&w=630", "avg_color": null, "user": {"id": 282933044, "name": "Cemrecan Yurtman", "url": "https://www.pexels.com/@cmrcn"}, "video_files": [{"id": 13012970, "quality": null, "file_type": "video/mp4", "width": 360, "height": 640, "fps": 29.969999313354492, "link": "https://videos.pexels.com/video-files/30353172/13012970_360_640_30fps.mp4", "size": 552188}, {"id": 13012971, "quality": null, "file_type": "video/mp4", "width": 540, "height": 960, "fps": 29.969999313354492, "link": "https://videos.pexels.com/video-files/30353172/13012971_540_960_30fps.mp4", "size": 1042314}, {"id": 13012973, "quality": null, "file_type": "video/mp4", "width": 720, "height": 1280, "fps": 29.969999313354492, "link": "https://videos.pexels.com/video-files/30353172/13012973_720_1280_30fps.mp4", "size": 1694629}, {"id": 13012975, "quality": null, "file_type": "video/mp4", "width": 1080, "height": 1920, "fps": 29.969999313354492, "link": "https://videos.pexels.com/video-files/30353172/13012975_1080_1920_30fps.mp4", "size": 3875551}], "video_pictures": [{"id": 24727067, "nr": 0, "picture": "https://images.pexels.com/videos/30353172/pictures/preview-0.jpg"}, {"id": 24727068, "nr": 1, "picture": "https://images.pexels.com/videos/30353172/pictures/preview-1.jpg"}, {"id": 24727069, "nr": 2, "picture": "https://images.pexels.com/videos/30353172/pictures/preview-2.jpg"}, {"id": 24727070, "nr": 3, "picture": "https://images.pexels.com/videos/30353172/pictures/preview-3.jpg"}, {"id": 24727071, "nr": 4, "picture": "https://images.pexels.com/videos/30353172/pictures/preview-4.jpg"}, {"id": 24727072, "nr": 5, "picture": "https://images.pexels.com/videos/30353172/pictures/preview-5.jpg"}]}, {"id": 12036000, "width": 2160, "height": 3840, "duration": 3, "full_res": null, "tags": [], "url": "https://www.pexels.com/video/seasoning-oriental-food-12036000/", "image": "https://images.pexels.com/videos/12036000/4k-video-lobsters-oriental-food-sesame-12036000.jpeg?auto=compress&cs=tinysrgb&fit=crop&h=1200&w=630", "avg_color": null, "user": {"id": 3525678, "name": "\u5b87\u822a \u94b1", "url": "https://www.pexels.com/@3525678"}, "video_files": [{"id": 5215555, "quality": "hd", "file_type": "video/mp4", "width": 1080, "height": 1920, "fps": 24.0, "link": "https://videos.pexels.com/video-files/12036000/12036000-hd_1080_1920_24fps.mp4", "size": 2096441}, {"id": 5215556, "quality": "hd", "file_type": "video/mp4", "width": 720, "height": 1280, "fps": 24.0, "link": "https://videos.pexels.com/video-files/12036000/12036000-hd_720_1280_24fps.mp4", "size": 1054122}, {"id": 5215557, "quality": "sd", "file_type": "video/mp4", "width": 540, "height": 960, "fps": 24.0, "link": "https://videos.pexels.com/video-files/12036000/12036000-sd_540_960_24fps.mp4", "size": 599202}, {"id": 5215558, "quality": "sd", "file_type": "video/mp4", "width": 360, "height": 640, "fps": 24.0, "link": "https://videos.pexels.com/video-files/12036000/12036000-sd_360_640_24fps.mp4", "size": 298566}, {"id": 5215559, "quality": "uhd", "file_type": "video/mp4", "width": 2160, "height": 3840, "fps": 24.0, "link": "https://videos.pexels.com/video-files/12036000/12036000-uhd_2160_3840_24fps.mp4", "size": 5772597}, {"id": 5215560, "quality": "sd", "file_type": "video/mp4", "width": 240, "height": 426, "fps": 24.0, "link": "https://videos.pexels.com/video-files/12036000/12036000-sd_240_426_24fps.mp4", "size": 213343}, {"id": 5215561, "quality": "uhd", "file_type": "video/mp4", "width": 1440, "height": 2560, "fps": 24.0, "link": "https://videos.pexels.com/video-files/12036000/12036000-uhd_1440_2560_24fps.mp4", "size": 3795372}], "video_pictures": [{"id": 12788819, "nr": 0, "picture": "https://images.pexels.com/videos/12036000/pictures/preview-0.jpeg"}, {"id": 12788826, "nr": 1, "picture": "https://images.pexels.com/videos/12036000/pictures/preview-1.jpeg"}, {"id": 12788832, "nr": 2, "picture": "https://images.pexels.com/videos/12036000/pictures/preview-2.jpeg"}, {"id": 12788838, "nr": 3, "picture": "https://images.pexels.com/videos/12036000/pictures/preview-3.jpeg"}, {"id": 12788843, "nr": 4, "picture": "https://images.pexels.com/videos/12036000/pictures/preview-4.jpeg"}, {"id": 12788848, "nr": 5, "picture": "https://images.pexels.com/videos/12036000/pictures/preview-5.jpeg"}, {"id": 12788853, "nr": 6, "picture": "https://images.pexels.com/videos/12036000/pictures/preview-6.jpeg"}, {"id": 12788859, "nr": 7, "picture": "https://images.pexels.com/videos/12036000/pictures/preview-7.jpeg"}, {"id": 12788865, "nr": 8, "picture": "https://images.pexels.com/videos/12036000/pictures/preview-8.jpeg"}, {"id": 12788871, "nr": 9, "picture": "https://images.pexels.com/videos/12036000/pictures/preview-9.jpeg"}, {"id": 12788877, "nr": 10, "picture": "https://images.pexels.com/videos/12036000/pictures/preview-10.jpeg"}, {"id": 12788882, "nr": 11, "picture": "https://images.pexels.com/videos/12036000/pictures/preview-11.jpeg"}, {"id": 12788888, "nr": 12, "picture": "https://images.pexels.com/videos/12036000/pictures/preview-12.jpeg"}, {"id": 12788894, "nr": 13, "picture": "https://images.pexels.com/videos/12036000/pictures/preview-13.jpeg"}, {"id": 12788900, "nr": 14, "picture": "https://images.pexels.com/videos/12036000/pictures/preview-14.jpeg"}]}, {"id": 7118054, "width": 2160, "height": 3840, "duration": 10, "full_res": null, "tags": [], "url": "https://www.pexels.com/video/person-sifting-coffee-beans-7118054/", "image": "https://images.pexels.com/videos/7118054/pexels-photo-7118054.jpeg?auto=compress&cs=tinysrgb&fit=crop&h=1200&w=630", "avg_color": null, "user": {"id": 33201649, "name": "Michael Burrows", "url": "https://www.pexels.com/@michael-burrows"}, "video_files": [{"id": 10311664, "quality": "uhd", "file_type": "video/mp4", "width": 2160, "height": 3840, "fps": 25.0, "link": "https://videos.pexels.com/video-files/7118054/7118054-uhd_2160_3840_25fps.mp4", "size": 27600388}, {"id": 10311728, "quality": "hd", "file_type": "video/mp4", "width": 1080, "height": 1920, "fps": 25.0, "link": "https://videos.pexels.com/video-files/7118054/7118054-hd_1080_1920_25fps.mp4", "size": 6281423}, {"id": 10311812, "quality": "sd", "file_type": "video/mp4", "width": 540, "height": 960, "fps": 25.0, "link": "https://videos.pexels.com/video-files/7118054/7118054-sd_540_960_25fps.mp4", "size": 1856557}, {"id": 10311912, "quality": "sd", "file_type": "video/mp4", "width": 360, "height": 640, "fps": 25.0, "link": "https://videos.pexels.com/video-files/7118054/7118054-sd_360_640_25fps.mp4", "size": 614880}, {"id": 10312025, "quality": "uhd", "file_type": "video/mp4", "width": 1440, "height": 2560, "fps": 25.0, "link": "https://videos.pexels.com/video-files/7118054/7118054-uhd_1440_2560_25fps.mp4", "size": 14968778}, {"id": 10312081, "quality": "sd", "file_type": "video/mp4", "width": 240, "height": 426, "fps": 25.0, "link": "https://videos.pexels.com/video-files/7118054/7118054-sd_240_426_25fps.mp4", "size": 371874}, {"id": 10312130, "quality": "hd", "file_type": "video/mp4", "width": 720, "height": 1280, "fps": 50.0, "link": "https://videos.pexels.com/video-files/7118054/7118054-hd_720_1280_50fps.mp4", "size": 3072117}], "video_pictures": [{"id": 5784036, "nr": 0, "picture": "https://images.pexels.com/videos/7118054/pictures/preview-0.jpeg"}, {"id": 5784037, "nr": 1, "picture": "https://images.pexels.com/videos/7118054/pictures/preview-1.jpeg"}, {"id": 5784041, "nr": 2, "picture": "https://images.pexels.com/videos/7118054/pictures/preview-2.jpeg"}, {"id": 5784045, "nr": 3, "picture": "https://images.pexels.com/videos/7118054/pictures/preview-3.jpeg"}, {"id": 5784049, "nr": 4, "picture": "https://images.pexels.com/videos/7118054/pictures/preview-4.jpeg"}, {"id": 5784053, "nr": 5, "picture": "https://images.pexels.com/videos/7118054/pictures/preview-5.jpeg"}, {"id": 5784054, "nr": 6, "picture": "https://images.pexels.com/videos/7118054/pictures/preview-6.jpeg"}, {"id": 5784056, "nr": 7, "picture": "https://images.pexels.com/videos/7118054/pictures/preview-7.jpeg"}, {"id": 5784057, "nr": 8, "picture": "https://images.pexels.com/videos/7118054/pictures/preview-8.jpeg"}, {"id": 5784059, "nr": 9, "picture": "https://images.pexels.com/videos/7118054/pictures/preview-9.jpeg"}, {"id": 5784061, "nr": 10, "picture": "https://images.pexels.com/videos/7118054/pictures/preview-10.jpeg"}, {"id": 5784062, "nr": 11, "picture": "https://images.pexels.com/videos/7118054/pictures/preview-11.jpeg"}, {"id": 5784067, "nr": 12, "picture": "https://images.pexels.com/videos/7118054/pictures/preview-12.jpeg"}, {"id": 5784073, "nr": 13, "picture": "https://images.pexels.com/videos/7118054/pictures/preview-13.jpeg"}, {"id": 5784076, "nr": 14, "picture": "https://images.pexels.com/videos/7118054/pictures/preview-14.jpeg"}]}, {"id": 7118094, "width": 2160, "height": 3840, "duration": 13, "full_res": null, "tags": [], "url": "https://www.pexels.com/video/close-up-video-of-roasted-coffee-beans-7118094/", "image": "https://images.pexels.com/videos/7118094/pexels-photo-7118094.jpeg?auto=compress&cs=tinysrgb&fit=crop&h=1200&w=630", "avg_color": null, "user": {"id": 33201649, "name": "Michael Burrows", "url": "https://www.pexels.com/@michael-burrows"}, "video_files": [{"id": 10308696, "quality": "sd", "file_type": "video/mp4", "width": 360, "height": 640, "fps": 25.0, "link": "https://videos.pexels.com/video-files/7118094/7118094-sd_360_640_25fps.mp4", "size": 920865}, {"id": 10308825, "quality": "sd", "file_type": "video/mp4", "width": 240, "height": 426, "fps": 25.0, "link": "https://videos.pexels.com/video-files/7118094/7118094-sd_240_426_25fps.mp4", "size": 572891}, {"id": 10309031, "quality": "hd", "file_type": "video/mp4", "width": 720, "height": 1280, "fps": 50.0, "link": "https://videos.pexels.com/video-files/7118094/7118094-hd_720_1280_50fps.mp4", "size": 4202100}, {"id": 10309152, "quality": "sd", "file_type": "video/mp4", "width": 540, "height": 960, "fps": 25.0, "link": "https://videos.pexels.com/video-files/7118094/7118094-sd_540_960_25fps.mp4", "size": 2742048}, {"id": 10309356, "quality": "uhd", "file_type": "video/mp4", "width": 2160, "height": 3840, "fps": 25.0, "link": "https://videos.pexels.com/video-files/7118094/7118094-uhd_2160_3840_25fps.mp4", "size": 41265086}, {"id": 10309509, "quality": "uhd", "file_type": "video/mp4", "width": 1440, "height": 2560, "fps": 25.0, "link": "https://videos.pexels.com/video-files/7118094/7118094-uhd_1440_2560_25fps.mp4", "size": 21684780}, {"id": 10309628, "quality": "hd", "file_type": "video/mp4", "width": 1080, "height": 1920, "fps": 25.0, "link": "https://videos.pexels.com/video-files/7118094/7118094-hd_1080_1920_25fps.mp4", "size": 8442246}], "video_pictures": [{"id": 5774778, "nr": 0, "picture": "https://images.pexels.com/videos/7118094/pictures/preview-0.jpeg"}, {"id": 5774796, "nr": 1, "picture": "https://images.pexels.com/videos/7118094/pictures/preview-1.jpeg"}, {"id": 5774814, "nr": 2, "picture": "https://images.pexels.com/videos/7118094/pictures/preview-2.jpeg"}, {"id": 5774832, "nr": 3, "picture": "https://images.pexels.com/videos/7118094/pictures/preview-3.jpeg"}, {"id": 5774860, "nr": 4, "picture": "https://images.pexels.com/videos/7118094/pictures/preview-4.jpeg"}, {"id": 5774873, "nr": 5, "picture": "https://images.pexels.com/videos/7118094/pictures/preview-5.jpeg"}, {"id": 5774890, "nr": 6, "picture": "https://images.pexels.com/videos/7118094/pictures/preview-6.jpeg"}, {"id": 5774914, "nr": 7, "picture": "https://images.pexels.com/videos/7118094/pictures/preview-7.jpeg"}, {"id": 5774940, "nr": 8, "picture": "https://images.pexels.com/videos/7118094/pictures/preview-8.jpeg"}, {"id": 5774957, "nr": 9, "picture": "https://images.pexels.com/videos/7118094/pictures/preview-9.jpeg"}, {"id": 5774989, "nr": 10, "picture": "https://images.pexels.com/videos/7118094/pictures/preview-10.jpeg"}, {"id": 5775014, "nr": 11, "picture": "https://images.pexels.com/videos/7118094/pictures/preview-11.jpeg"}, {"id": 5775047, "nr": 12, "picture": "https://images.pexels.com/videos/7118094/pictures/preview-12.jpeg"}, {"id": 5775069, "nr": 13, "picture": "https://images.pexels.com/videos/7118094/pictures/preview-13.jpeg"}, {"id": 5775097, "nr": 14, "picture": "https://images.pexels.com/videos/7118094/pictures/preview-14.jpeg"}]}, {"id": 7118096, "width": 2160, "height": 3840, "duration": 9, "full_res": null, "tags": [], "url": "https://www.pexels.com/video/a-person-holding-roasted-coffee-beans-7118096/", "image": "https://images.pexels.com/videos/7118096/pexels-photo-7118096.jpeg?auto=compress&cs=tinysrgb&fit=crop&h=1200&w=630", "avg_color": null, "user": {"id": 33201649, "name": "Michael Burrows", "url": "https://www.pexels.com/@michael-burrows"}, "video_files": [{"id": 10308046, "quality": "hd", "file_type": "video/mp4", "width": 1080, "height": 1920, "fps": 25.0, "link": "https://videos.pexels.com/video-files/7118096/7118096-hd_1080_1920_25fps.mp4", "size": 5335540}, {"id": 10308079, "quality": "uhd", "file_type": "video/mp4", "width": 2160, "height": 3840, "fps": 25.0, "link": "https://videos.pexels.com/video-files/7118096/7118096-uhd_2160_3840_25fps.mp4", "size": 24506396}, {"id": 10308144, "quality": "sd", "file_type": "video/mp4", "width": 240, "height": 426, "fps": 25.0, "link": "https://videos.pexels.com/video-files/7118096/7118096-sd_240_426_25fps.mp4", "size": 325759}, {"id": 10308207, "quality": "uhd", "file_type": "video/mp4", "width": 1440, "height": 2560, "fps": 25.0, "link": "https://videos.pexels.com/video-files/7118096/7118096-uhd_1440_2560_25fps.mp4", "size": 13551687}, {"id": 10308328, "quality": "sd", "file_type": "video/mp4", "width": 360, "height": 640, "fps": 25.0, "link": "https://videos.pexels.com/video-files/7118096/7118096-sd_360_640_25fps.mp4", "size": 529561}, {"id": 10308446, "quality": "hd", "file_type": "video/mp4", "width": 720, "height": 1280, "fps": 50.0, "link": "https://videos.pexels.com/video-files/7118096/7118096-hd_720_1280_50fps.mp4", "size": 2689151}, {"id": 10308546, "quality": "sd", "file_type": "video/mp4", "width": 540, "height": 960, "fps": 25.0, "link": "https://videos.pexels.com/video-files/7118096/7118096-sd_540_960_25fps.mp4", "size": 1631911}], "video_pictures": [{"id": 5774933, "nr": 0, "picture": "https://images.pexels.com/videos/7118096/pictures/preview-0.jpeg"}, {"id": 5774949, "nr": 1, "picture": "https://images.pexels.com/videos/7118096/pictures/preview-1.jpeg"}, {"id": 5774961, "nr": 2, "picture": "https://images.pexels.com/videos/7118096/pictures/preview-2.jpeg"}, {"id": 5774982, "nr": 3, "picture": "https://images.pexels.com/videos/7118096/pictures/preview-3.jpeg"}, {"id": 5775007, "nr": 4, "picture": "https://images.pexels.com/videos/7118096/pictures/preview-4.jpeg"}, {"id": 5775039, "nr": 5, "picture": "https://images.pexels.com/videos/7118096/pictures/preview-5.jpeg"}, {"id": 5775074, "nr": 6, "picture": "https://images.pexels.com/videos/7118096/pictures/preview-6.jpeg"}, {"id": 5775094, "nr": 7, "picture": "https://images.pexels.com/videos/7118096/pictures/preview-7.jpeg"}, {"id": 5775108, "nr": 8, "picture": "https://images.pexels.com/videos/7118096/pictures/preview-8.jpeg"}, {"id": 5775136, "nr": 9, "picture": "https://images.pexels.com/videos/7118096/pictures/preview-9.jpeg"}, {"id": 5775163, "nr": 10, "picture": "https://images.pexels.com/videos/7118096/pictures/preview-10.jpeg"}, {"id": 5775197, "nr": 11, "picture": "https://images.pexels.com/videos/7118096/pictures/preview-11.jpeg"}, {"id": 5775238, "nr": 12, "picture": "https://images.pexels.com/videos/7118096/pictures/preview-12.jpeg"}, {"id": 5775302, "nr": 13, "picture": "https://images.pexels.com/videos/7118096/pictures/preview-13.jpeg"}, {"id": 5775328, "nr": 14, "picture": "https://images.pexels.com/videos/7118096/pictures/preview-14.jpeg"}]}], "total_results": 598, "next_page": "https://api.pexels.com/v1/videos/search?orientation=portrait&page=2&per_page=8&query=roasted+seeds", "url": "https://api-server.pexels.com/search/videos/roasted%20seeds/"}, "timestamp": "2025-01-24T18:12:57.978369"}
