{"query": "halloween pumpkin", "response": {"page": 1, "per_page": 8, "videos": [{"id": 5491915, "width": 1080, "height": 1920, "duration": 15, "full_res": null, "tags": [], "url": "https://www.pexels.com/video/a-lighted-candle-blown-out-near-a-carved-pumpkin-5491915/", "image": "https://images.pexels.com/videos/5491915/pexels-photo-5491915.jpeg?auto=compress&cs=tinysrgb&fit=crop&h=1200&w=630", "avg_color": null, "user": {"id": 2638647, "name": "olia danilevich", "url": "https://www.pexels.com/@olia-danilevich"}, "video_files": [{"id": 9714354, "quality": "sd", "file_type": "video/mp4", "width": 360, "height": 640, "fps": 25.0, "link": "https://videos.pexels.com/video-files/5491915/5491915-sd_360_640_25fps.mp4", "size": 783399}, {"id": 9714389, "quality": "sd", "file_type": "video/mp4", "width": 240, "height": 426, "fps": 25.0, "link": "https://videos.pexels.com/video-files/5491915/5491915-sd_240_426_25fps.mp4", "size": 344984}, {"id": 9714418, "quality": "hd", "file_type": "video/mp4", "width": 720, "height": 1280, "fps": 25.0, "link": "https://videos.pexels.com/video-files/5491915/5491915-hd_720_1280_25fps.mp4", "size": 2551650}, {"id": 9714458, "quality": "sd", "file_type": "video/mp4", "width": 540, "height": 960, "fps": 25.0, "link": "https://videos.pexels.com/video-files/5491915/5491915-sd_540_960_25fps.mp4", "size": 1674358}, {"id": 9714497, "quality": "hd", "file_type": "video/mp4", "width": 1080, "height": 1920, "fps": 25.0, "link": "https://videos.pexels.com/video-files/5491915/5491915-hd_1080_1920_25fps.mp4", "size": 7443038}], "video_pictures": [{"id": 2902264, "nr": 0, "picture": "https://images.pexels.com/videos/5491915/pictures/preview-0.jpeg"}, {"id": 2902265, "nr": 1, "picture": "https://images.pexels.com/videos/5491915/pictures/preview-1.jpeg"}, {"id": 2902266, "nr": 2, "picture": "https://images.pexels.com/videos/5491915/pictures/preview-2.jpeg"}, {"id": 2902267, "nr": 3, "picture": "https://images.pexels.com/videos/5491915/pictures/preview-3.jpeg"}, {"id": 2902268, "nr": 4, "picture": "https://images.pexels.com/videos/5491915/pictures/preview-4.jpeg"}, {"id": 2902269, "nr": 5, "picture": "https://images.pexels.com/videos/5491915/pictures/preview-5.jpeg"}, {"id": 2902270, "nr": 6, "picture": "https://images.pexels.com/videos/5491915/pictures/preview-6.jpeg"}, {"id": 2902271, "nr": 7, "picture": "https://images.pexels.com/videos/5491915/pictures/preview-7.jpeg"}, {"id": 2902272, "nr": 8, "picture": "https://images.pexels.com/videos/5491915/pictures/preview-8.jpeg"}, {"id": 2902273, "nr": 9, "picture": "https://images.pexels.com/videos/5491915/pictures/preview-9.jpeg"}, {"id": 2902274, "nr": 10, "picture": "https://images.pexels.com/videos/5491915/pictures/preview-10.jpeg"}, {"id": 2902275, "nr": 11, "picture": "https://images.pexels.com/videos/5491915/pictures/preview-11.jpeg"}, {"id": 2902276, "nr": 12, "picture": "https://images.pexels.com/videos/5491915/pictures/preview-12.jpeg"}, {"id": 2902277, "nr": 13, "picture": "https://images.pexels.com/videos/5491915/pictures/preview-13.jpeg"}, {"id": 2902278, "nr": 14, "picture": "https://images.pexels.com/videos/5491915/pictures/preview-14.jpeg"}]}, {"id": 5605040, "width": 2160, "height": 3840, "duration": 17, "full_res": null, "tags": [], "url": "https://www.pexels.com/video/video-of-a-carved-pumpkin-5605040/", "image": "https://images.pexels.com/videos/5605040/pexels-photo-5605040.jpeg?auto=compress&cs=tinysrgb&fit=crop&h=1200&w=630", "avg_color": null, "user": {"id": 649765, "name": "Yaroslav Shuraev", "url": "https://www.pexels.com/@yaroslav-shuraev"}, "video_files": [{"id": 9742497, "quality": "sd", "file_type": "video/mp4", "width": 240, "height": 426, "fps": 24.0, "link": "https://videos.pexels.com/video-files/5605040/5605040-sd_240_426_24fps.mp4", "size": 493477}, {"id": 9742594, "quality": "sd", "file_type": "video/mp4", "width": 360, "height": 640, "fps": 24.0, "link": "https://videos.pexels.com/video-files/5605040/5605040-sd_360_640_24fps.mp4", "size": 812256}, {"id": 9742712, "quality": "uhd", "file_type": "video/mp4", "width": 2160, "height": 3840, "fps": 24.0, "link": "https://videos.pexels.com/video-files/5605040/5605040-uhd_2160_3840_24fps.mp4", "size": 24222398}, {"id": 9742813, "quality": "hd", "file_type": "video/mp4", "width": 1080, "height": 1920, "fps": 24.0, "link": "https://videos.pexels.com/video-files/5605040/5605040-hd_1080_1920_24fps.mp4", "size": 5403805}, {"id": 9742946, "quality": "hd", "file_type": "video/mp4", "width": 720, "height": 1280, "fps": 24.0, "link": "https://videos.pexels.com/video-files/5605040/5605040-hd_720_1280_24fps.mp4", "size": 2659787}, {"id": 9743207, "quality": "uhd", "file_type": "video/mp4", "width": 1440, "height": 2560, "fps": 24.0, "link": "https://videos.pexels.com/video-files/5605040/5605040-uhd_1440_2560_24fps.mp4", "size": 9459282}, {"id": 9743302, "quality": "sd", "file_type": "video/mp4", "width": 540, "height": 960, "fps": 24.0, "link": "https://videos.pexels.com/video-files/5605040/5605040-sd_540_960_24fps.mp4", "size": 1573856}], "video_pictures": [{"id": 3071182, "nr": 0, "picture": "https://images.pexels.com/videos/5605040/pictures/preview-0.jpeg"}, {"id": 3071184, "nr": 1, "picture": "https://images.pexels.com/videos/5605040/pictures/preview-1.jpeg"}, {"id": 3071189, "nr": 2, "picture": "https://images.pexels.com/videos/5605040/pictures/preview-2.jpeg"}, {"id": 3071197, "nr": 3, "picture": "https://images.pexels.com/videos/5605040/pictures/preview-3.jpeg"}, {"id": 3071204, "nr": 4, "picture": "https://images.pexels.com/videos/5605040/pictures/preview-4.jpeg"}, {"id": 3071216, "nr": 5, "picture": "https://images.pexels.com/videos/5605040/pictures/preview-5.jpeg"}, {"id": 3071224, "nr": 6, "picture": "https://images.pexels.com/videos/5605040/pictures/preview-6.jpeg"}, {"id": 3071231, "nr": 7, "picture": "https://images.pexels.com/videos/5605040/pictures/preview-7.jpeg"}, {"id": 3071240, "nr": 8, "picture": "https://images.pexels.com/videos/5605040/pictures/preview-8.jpeg"}, {"id": 3071250, "nr": 9, "picture": "https://images.pexels.com/videos/5605040/pictures/preview-9.jpeg"}, {"id": 3071255, "nr": 10, "picture": "https://images.pexels.com/videos/5605040/pictures/preview-10.jpeg"}, {"id": 3071261, "nr": 11, "picture": "https://images.pexels.com/videos/5605040/pictures/preview-11.jpeg"}, {"id": 3071268, "nr": 12, "picture": "https://images.pexels.com/videos/5605040/pictures/preview-12.jpeg"}, {"id": 3071275, "nr": 13, "picture": "https://images.pexels.com/videos/5605040/pictures/preview-13.jpeg"}, {"id": 3071282, "nr": 14, "picture": "https://images.pexels.com/videos/5605040/pictures/preview-14.jpeg"}]}, {"id": 5491908, "width": 1080, "height": 1920, "duration": 8, "full_res": null, "tags": [], "url": "https://www.pexels.com/video/carved-pumpkin-decoration-5491908/", "image": "https://images.pexels.com/videos/5491908/pexels-photo-5491908.jpeg?auto=compress&cs=tinysrgb&fit=crop&h=1200&w=630", "avg_color": null, "user": {"id": 2638647, "name": "olia danilevich", "url": "https://www.pexels.com/@olia-danilevich"}, "video_files": [{"id": 9714440, "quality": "sd", "file_type": "video/mp4", "width": 360, "height": 640, "fps": 25.0, "link": "https://videos.pexels.com/video-files/5491908/5491908-sd_360_640_25fps.mp4", "size": 601869}, {"id": 9714494, "quality": "hd", "file_type": "video/mp4", "width": 720, "height": 1280, "fps": 25.0, "link": "https://videos.pexels.com/video-files/5491908/5491908-hd_720_1280_25fps.mp4", "size": 2675185}, {"id": 9714533, "quality": "sd", "file_type": "video/mp4", "width": 540, "height": 960, "fps": 25.0, "link": "https://videos.pexels.com/video-files/5491908/5491908-sd_540_960_25fps.mp4", "size": 1690258}, {"id": 9714576, "quality": "hd", "file_type": "video/mp4", "width": 1080, "height": 1920, "fps": 25.0, "link": "https://videos.pexels.com/video-files/5491908/5491908-hd_1080_1920_25fps.mp4", "size": 5114133}, {"id": 9714623, "quality": "sd", "file_type": "video/mp4", "width": 240, "height": 426, "fps": 25.0, "link": "https://videos.pexels.com/video-files/5491908/5491908-sd_240_426_25fps.mp4", "size": 352488}], "video_pictures": [{"id": 2902239, "nr": 0, "picture": "https://images.pexels.com/videos/5491908/pictures/preview-0.jpeg"}, {"id": 2902240, "nr": 1, "picture": "https://images.pexels.com/videos/5491908/pictures/preview-1.jpeg"}, {"id": 2902242, "nr": 2, "picture": "https://images.pexels.com/videos/5491908/pictures/preview-2.jpeg"}, {"id": 2902244, "nr": 3, "picture": "https://images.pexels.com/videos/5491908/pictures/preview-3.jpeg"}, {"id": 2902246, "nr": 4, "picture": "https://images.pexels.com/videos/5491908/pictures/preview-4.jpeg"}, {"id": 2902248, "nr": 5, "picture": "https://images.pexels.com/videos/5491908/pictures/preview-5.jpeg"}, {"id": 2902252, "nr": 6, "picture": "https://images.pexels.com/videos/5491908/pictures/preview-6.jpeg"}, {"id": 2902255, "nr": 7, "picture": "https://images.pexels.com/videos/5491908/pictures/preview-7.jpeg"}, {"id": 2902257, "nr": 8, "picture": "https://images.pexels.com/videos/5491908/pictures/preview-8.jpeg"}, {"id": 2902258, "nr": 9, "picture": "https://images.pexels.com/videos/5491908/pictures/preview-9.jpeg"}, {"id": 2902259, "nr": 10, "picture": "https://images.pexels.com/videos/5491908/pictures/preview-10.jpeg"}, {"id": 2902260, "nr": 11, "picture": "https://images.pexels.com/videos/5491908/pictures/preview-11.jpeg"}, {"id": 2902261, "nr": 12, "picture": "https://images.pexels.com/videos/5491908/pictures/preview-12.jpeg"}, {"id": 2902262, "nr": 13, "picture": "https://images.pexels.com/videos/5491908/pictures/preview-13.jpeg"}, {"id": 2902263, "nr": 14, "picture": "https://images.pexels.com/videos/5491908/pictures/preview-14.jpeg"}]}, {"id": 5559357, "width": 2160, "height": 3840, "duration": 9, "full_res": null, "tags": [], "url": "https://www.pexels.com/video/a-carved-pumpkin-5559357/", "image": "https://images.pexels.com/videos/5559357/at-home-creative-decor-diy-5559357.jpeg?auto=compress&cs=tinysrgb&fit=crop&h=1200&w=630", "avg_color": null, "user": {"id": 3674631, "name": "Daisy Anderson", "url": "https://www.pexels.com/@daisy-anderson"}, "video_files": [{"id": 9731561, "quality": "uhd", "file_type": "video/mp4", "width": 1440, "height": 2560, "fps": 25.0, "link": "https://videos.pexels.com/video-files/5559357/5559357-uhd_1440_2560_25fps.mp4", "size": 13577338}, {"id": 9731644, "quality": "hd", "file_type": "video/mp4", "width": 1080, "height": 1920, "fps": 25.0, "link": "https://videos.pexels.com/video-files/5559357/5559357-hd_1080_1920_25fps.mp4", "size": 5666759}, {"id": 9731760, "quality": "uhd", "file_type": "video/mp4", "width": 2160, "height": 3840, "fps": 25.0, "link": "https://videos.pexels.com/video-files/5559357/5559357-uhd_2160_3840_25fps.mp4", "size": 25881820}, {"id": 9731837, "quality": "sd", "file_type": "video/mp4", "width": 240, "height": 426, "fps": 25.0, "link": "https://videos.pexels.com/video-files/5559357/5559357-sd_240_426_25fps.mp4", "size": 319034}, {"id": 9731881, "quality": "sd", "file_type": "video/mp4", "width": 360, "height": 640, "fps": 25.0, "link": "https://videos.pexels.com/video-files/5559357/5559357-sd_360_640_25fps.mp4", "size": 523969}, {"id": 9731922, "quality": "sd", "file_type": "video/mp4", "width": 540, "height": 960, "fps": 25.0, "link": "https://videos.pexels.com/video-files/5559357/5559357-sd_540_960_25fps.mp4", "size": 1556586}, {"id": 9732024, "quality": "hd", "file_type": "video/mp4", "width": 720, "height": 1280, "fps": 25.0, "link": "https://videos.pexels.com/video-files/5559357/5559357-hd_720_1280_25fps.mp4", "size": 2709201}], "video_pictures": [{"id": 3002212, "nr": 0, "picture": "https://images.pexels.com/videos/5559357/pictures/preview-0.jpeg"}, {"id": 3002213, "nr": 1, "picture": "https://images.pexels.com/videos/5559357/pictures/preview-1.jpeg"}, {"id": 3002214, "nr": 2, "picture": "https://images.pexels.com/videos/5559357/pictures/preview-2.jpeg"}, {"id": 3002215, "nr": 3, "picture": "https://images.pexels.com/videos/5559357/pictures/preview-3.jpeg"}, {"id": 3002216, "nr": 4, "picture": "https://images.pexels.com/videos/5559357/pictures/preview-4.jpeg"}, {"id": 3002217, "nr": 5, "picture": "https://images.pexels.com/videos/5559357/pictures/preview-5.jpeg"}, {"id": 3002221, "nr": 6, "picture": "https://images.pexels.com/videos/5559357/pictures/preview-6.jpeg"}, {"id": 3002224, "nr": 7, "picture": "https://images.pexels.com/videos/5559357/pictures/preview-7.jpeg"}, {"id": 3002227, "nr": 8, "picture": "https://images.pexels.com/videos/5559357/pictures/preview-8.jpeg"}, {"id": 3002231, "nr": 9, "picture": "https://images.pexels.com/videos/5559357/pictures/preview-9.jpeg"}, {"id": 3002235, "nr": 10, "picture": "https://images.pexels.com/videos/5559357/pictures/preview-10.jpeg"}, {"id": 3002239, "nr": 11, "picture": "https://images.pexels.com/videos/5559357/pictures/preview-11.jpeg"}, {"id": 3002241, "nr": 12, "picture": "https://images.pexels.com/videos/5559357/pictures/preview-12.jpeg"}, {"id": 3002244, "nr": 13, "picture": "https://images.pexels.com/videos/5559357/pictures/preview-13.jpeg"}, {"id": 3002246, "nr": 14, "picture": "https://images.pexels.com/videos/5559357/pictures/preview-14.jpeg"}]}, {"id": 5490683, "width": 1080, "height": 1920, "duration": 11, "full_res": null, "tags": [], "url": "https://www.pexels.com/video/video-of-carved-pumpkins-5490683/", "image": "https://images.pexels.com/videos/5490683/halloween-halloween-pumpkin-pumpkin-5490683.jpeg?auto=compress&cs=tinysrgb&fit=crop&h=1200&w=630", "avg_color": null, "user": {"id": 2638647, "name": "olia danilevich", "url": "https://www.pexels.com/@olia-danilevich"}, "video_files": [{"id": 9712854, "quality": "hd", "file_type": "video/mp4", "width": 720, "height": 1280, "fps": 25.0, "link": "https://videos.pexels.com/video-files/5490683/5490683-hd_720_1280_25fps.mp4", "size": 1404855}, {"id": 9712871, "quality": "sd", "file_type": "video/mp4", "width": 360, "height": 640, "fps": 25.0, "link": "https://videos.pexels.com/video-files/5490683/5490683-sd_360_640_25fps.mp4", "size": 498012}, {"id": 9712954, "quality": "sd", "file_type": "video/mp4", "width": 540, "height": 960, "fps": 25.0, "link": "https://videos.pexels.com/video-files/5490683/5490683-sd_540_960_25fps.mp4", "size": 1008540}, {"id": 9713018, "quality": "hd", "file_type": "video/mp4", "width": 1080, "height": 1920, "fps": 25.0, "link": "https://videos.pexels.com/video-files/5490683/5490683-hd_1080_1920_25fps.mp4", "size": 3542604}, {"id": 9713129, "quality": "sd", "file_type": "video/mp4", "width": 240, "height": 426, "fps": 25.0, "link": "https://videos.pexels.com/video-files/5490683/5490683-sd_240_426_25fps.mp4", "size": 234837}], "video_pictures": [{"id": 2900134, "nr": 0, "picture": "https://images.pexels.com/videos/5490683/pictures/preview-0.jpeg"}, {"id": 2900140, "nr": 1, "picture": "https://images.pexels.com/videos/5490683/pictures/preview-1.jpeg"}, {"id": 2900150, "nr": 2, "picture": "https://images.pexels.com/videos/5490683/pictures/preview-2.jpeg"}, {"id": 2900157, "nr": 3, "picture": "https://images.pexels.com/videos/5490683/pictures/preview-3.jpeg"}, {"id": 2900167, "nr": 4, "picture": "https://images.pexels.com/videos/5490683/pictures/preview-4.jpeg"}, {"id": 2900176, "nr": 5, "picture": "https://images.pexels.com/videos/5490683/pictures/preview-5.jpeg"}, {"id": 2900184, "nr": 6, "picture": "https://images.pexels.com/videos/5490683/pictures/preview-6.jpeg"}, {"id": 2900191, "nr": 7, "picture": "https://images.pexels.com/videos/5490683/pictures/preview-7.jpeg"}, {"id": 2900198, "nr": 8, "picture": "https://images.pexels.com/videos/5490683/pictures/preview-8.jpeg"}, {"id": 2900209, "nr": 9, "picture": "https://images.pexels.com/videos/5490683/pictures/preview-9.jpeg"}, {"id": 2900215, "nr": 10, "picture": "https://images.pexels.com/videos/5490683/pictures/preview-10.jpeg"}, {"id": 2900221, "nr": 11, "picture": "https://images.pexels.com/videos/5490683/pictures/preview-11.jpeg"}, {"id": 2900227, "nr": 12, "picture": "https://images.pexels.com/videos/5490683/pictures/preview-12.jpeg"}, {"id": 2900233, "nr": 13, "picture": "https://images.pexels.com/videos/5490683/pictures/preview-13.jpeg"}, {"id": 2900239, "nr": 14, "picture": "https://images.pexels.com/videos/5490683/pictures/preview-14.jpeg"}]}, {"id": 7516660, "width": 1080, "height": 1920, "duration": 16, "full_res": null, "tags": [], "url": "https://www.pexels.com/video/a-black-dog-wearing-halloween-costume-7516660/", "image": "https://images.pexels.com/videos/7516660/pexels-photo-7516660.jpeg?auto=compress&cs=tinysrgb&fit=crop&h=1200&w=630", "avg_color": null, "user": {"id": 3149039, "name": "RDNE Stock project", "url": "https://www.pexels.com/@rdne"}, "video_files": [{"id": 10456412, "quality": "sd", "file_type": "video/mp4", "width": 360, "height": 640, "fps": 30.0, "link": "https://videos.pexels.com/video-files/7516660/7516660-sd_360_640_30fps.mp4", "size": 971345}, {"id": 10456464, "quality": "hd", "file_type": "video/mp4", "width": 1080, "height": 1920, "fps": 30.0, "link": "https://videos.pexels.com/video-files/7516660/7516660-hd_1080_1920_30fps.mp4", "size": 10372091}, {"id": 10456497, "quality": "sd", "file_type": "video/mp4", "width": 240, "height": 426, "fps": 30.0, "link": "https://videos.pexels.com/video-files/7516660/7516660-sd_240_426_30fps.mp4", "size": 660346}, {"id": 10456513, "quality": "hd", "file_type": "video/mp4", "width": 720, "height": 1280, "fps": 30.0, "link": "https://videos.pexels.com/video-files/7516660/7516660-hd_720_1280_30fps.mp4", "size": 5205600}, {"id": 10456548, "quality": "sd", "file_type": "video/mp4", "width": 540, "height": 960, "fps": 30.0, "link": "https://videos.pexels.com/video-files/7516660/7516660-sd_540_960_30fps.mp4", "size": 2688863}], "video_pictures": [{"id": 6529315, "nr": 0, "picture": "https://images.pexels.com/videos/7516660/pictures/preview-0.jpeg"}, {"id": 6529318, "nr": 1, "picture": "https://images.pexels.com/videos/7516660/pictures/preview-1.jpeg"}, {"id": 6529323, "nr": 2, "picture": "https://images.pexels.com/videos/7516660/pictures/preview-2.jpeg"}, {"id": 6529332, "nr": 3, "picture": "https://images.pexels.com/videos/7516660/pictures/preview-3.jpeg"}, {"id": 6529338, "nr": 4, "picture": "https://images.pexels.com/videos/7516660/pictures/preview-4.jpeg"}, {"id": 6529344, "nr": 5, "picture": "https://images.pexels.com/videos/7516660/pictures/preview-5.jpeg"}, {"id": 6529350, "nr": 6, "picture": "https://images.pexels.com/videos/7516660/pictures/preview-6.jpeg"}, {"id": 6529355, "nr": 7, "picture": "https://images.pexels.com/videos/7516660/pictures/preview-7.jpeg"}, {"id": 6529361, "nr": 8, "picture": "https://images.pexels.com/videos/7516660/pictures/preview-8.jpeg"}, {"id": 6529366, "nr": 9, "picture": "https://images.pexels.com/videos/7516660/pictures/preview-9.jpeg"}, {"id": 6529373, "nr": 10, "picture": "https://images.pexels.com/videos/7516660/pictures/preview-10.jpeg"}, {"id": 6529378, "nr": 11, "picture": "https://images.pexels.com/videos/7516660/pictures/preview-11.jpeg"}, {"id": 6529382, "nr": 12, "picture": "https://images.pexels.com/videos/7516660/pictures/preview-12.jpeg"}, {"id": 6529388, "nr": 13, "picture": "https://images.pexels.com/videos/7516660/pictures/preview-13.jpeg"}, {"id": 6529393, "nr": 14, "picture": "https://images.pexels.com/videos/7516660/pictures/preview-14.jpeg"}]}, {"id": 5678973, "width": 2160, "height": 4096, "duration": 20, "full_res": null, "tags": [], "url": "https://www.pexels.com/video/placing-a-witch-hut-over-a-jack-o-lantern-5678973/", "image": "https://images.pexels.com/videos/5678973/pexels-photo-5678973.jpeg?auto=compress&cs=tinysrgb&fit=crop&h=1200&w=630", "avg_color": null, "user": {"id": 3372733, "name": "Monstera Production", "url": "https://www.pexels.com/@gabby-k"}, "video_files": [{"id": 9767212, "quality": "uhd", "file_type": "video/mp4", "width": 2160, "height": 4096, "fps": 30.0, "link": "https://videos.pexels.com/video-files/5678973/5678973-uhd_2160_4096_30fps.mp4", "size": 24365654}, {"id": 9767428, "quality": "sd", "file_type": "video/mp4", "width": 338, "height": 640, "fps": 30.0, "link": "https://videos.pexels.com/video-files/5678973/5678973-sd_338_640_30fps.mp4", "size": 491589}, {"id": 9767564, "quality": "sd", "file_type": "video/mp4", "width": 226, "height": 426, "fps": 30.0, "link": "https://videos.pexels.com/video-files/5678973/5678973-sd_226_426_30fps.mp4", "size": 260534}, {"id": 9767582, "quality": "uhd", "file_type": "video/mp4", "width": 1440, "height": 2732, "fps": 30.0, "link": "https://videos.pexels.com/video-files/5678973/5678973-uhd_1440_2732_30fps.mp4", "size": 7688644}, {"id": 9767610, "quality": "hd", "file_type": "video/mp4", "width": 1080, "height": 2048, "fps": 30.0, "link": "https://videos.pexels.com/video-files/5678973/5678973-hd_1080_2048_30fps.mp4", "size": 4175265}, {"id": 9767690, "quality": "hd", "file_type": "video/mp4", "width": 720, "height": 1366, "fps": 30.0, "link": "https://videos.pexels.com/video-files/5678973/5678973-hd_720_1366_30fps.mp4", "size": 1732037}, {"id": 9767743, "quality": "sd", "file_type": "video/mp4", "width": 506, "height": 960, "fps": 30.0, "link": "https://videos.pexels.com/video-files/5678973/5678973-sd_506_960_30fps.mp4", "size": 907698}], "video_pictures": [{"id": 3187340, "nr": 0, "picture": "https://images.pexels.com/videos/5678973/pictures/preview-0.jpeg"}, {"id": 3187352, "nr": 1, "picture": "https://images.pexels.com/videos/5678973/pictures/preview-1.jpeg"}, {"id": 3187372, "nr": 2, "picture": "https://images.pexels.com/videos/5678973/pictures/preview-2.jpeg"}, {"id": 3187389, "nr": 3, "picture": "https://images.pexels.com/videos/5678973/pictures/preview-3.jpeg"}, {"id": 3187404, "nr": 4, "picture": "https://images.pexels.com/videos/5678973/pictures/preview-4.jpeg"}, {"id": 3187428, "nr": 5, "picture": "https://images.pexels.com/videos/5678973/pictures/preview-5.jpeg"}, {"id": 3187438, "nr": 6, "picture": "https://images.pexels.com/videos/5678973/pictures/preview-6.jpeg"}, {"id": 3187445, "nr": 7, "picture": "https://images.pexels.com/videos/5678973/pictures/preview-7.jpeg"}, {"id": 3187455, "nr": 8, "picture": "https://images.pexels.com/videos/5678973/pictures/preview-8.jpeg"}, {"id": 3187461, "nr": 9, "picture": "https://images.pexels.com/videos/5678973/pictures/preview-9.jpeg"}, {"id": 3187470, "nr": 10, "picture": "https://images.pexels.com/videos/5678973/pictures/preview-10.jpeg"}, {"id": 3187477, "nr": 11, "picture": "https://images.pexels.com/videos/5678973/pictures/preview-11.jpeg"}, {"id": 3187485, "nr": 12, "picture": "https://images.pexels.com/videos/5678973/pictures/preview-12.jpeg"}, {"id": 3187492, "nr": 13, "picture": "https://images.pexels.com/videos/5678973/pictures/preview-13.jpeg"}, {"id": 3187499, "nr": 14, "picture": "https://images.pexels.com/videos/5678973/pictures/preview-14.jpeg"}]}, {"id": 5545780, "width": 2160, "height": 4096, "duration": 19, "full_res": null, "tags": [], "url": "https://www.pexels.com/video/woman-holding-a-blue-painted-pumpkin-5545780/", "image": "https://images.pexels.com/videos/5545780/pexels-photo-5545780.jpeg?auto=compress&cs=tinysrgb&fit=crop&h=1200&w=630", "avg_color": null, "user": {"id": 1437723, "name": "cottonbro studio", "url": "https://www.pexels.com/@cottonbro"}, "video_files": [{"id": 9729087, "quality": "hd", "file_type": "video/mp4", "width": 720, "height": 1366, "fps": 25.0, "link": "https://videos.pexels.com/video-files/5545780/5545780-hd_720_1366_25fps.mp4", "size": 3228162}, {"id": 9729240, "quality": "hd", "file_type": "video/mp4", "width": 1080, "height": 2048, "fps": 25.0, "link": "https://videos.pexels.com/video-files/5545780/5545780-hd_1080_2048_25fps.mp4", "size": 6415299}, {"id": 9729277, "quality": "uhd", "file_type": "video/mp4", "width": 2160, "height": 4096, "fps": 25.0, "link": "https://videos.pexels.com/video-files/5545780/5545780-uhd_2160_4096_25fps.mp4", "size": 29113434}, {"id": 9729380, "quality": "sd", "file_type": "video/mp4", "width": 506, "height": 960, "fps": 25.0, "link": "https://videos.pexels.com/video-files/5545780/5545780-sd_506_960_25fps.mp4", "size": 1833255}, {"id": 9729496, "quality": "sd", "file_type": "video/mp4", "width": 226, "height": 426, "fps": 25.0, "link": "https://videos.pexels.com/video-files/5545780/5545780-sd_226_426_25fps.mp4", "size": 574965}, {"id": 9729516, "quality": "sd", "file_type": "video/mp4", "width": 338, "height": 640, "fps": 25.0, "link": "https://videos.pexels.com/video-files/5545780/5545780-sd_338_640_25fps.mp4", "size": 911218}, {"id": 9729541, "quality": "uhd", "file_type": "video/mp4", "width": 1440, "height": 2732, "fps": 25.0, "link": "https://videos.pexels.com/video-files/5545780/5545780-uhd_1440_2732_25fps.mp4", "size": 10804008}], "video_pictures": [{"id": 2981159, "nr": 0, "picture": "https://images.pexels.com/videos/5545780/pictures/preview-0.jpeg"}, {"id": 2981169, "nr": 1, "picture": "https://images.pexels.com/videos/5545780/pictures/preview-1.jpeg"}, {"id": 2981179, "nr": 2, "picture": "https://images.pexels.com/videos/5545780/pictures/preview-2.jpeg"}, {"id": 2981191, "nr": 3, "picture": "https://images.pexels.com/videos/5545780/pictures/preview-3.jpeg"}, {"id": 2981203, "nr": 4, "picture": "https://images.pexels.com/videos/5545780/pictures/preview-4.jpeg"}, {"id": 2981221, "nr": 5, "picture": "https://images.pexels.com/videos/5545780/pictures/preview-5.jpeg"}, {"id": 2981235, "nr": 6, "picture": "https://images.pexels.com/videos/5545780/pictures/preview-6.jpeg"}, {"id": 2981249, "nr": 7, "picture": "https://images.pexels.com/videos/5545780/pictures/preview-7.jpeg"}, {"id": 2981264, "nr": 8, "picture": "https://images.pexels.com/videos/5545780/pictures/preview-8.jpeg"}, {"id": 2981275, "nr": 9, "picture": "https://images.pexels.com/videos/5545780/pictures/preview-9.jpeg"}, {"id": 2981282, "nr": 10, "picture": "https://images.pexels.com/videos/5545780/pictures/preview-10.jpeg"}, {"id": 2981290, "nr": 11, "picture": "https://images.pexels.com/videos/5545780/pictures/preview-11.jpeg"}, {"id": 2981296, "nr": 12, "picture": "https://images.pexels.com/videos/5545780/pictures/preview-12.jpeg"}, {"id": 2981305, "nr": 13, "picture": "https://images.pexels.com/videos/5545780/pictures/preview-13.jpeg"}, {"id": 2981312, "nr": 14, "picture": "https://images.pexels.com/videos/5545780/pictures/preview-14.jpeg"}]}], "total_results": 884, "next_page": "https://api.pexels.com/v1/videos/search?orientation=portrait&page=2&per_page=8&query=halloween+pumpkin", "url": "https://api-server.pexels.com/search/videos/halloween%20pumpkin/"}, "timestamp": "2025-01-24T18:12:58.229019"}
