{"query": "veggie garden", "response": {"page": 1, "per_page": 8, "videos": [{"id": 3943416, "width": 2160, "height": 4096, "duration": 8, "full_res": null, "tags": [], "url": "https://www.pexels.com/video/tossing-and-catching-a-fresh-tomato-in-the-air-3943416/", "image": "https://images.pexels.com/videos/3943416/agressive-art-berry-catch-3943416.jpeg?auto=compress&cs=tinysrgb&fit=crop&h=1200&w=630", "avg_color": null, "user": {"id": 1437723, "name": "cottonbro studio", "url": "https://www.pexels.com/@cottonbro"}, "video_files": [{"id": 9336287, "quality": "uhd", "file_type": "video/mp4", "width": 2160, "height": 4096, "fps": 25.0, "link": "https://videos.pexels.com/video-files/3943416/3943416-uhd_2160_4096_25fps.mp4", "size": 20498308}, {"id": 9336545, "quality": "uhd", "file_type": "video/mp4", "width": 1440, "height": 2732, "fps": 25.0, "link": "https://videos.pexels.com/video-files/3943416/3943416-uhd_1440_2732_25fps.mp4", "size": 12042982}, {"id": 9336674, "quality": "hd", "file_type": "video/mp4", "width": 720, "height": 1366, "fps": 50.0, "link": "https://videos.pexels.com/video-files/3943416/3943416-hd_720_1366_50fps.mp4", "size": 2342840}, {"id": 9336823, "quality": "sd", "file_type": "video/mp4", "width": 506, "height": 960, "fps": 25.0, "link": "https://videos.pexels.com/video-files/3943416/3943416-sd_506_960_25fps.mp4", "size": 1380846}, {"id": 9336921, "quality": "sd", "file_type": "video/mp4", "width": 338, "height": 640, "fps": 25.0, "link": "https://videos.pexels.com/video-files/3943416/3943416-sd_338_640_25fps.mp4", "size": 462701}, {"id": 9337243, "quality": "hd", "file_type": "video/mp4", "width": 1080, "height": 2048, "fps": 25.0, "link": "https://videos.pexels.com/video-files/3943416/3943416-hd_1080_2048_25fps.mp4", "size": 4901950}, {"id": 9337475, "quality": "sd", "file_type": "video/mp4", "width": 226, "height": 426, "fps": 25.0, "link": "https://videos.pexels.com/video-files/3943416/3943416-sd_226_426_25fps.mp4", "size": 283332}], "video_pictures": [{"id": 1008683, "nr": 0, "picture": "https://images.pexels.com/videos/3943416/pictures/preview-0.jpeg"}, {"id": 1008688, "nr": 1, "picture": "https://images.pexels.com/videos/3943416/pictures/preview-1.jpeg"}, {"id": 1008693, "nr": 2, "picture": "https://images.pexels.com/videos/3943416/pictures/preview-2.jpeg"}, {"id": 1008700, "nr": 3, "picture": "https://images.pexels.com/videos/3943416/pictures/preview-3.jpeg"}, {"id": 1008708, "nr": 4, "picture": "https://images.pexels.com/videos/3943416/pictures/preview-4.jpeg"}, {"id": 1008711, "nr": 5, "picture": "https://images.pexels.com/videos/3943416/pictures/preview-5.jpeg"}, {"id": 1008715, "nr": 6, "picture": "https://images.pexels.com/videos/3943416/pictures/preview-6.jpeg"}, {"id": 1008717, "nr": 7, "picture": "https://images.pexels.com/videos/3943416/pictures/preview-7.jpeg"}, {"id": 1008721, "nr": 8, "picture": "https://images.pexels.com/videos/3943416/pictures/preview-8.jpeg"}, {"id": 1008725, "nr": 9, "picture": "https://images.pexels.com/videos/3943416/pictures/preview-9.jpeg"}, {"id": 1008728, "nr": 10, "picture": "https://images.pexels.com/videos/3943416/pictures/preview-10.jpeg"}, {"id": 1008731, "nr": 11, "picture": "https://images.pexels.com/videos/3943416/pictures/preview-11.jpeg"}, {"id": 1008736, "nr": 12, "picture": "https://images.pexels.com/videos/3943416/pictures/preview-12.jpeg"}, {"id": 1008740, "nr": 13, "picture": "https://images.pexels.com/videos/3943416/pictures/preview-13.jpeg"}, {"id": 1008743, "nr": 14, "picture": "https://images.pexels.com/videos/3943416/pictures/preview-14.jpeg"}]}, {"id": 6824892, "width": 1080, "height": 1920, "duration": 14, "full_res": null, "tags": [], "url": "https://www.pexels.com/video/washed-green-leaves-in-a-strainer-6824892/", "image": "https://images.pexels.com/videos/6824892/colander-food-prep-green-leaves-ingredient-6824892.jpeg?auto=compress&cs=tinysrgb&fit=crop&h=1200&w=630", "avg_color": null, "user": {"id": 3540511, "name": "Eva Bronzini", "url": "https://www.pexels.com/@eva-bronzini"}, "video_files": [{"id": 10193333, "quality": "hd", "file_type": "video/mp4", "width": 1080, "height": 1920, "fps": 29.969999313354492, "link": "https://videos.pexels.com/video-files/6824892/6824892-hd_1080_1920_30fps.mp4", "size": 10169228}, {"id": 10193511, "quality": "sd", "file_type": "video/mp4", "width": 240, "height": 426, "fps": 29.969999313354492, "link": "https://videos.pexels.com/video-files/6824892/6824892-sd_240_426_30fps.mp4", "size": 649751}, {"id": 10193531, "quality": "sd", "file_type": "video/mp4", "width": 540, "height": 960, "fps": 29.969999313354492, "link": "https://videos.pexels.com/video-files/6824892/6824892-sd_540_960_30fps.mp4", "size": 2902884}, {"id": 10193621, "quality": "hd", "file_type": "video/mp4", "width": 720, "height": 1280, "fps": 29.969999313354492, "link": "https://videos.pexels.com/video-files/6824892/6824892-hd_720_1280_30fps.mp4", "size": 5284384}, {"id": 10193725, "quality": "sd", "file_type": "video/mp4", "width": 360, "height": 640, "fps": 29.969999313354492, "link": "https://videos.pexels.com/video-files/6824892/6824892-sd_360_640_30fps.mp4", "size": 1090910}], "video_pictures": [{"id": 5188609, "nr": 0, "picture": "https://images.pexels.com/videos/6824892/pictures/preview-0.jpeg"}, {"id": 5188610, "nr": 1, "picture": "https://images.pexels.com/videos/6824892/pictures/preview-1.jpeg"}, {"id": 5188611, "nr": 2, "picture": "https://images.pexels.com/videos/6824892/pictures/preview-2.jpeg"}, {"id": 5188612, "nr": 3, "picture": "https://images.pexels.com/videos/6824892/pictures/preview-3.jpeg"}, {"id": 5188613, "nr": 4, "picture": "https://images.pexels.com/videos/6824892/pictures/preview-4.jpeg"}, {"id": 5188614, "nr": 5, "picture": "https://images.pexels.com/videos/6824892/pictures/preview-5.jpeg"}, {"id": 5188615, "nr": 6, "picture": "https://images.pexels.com/videos/6824892/pictures/preview-6.jpeg"}, {"id": 5188616, "nr": 7, "picture": "https://images.pexels.com/videos/6824892/pictures/preview-7.jpeg"}, {"id": 5188617, "nr": 8, "picture": "https://images.pexels.com/videos/6824892/pictures/preview-8.jpeg"}, {"id": 5188618, "nr": 9, "picture": "https://images.pexels.com/videos/6824892/pictures/preview-9.jpeg"}, {"id": 5188619, "nr": 10, "picture": "https://images.pexels.com/videos/6824892/pictures/preview-10.jpeg"}, {"id": 5188620, "nr": 11, "picture": "https://images.pexels.com/videos/6824892/pictures/preview-11.jpeg"}, {"id": 5188621, "nr": 12, "picture": "https://images.pexels.com/videos/6824892/pictures/preview-12.jpeg"}, {"id": 5188622, "nr": 13, "picture": "https://images.pexels.com/videos/6824892/pictures/preview-13.jpeg"}, {"id": 5188623, "nr": 14, "picture": "https://images.pexels.com/videos/6824892/pictures/preview-14.jpeg"}]}, {"id": 5210723, "width": 1080, "height": 1920, "duration": 15, "full_res": null, "tags": [], "url": "https://www.pexels.com/video/video-footage-of-a-sprinkler-watering-the-vegetable-plants-5210723/", "image": "https://images.pexels.com/videos/5210723/pexels-photo-5210723.jpeg?auto=compress&cs=tinysrgb&fit=crop&h=1200&w=630", "avg_color": null, "user": {"id": 2351866, "name": "Cengiz Z", "url": "https://www.pexels.com/@cengiz"}, "video_files": [{"id": 9456698, "quality": "sd", "file_type": "video/mp4", "width": 240, "height": 426, "fps": 29.969999313354492, "link": "https://videos.pexels.com/video-files/5210723/5210723-sd_240_426_30fps.mp4", "size": 657259}, {"id": 9456722, "quality": "sd", "file_type": "video/mp4", "width": 360, "height": 640, "fps": 29.969999313354492, "link": "https://videos.pexels.com/video-files/5210723/5210723-sd_360_640_30fps.mp4", "size": 1002771}, {"id": 9456746, "quality": "hd", "file_type": "video/mp4", "width": 720, "height": 1280, "fps": 59.940101623535156, "link": "https://videos.pexels.com/video-files/5210723/5210723-hd_720_1280_60fps.mp4", "size": 5737964}, {"id": 9456785, "quality": "hd", "file_type": "video/mp4", "width": 1080, "height": 1920, "fps": 29.969999313354492, "link": "https://videos.pexels.com/video-files/5210723/5210723-hd_1080_1920_30fps.mp4", "size": 10306261}, {"id": 9456816, "quality": "sd", "file_type": "video/mp4", "width": 540, "height": 960, "fps": 29.969999313354492, "link": "https://videos.pexels.com/video-files/5210723/5210723-sd_540_960_30fps.mp4", "size": 2785003}], "video_pictures": [{"id": 2495729, "nr": 0, "picture": "https://images.pexels.com/videos/5210723/pictures/preview-0.jpeg"}, {"id": 2495730, "nr": 1, "picture": "https://images.pexels.com/videos/5210723/pictures/preview-1.jpeg"}, {"id": 2495731, "nr": 2, "picture": "https://images.pexels.com/videos/5210723/pictures/preview-2.jpeg"}, {"id": 2495732, "nr": 3, "picture": "https://images.pexels.com/videos/5210723/pictures/preview-3.jpeg"}, {"id": 2495733, "nr": 4, "picture": "https://images.pexels.com/videos/5210723/pictures/preview-4.jpeg"}, {"id": 2495734, "nr": 5, "picture": "https://images.pexels.com/videos/5210723/pictures/preview-5.jpeg"}, {"id": 2495735, "nr": 6, "picture": "https://images.pexels.com/videos/5210723/pictures/preview-6.jpeg"}, {"id": 2495736, "nr": 7, "picture": "https://images.pexels.com/videos/5210723/pictures/preview-7.jpeg"}, {"id": 2495737, "nr": 8, "picture": "https://images.pexels.com/videos/5210723/pictures/preview-8.jpeg"}, {"id": 2495738, "nr": 9, "picture": "https://images.pexels.com/videos/5210723/pictures/preview-9.jpeg"}, {"id": 2495739, "nr": 10, "picture": "https://images.pexels.com/videos/5210723/pictures/preview-10.jpeg"}, {"id": 2495740, "nr": 11, "picture": "https://images.pexels.com/videos/5210723/pictures/preview-11.jpeg"}, {"id": 2495741, "nr": 12, "picture": "https://images.pexels.com/videos/5210723/pictures/preview-12.jpeg"}, {"id": 2495742, "nr": 13, "picture": "https://images.pexels.com/videos/5210723/pictures/preview-13.jpeg"}, {"id": 2495743, "nr": 14, "picture": "https://images.pexels.com/videos/5210723/pictures/preview-14.jpeg"}]}, {"id": 5129075, "width": 2160, "height": 4096, "duration": 26, "full_res": null, "tags": [], "url": "https://www.pexels.com/video/a-woman-harvesting-red-lettuce-5129075/", "image": "https://images.pexels.com/videos/5129075/child-childhood-cling-dog-5129075.jpeg?auto=compress&cs=tinysrgb&fit=crop&h=1200&w=630", "avg_color": null, "user": {"id": 2441340, "name": "Anastasia  Shuraeva", "url": "https://www.pexels.com/@anastasia-shuraeva"}, "video_files": [{"id": 9629757, "quality": "sd", "file_type": "video/mp4", "width": 506, "height": 960, "fps": 24.0, "link": "https://videos.pexels.com/video-files/5129075/5129075-sd_506_960_24fps.mp4", "size": 3364273}, {"id": 9629814, "quality": "hd", "file_type": "video/mp4", "width": 1080, "height": 2048, "fps": 24.0, "link": "https://videos.pexels.com/video-files/5129075/5129075-hd_1080_2048_24fps.mp4", "size": 13183648}, {"id": 9629833, "quality": "sd", "file_type": "video/mp4", "width": 226, "height": 426, "fps": 24.0, "link": "https://videos.pexels.com/video-files/5129075/5129075-sd_226_426_24fps.mp4", "size": 929631}, {"id": 9629933, "quality": "sd", "file_type": "video/mp4", "width": 338, "height": 640, "fps": 24.0, "link": "https://videos.pexels.com/video-files/5129075/5129075-sd_338_640_24fps.mp4", "size": 1459720}, {"id": 9630088, "quality": "hd", "file_type": "video/mp4", "width": 720, "height": 1366, "fps": 24.0, "link": "https://videos.pexels.com/video-files/5129075/5129075-hd_720_1366_24fps.mp4", "size": 6547311}, {"id": 9630189, "quality": "uhd", "file_type": "video/mp4", "width": 2160, "height": 4096, "fps": 24.0, "link": "https://videos.pexels.com/video-files/5129075/5129075-uhd_2160_4096_24fps.mp4", "size": 57108633}, {"id": 9630337, "quality": "uhd", "file_type": "video/mp4", "width": 1440, "height": 2732, "fps": 24.0, "link": "https://videos.pexels.com/video-files/5129075/5129075-uhd_1440_2732_24fps.mp4", "size": 24433124}], "video_pictures": [{"id": 2403711, "nr": 0, "picture": "https://images.pexels.com/videos/5129075/pictures/preview-0.jpeg"}, {"id": 2403714, "nr": 1, "picture": "https://images.pexels.com/videos/5129075/pictures/preview-1.jpeg"}, {"id": 2403720, "nr": 2, "picture": "https://images.pexels.com/videos/5129075/pictures/preview-2.jpeg"}, {"id": 2403724, "nr": 3, "picture": "https://images.pexels.com/videos/5129075/pictures/preview-3.jpeg"}, {"id": 2403729, "nr": 4, "picture": "https://images.pexels.com/videos/5129075/pictures/preview-4.jpeg"}, {"id": 2403734, "nr": 5, "picture": "https://images.pexels.com/videos/5129075/pictures/preview-5.jpeg"}, {"id": 2403736, "nr": 6, "picture": "https://images.pexels.com/videos/5129075/pictures/preview-6.jpeg"}, {"id": 2403740, "nr": 7, "picture": "https://images.pexels.com/videos/5129075/pictures/preview-7.jpeg"}, {"id": 2403744, "nr": 8, "picture": "https://images.pexels.com/videos/5129075/pictures/preview-8.jpeg"}, {"id": 2403748, "nr": 9, "picture": "https://images.pexels.com/videos/5129075/pictures/preview-9.jpeg"}, {"id": 2403752, "nr": 10, "picture": "https://images.pexels.com/videos/5129075/pictures/preview-10.jpeg"}, {"id": 2403757, "nr": 11, "picture": "https://images.pexels.com/videos/5129075/pictures/preview-11.jpeg"}, {"id": 2403760, "nr": 12, "picture": "https://images.pexels.com/videos/5129075/pictures/preview-12.jpeg"}, {"id": 2403763, "nr": 13, "picture": "https://images.pexels.com/videos/5129075/pictures/preview-13.jpeg"}, {"id": 2403765, "nr": 14, "picture": "https://images.pexels.com/videos/5129075/pictures/preview-14.jpeg"}]}, {"id": 5603164, "width": 2160, "height": 3840, "duration": 20, "full_res": null, "tags": [], "url": "https://www.pexels.com/video/close-up-video-of-pumpkins-5603164/", "image": "https://images.pexels.com/videos/5603164/african-american-child-african-child-asian-child-asian-children-5603164.jpeg?auto=compress&cs=tinysrgb&fit=crop&h=1200&w=630", "avg_color": null, "user": {"id": 649765, "name": "Yaroslav Shuraev", "url": "https://www.pexels.com/@yaroslav-shuraev"}, "video_files": [{"id": 9741631, "quality": "sd", "file_type": "video/mp4", "width": 360, "height": 640, "fps": 24.0, "link": "https://videos.pexels.com/video-files/5603164/5603164-sd_360_640_24fps.mp4", "size": 821959}, {"id": 9741653, "quality": "uhd", "file_type": "video/mp4", "width": 2160, "height": 3840, "fps": 24.0, "link": "https://videos.pexels.com/video-files/5603164/5603164-uhd_2160_3840_24fps.mp4", "size": 32164457}, {"id": 9741714, "quality": "hd", "file_type": "video/mp4", "width": 1080, "height": 1920, "fps": 24.0, "link": "https://videos.pexels.com/video-files/5603164/5603164-hd_1080_1920_24fps.mp4", "size": 5983342}, {"id": 9741757, "quality": "sd", "file_type": "video/mp4", "width": 240, "height": 426, "fps": 24.0, "link": "https://videos.pexels.com/video-files/5603164/5603164-sd_240_426_24fps.mp4", "size": 490776}, {"id": 9741821, "quality": "sd", "file_type": "video/mp4", "width": 540, "height": 960, "fps": 24.0, "link": "https://videos.pexels.com/video-files/5603164/5603164-sd_540_960_24fps.mp4", "size": 1576695}, {"id": 9741907, "quality": "uhd", "file_type": "video/mp4", "width": 1440, "height": 2560, "fps": 24.0, "link": "https://videos.pexels.com/video-files/5603164/5603164-uhd_1440_2560_24fps.mp4", "size": 11106318}, {"id": 9741989, "quality": "hd", "file_type": "video/mp4", "width": 720, "height": 1280, "fps": 24.0, "link": "https://videos.pexels.com/video-files/5603164/5603164-hd_720_1280_24fps.mp4", "size": 2770991}], "video_pictures": [{"id": 3067737, "nr": 0, "picture": "https://images.pexels.com/videos/5603164/pictures/preview-0.jpeg"}, {"id": 3067742, "nr": 1, "picture": "https://images.pexels.com/videos/5603164/pictures/preview-1.jpeg"}, {"id": 3067746, "nr": 2, "picture": "https://images.pexels.com/videos/5603164/pictures/preview-2.jpeg"}, {"id": 3067753, "nr": 3, "picture": "https://images.pexels.com/videos/5603164/pictures/preview-3.jpeg"}, {"id": 3067762, "nr": 4, "picture": "https://images.pexels.com/videos/5603164/pictures/preview-4.jpeg"}, {"id": 3067771, "nr": 5, "picture": "https://images.pexels.com/videos/5603164/pictures/preview-5.jpeg"}, {"id": 3067777, "nr": 6, "picture": "https://images.pexels.com/videos/5603164/pictures/preview-6.jpeg"}, {"id": 3067788, "nr": 7, "picture": "https://images.pexels.com/videos/5603164/pictures/preview-7.jpeg"}, {"id": 3067799, "nr": 8, "picture": "https://images.pexels.com/videos/5603164/pictures/preview-8.jpeg"}, {"id": 3067808, "nr": 9, "picture": "https://images.pexels.com/videos/5603164/pictures/preview-9.jpeg"}, {"id": 3067819, "nr": 10, "picture": "https://images.pexels.com/videos/5603164/pictures/preview-10.jpeg"}, {"id": 3067841, "nr": 11, "picture": "https://images.pexels.com/videos/5603164/pictures/preview-11.jpeg"}, {"id": 3067851, "nr": 12, "picture": "https://images.pexels.com/videos/5603164/pictures/preview-12.jpeg"}, {"id": 3067866, "nr": 13, "picture": "https://images.pexels.com/videos/5603164/pictures/preview-13.jpeg"}, {"id": 3067876, "nr": 14, "picture": "https://images.pexels.com/videos/5603164/pictures/preview-14.jpeg"}]}, {"id": 10041360, "width": 1080, "height": 1920, "duration": 12, "full_res": null, "tags": [], "url": "https://www.pexels.com/video/farmer-harvesting-carrots-in-field-10041360/", "image": "https://images.pexels.com/videos/10041360/pexels-photo-10041360.jpeg?auto=compress&cs=tinysrgb&fit=crop&h=1200&w=630", "avg_color": null, "user": {"id": 11924337, "name": "Los Muertos Crew", "url": "https://www.pexels.com/@cristian-rojas"}, "video_files": [{"id": 11208646, "quality": "hd", "file_type": "video/mp4", "width": 1080, "height": 1920, "fps": 23.97599983215332, "link": "https://videos.pexels.com/video-files/10041360/10041360-hd_1080_1920_24fps.mp4", "size": 7943550}, {"id": 11208675, "quality": "hd", "file_type": "video/mp4", "width": 720, "height": 1280, "fps": 23.97599983215332, "link": "https://videos.pexels.com/video-files/10041360/10041360-hd_720_1280_24fps.mp4", "size": 4038154}, {"id": 11208720, "quality": "sd", "file_type": "video/mp4", "width": 360, "height": 640, "fps": 23.97599983215332, "link": "https://videos.pexels.com/video-files/10041360/10041360-sd_360_640_24fps.mp4", "size": 756617}, {"id": 11208763, "quality": "sd", "file_type": "video/mp4", "width": 240, "height": 426, "fps": 23.97599983215332, "link": "https://videos.pexels.com/video-files/10041360/10041360-sd_240_426_24fps.mp4", "size": 531327}, {"id": 11208805, "quality": "sd", "file_type": "video/mp4", "width": 540, "height": 960, "fps": 23.97599983215332, "link": "https://videos.pexels.com/video-files/10041360/10041360-sd_540_960_24fps.mp4", "size": 2093828}], "video_pictures": [{"id": 10510167, "nr": 0, "picture": "https://images.pexels.com/videos/10041360/pictures/preview-0.jpeg"}, {"id": 10510178, "nr": 1, "picture": "https://images.pexels.com/videos/10041360/pictures/preview-1.jpeg"}, {"id": 10510198, "nr": 2, "picture": "https://images.pexels.com/videos/10041360/pictures/preview-2.jpeg"}, {"id": 10510212, "nr": 3, "picture": "https://images.pexels.com/videos/10041360/pictures/preview-3.jpeg"}, {"id": 10510222, "nr": 4, "picture": "https://images.pexels.com/videos/10041360/pictures/preview-4.jpeg"}, {"id": 10510228, "nr": 5, "picture": "https://images.pexels.com/videos/10041360/pictures/preview-5.jpeg"}, {"id": 10510248, "nr": 6, "picture": "https://images.pexels.com/videos/10041360/pictures/preview-6.jpeg"}, {"id": 10510277, "nr": 7, "picture": "https://images.pexels.com/videos/10041360/pictures/preview-7.jpeg"}, {"id": 10510293, "nr": 8, "picture": "https://images.pexels.com/videos/10041360/pictures/preview-8.jpeg"}, {"id": 10510311, "nr": 9, "picture": "https://images.pexels.com/videos/10041360/pictures/preview-9.jpeg"}, {"id": 10510336, "nr": 10, "picture": "https://images.pexels.com/videos/10041360/pictures/preview-10.jpeg"}, {"id": 10510355, "nr": 11, "picture": "https://images.pexels.com/videos/10041360/pictures/preview-11.jpeg"}, {"id": 10510382, "nr": 12, "picture": "https://images.pexels.com/videos/10041360/pictures/preview-12.jpeg"}, {"id": 10510400, "nr": 13, "picture": "https://images.pexels.com/videos/10041360/pictures/preview-13.jpeg"}, {"id": 10510412, "nr": 14, "picture": "https://images.pexels.com/videos/10041360/pictures/preview-14.jpeg"}]}, {"id": 5607418, "width": 2160, "height": 3840, "duration": 24, "full_res": null, "tags": [], "url": "https://www.pexels.com/video/video-of-pumpkins-on-a-hay-5607418/", "image": "https://images.pexels.com/videos/5607418/pexels-photo-5607418.jpeg?auto=compress&cs=tinysrgb&fit=crop&h=1200&w=630", "avg_color": null, "user": {"id": 649765, "name": "Yaroslav Shuraev", "url": "https://www.pexels.com/@yaroslav-shuraev"}, "video_files": [{"id": 9743270, "quality": "hd", "file_type": "video/mp4", "width": 720, "height": 1280, "fps": 24.0, "link": "https://videos.pexels.com/video-files/5607418/5607418-hd_720_1280_24fps.mp4", "size": 6618509}, {"id": 9743283, "quality": "hd", "file_type": "video/mp4", "width": 1080, "height": 1920, "fps": 24.0, "link": "https://videos.pexels.com/video-files/5607418/5607418-hd_1080_1920_24fps.mp4", "size": 12809316}, {"id": 9743306, "quality": "sd", "file_type": "video/mp4", "width": 360, "height": 640, "fps": 24.0, "link": "https://videos.pexels.com/video-files/5607418/5607418-sd_360_640_24fps.mp4", "size": 1431761}, {"id": 9743325, "quality": "sd", "file_type": "video/mp4", "width": 240, "height": 426, "fps": 24.0, "link": "https://videos.pexels.com/video-files/5607418/5607418-sd_240_426_24fps.mp4", "size": 927658}, {"id": 9743357, "quality": "sd", "file_type": "video/mp4", "width": 540, "height": 960, "fps": 24.0, "link": "https://videos.pexels.com/video-files/5607418/5607418-sd_540_960_24fps.mp4", "size": 3868613}, {"id": 9743386, "quality": "uhd", "file_type": "video/mp4", "width": 2160, "height": 3840, "fps": 24.0, "link": "https://videos.pexels.com/video-files/5607418/5607418-uhd_2160_3840_24fps.mp4", "size": 48658547}, {"id": 9743402, "quality": "uhd", "file_type": "video/mp4", "width": 1440, "height": 2560, "fps": 24.0, "link": "https://videos.pexels.com/video-files/5607418/5607418-uhd_1440_2560_24fps.mp4", "size": 21715624}], "video_pictures": [{"id": 3074307, "nr": 0, "picture": "https://images.pexels.com/videos/5607418/pictures/preview-0.jpeg"}, {"id": 3074310, "nr": 1, "picture": "https://images.pexels.com/videos/5607418/pictures/preview-1.jpeg"}, {"id": 3074314, "nr": 2, "picture": "https://images.pexels.com/videos/5607418/pictures/preview-2.jpeg"}, {"id": 3074318, "nr": 3, "picture": "https://images.pexels.com/videos/5607418/pictures/preview-3.jpeg"}, {"id": 3074319, "nr": 4, "picture": "https://images.pexels.com/videos/5607418/pictures/preview-4.jpeg"}, {"id": 3074321, "nr": 5, "picture": "https://images.pexels.com/videos/5607418/pictures/preview-5.jpeg"}, {"id": 3074323, "nr": 6, "picture": "https://images.pexels.com/videos/5607418/pictures/preview-6.jpeg"}, {"id": 3074325, "nr": 7, "picture": "https://images.pexels.com/videos/5607418/pictures/preview-7.jpeg"}, {"id": 3074327, "nr": 8, "picture": "https://images.pexels.com/videos/5607418/pictures/preview-8.jpeg"}, {"id": 3074328, "nr": 9, "picture": "https://images.pexels.com/videos/5607418/pictures/preview-9.jpeg"}, {"id": 3074332, "nr": 10, "picture": "https://images.pexels.com/videos/5607418/pictures/preview-10.jpeg"}, {"id": 3074334, "nr": 11, "picture": "https://images.pexels.com/videos/5607418/pictures/preview-11.jpeg"}, {"id": 3074337, "nr": 12, "picture": "https://images.pexels.com/videos/5607418/pictures/preview-12.jpeg"}, {"id": 3074340, "nr": 13, "picture": "https://images.pexels.com/videos/5607418/pictures/preview-13.jpeg"}, {"id": 3074344, "nr": 14, "picture": "https://images.pexels.com/videos/5607418/pictures/preview-14.jpeg"}]}, {"id": 7714912, "width": 2160, "height": 3840, "duration": 10, "full_res": null, "tags": [], "url": "https://www.pexels.com/video/sprouts-planted-on-soil-7714912/", "image": "https://images.pexels.com/videos/7714912/agriculture-ball-shaped-bed-bud-7714912.jpeg?auto=compress&cs=tinysrgb&fit=crop&h=1200&w=630", "avg_color": null, "user": {"id": 48519361, "name": "Greta Hoffman", "url": "https://www.pexels.com/@greta-hoffman"}, "video_files": [{"id": 10564579, "quality": "sd", "file_type": "video/mp4", "width": 360, "height": 640, "fps": 23.97599983215332, "link": "https://videos.pexels.com/video-files/7714912/7714912-sd_360_640_24fps.mp4", "size": 548706}, {"id": 10564655, "quality": "uhd", "file_type": "video/mp4", "width": 1440, "height": 2560, "fps": 23.97599983215332, "link": "https://videos.pexels.com/video-files/7714912/7714912-uhd_1440_2560_24fps.mp4", "size": 9708892}, {"id": 10564765, "quality": "hd", "file_type": "video/mp4", "width": 720, "height": 1280, "fps": 23.97599983215332, "link": "https://videos.pexels.com/video-files/7714912/7714912-hd_720_1280_24fps.mp4", "size": 2459201}, {"id": 10564877, "quality": "sd", "file_type": "video/mp4", "width": 540, "height": 960, "fps": 23.97599983215332, "link": "https://videos.pexels.com/video-files/7714912/7714912-sd_540_960_24fps.mp4", "size": 1406287}, {"id": 10564961, "quality": "hd", "file_type": "video/mp4", "width": 1080, "height": 1920, "fps": 23.97599983215332, "link": "https://videos.pexels.com/video-files/7714912/7714912-hd_1080_1920_24fps.mp4", "size": 4849958}, {"id": 10565009, "quality": "uhd", "file_type": "video/mp4", "width": 2160, "height": 3840, "fps": 23.97599983215332, "link": "https://videos.pexels.com/video-files/7714912/7714912-uhd_2160_3840_24fps.mp4", "size": 20075837}, {"id": 10565067, "quality": "sd", "file_type": "video/mp4", "width": 240, "height": 426, "fps": 23.97599983215332, "link": "https://videos.pexels.com/video-files/7714912/7714912-sd_240_426_24fps.mp4", "size": 413880}], "video_pictures": [{"id": 6976325, "nr": 0, "picture": "https://images.pexels.com/videos/7714912/pictures/preview-0.jpeg"}, {"id": 6976329, "nr": 1, "picture": "https://images.pexels.com/videos/7714912/pictures/preview-1.jpeg"}, {"id": 6976336, "nr": 2, "picture": "https://images.pexels.com/videos/7714912/pictures/preview-2.jpeg"}, {"id": 6976343, "nr": 3, "picture": "https://images.pexels.com/videos/7714912/pictures/preview-3.jpeg"}, {"id": 6976353, "nr": 4, "picture": "https://images.pexels.com/videos/7714912/pictures/preview-4.jpeg"}, {"id": 6976360, "nr": 5, "picture": "https://images.pexels.com/videos/7714912/pictures/preview-5.jpeg"}, {"id": 6976365, "nr": 6, "picture": "https://images.pexels.com/videos/7714912/pictures/preview-6.jpeg"}, {"id": 6976373, "nr": 7, "picture": "https://images.pexels.com/videos/7714912/pictures/preview-7.jpeg"}, {"id": 6976380, "nr": 8, "picture": "https://images.pexels.com/videos/7714912/pictures/preview-8.jpeg"}, {"id": 6976387, "nr": 9, "picture": "https://images.pexels.com/videos/7714912/pictures/preview-9.jpeg"}, {"id": 6976398, "nr": 10, "picture": "https://images.pexels.com/videos/7714912/pictures/preview-10.jpeg"}, {"id": 6976412, "nr": 11, "picture": "https://images.pexels.com/videos/7714912/pictures/preview-11.jpeg"}, {"id": 6976417, "nr": 12, "picture": "https://images.pexels.com/videos/7714912/pictures/preview-12.jpeg"}, {"id": 6976430, "nr": 13, "picture": "https://images.pexels.com/videos/7714912/pictures/preview-13.jpeg"}, {"id": 6976442, "nr": 14, "picture": "https://images.pexels.com/videos/7714912/pictures/preview-14.jpeg"}]}], "total_results": 8000, "next_page": "https://api.pexels.com/v1/videos/search?orientation=portrait&page=2&per_page=8&query=veggie+garden", "url": "https://api-server.pexels.com/search/videos/veggie%20garden/"}, "timestamp": "2025-02-10T17:23:37.784221"}
