{"query": "seed package", "response": {"page": 1, "per_page": 8, "videos": [{"id": 30353172, "width": 1080, "height": 1920, "duration": 7, "full_res": null, "tags": [], "url": "https://www.pexels.com/video/hands-holding-coffee-beans-on-vibrant-red-background-30353172/", "image": "https://images.pexels.com/videos/30353172/4k-video-bean-cafe-coffee-bean-30353172.jpeg?auto=compress&cs=tinysrgb&fit=crop&h=1200&w=630", "avg_color": null, "user": {"id": 282933044, "name": "Cemrecan Yurtman", "url": "https://www.pexels.com/@cmrcn"}, "video_files": [{"id": 13012970, "quality": null, "file_type": "video/mp4", "width": 360, "height": 640, "fps": 29.969999313354492, "link": "https://videos.pexels.com/video-files/30353172/13012970_360_640_30fps.mp4", "size": 552188}, {"id": 13012971, "quality": null, "file_type": "video/mp4", "width": 540, "height": 960, "fps": 29.969999313354492, "link": "https://videos.pexels.com/video-files/30353172/13012971_540_960_30fps.mp4", "size": 1042314}, {"id": 13012973, "quality": null, "file_type": "video/mp4", "width": 720, "height": 1280, "fps": 29.969999313354492, "link": "https://videos.pexels.com/video-files/30353172/13012973_720_1280_30fps.mp4", "size": 1694629}, {"id": 13012975, "quality": null, "file_type": "video/mp4", "width": 1080, "height": 1920, "fps": 29.969999313354492, "link": "https://videos.pexels.com/video-files/30353172/13012975_1080_1920_30fps.mp4", "size": 3875551}], "video_pictures": [{"id": 24727067, "nr": 0, "picture": "https://images.pexels.com/videos/30353172/pictures/preview-0.jpg"}, {"id": 24727068, "nr": 1, "picture": "https://images.pexels.com/videos/30353172/pictures/preview-1.jpg"}, {"id": 24727069, "nr": 2, "picture": "https://images.pexels.com/videos/30353172/pictures/preview-2.jpg"}, {"id": 24727070, "nr": 3, "picture": "https://images.pexels.com/videos/30353172/pictures/preview-3.jpg"}, {"id": 24727071, "nr": 4, "picture": "https://images.pexels.com/videos/30353172/pictures/preview-4.jpg"}, {"id": 24727072, "nr": 5, "picture": "https://images.pexels.com/videos/30353172/pictures/preview-5.jpg"}]}, {"id": 5876044, "width": 2160, "height": 4096, "duration": 32, "full_res": null, "tags": [], "url": "https://www.pexels.com/video/vertical-video-of-falling-lemon-slices-5876044/", "image": "https://images.pexels.com/videos/5876044/pexels-photo-5876044.jpeg?auto=compress&cs=tinysrgb&fit=crop&h=1200&w=630", "avg_color": null, "user": {"id": 1437723, "name": "cottonbro studio", "url": "https://www.pexels.com/@cottonbro"}, "video_files": [{"id": 9834865, "quality": "hd", "file_type": "video/mp4", "width": 720, "height": 1366, "fps": 25.0, "link": "https://videos.pexels.com/video-files/5876044/5876044-hd_720_1366_25fps.mp4", "size": 4528963}, {"id": 9834978, "quality": "uhd", "file_type": "video/mp4", "width": 2160, "height": 4096, "fps": 25.0, "link": "https://videos.pexels.com/video-files/5876044/5876044-uhd_2160_4096_25fps.mp4", "size": 52922584}, {"id": 9835053, "quality": "sd", "file_type": "video/mp4", "width": 338, "height": 640, "fps": 25.0, "link": "https://videos.pexels.com/video-files/5876044/5876044-sd_338_640_25fps.mp4", "size": 1068428}, {"id": 9835157, "quality": "uhd", "file_type": "video/mp4", "width": 1440, "height": 2732, "fps": 25.0, "link": "https://videos.pexels.com/video-files/5876044/5876044-uhd_1440_2732_25fps.mp4", "size": 16962474}, {"id": 9835254, "quality": "hd", "file_type": "video/mp4", "width": 1080, "height": 2048, "fps": 25.0, "link": "https://videos.pexels.com/video-files/5876044/5876044-hd_1080_2048_25fps.mp4", "size": 10354144}, {"id": 9835360, "quality": "sd", "file_type": "video/mp4", "width": 226, "height": 426, "fps": 25.0, "link": "https://videos.pexels.com/video-files/5876044/5876044-sd_226_426_25fps.mp4", "size": 563683}, {"id": 9835461, "quality": "sd", "file_type": "video/mp4", "width": 506, "height": 960, "fps": 25.0, "link": "https://videos.pexels.com/video-files/5876044/5876044-sd_506_960_25fps.mp4", "size": 2368531}], "video_pictures": [{"id": 3505859, "nr": 0, "picture": "https://images.pexels.com/videos/5876044/pictures/preview-0.jpeg"}, {"id": 3505866, "nr": 1, "picture": "https://images.pexels.com/videos/5876044/pictures/preview-1.jpeg"}, {"id": 3505882, "nr": 2, "picture": "https://images.pexels.com/videos/5876044/pictures/preview-2.jpeg"}, {"id": 3505908, "nr": 3, "picture": "https://images.pexels.com/videos/5876044/pictures/preview-3.jpeg"}, {"id": 3505925, "nr": 4, "picture": "https://images.pexels.com/videos/5876044/pictures/preview-4.jpeg"}, {"id": 3505941, "nr": 5, "picture": "https://images.pexels.com/videos/5876044/pictures/preview-5.jpeg"}, {"id": 3505952, "nr": 6, "picture": "https://images.pexels.com/videos/5876044/pictures/preview-6.jpeg"}, {"id": 3505965, "nr": 7, "picture": "https://images.pexels.com/videos/5876044/pictures/preview-7.jpeg"}, {"id": 3505977, "nr": 8, "picture": "https://images.pexels.com/videos/5876044/pictures/preview-8.jpeg"}, {"id": 3505989, "nr": 9, "picture": "https://images.pexels.com/videos/5876044/pictures/preview-9.jpeg"}, {"id": 3505998, "nr": 10, "picture": "https://images.pexels.com/videos/5876044/pictures/preview-10.jpeg"}, {"id": 3506009, "nr": 11, "picture": "https://images.pexels.com/videos/5876044/pictures/preview-11.jpeg"}, {"id": 3506020, "nr": 12, "picture": "https://images.pexels.com/videos/5876044/pictures/preview-12.jpeg"}, {"id": 3506027, "nr": 13, "picture": "https://images.pexels.com/videos/5876044/pictures/preview-13.jpeg"}, {"id": 3506036, "nr": 14, "picture": "https://images.pexels.com/videos/5876044/pictures/preview-14.jpeg"}]}, {"id": 4865907, "width": 2160, "height": 4096, "duration": 21, "full_res": null, "tags": [], "url": "https://www.pexels.com/video/a-woman-is-working-on-a-book-in-a-library-4865907/", "image": "https://images.pexels.com/videos/4865907/pexels-photo-4865907.jpeg?auto=compress&cs=tinysrgb&fit=crop&h=1200&w=630", "avg_color": null, "user": {"id": 1437723, "name": "cottonbro studio", "url": "https://www.pexels.com/@cottonbro"}, "video_files": [{"id": 9420402, "quality": "uhd", "file_type": "video/mp4", "width": 2160, "height": 4096, "fps": 25.0, "link": "https://videos.pexels.com/video-files/4865907/4865907-uhd_2160_4096_25fps.mp4", "size": 34763950}, {"id": 9420492, "quality": "hd", "file_type": "video/mp4", "width": 1080, "height": 2048, "fps": 25.0, "link": "https://videos.pexels.com/video-files/4865907/4865907-hd_1080_2048_25fps.mp4", "size": 6931868}, {"id": 9420583, "quality": "sd", "file_type": "video/mp4", "width": 506, "height": 960, "fps": 25.0, "link": "https://videos.pexels.com/video-files/4865907/4865907-sd_506_960_25fps.mp4", "size": 1883356}, {"id": 9420649, "quality": "uhd", "file_type": "video/mp4", "width": 1440, "height": 2732, "fps": 25.0, "link": "https://videos.pexels.com/video-files/4865907/4865907-uhd_1440_2732_25fps.mp4", "size": 12171081}, {"id": 9420725, "quality": "hd", "file_type": "video/mp4", "width": 720, "height": 1366, "fps": 25.0, "link": "https://videos.pexels.com/video-files/4865907/4865907-hd_720_1366_25fps.mp4", "size": 3231074}, {"id": 9420830, "quality": "sd", "file_type": "video/mp4", "width": 338, "height": 640, "fps": 25.0, "link": "https://videos.pexels.com/video-files/4865907/4865907-sd_338_640_25fps.mp4", "size": 1061687}, {"id": 9420918, "quality": "sd", "file_type": "video/mp4", "width": 226, "height": 426, "fps": 25.0, "link": "https://videos.pexels.com/video-files/4865907/4865907-sd_226_426_25fps.mp4", "size": 644693}], "video_pictures": [{"id": 2053533, "nr": 0, "picture": "https://images.pexels.com/videos/4865907/pictures/preview-0.jpeg"}, {"id": 2053542, "nr": 1, "picture": "https://images.pexels.com/videos/4865907/pictures/preview-1.jpeg"}, {"id": 2053550, "nr": 2, "picture": "https://images.pexels.com/videos/4865907/pictures/preview-2.jpeg"}, {"id": 2053558, "nr": 3, "picture": "https://images.pexels.com/videos/4865907/pictures/preview-3.jpeg"}, {"id": 2053567, "nr": 4, "picture": "https://images.pexels.com/videos/4865907/pictures/preview-4.jpeg"}, {"id": 2053580, "nr": 5, "picture": "https://images.pexels.com/videos/4865907/pictures/preview-5.jpeg"}, {"id": 2053591, "nr": 6, "picture": "https://images.pexels.com/videos/4865907/pictures/preview-6.jpeg"}, {"id": 2053604, "nr": 7, "picture": "https://images.pexels.com/videos/4865907/pictures/preview-7.jpeg"}, {"id": 2053614, "nr": 8, "picture": "https://images.pexels.com/videos/4865907/pictures/preview-8.jpeg"}, {"id": 2053622, "nr": 9, "picture": "https://images.pexels.com/videos/4865907/pictures/preview-9.jpeg"}, {"id": 2053632, "nr": 10, "picture": "https://images.pexels.com/videos/4865907/pictures/preview-10.jpeg"}, {"id": 2053642, "nr": 11, "picture": "https://images.pexels.com/videos/4865907/pictures/preview-11.jpeg"}, {"id": 2053650, "nr": 12, "picture": "https://images.pexels.com/videos/4865907/pictures/preview-12.jpeg"}, {"id": 2053659, "nr": 13, "picture": "https://images.pexels.com/videos/4865907/pictures/preview-13.jpeg"}, {"id": 2053665, "nr": 14, "picture": "https://images.pexels.com/videos/4865907/pictures/preview-14.jpeg"}]}, {"id": 4554454, "width": 2160, "height": 4096, "duration": 27, "full_res": null, "tags": [], "url": "https://www.pexels.com/video/a-man-and-woman-are-dancing-in-a-kitchen-4554454/", "image": "https://images.pexels.com/videos/4554454/pexels-photo-4554454.jpeg?auto=compress&cs=tinysrgb&fit=crop&h=1200&w=630", "avg_color": null, "user": {"id": 1437723, "name": "cottonbro studio", "url": "https://www.pexels.com/@cottonbro"}, "video_files": [{"id": 9384020, "quality": "hd", "file_type": "video/mp4", "width": 720, "height": 1366, "fps": 50.0, "link": "https://videos.pexels.com/video-files/4554454/4554454-hd_720_1366_50fps.mp4", "size": 6959499}, {"id": 9384158, "quality": "uhd", "file_type": "video/mp4", "width": 1440, "height": 2732, "fps": 25.0, "link": "https://videos.pexels.com/video-files/4554454/4554454-uhd_1440_2732_25fps.mp4", "size": 22966252}, {"id": 9384293, "quality": "hd", "file_type": "video/mp4", "width": 1080, "height": 2048, "fps": 25.0, "link": "https://videos.pexels.com/video-files/4554454/4554454-hd_1080_2048_25fps.mp4", "size": 13916025}, {"id": 9384346, "quality": "sd", "file_type": "video/mp4", "width": 338, "height": 640, "fps": 25.0, "link": "https://videos.pexels.com/video-files/4554454/4554454-sd_338_640_25fps.mp4", "size": 1761201}, {"id": 9384438, "quality": "sd", "file_type": "video/mp4", "width": 226, "height": 426, "fps": 25.0, "link": "https://videos.pexels.com/video-files/4554454/4554454-sd_226_426_25fps.mp4", "size": 1084068}, {"id": 9384515, "quality": "uhd", "file_type": "video/mp4", "width": 2160, "height": 4096, "fps": 25.0, "link": "https://videos.pexels.com/video-files/4554454/4554454-uhd_2160_4096_25fps.mp4", "size": 56779481}, {"id": 9384580, "quality": "sd", "file_type": "video/mp4", "width": 506, "height": 960, "fps": 25.0, "link": "https://videos.pexels.com/video-files/4554454/4554454-sd_506_960_25fps.mp4", "size": 4001094}], "video_pictures": [{"id": 1655271, "nr": 0, "picture": "https://images.pexels.com/videos/4554454/pictures/preview-0.jpeg"}, {"id": 1655275, "nr": 1, "picture": "https://images.pexels.com/videos/4554454/pictures/preview-1.jpeg"}, {"id": 1655277, "nr": 2, "picture": "https://images.pexels.com/videos/4554454/pictures/preview-2.jpeg"}, {"id": 1655279, "nr": 3, "picture": "https://images.pexels.com/videos/4554454/pictures/preview-3.jpeg"}, {"id": 1655281, "nr": 4, "picture": "https://images.pexels.com/videos/4554454/pictures/preview-4.jpeg"}, {"id": 1655283, "nr": 5, "picture": "https://images.pexels.com/videos/4554454/pictures/preview-5.jpeg"}, {"id": 1655284, "nr": 6, "picture": "https://images.pexels.com/videos/4554454/pictures/preview-6.jpeg"}, {"id": 1655287, "nr": 7, "picture": "https://images.pexels.com/videos/4554454/pictures/preview-7.jpeg"}, {"id": 1655288, "nr": 8, "picture": "https://images.pexels.com/videos/4554454/pictures/preview-8.jpeg"}, {"id": 1655290, "nr": 9, "picture": "https://images.pexels.com/videos/4554454/pictures/preview-9.jpeg"}, {"id": 1655292, "nr": 10, "picture": "https://images.pexels.com/videos/4554454/pictures/preview-10.jpeg"}, {"id": 1655294, "nr": 11, "picture": "https://images.pexels.com/videos/4554454/pictures/preview-11.jpeg"}, {"id": 1655296, "nr": 12, "picture": "https://images.pexels.com/videos/4554454/pictures/preview-12.jpeg"}, {"id": 1655297, "nr": 13, "picture": "https://images.pexels.com/videos/4554454/pictures/preview-13.jpeg"}, {"id": 1655298, "nr": 14, "picture": "https://images.pexels.com/videos/4554454/pictures/preview-14.jpeg"}]}, {"id": 7233780, "width": 1080, "height": 1920, "duration": 17, "full_res": null, "tags": [], "url": "https://www.pexels.com/video/putting-candles-in-a-package-7233780/", "image": "https://images.pexels.com/videos/7233780/adult-baking-breakfast-coffee-7233780.jpeg?auto=compress&cs=tinysrgb&fit=crop&h=1200&w=630", "avg_color": null, "user": {"id": 2905570, "name": "Yan Krukau", "url": "https://www.pexels.com/@yankrukov"}, "video_files": [{"id": 10358790, "quality": "sd", "file_type": "video/mp4", "width": 360, "height": 640, "fps": 25.0, "link": "https://videos.pexels.com/video-files/7233780/7233780-sd_360_640_25fps.mp4", "size": 953401}, {"id": 10358954, "quality": "hd", "file_type": "video/mp4", "width": 720, "height": 1280, "fps": 25.0, "link": "https://videos.pexels.com/video-files/7233780/7233780-hd_720_1280_25fps.mp4", "size": 2979692}, {"id": 10359251, "quality": "hd", "file_type": "video/mp4", "width": 1080, "height": 1920, "fps": 25.0, "link": "https://videos.pexels.com/video-files/7233780/7233780-hd_1080_1920_25fps.mp4", "size": 6895077}, {"id": 10359288, "quality": "sd", "file_type": "video/mp4", "width": 240, "height": 426, "fps": 25.0, "link": "https://videos.pexels.com/video-files/7233780/7233780-sd_240_426_25fps.mp4", "size": 587365}, {"id": 10359326, "quality": "sd", "file_type": "video/mp4", "width": 540, "height": 960, "fps": 25.0, "link": "https://videos.pexels.com/video-files/7233780/7233780-sd_540_960_25fps.mp4", "size": 1866099}], "video_pictures": [{"id": 6026227, "nr": 0, "picture": "https://images.pexels.com/videos/7233780/pictures/preview-0.jpeg"}, {"id": 6026230, "nr": 1, "picture": "https://images.pexels.com/videos/7233780/pictures/preview-1.jpeg"}, {"id": 6026236, "nr": 2, "picture": "https://images.pexels.com/videos/7233780/pictures/preview-2.jpeg"}, {"id": 6026241, "nr": 3, "picture": "https://images.pexels.com/videos/7233780/pictures/preview-3.jpeg"}, {"id": 6026245, "nr": 4, "picture": "https://images.pexels.com/videos/7233780/pictures/preview-4.jpeg"}, {"id": 6026249, "nr": 5, "picture": "https://images.pexels.com/videos/7233780/pictures/preview-5.jpeg"}, {"id": 6026253, "nr": 6, "picture": "https://images.pexels.com/videos/7233780/pictures/preview-6.jpeg"}, {"id": 6026256, "nr": 7, "picture": "https://images.pexels.com/videos/7233780/pictures/preview-7.jpeg"}, {"id": 6026259, "nr": 8, "picture": "https://images.pexels.com/videos/7233780/pictures/preview-8.jpeg"}, {"id": 6026261, "nr": 9, "picture": "https://images.pexels.com/videos/7233780/pictures/preview-9.jpeg"}, {"id": 6026269, "nr": 10, "picture": "https://images.pexels.com/videos/7233780/pictures/preview-10.jpeg"}, {"id": 6026274, "nr": 11, "picture": "https://images.pexels.com/videos/7233780/pictures/preview-11.jpeg"}, {"id": 6026278, "nr": 12, "picture": "https://images.pexels.com/videos/7233780/pictures/preview-12.jpeg"}, {"id": 6026284, "nr": 13, "picture": "https://images.pexels.com/videos/7233780/pictures/preview-13.jpeg"}, {"id": 6026290, "nr": 14, "picture": "https://images.pexels.com/videos/7233780/pictures/preview-14.jpeg"}]}, {"id": 27787033, "width": 1080, "height": 1920, "duration": 34, "full_res": null, "tags": [], "url": "https://www.pexels.com/video/cookie-27787033/", "image": "https://images.pexels.com/videos/27787033/cookie-gift-meal-27787033.jpeg?auto=compress&cs=tinysrgb&fit=crop&h=1200&w=630", "avg_color": null, "user": {"id": 407275500, "name": "Zehra  Y\u0131lmaz", "url": "https://www.pexels.com/@zehra-yilmaz-407275500"}, "video_files": [{"id": 12224561, "quality": null, "file_type": "video/mp4", "width": 360, "height": 640, "fps": 30.0, "link": "https://videos.pexels.com/video-files/27787033/12224561_360_640_30fps.mp4", "size": 3295240}, {"id": 12224562, "quality": null, "file_type": "video/mp4", "width": 540, "height": 960, "fps": 30.0, "link": "https://videos.pexels.com/video-files/27787033/12224562_540_960_30fps.mp4", "size": 6916664}, {"id": 12224563, "quality": null, "file_type": "video/mp4", "width": 720, "height": 1280, "fps": 30.0, "link": "https://videos.pexels.com/video-files/27787033/12224563_720_1280_30fps.mp4", "size": 11184998}, {"id": 12224564, "quality": null, "file_type": "video/mp4", "width": 1080, "height": 1920, "fps": 30.0, "link": "https://videos.pexels.com/video-files/27787033/12224564_1080_1920_30fps.mp4", "size": 25753153}], "video_pictures": [{"id": 22657414, "nr": 0, "picture": "https://images.pexels.com/videos/27787033/pictures/preview-0.jpg"}, {"id": 22657415, "nr": 1, "picture": "https://images.pexels.com/videos/27787033/pictures/preview-1.jpg"}, {"id": 22657416, "nr": 2, "picture": "https://images.pexels.com/videos/27787033/pictures/preview-2.jpg"}, {"id": 22657417, "nr": 3, "picture": "https://images.pexels.com/videos/27787033/pictures/preview-3.jpg"}, {"id": 22657418, "nr": 4, "picture": "https://images.pexels.com/videos/27787033/pictures/preview-4.jpg"}, {"id": 22657419, "nr": 5, "picture": "https://images.pexels.com/videos/27787033/pictures/preview-5.jpg"}, {"id": 22657420, "nr": 6, "picture": "https://images.pexels.com/videos/27787033/pictures/preview-6.jpg"}, {"id": 22657421, "nr": 7, "picture": "https://images.pexels.com/videos/27787033/pictures/preview-7.jpg"}, {"id": 22657422, "nr": 8, "picture": "https://images.pexels.com/videos/27787033/pictures/preview-8.jpg"}, {"id": 22657423, "nr": 9, "picture": "https://images.pexels.com/videos/27787033/pictures/preview-9.jpg"}, {"id": 22657424, "nr": 10, "picture": "https://images.pexels.com/videos/27787033/pictures/preview-10.jpg"}, {"id": 22657425, "nr": 11, "picture": "https://images.pexels.com/videos/27787033/pictures/preview-11.jpg"}, {"id": 22657426, "nr": 12, "picture": "https://images.pexels.com/videos/27787033/pictures/preview-12.jpg"}, {"id": 22657427, "nr": 13, "picture": "https://images.pexels.com/videos/27787033/pictures/preview-13.jpg"}, {"id": 22657428, "nr": 14, "picture": "https://images.pexels.com/videos/27787033/pictures/preview-14.jpg"}]}, {"id": 6170599, "width": 2160, "height": 3840, "duration": 16, "full_res": null, "tags": [], "url": "https://www.pexels.com/video/man-unloading-delivery-truck-6170599/", "image": "https://images.pexels.com/videos/6170599/pexels-photo-6170599.jpeg?auto=compress&cs=tinysrgb&fit=crop&h=1200&w=630", "avg_color": null, "user": {"id": 3088726, "name": "Tima Miroshnichenko", "url": "https://www.pexels.com/@tima-miroshnichenko"}, "video_files": [{"id": 9941824, "quality": "sd", "file_type": "video/mp4", "width": 540, "height": 960, "fps": 25.0, "link": "https://videos.pexels.com/video-files/6170599/6170599-sd_540_960_25fps.mp4", "size": 2430270}, {"id": 9941838, "quality": "sd", "file_type": "video/mp4", "width": 360, "height": 640, "fps": 25.0, "link": "https://videos.pexels.com/video-files/6170599/6170599-sd_360_640_25fps.mp4", "size": 1020350}, {"id": 9941850, "quality": "hd", "file_type": "video/mp4", "width": 720, "height": 1280, "fps": 25.0, "link": "https://videos.pexels.com/video-files/6170599/6170599-hd_720_1280_25fps.mp4", "size": 3928962}, {"id": 9941867, "quality": "uhd", "file_type": "video/mp4", "width": 1440, "height": 2560, "fps": 25.0, "link": "https://videos.pexels.com/video-files/6170599/6170599-uhd_1440_2560_25fps.mp4", "size": 12516235}, {"id": 9941938, "quality": "uhd", "file_type": "video/mp4", "width": 2160, "height": 3840, "fps": 25.0, "link": "https://videos.pexels.com/video-files/6170599/6170599-uhd_2160_3840_25fps.mp4", "size": 26220257}, {"id": 9941994, "quality": "sd", "file_type": "video/mp4", "width": 240, "height": 426, "fps": 25.0, "link": "https://videos.pexels.com/video-files/6170599/6170599-sd_240_426_25fps.mp4", "size": 594079}, {"id": 9942005, "quality": "hd", "file_type": "video/mp4", "width": 1080, "height": 1920, "fps": 25.0, "link": "https://videos.pexels.com/video-files/6170599/6170599-hd_1080_1920_25fps.mp4", "size": 7727989}], "video_pictures": [{"id": 4000865, "nr": 0, "picture": "https://images.pexels.com/videos/6170599/pictures/preview-0.jpeg"}, {"id": 4000868, "nr": 1, "picture": "https://images.pexels.com/videos/6170599/pictures/preview-1.jpeg"}, {"id": 4000870, "nr": 2, "picture": "https://images.pexels.com/videos/6170599/pictures/preview-2.jpeg"}, {"id": 4000873, "nr": 3, "picture": "https://images.pexels.com/videos/6170599/pictures/preview-3.jpeg"}, {"id": 4000877, "nr": 4, "picture": "https://images.pexels.com/videos/6170599/pictures/preview-4.jpeg"}, {"id": 4000880, "nr": 5, "picture": "https://images.pexels.com/videos/6170599/pictures/preview-5.jpeg"}, {"id": 4000882, "nr": 6, "picture": "https://images.pexels.com/videos/6170599/pictures/preview-6.jpeg"}, {"id": 4000885, "nr": 7, "picture": "https://images.pexels.com/videos/6170599/pictures/preview-7.jpeg"}, {"id": 4000889, "nr": 8, "picture": "https://images.pexels.com/videos/6170599/pictures/preview-8.jpeg"}, {"id": 4000892, "nr": 9, "picture": "https://images.pexels.com/videos/6170599/pictures/preview-9.jpeg"}, {"id": 4000896, "nr": 10, "picture": "https://images.pexels.com/videos/6170599/pictures/preview-10.jpeg"}, {"id": 4000899, "nr": 11, "picture": "https://images.pexels.com/videos/6170599/pictures/preview-11.jpeg"}, {"id": 4000903, "nr": 12, "picture": "https://images.pexels.com/videos/6170599/pictures/preview-12.jpeg"}, {"id": 4000907, "nr": 13, "picture": "https://images.pexels.com/videos/6170599/pictures/preview-13.jpeg"}, {"id": 4000913, "nr": 14, "picture": "https://images.pexels.com/videos/6170599/pictures/preview-14.jpeg"}]}, {"id": 4553203, "width": 2160, "height": 4096, "duration": 31, "full_res": null, "tags": [], "url": "https://www.pexels.com/video/a-person-laying-on-the-floor-with-boxes-on-top-of-them-4553203/", "image": "https://images.pexels.com/videos/4553203/pexels-photo-4553203.jpeg?auto=compress&cs=tinysrgb&fit=crop&h=1200&w=630", "avg_color": null, "user": {"id": 1437723, "name": "cottonbro studio", "url": "https://www.pexels.com/@cottonbro"}, "video_files": [{"id": 9382831, "quality": "hd", "file_type": "video/mp4", "width": 1080, "height": 2048, "fps": 25.0, "link": "https://videos.pexels.com/video-files/4553203/4553203-hd_1080_2048_25fps.mp4", "size": 15616236}, {"id": 9382854, "quality": "uhd", "file_type": "video/mp4", "width": 2160, "height": 4096, "fps": 25.0, "link": "https://videos.pexels.com/video-files/4553203/4553203-uhd_2160_4096_25fps.mp4", "size": 78140594}, {"id": 9382871, "quality": "sd", "file_type": "video/mp4", "width": 226, "height": 426, "fps": 25.0, "link": "https://videos.pexels.com/video-files/4553203/4553203-sd_226_426_25fps.mp4", "size": 874526}, {"id": 9382901, "quality": "sd", "file_type": "video/mp4", "width": 506, "height": 960, "fps": 25.0, "link": "https://videos.pexels.com/video-files/4553203/4553203-sd_506_960_25fps.mp4", "size": 3476250}, {"id": 9382956, "quality": "hd", "file_type": "video/mp4", "width": 720, "height": 1366, "fps": 50.0, "link": "https://videos.pexels.com/video-files/4553203/4553203-hd_720_1366_50fps.mp4", "size": 6916690}, {"id": 9383025, "quality": "uhd", "file_type": "video/mp4", "width": 1440, "height": 2732, "fps": 25.0, "link": "https://videos.pexels.com/video-files/4553203/4553203-uhd_1440_2732_25fps.mp4", "size": 29410411}, {"id": 9383096, "quality": "sd", "file_type": "video/mp4", "width": 338, "height": 640, "fps": 25.0, "link": "https://videos.pexels.com/video-files/4553203/4553203-sd_338_640_25fps.mp4", "size": 1688032}], "video_pictures": [{"id": 1652729, "nr": 0, "picture": "https://images.pexels.com/videos/4553203/pictures/preview-0.jpeg"}, {"id": 1652734, "nr": 1, "picture": "https://images.pexels.com/videos/4553203/pictures/preview-1.jpeg"}, {"id": 1652736, "nr": 2, "picture": "https://images.pexels.com/videos/4553203/pictures/preview-2.jpeg"}, {"id": 1652737, "nr": 3, "picture": "https://images.pexels.com/videos/4553203/pictures/preview-3.jpeg"}, {"id": 1652738, "nr": 4, "picture": "https://images.pexels.com/videos/4553203/pictures/preview-4.jpeg"}, {"id": 1652739, "nr": 5, "picture": "https://images.pexels.com/videos/4553203/pictures/preview-5.jpeg"}, {"id": 1652740, "nr": 6, "picture": "https://images.pexels.com/videos/4553203/pictures/preview-6.jpeg"}, {"id": 1652741, "nr": 7, "picture": "https://images.pexels.com/videos/4553203/pictures/preview-7.jpeg"}, {"id": 1652742, "nr": 8, "picture": "https://images.pexels.com/videos/4553203/pictures/preview-8.jpeg"}, {"id": 1652743, "nr": 9, "picture": "https://images.pexels.com/videos/4553203/pictures/preview-9.jpeg"}, {"id": 1652744, "nr": 10, "picture": "https://images.pexels.com/videos/4553203/pictures/preview-10.jpeg"}, {"id": 1652745, "nr": 11, "picture": "https://images.pexels.com/videos/4553203/pictures/preview-11.jpeg"}, {"id": 1652746, "nr": 12, "picture": "https://images.pexels.com/videos/4553203/pictures/preview-12.jpeg"}, {"id": 1652747, "nr": 13, "picture": "https://images.pexels.com/videos/4553203/pictures/preview-13.jpeg"}, {"id": 1652748, "nr": 14, "picture": "https://images.pexels.com/videos/4553203/pictures/preview-14.jpeg"}]}], "total_results": 1183, "next_page": "https://api.pexels.com/v1/videos/search?orientation=portrait&page=2&per_page=8&query=seed+package", "url": "http://api-server.pexels.com/search/videos/seed%20package/"}, "timestamp": "2025-01-24T18:07:47.151652"}
