{"query": "amazing pumpkin", "response": {"page": 1, "per_page": 8, "videos": [{"id": 9969035, "width": 1152, "height": 2048, "duration": 15, "full_res": null, "tags": [], "url": "https://www.pexels.com/video/person-lighting-candle-with-matchstick-9969035/", "image": "https://images.pexels.com/videos/9969035/pexels-photo-9969035.jpeg?auto=compress&cs=tinysrgb&fit=crop&h=1200&w=630", "avg_color": null, "user": {"id": 2278756, "name": "Vlada Karpovich", "url": "https://www.pexels.com/@vlada-karpovich"}, "video_files": [{"id": 11195542, "quality": "sd", "file_type": "video/mp4", "width": 540, "height": 960, "fps": 25.0, "link": "https://videos.pexels.com/video-files/9969035/9969035-sd_540_960_25fps.mp4", "size": 1663116}, {"id": 11195635, "quality": "hd", "file_type": "video/mp4", "width": 1080, "height": 1920, "fps": 25.0, "link": "https://videos.pexels.com/video-files/9969035/9969035-hd_1080_1920_25fps.mp4", "size": 4478327}, {"id": 11195728, "quality": "hd", "file_type": "video/mp4", "width": 720, "height": 1280, "fps": 25.0, "link": "https://videos.pexels.com/video-files/9969035/9969035-hd_720_1280_25fps.mp4", "size": 2316472}, {"id": 11195942, "quality": "sd", "file_type": "video/mp4", "width": 360, "height": 640, "fps": 25.0, "link": "https://videos.pexels.com/video-files/9969035/9969035-sd_360_640_25fps.mp4", "size": 857765}], "video_pictures": [{"id": 10412240, "nr": 0, "picture": "https://images.pexels.com/videos/9969035/pictures/preview-0.jpeg"}, {"id": 10412246, "nr": 1, "picture": "https://images.pexels.com/videos/9969035/pictures/preview-1.jpeg"}, {"id": 10412250, "nr": 2, "picture": "https://images.pexels.com/videos/9969035/pictures/preview-2.jpeg"}, {"id": 10412255, "nr": 3, "picture": "https://images.pexels.com/videos/9969035/pictures/preview-3.jpeg"}, {"id": 10412262, "nr": 4, "picture": "https://images.pexels.com/videos/9969035/pictures/preview-4.jpeg"}, {"id": 10412270, "nr": 5, "picture": "https://images.pexels.com/videos/9969035/pictures/preview-5.jpeg"}, {"id": 10412276, "nr": 6, "picture": "https://images.pexels.com/videos/9969035/pictures/preview-6.jpeg"}, {"id": 10412287, "nr": 7, "picture": "https://images.pexels.com/videos/9969035/pictures/preview-7.jpeg"}, {"id": 10412294, "nr": 8, "picture": "https://images.pexels.com/videos/9969035/pictures/preview-8.jpeg"}, {"id": 10412302, "nr": 9, "picture": "https://images.pexels.com/videos/9969035/pictures/preview-9.jpeg"}, {"id": 10412314, "nr": 10, "picture": "https://images.pexels.com/videos/9969035/pictures/preview-10.jpeg"}, {"id": 10412323, "nr": 11, "picture": "https://images.pexels.com/videos/9969035/pictures/preview-11.jpeg"}, {"id": 10412332, "nr": 12, "picture": "https://images.pexels.com/videos/9969035/pictures/preview-12.jpeg"}, {"id": 10412342, "nr": 13, "picture": "https://images.pexels.com/videos/9969035/pictures/preview-13.jpeg"}, {"id": 10412354, "nr": 14, "picture": "https://images.pexels.com/videos/9969035/pictures/preview-14.jpeg"}]}, {"id": 9968975, "width": 1152, "height": 2048, "duration": 7, "full_res": null, "tags": [], "url": "https://www.pexels.com/video/eyeglasses-beside-a-cup-and-a-saucer-9968975/", "image": "https://images.pexels.com/videos/9968975/pexels-photo-9968975.jpeg?auto=compress&cs=tinysrgb&fit=crop&h=1200&w=630", "avg_color": null, "user": {"id": 2278756, "name": "Vlada Karpovich", "url": "https://www.pexels.com/@vlada-karpovich"}, "video_files": [{"id": 11194978, "quality": "sd", "file_type": "video/mp4", "width": 540, "height": 960, "fps": 25.0, "link": "https://videos.pexels.com/video-files/9968975/9968975-sd_540_960_25fps.mp4", "size": 1484646}, {"id": 11194994, "quality": "hd", "file_type": "video/mp4", "width": 1080, "height": 1920, "fps": 25.0, "link": "https://videos.pexels.com/video-files/9968975/9968975-hd_1080_1920_25fps.mp4", "size": 4492415}, {"id": 11195007, "quality": "sd", "file_type": "video/mp4", "width": 360, "height": 640, "fps": 25.0, "link": "https://videos.pexels.com/video-files/9968975/9968975-sd_360_640_25fps.mp4", "size": 526084}, {"id": 11195022, "quality": "hd", "file_type": "video/mp4", "width": 720, "height": 1280, "fps": 25.0, "link": "https://videos.pexels.com/video-files/9968975/9968975-hd_720_1280_25fps.mp4", "size": 2412266}], "video_pictures": [{"id": 10412166, "nr": 0, "picture": "https://images.pexels.com/videos/9968975/pictures/preview-0.jpeg"}, {"id": 10412170, "nr": 1, "picture": "https://images.pexels.com/videos/9968975/pictures/preview-1.jpeg"}, {"id": 10412172, "nr": 2, "picture": "https://images.pexels.com/videos/9968975/pictures/preview-2.jpeg"}, {"id": 10412177, "nr": 3, "picture": "https://images.pexels.com/videos/9968975/pictures/preview-3.jpeg"}, {"id": 10412182, "nr": 4, "picture": "https://images.pexels.com/videos/9968975/pictures/preview-4.jpeg"}, {"id": 10412184, "nr": 5, "picture": "https://images.pexels.com/videos/9968975/pictures/preview-5.jpeg"}, {"id": 10412192, "nr": 6, "picture": "https://images.pexels.com/videos/9968975/pictures/preview-6.jpeg"}, {"id": 10412193, "nr": 7, "picture": "https://images.pexels.com/videos/9968975/pictures/preview-7.jpeg"}, {"id": 10412199, "nr": 8, "picture": "https://images.pexels.com/videos/9968975/pictures/preview-8.jpeg"}, {"id": 10412204, "nr": 9, "picture": "https://images.pexels.com/videos/9968975/pictures/preview-9.jpeg"}, {"id": 10412208, "nr": 10, "picture": "https://images.pexels.com/videos/9968975/pictures/preview-10.jpeg"}, {"id": 10412211, "nr": 11, "picture": "https://images.pexels.com/videos/9968975/pictures/preview-11.jpeg"}, {"id": 10412215, "nr": 12, "picture": "https://images.pexels.com/videos/9968975/pictures/preview-12.jpeg"}, {"id": 10412220, "nr": 13, "picture": "https://images.pexels.com/videos/9968975/pictures/preview-13.jpeg"}, {"id": 10412226, "nr": 14, "picture": "https://images.pexels.com/videos/9968975/pictures/preview-14.jpeg"}]}, {"id": 4040354, "width": 2160, "height": 3840, "duration": 28, "full_res": null, "tags": [], "url": "https://www.pexels.com/video/cherry-flowers-blooming-during-spring-season-4040354/", "image": "https://images.pexels.com/videos/4040354/pexels-photo-4040354.jpeg?auto=compress&cs=tinysrgb&fit=crop&h=1200&w=630", "avg_color": null, "user": {"id": 2321025, "name": "Jackie Fang", "url": "https://www.pexels.com/@jackie-fang-2321025"}, "video_files": [{"id": 9358304, "quality": "sd", "file_type": "video/mp4", "width": 540, "height": 960, "fps": 29.969999313354492, "link": "https://videos.pexels.com/video-files/4040354/4040354-sd_540_960_30fps.mp4", "size": 5174423}, {"id": 9358306, "quality": "uhd", "file_type": "video/mp4", "width": 1440, "height": 2560, "fps": 29.969999313354492, "link": "https://videos.pexels.com/video-files/4040354/4040354-uhd_1440_2560_30fps.mp4", "size": 27949818}, {"id": 9358309, "quality": "uhd", "file_type": "video/mp4", "width": 2160, "height": 3840, "fps": 29.969999313354492, "link": "https://videos.pexels.com/video-files/4040354/4040354-uhd_2160_3840_30fps.mp4", "size": 49044495}, {"id": 9358312, "quality": "hd", "file_type": "video/mp4", "width": 720, "height": 1280, "fps": 59.940101623535156, "link": "https://videos.pexels.com/video-files/4040354/4040354-hd_720_1280_60fps.mp4", "size": 10250013}, {"id": 9358318, "quality": "sd", "file_type": "video/mp4", "width": 360, "height": 640, "fps": 29.969999313354492, "link": "https://videos.pexels.com/video-files/4040354/4040354-sd_360_640_30fps.mp4", "size": 2092024}, {"id": 9358326, "quality": "sd", "file_type": "video/mp4", "width": 240, "height": 426, "fps": 29.969999313354492, "link": "https://videos.pexels.com/video-files/4040354/4040354-sd_240_426_30fps.mp4", "size": 1237219}, {"id": 9358331, "quality": "hd", "file_type": "video/mp4", "width": 1080, "height": 1920, "fps": 29.969999313354492, "link": "https://videos.pexels.com/video-files/4040354/4040354-hd_1080_1920_30fps.mp4", "size": 16978218}], "video_pictures": [{"id": 1088810, "nr": 0, "picture": "https://images.pexels.com/videos/4040354/pictures/preview-0.jpeg"}, {"id": 1088811, "nr": 1, "picture": "https://images.pexels.com/videos/4040354/pictures/preview-1.jpeg"}, {"id": 1088812, "nr": 2, "picture": "https://images.pexels.com/videos/4040354/pictures/preview-2.jpeg"}, {"id": 1088813, "nr": 3, "picture": "https://images.pexels.com/videos/4040354/pictures/preview-3.jpeg"}, {"id": 1088814, "nr": 4, "picture": "https://images.pexels.com/videos/4040354/pictures/preview-4.jpeg"}, {"id": 1088815, "nr": 5, "picture": "https://images.pexels.com/videos/4040354/pictures/preview-5.jpeg"}, {"id": 1088816, "nr": 6, "picture": "https://images.pexels.com/videos/4040354/pictures/preview-6.jpeg"}, {"id": 1088817, "nr": 7, "picture": "https://images.pexels.com/videos/4040354/pictures/preview-7.jpeg"}, {"id": 1088818, "nr": 8, "picture": "https://images.pexels.com/videos/4040354/pictures/preview-8.jpeg"}, {"id": 1088829, "nr": 9, "picture": "https://images.pexels.com/videos/4040354/pictures/preview-9.jpeg"}, {"id": 1088832, "nr": 10, "picture": "https://images.pexels.com/videos/4040354/pictures/preview-10.jpeg"}, {"id": 1088836, "nr": 11, "picture": "https://images.pexels.com/videos/4040354/pictures/preview-11.jpeg"}, {"id": 1088837, "nr": 12, "picture": "https://images.pexels.com/videos/4040354/pictures/preview-12.jpeg"}, {"id": 1088838, "nr": 13, "picture": "https://images.pexels.com/videos/4040354/pictures/preview-13.jpeg"}, {"id": 1088839, "nr": 14, "picture": "https://images.pexels.com/videos/4040354/pictures/preview-14.jpeg"}]}, {"id": 4887277, "width": 2160, "height": 4096, "duration": 69, "full_res": null, "tags": [], "url": "https://www.pexels.com/video/touching-the-flowers-in-the-field-4887277/", "image": "https://images.pexels.com/videos/4887277/pexels-photo-4887277.jpeg?auto=compress&cs=tinysrgb&fit=crop&h=1200&w=630", "avg_color": null, "user": {"id": 1437723, "name": "cottonbro studio", "url": "https://www.pexels.com/@cottonbro"}, "video_files": [{"id": 9422480, "quality": "uhd", "file_type": "video/mp4", "width": 1440, "height": 2732, "fps": 25.0, "link": "https://videos.pexels.com/video-files/4887277/4887277-uhd_1440_2732_25fps.mp4", "size": 73893588}, {"id": 9422532, "quality": "sd", "file_type": "video/mp4", "width": 338, "height": 640, "fps": 25.0, "link": "https://videos.pexels.com/video-files/4887277/4887277-sd_338_640_25fps.mp4", "size": 4391515}, {"id": 9422679, "quality": "sd", "file_type": "video/mp4", "width": 506, "height": 960, "fps": 25.0, "link": "https://videos.pexels.com/video-files/4887277/4887277-sd_506_960_25fps.mp4", "size": 12473649}, {"id": 9422825, "quality": "sd", "file_type": "video/mp4", "width": 226, "height": 426, "fps": 25.0, "link": "https://videos.pexels.com/video-files/4887277/4887277-sd_226_426_25fps.mp4", "size": 2679937}, {"id": 9423068, "quality": "uhd", "file_type": "video/mp4", "width": 2160, "height": 4096, "fps": 25.0, "link": "https://videos.pexels.com/video-files/4887277/4887277-uhd_2160_4096_25fps.mp4", "size": 161039865}, {"id": 9423342, "quality": "hd", "file_type": "video/mp4", "width": 720, "height": 1366, "fps": 25.0, "link": "https://videos.pexels.com/video-files/4887277/4887277-hd_720_1366_25fps.mp4", "size": 22844329}, {"id": 9423607, "quality": "hd", "file_type": "video/mp4", "width": 1080, "height": 2048, "fps": 25.0, "link": "https://videos.pexels.com/video-files/4887277/4887277-hd_1080_2048_25fps.mp4", "size": 44328690}], "video_pictures": [{"id": 2079040, "nr": 0, "picture": "https://images.pexels.com/videos/4887277/pictures/preview-0.jpeg"}, {"id": 2079041, "nr": 1, "picture": "https://images.pexels.com/videos/4887277/pictures/preview-1.jpeg"}, {"id": 2079045, "nr": 2, "picture": "https://images.pexels.com/videos/4887277/pictures/preview-2.jpeg"}, {"id": 2079049, "nr": 3, "picture": "https://images.pexels.com/videos/4887277/pictures/preview-3.jpeg"}, {"id": 2079053, "nr": 4, "picture": "https://images.pexels.com/videos/4887277/pictures/preview-4.jpeg"}, {"id": 2079056, "nr": 5, "picture": "https://images.pexels.com/videos/4887277/pictures/preview-5.jpeg"}, {"id": 2079059, "nr": 6, "picture": "https://images.pexels.com/videos/4887277/pictures/preview-6.jpeg"}, {"id": 2079062, "nr": 7, "picture": "https://images.pexels.com/videos/4887277/pictures/preview-7.jpeg"}, {"id": 2079063, "nr": 8, "picture": "https://images.pexels.com/videos/4887277/pictures/preview-8.jpeg"}, {"id": 2079066, "nr": 9, "picture": "https://images.pexels.com/videos/4887277/pictures/preview-9.jpeg"}, {"id": 2079070, "nr": 10, "picture": "https://images.pexels.com/videos/4887277/pictures/preview-10.jpeg"}, {"id": 2079072, "nr": 11, "picture": "https://images.pexels.com/videos/4887277/pictures/preview-11.jpeg"}, {"id": 2079077, "nr": 12, "picture": "https://images.pexels.com/videos/4887277/pictures/preview-12.jpeg"}, {"id": 2079079, "nr": 13, "picture": "https://images.pexels.com/videos/4887277/pictures/preview-13.jpeg"}, {"id": 2079083, "nr": 14, "picture": "https://images.pexels.com/videos/4887277/pictures/preview-14.jpeg"}]}, {"id": 19132443, "width": 1080, "height": 2046, "duration": 8, "full_res": null, "tags": [], "url": "https://www.pexels.com/video/pumpkin-candle-and-candle-holder-on-white-cloth-19132443/", "image": "https://images.pexels.com/videos/19132443/pexels-photo-19132443.jpeg?auto=compress&cs=tinysrgb&fit=crop&h=1200&w=630", "avg_color": null, "user": {"id": 279977530, "name": "Beyzaa Yurtkuran", "url": "https://www.pexels.com/@beyzaa-yurtkuran-279977530"}, "video_files": [{"id": 8237743, "quality": "sd", "file_type": "video/mp4", "width": 506, "height": 960, "fps": 30.0, "link": "https://videos.pexels.com/video-files/19132443/19132443-sd_506_960_30fps.mp4", "size": 920347}, {"id": 8237744, "quality": "sd", "file_type": "video/mp4", "width": 224, "height": 426, "fps": 30.0, "link": "https://videos.pexels.com/video-files/19132443/19132443-sd_224_426_30fps.mp4", "size": 401035}, {"id": 8237745, "quality": "sd", "file_type": "video/mp4", "width": 338, "height": 640, "fps": 30.0, "link": "https://videos.pexels.com/video-files/19132443/19132443-sd_338_640_30fps.mp4", "size": 584845}, {"id": 8237746, "quality": "hd", "file_type": "video/mp4", "width": 720, "height": 1364, "fps": 30.0, "link": "https://videos.pexels.com/video-files/19132443/19132443-hd_720_1364_30fps.mp4", "size": 1579332}, {"id": 8237747, "quality": "hd", "file_type": "video/mp4", "width": 1080, "height": 2046, "fps": 30.0, "link": "https://videos.pexels.com/video-files/19132443/19132443-hd_1080_2046_30fps.mp4", "size": 4103932}], "video_pictures": [{"id": 19940215, "nr": 0, "picture": "https://images.pexels.com/videos/19132443/pictures/preview-0.jpeg"}, {"id": 19940217, "nr": 1, "picture": "https://images.pexels.com/videos/19132443/pictures/preview-1.jpeg"}, {"id": 19940219, "nr": 2, "picture": "https://images.pexels.com/videos/19132443/pictures/preview-2.jpeg"}, {"id": 19940223, "nr": 3, "picture": "https://images.pexels.com/videos/19132443/pictures/preview-3.jpeg"}, {"id": 19940226, "nr": 4, "picture": "https://images.pexels.com/videos/19132443/pictures/preview-4.jpeg"}, {"id": 19940229, "nr": 5, "picture": "https://images.pexels.com/videos/19132443/pictures/preview-5.jpeg"}, {"id": 19940231, "nr": 6, "picture": "https://images.pexels.com/videos/19132443/pictures/preview-6.jpeg"}, {"id": 19940234, "nr": 7, "picture": "https://images.pexels.com/videos/19132443/pictures/preview-7.jpeg"}, {"id": 19940236, "nr": 8, "picture": "https://images.pexels.com/videos/19132443/pictures/preview-8.jpeg"}, {"id": 19940238, "nr": 9, "picture": "https://images.pexels.com/videos/19132443/pictures/preview-9.jpeg"}, {"id": 19940241, "nr": 10, "picture": "https://images.pexels.com/videos/19132443/pictures/preview-10.jpeg"}, {"id": 19940243, "nr": 11, "picture": "https://images.pexels.com/videos/19132443/pictures/preview-11.jpeg"}, {"id": 19940245, "nr": 12, "picture": "https://images.pexels.com/videos/19132443/pictures/preview-12.jpeg"}, {"id": 19940247, "nr": 13, "picture": "https://images.pexels.com/videos/19132443/pictures/preview-13.jpeg"}, {"id": 19940248, "nr": 14, "picture": "https://images.pexels.com/videos/19132443/pictures/preview-14.jpeg"}]}, {"id": 5566467, "width": 1080, "height": 1920, "duration": 5, "full_res": null, "tags": [], "url": "https://www.pexels.com/video/beautiful-sunset-sky-over-sea-5566467/", "image": "https://images.pexels.com/videos/5566467/beach-sunset-blue-hour-clouds-colors-5566467.jpeg?auto=compress&cs=tinysrgb&fit=crop&h=1200&w=630", "avg_color": null, "user": {"id": 2071672, "name": "Peggy Anke", "url": "https://www.pexels.com/@reisefreiheit"}, "video_files": [{"id": 9740071, "quality": "sd", "file_type": "video/mp4", "width": 540, "height": 960, "fps": 29.969999313354492, "link": "https://videos.pexels.com/video-files/5566467/5566467-sd_540_960_30fps.mp4", "size": 958735}, {"id": 9740296, "quality": "hd", "file_type": "video/mp4", "width": 1080, "height": 1920, "fps": 29.969999313354492, "link": "https://videos.pexels.com/video-files/5566467/5566467-hd_1080_1920_30fps.mp4", "size": 2681049}, {"id": 9740581, "quality": "sd", "file_type": "video/mp4", "width": 240, "height": 426, "fps": 29.969999313354492, "link": "https://videos.pexels.com/video-files/5566467/5566467-sd_240_426_30fps.mp4", "size": 205510}, {"id": 9740905, "quality": "sd", "file_type": "video/mp4", "width": 360, "height": 640, "fps": 29.969999313354492, "link": "https://videos.pexels.com/video-files/5566467/5566467-sd_360_640_30fps.mp4", "size": 346337}, {"id": 9740966, "quality": "hd", "file_type": "video/mp4", "width": 720, "height": 1280, "fps": 29.969999313354492, "link": "https://videos.pexels.com/video-files/5566467/5566467-hd_720_1280_30fps.mp4", "size": 1481397}], "video_pictures": [{"id": 3021183, "nr": 0, "picture": "https://images.pexels.com/videos/5566467/pictures/preview-0.jpeg"}, {"id": 3021185, "nr": 1, "picture": "https://images.pexels.com/videos/5566467/pictures/preview-1.jpeg"}, {"id": 3021187, "nr": 2, "picture": "https://images.pexels.com/videos/5566467/pictures/preview-2.jpeg"}, {"id": 3021189, "nr": 3, "picture": "https://images.pexels.com/videos/5566467/pictures/preview-3.jpeg"}, {"id": 3021190, "nr": 4, "picture": "https://images.pexels.com/videos/5566467/pictures/preview-4.jpeg"}, {"id": 3021191, "nr": 5, "picture": "https://images.pexels.com/videos/5566467/pictures/preview-5.jpeg"}, {"id": 3021192, "nr": 6, "picture": "https://images.pexels.com/videos/5566467/pictures/preview-6.jpeg"}, {"id": 3021193, "nr": 7, "picture": "https://images.pexels.com/videos/5566467/pictures/preview-7.jpeg"}, {"id": 3021194, "nr": 8, "picture": "https://images.pexels.com/videos/5566467/pictures/preview-8.jpeg"}, {"id": 3021195, "nr": 9, "picture": "https://images.pexels.com/videos/5566467/pictures/preview-9.jpeg"}, {"id": 3021196, "nr": 10, "picture": "https://images.pexels.com/videos/5566467/pictures/preview-10.jpeg"}, {"id": 3021197, "nr": 11, "picture": "https://images.pexels.com/videos/5566467/pictures/preview-11.jpeg"}, {"id": 3021198, "nr": 12, "picture": "https://images.pexels.com/videos/5566467/pictures/preview-12.jpeg"}, {"id": 3021199, "nr": 13, "picture": "https://images.pexels.com/videos/5566467/pictures/preview-13.jpeg"}, {"id": 3021200, "nr": 14, "picture": "https://images.pexels.com/videos/5566467/pictures/preview-14.jpeg"}]}, {"id": 28434342, "width": 2160, "height": 3840, "duration": 11, "full_res": null, "tags": [], "url": "https://www.pexels.com/video/nevada-28434342/", "image": "https://images.pexels.com/videos/28434342/4k-drone-footage-4k-drone-video-big-snow-drone-aerial-28434342.jpeg?auto=compress&cs=tinysrgb&fit=crop&h=1200&w=630", "avg_color": null, "user": {"id": 155349971, "name": "Vasilis Karkalas", "url": "https://www.pexels.com/@vasilis-karkalas-155349971"}, "video_files": [{"id": 12380951, "quality": null, "file_type": "video/mp4", "width": 360, "height": 640, "fps": 29.969999313354492, "link": "https://videos.pexels.com/video-files/28434342/12380951_360_640_30fps.mp4", "size": 1803767}, {"id": 12380952, "quality": null, "file_type": "video/mp4", "width": 540, "height": 960, "fps": 29.969999313354492, "link": "https://videos.pexels.com/video-files/28434342/12380952_540_960_30fps.mp4", "size": 4081880}, {"id": 12380953, "quality": null, "file_type": "video/mp4", "width": 720, "height": 1280, "fps": 29.969999313354492, "link": "https://videos.pexels.com/video-files/28434342/12380953_720_1280_30fps.mp4", "size": 7087579}, {"id": 12380954, "quality": null, "file_type": "video/mp4", "width": 1080, "height": 1920, "fps": 29.969999313354492, "link": "https://videos.pexels.com/video-files/28434342/12380954_1080_1920_30fps.mp4", "size": 15003438}, {"id": 12380955, "quality": null, "file_type": "video/mp4", "width": 1440, "height": 2560, "fps": 29.969999313354492, "link": "https://videos.pexels.com/video-files/28434342/12380955_1440_2560_30fps.mp4", "size": 24270361}, {"id": 12380956, "quality": null, "file_type": "video/mp4", "width": 2160, "height": 3840, "fps": 29.969999313354492, "link": "https://videos.pexels.com/video-files/28434342/12380956_2160_3840_30fps.mp4", "size": 47422836}], "video_pictures": [{"id": 23054284, "nr": 0, "picture": "https://images.pexels.com/videos/28434342/pictures/preview-0.jpg"}, {"id": 23054285, "nr": 1, "picture": "https://images.pexels.com/videos/28434342/pictures/preview-1.jpg"}, {"id": 23054286, "nr": 2, "picture": "https://images.pexels.com/videos/28434342/pictures/preview-2.jpg"}, {"id": 23054287, "nr": 3, "picture": "https://images.pexels.com/videos/28434342/pictures/preview-3.jpg"}, {"id": 23054288, "nr": 4, "picture": "https://images.pexels.com/videos/28434342/pictures/preview-4.jpg"}, {"id": 23054289, "nr": 5, "picture": "https://images.pexels.com/videos/28434342/pictures/preview-5.jpg"}, {"id": 23054290, "nr": 6, "picture": "https://images.pexels.com/videos/28434342/pictures/preview-6.jpg"}, {"id": 23054291, "nr": 7, "picture": "https://images.pexels.com/videos/28434342/pictures/preview-7.jpg"}, {"id": 23054292, "nr": 8, "picture": "https://images.pexels.com/videos/28434342/pictures/preview-8.jpg"}, {"id": 23054293, "nr": 9, "picture": "https://images.pexels.com/videos/28434342/pictures/preview-9.jpg"}]}, {"id": 5491915, "width": 1080, "height": 1920, "duration": 15, "full_res": null, "tags": [], "url": "https://www.pexels.com/video/a-lighted-candle-blown-out-near-a-carved-pumpkin-5491915/", "image": "https://images.pexels.com/videos/5491915/pexels-photo-5491915.jpeg?auto=compress&cs=tinysrgb&fit=crop&h=1200&w=630", "avg_color": null, "user": {"id": 2638647, "name": "olia danilevich", "url": "https://www.pexels.com/@olia-danilevich"}, "video_files": [{"id": 9714354, "quality": "sd", "file_type": "video/mp4", "width": 360, "height": 640, "fps": 25.0, "link": "https://videos.pexels.com/video-files/5491915/5491915-sd_360_640_25fps.mp4", "size": 783399}, {"id": 9714389, "quality": "sd", "file_type": "video/mp4", "width": 240, "height": 426, "fps": 25.0, "link": "https://videos.pexels.com/video-files/5491915/5491915-sd_240_426_25fps.mp4", "size": 344984}, {"id": 9714418, "quality": "hd", "file_type": "video/mp4", "width": 720, "height": 1280, "fps": 25.0, "link": "https://videos.pexels.com/video-files/5491915/5491915-hd_720_1280_25fps.mp4", "size": 2551650}, {"id": 9714458, "quality": "sd", "file_type": "video/mp4", "width": 540, "height": 960, "fps": 25.0, "link": "https://videos.pexels.com/video-files/5491915/5491915-sd_540_960_25fps.mp4", "size": 1674358}, {"id": 9714497, "quality": "hd", "file_type": "video/mp4", "width": 1080, "height": 1920, "fps": 25.0, "link": "https://videos.pexels.com/video-files/5491915/5491915-hd_1080_1920_25fps.mp4", "size": 7443038}], "video_pictures": [{"id": 2902264, "nr": 0, "picture": "https://images.pexels.com/videos/5491915/pictures/preview-0.jpeg"}, {"id": 2902265, "nr": 1, "picture": "https://images.pexels.com/videos/5491915/pictures/preview-1.jpeg"}, {"id": 2902266, "nr": 2, "picture": "https://images.pexels.com/videos/5491915/pictures/preview-2.jpeg"}, {"id": 2902267, "nr": 3, "picture": "https://images.pexels.com/videos/5491915/pictures/preview-3.jpeg"}, {"id": 2902268, "nr": 4, "picture": "https://images.pexels.com/videos/5491915/pictures/preview-4.jpeg"}, {"id": 2902269, "nr": 5, "picture": "https://images.pexels.com/videos/5491915/pictures/preview-5.jpeg"}, {"id": 2902270, "nr": 6, "picture": "https://images.pexels.com/videos/5491915/pictures/preview-6.jpeg"}, {"id": 2902271, "nr": 7, "picture": "https://images.pexels.com/videos/5491915/pictures/preview-7.jpeg"}, {"id": 2902272, "nr": 8, "picture": "https://images.pexels.com/videos/5491915/pictures/preview-8.jpeg"}, {"id": 2902273, "nr": 9, "picture": "https://images.pexels.com/videos/5491915/pictures/preview-9.jpeg"}, {"id": 2902274, "nr": 10, "picture": "https://images.pexels.com/videos/5491915/pictures/preview-10.jpeg"}, {"id": 2902275, "nr": 11, "picture": "https://images.pexels.com/videos/5491915/pictures/preview-11.jpeg"}, {"id": 2902276, "nr": 12, "picture": "https://images.pexels.com/videos/5491915/pictures/preview-12.jpeg"}, {"id": 2902277, "nr": 13, "picture": "https://images.pexels.com/videos/5491915/pictures/preview-13.jpeg"}, {"id": 2902278, "nr": 14, "picture": "https://images.pexels.com/videos/5491915/pictures/preview-14.jpeg"}]}], "total_results": 595, "next_page": "https://api.pexels.com/v1/videos/search?orientation=portrait&page=2&per_page=8&query=amazing+pumpkin", "url": "https://api-server.pexels.com/search/videos/amazing%20pumpkin/"}, "timestamp": "2025-01-24T18:12:55.947245"}
