{"query": "water droplets", "response": {"page": 1, "per_page": 8, "videos": [{"id": 4434282, "width": 720, "height": 1280, "duration": 13, "full_res": null, "tags": [], "url": "https://www.pexels.com/video/a-video-of-a-rainy-day-from-inside-a-car-4434282/", "image": "https://images.pexels.com/videos/4434282/adventure-aerial-footage-couple-walking-freedom-4434282.jpeg?auto=compress&cs=tinysrgb&fit=crop&h=1200&w=630", "avg_color": null, "user": {"id": 649765, "name": "Yaroslav Shuraev", "url": "https://www.pexels.com/@yaroslav-shuraev"}, "video_files": [{"id": 9520127, "quality": "sd", "file_type": "video/mp4", "width": 240, "height": 426, "fps": 30.0, "link": "https://videos.pexels.com/video-files/4434282/4434282-sd_240_426_30fps.mp4", "size": 230467}, {"id": 9520166, "quality": "hd", "file_type": "video/mp4", "width": 720, "height": 1280, "fps": 30.0, "link": "https://videos.pexels.com/video-files/4434282/4434282-hd_720_1280_30fps.mp4", "size": 2004616}, {"id": 9520229, "quality": "sd", "file_type": "video/mp4", "width": 360, "height": 640, "fps": 30.0, "link": "https://videos.pexels.com/video-files/4434282/4434282-sd_360_640_30fps.mp4", "size": 419682}, {"id": 9520263, "quality": "sd", "file_type": "video/mp4", "width": 540, "height": 960, "fps": 30.0, "link": "https://videos.pexels.com/video-files/4434282/4434282-sd_540_960_30fps.mp4", "size": 979932}], "video_pictures": [{"id": 1520269, "nr": 0, "picture": "https://images.pexels.com/videos/4434282/pictures/preview-0.jpeg"}, {"id": 1520270, "nr": 1, "picture": "https://images.pexels.com/videos/4434282/pictures/preview-1.jpeg"}, {"id": 1520271, "nr": 2, "picture": "https://images.pexels.com/videos/4434282/pictures/preview-2.jpeg"}, {"id": 1520272, "nr": 3, "picture": "https://images.pexels.com/videos/4434282/pictures/preview-3.jpeg"}, {"id": 1520273, "nr": 4, "picture": "https://images.pexels.com/videos/4434282/pictures/preview-4.jpeg"}, {"id": 1520274, "nr": 5, "picture": "https://images.pexels.com/videos/4434282/pictures/preview-5.jpeg"}, {"id": 1520275, "nr": 6, "picture": "https://images.pexels.com/videos/4434282/pictures/preview-6.jpeg"}, {"id": 1520276, "nr": 7, "picture": "https://images.pexels.com/videos/4434282/pictures/preview-7.jpeg"}, {"id": 1520277, "nr": 8, "picture": "https://images.pexels.com/videos/4434282/pictures/preview-8.jpeg"}, {"id": 1520278, "nr": 9, "picture": "https://images.pexels.com/videos/4434282/pictures/preview-9.jpeg"}, {"id": 1520279, "nr": 10, "picture": "https://images.pexels.com/videos/4434282/pictures/preview-10.jpeg"}, {"id": 1520280, "nr": 11, "picture": "https://images.pexels.com/videos/4434282/pictures/preview-11.jpeg"}, {"id": 1520281, "nr": 12, "picture": "https://images.pexels.com/videos/4434282/pictures/preview-12.jpeg"}, {"id": 1520282, "nr": 13, "picture": "https://images.pexels.com/videos/4434282/pictures/preview-13.jpeg"}, {"id": 1520283, "nr": 14, "picture": "https://images.pexels.com/videos/4434282/pictures/preview-14.jpeg"}]}, {"id": 4434203, "width": 720, "height": 1280, "duration": 15, "full_res": null, "tags": [], "url": "https://www.pexels.com/video/sea-mountain-hiking-freedom-4434203/", "image": "https://images.pexels.com/videos/4434203/pexels-photo-4434203.jpeg?auto=compress&cs=tinysrgb&fit=crop&h=1200&w=630", "avg_color": null, "user": {"id": 649765, "name": "Yaroslav Shuraev", "url": "https://www.pexels.com/@yaroslav-shuraev"}, "video_files": [{"id": 9367887, "quality": "sd", "file_type": "video/mp4", "width": 360, "height": 640, "fps": 30.0, "link": "https://videos.pexels.com/video-files/4434203/4434203-sd_360_640_30fps.mp4", "size": 1037161}, {"id": 9367906, "quality": "sd", "file_type": "video/mp4", "width": 240, "height": 426, "fps": 30.0, "link": "https://videos.pexels.com/video-files/4434203/4434203-sd_240_426_30fps.mp4", "size": 583489}, {"id": 9367922, "quality": "hd", "file_type": "video/mp4", "width": 720, "height": 1280, "fps": 30.0, "link": "https://videos.pexels.com/video-files/4434203/4434203-hd_720_1280_30fps.mp4", "size": 4576948}, {"id": 9367943, "quality": "sd", "file_type": "video/mp4", "width": 540, "height": 960, "fps": 30.0, "link": "https://videos.pexels.com/video-files/4434203/4434203-sd_540_960_30fps.mp4", "size": 2992607}], "video_pictures": [{"id": 1509139, "nr": 0, "picture": "https://images.pexels.com/videos/4434203/pictures/preview-0.jpeg"}, {"id": 1509140, "nr": 1, "picture": "https://images.pexels.com/videos/4434203/pictures/preview-1.jpeg"}, {"id": 1509141, "nr": 2, "picture": "https://images.pexels.com/videos/4434203/pictures/preview-2.jpeg"}, {"id": 1509142, "nr": 3, "picture": "https://images.pexels.com/videos/4434203/pictures/preview-3.jpeg"}, {"id": 1509143, "nr": 4, "picture": "https://images.pexels.com/videos/4434203/pictures/preview-4.jpeg"}, {"id": 1509144, "nr": 5, "picture": "https://images.pexels.com/videos/4434203/pictures/preview-5.jpeg"}, {"id": 1509145, "nr": 6, "picture": "https://images.pexels.com/videos/4434203/pictures/preview-6.jpeg"}, {"id": 1509146, "nr": 7, "picture": "https://images.pexels.com/videos/4434203/pictures/preview-7.jpeg"}, {"id": 1509147, "nr": 8, "picture": "https://images.pexels.com/videos/4434203/pictures/preview-8.jpeg"}, {"id": 1509148, "nr": 9, "picture": "https://images.pexels.com/videos/4434203/pictures/preview-9.jpeg"}, {"id": 1509149, "nr": 10, "picture": "https://images.pexels.com/videos/4434203/pictures/preview-10.jpeg"}, {"id": 1509150, "nr": 11, "picture": "https://images.pexels.com/videos/4434203/pictures/preview-11.jpeg"}, {"id": 1509151, "nr": 12, "picture": "https://images.pexels.com/videos/4434203/pictures/preview-12.jpeg"}, {"id": 1509152, "nr": 13, "picture": "https://images.pexels.com/videos/4434203/pictures/preview-13.jpeg"}, {"id": 1509153, "nr": 14, "picture": "https://images.pexels.com/videos/4434203/pictures/preview-14.jpeg"}]}, {"id": 8549517, "width": 1080, "height": 1920, "duration": 20, "full_res": null, "tags": [], "url": "https://www.pexels.com/video/raindrops-falling-outside-a-glass-window-8549517/", "image": "https://images.pexels.com/videos/8549517/abstract-bird-blur-bubble-8549517.jpeg?auto=compress&cs=tinysrgb&fit=crop&h=1200&w=630", "avg_color": null, "user": {"id": 1522664, "name": "Taryn Elliott", "url": "https://www.pexels.com/@taryn-elliott"}, "video_files": [{"id": 10890057, "quality": "sd", "file_type": "video/mp4", "width": 540, "height": 960, "fps": 25.0, "link": "https://videos.pexels.com/video-files/8549517/8549517-sd_540_960_25fps.mp4", "size": 4164580}, {"id": 10890095, "quality": "sd", "file_type": "video/mp4", "width": 360, "height": 640, "fps": 25.0, "link": "https://videos.pexels.com/video-files/8549517/8549517-sd_360_640_25fps.mp4", "size": 1695907}, {"id": 10890140, "quality": "hd", "file_type": "video/mp4", "width": 720, "height": 1280, "fps": 25.0, "link": "https://videos.pexels.com/video-files/8549517/8549517-hd_720_1280_25fps.mp4", "size": 6093129}, {"id": 10890192, "quality": "hd", "file_type": "video/mp4", "width": 1080, "height": 1920, "fps": 25.0, "link": "https://videos.pexels.com/video-files/8549517/8549517-hd_1080_1920_25fps.mp4", "size": 12861041}], "video_pictures": [{"id": 8484590, "nr": 0, "picture": "https://images.pexels.com/videos/8549517/pictures/preview-0.jpeg"}, {"id": 8484592, "nr": 1, "picture": "https://images.pexels.com/videos/8549517/pictures/preview-1.jpeg"}, {"id": 8484596, "nr": 2, "picture": "https://images.pexels.com/videos/8549517/pictures/preview-2.jpeg"}, {"id": 8484599, "nr": 3, "picture": "https://images.pexels.com/videos/8549517/pictures/preview-3.jpeg"}, {"id": 8484600, "nr": 4, "picture": "https://images.pexels.com/videos/8549517/pictures/preview-4.jpeg"}, {"id": 8484602, "nr": 5, "picture": "https://images.pexels.com/videos/8549517/pictures/preview-5.jpeg"}, {"id": 8484604, "nr": 6, "picture": "https://images.pexels.com/videos/8549517/pictures/preview-6.jpeg"}, {"id": 8484607, "nr": 7, "picture": "https://images.pexels.com/videos/8549517/pictures/preview-7.jpeg"}, {"id": 8484609, "nr": 8, "picture": "https://images.pexels.com/videos/8549517/pictures/preview-8.jpeg"}, {"id": 8484612, "nr": 9, "picture": "https://images.pexels.com/videos/8549517/pictures/preview-9.jpeg"}, {"id": 8484617, "nr": 10, "picture": "https://images.pexels.com/videos/8549517/pictures/preview-10.jpeg"}, {"id": 8484619, "nr": 11, "picture": "https://images.pexels.com/videos/8549517/pictures/preview-11.jpeg"}, {"id": 8484622, "nr": 12, "picture": "https://images.pexels.com/videos/8549517/pictures/preview-12.jpeg"}, {"id": 8484624, "nr": 13, "picture": "https://images.pexels.com/videos/8549517/pictures/preview-13.jpeg"}, {"id": 8484627, "nr": 14, "picture": "https://images.pexels.com/videos/8549517/pictures/preview-14.jpeg"}]}, {"id": 7681542, "width": 2160, "height": 3840, "duration": 22, "full_res": null, "tags": [], "url": "https://www.pexels.com/video/a-puddle-of-water-7681542/", "image": "https://images.pexels.com/videos/7681542/abstract-art-beautiful-bird-7681542.jpeg?auto=compress&cs=tinysrgb&fit=crop&h=1200&w=630", "avg_color": null, "user": {"id": 3754792, "name": "Jill Burrow", "url": "https://www.pexels.com/@jill-burrow"}, "video_files": [{"id": 10538212, "quality": "hd", "file_type": "video/mp4", "width": 1080, "height": 1920, "fps": 24.0, "link": "https://videos.pexels.com/video-files/7681542/7681542-hd_1080_1920_24fps.mp4", "size": 16077291}, {"id": 10538253, "quality": "uhd", "file_type": "video/mp4", "width": 1440, "height": 2560, "fps": 24.0, "link": "https://videos.pexels.com/video-files/7681542/7681542-uhd_1440_2560_24fps.mp4", "size": 35949228}, {"id": 10538275, "quality": "hd", "file_type": "video/mp4", "width": 720, "height": 1280, "fps": 24.0, "link": "https://videos.pexels.com/video-files/7681542/7681542-hd_720_1280_24fps.mp4", "size": 8471215}, {"id": 10538317, "quality": "sd", "file_type": "video/mp4", "width": 540, "height": 960, "fps": 24.0, "link": "https://videos.pexels.com/video-files/7681542/7681542-sd_540_960_24fps.mp4", "size": 4741496}, {"id": 10538361, "quality": "sd", "file_type": "video/mp4", "width": 360, "height": 640, "fps": 24.0, "link": "https://videos.pexels.com/video-files/7681542/7681542-sd_360_640_24fps.mp4", "size": 1738534}, {"id": 10538389, "quality": "uhd", "file_type": "video/mp4", "width": 2160, "height": 3840, "fps": 24.0, "link": "https://videos.pexels.com/video-files/7681542/7681542-uhd_2160_3840_24fps.mp4", "size": 56655412}], "video_pictures": [{"id": 6876536, "nr": 0, "picture": "https://images.pexels.com/videos/7681542/pictures/preview-0.jpeg"}, {"id": 6876565, "nr": 1, "picture": "https://images.pexels.com/videos/7681542/pictures/preview-1.jpeg"}, {"id": 6876607, "nr": 2, "picture": "https://images.pexels.com/videos/7681542/pictures/preview-2.jpeg"}, {"id": 6876640, "nr": 3, "picture": "https://images.pexels.com/videos/7681542/pictures/preview-3.jpeg"}, {"id": 6876681, "nr": 4, "picture": "https://images.pexels.com/videos/7681542/pictures/preview-4.jpeg"}, {"id": 6876722, "nr": 5, "picture": "https://images.pexels.com/videos/7681542/pictures/preview-5.jpeg"}, {"id": 6876760, "nr": 6, "picture": "https://images.pexels.com/videos/7681542/pictures/preview-6.jpeg"}, {"id": 6876798, "nr": 7, "picture": "https://images.pexels.com/videos/7681542/pictures/preview-7.jpeg"}, {"id": 6876825, "nr": 8, "picture": "https://images.pexels.com/videos/7681542/pictures/preview-8.jpeg"}, {"id": 6876865, "nr": 9, "picture": "https://images.pexels.com/videos/7681542/pictures/preview-9.jpeg"}, {"id": 6876891, "nr": 10, "picture": "https://images.pexels.com/videos/7681542/pictures/preview-10.jpeg"}, {"id": 6876923, "nr": 11, "picture": "https://images.pexels.com/videos/7681542/pictures/preview-11.jpeg"}, {"id": 6876946, "nr": 12, "picture": "https://images.pexels.com/videos/7681542/pictures/preview-12.jpeg"}, {"id": 6876967, "nr": 13, "picture": "https://images.pexels.com/videos/7681542/pictures/preview-13.jpeg"}, {"id": 6876995, "nr": 14, "picture": "https://images.pexels.com/videos/7681542/pictures/preview-14.jpeg"}]}, {"id": 3139864, "width": 1080, "height": 1920, "duration": 2, "full_res": null, "tags": [], "url": "https://www.pexels.com/video/glass-window-with-water-droplets-3139864/", "image": "https://images.pexels.com/videos/3139864/free-video-3139864.jpg?auto=compress&cs=tinysrgb&fit=crop&h=1200&w=630", "avg_color": null, "user": {"id": 177895, "name": "Matheus Bertelli", "url": "https://www.pexels.com/@bertellifotografia"}, "video_files": [{"id": 9301307, "quality": "hd", "file_type": "video/mp4", "width": 1080, "height": 1920, "fps": 29.969999313354492, "link": "https://videos.pexels.com/video-files/3139864/3139864-hd_1080_1920_30fps.mp4", "size": 1522206}, {"id": 9301365, "quality": "sd", "file_type": "video/mp4", "width": 540, "height": 960, "fps": 29.969999313354492, "link": "https://videos.pexels.com/video-files/3139864/3139864-sd_540_960_30fps.mp4", "size": 441819}, {"id": 9301438, "quality": "sd", "file_type": "video/mp4", "width": 360, "height": 640, "fps": 29.969999313354492, "link": "https://videos.pexels.com/video-files/3139864/3139864-sd_360_640_30fps.mp4", "size": 138058}, {"id": 9301485, "quality": "sd", "file_type": "video/mp4", "width": 240, "height": 426, "fps": 29.969999313354492, "link": "https://videos.pexels.com/video-files/3139864/3139864-sd_240_426_30fps.mp4", "size": 89427}, {"id": 9301523, "quality": "hd", "file_type": "video/mp4", "width": 720, "height": 1280, "fps": 29.969999313354492, "link": "https://videos.pexels.com/video-files/3139864/3139864-hd_720_1280_30fps.mp4", "size": 733131}], "video_pictures": [{"id": 542800, "nr": 0, "picture": "https://images.pexels.com/videos/3139864/pictures/preview-0.jpeg"}, {"id": 542808, "nr": 1, "picture": "https://images.pexels.com/videos/3139864/pictures/preview-1.jpeg"}, {"id": 542819, "nr": 2, "picture": "https://images.pexels.com/videos/3139864/pictures/preview-2.jpeg"}, {"id": 542826, "nr": 3, "picture": "https://images.pexels.com/videos/3139864/pictures/preview-3.jpeg"}, {"id": 542835, "nr": 4, "picture": "https://images.pexels.com/videos/3139864/pictures/preview-4.jpeg"}, {"id": 542844, "nr": 5, "picture": "https://images.pexels.com/videos/3139864/pictures/preview-5.jpeg"}, {"id": 542852, "nr": 6, "picture": "https://images.pexels.com/videos/3139864/pictures/preview-6.jpeg"}, {"id": 542861, "nr": 7, "picture": "https://images.pexels.com/videos/3139864/pictures/preview-7.jpeg"}, {"id": 542869, "nr": 8, "picture": "https://images.pexels.com/videos/3139864/pictures/preview-8.jpeg"}, {"id": 542876, "nr": 9, "picture": "https://images.pexels.com/videos/3139864/pictures/preview-9.jpeg"}, {"id": 542885, "nr": 10, "picture": "https://images.pexels.com/videos/3139864/pictures/preview-10.jpeg"}, {"id": 542893, "nr": 11, "picture": "https://images.pexels.com/videos/3139864/pictures/preview-11.jpeg"}, {"id": 542898, "nr": 12, "picture": "https://images.pexels.com/videos/3139864/pictures/preview-12.jpeg"}, {"id": 542907, "nr": 13, "picture": "https://images.pexels.com/videos/3139864/pictures/preview-13.jpeg"}, {"id": 542914, "nr": 14, "picture": "https://images.pexels.com/videos/3139864/pictures/preview-14.jpeg"}]}, {"id": 12341137, "width": 1080, "height": 1920, "duration": 7, "full_res": null, "tags": [], "url": "https://www.pexels.com/video/raindrops-on-glass-and-flower-behind-12341137/", "image": "https://images.pexels.com/videos/12341137/drop-drops-flower-flowers-12341137.jpeg?auto=compress&cs=tinysrgb&fit=crop&h=1200&w=630", "avg_color": null, "user": {"id": 733353, "name": "Alesia Talkachova", "url": "https://www.pexels.com/@alesia-talkachova-733353"}, "video_files": [{"id": 5379414, "quality": "hd", "file_type": "video/mp4", "width": 1080, "height": 1920, "fps": 30.0, "link": "https://videos.pexels.com/video-files/12341137/12341137-hd_1080_1920_30fps.mp4", "size": 3033310}, {"id": 5379415, "quality": "sd", "file_type": "video/mp4", "width": 360, "height": 640, "fps": 30.0, "link": "https://videos.pexels.com/video-files/12341137/12341137-sd_360_640_30fps.mp4", "size": 615368}, {"id": 5379416, "quality": "hd", "file_type": "video/mp4", "width": 720, "height": 1280, "fps": 30.0, "link": "https://videos.pexels.com/video-files/12341137/12341137-hd_720_1280_30fps.mp4", "size": 1699700}, {"id": 5379417, "quality": "sd", "file_type": "video/mp4", "width": 540, "height": 960, "fps": 30.0, "link": "https://videos.pexels.com/video-files/12341137/12341137-sd_540_960_30fps.mp4", "size": 1186435}, {"id": 5379418, "quality": "sd", "file_type": "video/mp4", "width": 240, "height": 426, "fps": 30.0, "link": "https://videos.pexels.com/video-files/12341137/12341137-sd_240_426_30fps.mp4", "size": 450125}], "video_pictures": [{"id": 13256147, "nr": 0, "picture": "https://images.pexels.com/videos/12341137/pictures/preview-0.jpeg"}, {"id": 13256149, "nr": 1, "picture": "https://images.pexels.com/videos/12341137/pictures/preview-1.jpeg"}, {"id": 13256151, "nr": 2, "picture": "https://images.pexels.com/videos/12341137/pictures/preview-2.jpeg"}, {"id": 13256153, "nr": 3, "picture": "https://images.pexels.com/videos/12341137/pictures/preview-3.jpeg"}, {"id": 13256155, "nr": 4, "picture": "https://images.pexels.com/videos/12341137/pictures/preview-4.jpeg"}, {"id": 13256157, "nr": 5, "picture": "https://images.pexels.com/videos/12341137/pictures/preview-5.jpeg"}, {"id": 13256159, "nr": 6, "picture": "https://images.pexels.com/videos/12341137/pictures/preview-6.jpeg"}, {"id": 13256161, "nr": 7, "picture": "https://images.pexels.com/videos/12341137/pictures/preview-7.jpeg"}, {"id": 13256162, "nr": 8, "picture": "https://images.pexels.com/videos/12341137/pictures/preview-8.jpeg"}, {"id": 13256164, "nr": 9, "picture": "https://images.pexels.com/videos/12341137/pictures/preview-9.jpeg"}, {"id": 13256165, "nr": 10, "picture": "https://images.pexels.com/videos/12341137/pictures/preview-10.jpeg"}, {"id": 13256166, "nr": 11, "picture": "https://images.pexels.com/videos/12341137/pictures/preview-11.jpeg"}, {"id": 13256167, "nr": 12, "picture": "https://images.pexels.com/videos/12341137/pictures/preview-12.jpeg"}, {"id": 13256168, "nr": 13, "picture": "https://images.pexels.com/videos/12341137/pictures/preview-13.jpeg"}, {"id": 13256169, "nr": 14, "picture": "https://images.pexels.com/videos/12341137/pictures/preview-14.jpeg"}]}, {"id": 6666900, "width": 2363, "height": 4096, "duration": 7, "full_res": null, "tags": [], "url": "https://www.pexels.com/video/washing-hand-on-shower-6666900/", "image": "https://images.pexels.com/videos/6666900/pexels-photo-6666900.jpeg?auto=compress&cs=tinysrgb&fit=crop&h=1200&w=630", "avg_color": null, "user": {"id": 2678846, "name": "ROMAN ODINTSOV", "url": "https://www.pexels.com/@roman-odintsov"}, "video_files": [{"id": 10130439, "quality": "sd", "file_type": "video/mp4", "width": 240, "height": 416, "fps": 29.969999313354492, "link": "https://videos.pexels.com/video-files/6666900/6666900-sd_240_416_30fps.mp4", "size": 310212}, {"id": 10130484, "quality": "sd", "file_type": "video/mp4", "width": 540, "height": 936, "fps": 29.969999313354492, "link": "https://videos.pexels.com/video-files/6666900/6666900-sd_540_936_30fps.mp4", "size": 1461301}, {"id": 10130537, "quality": "uhd", "file_type": "video/mp4", "width": 2160, "height": 3744, "fps": 29.969999313354492, "link": "https://videos.pexels.com/video-files/6666900/6666900-uhd_2160_3744_30fps.mp4", "size": 19566019}, {"id": 10130576, "quality": "hd", "file_type": "video/mp4", "width": 1080, "height": 1872, "fps": 29.969999313354492, "link": "https://videos.pexels.com/video-files/6666900/6666900-hd_1080_1872_30fps.mp4", "size": 4571028}, {"id": 10130641, "quality": "sd", "file_type": "video/mp4", "width": 360, "height": 624, "fps": 29.969999313354492, "link": "https://videos.pexels.com/video-files/6666900/6666900-sd_360_624_30fps.mp4", "size": 514279}, {"id": 10130677, "quality": "uhd", "file_type": "video/mp4", "width": 1440, "height": 2496, "fps": 29.969999313354492, "link": "https://videos.pexels.com/video-files/6666900/6666900-uhd_1440_2496_30fps.mp4", "size": 11140350}, {"id": 10130721, "quality": "hd", "file_type": "video/mp4", "width": 720, "height": 1248, "fps": 29.969999313354492, "link": "https://videos.pexels.com/video-files/6666900/6666900-hd_720_1248_30fps.mp4", "size": 2385118}], "video_pictures": [{"id": 4896748, "nr": 0, "picture": "https://images.pexels.com/videos/6666900/pictures/preview-0.jpeg"}, {"id": 4896753, "nr": 1, "picture": "https://images.pexels.com/videos/6666900/pictures/preview-1.jpeg"}, {"id": 4896760, "nr": 2, "picture": "https://images.pexels.com/videos/6666900/pictures/preview-2.jpeg"}, {"id": 4896768, "nr": 3, "picture": "https://images.pexels.com/videos/6666900/pictures/preview-3.jpeg"}, {"id": 4896776, "nr": 4, "picture": "https://images.pexels.com/videos/6666900/pictures/preview-4.jpeg"}, {"id": 4896784, "nr": 5, "picture": "https://images.pexels.com/videos/6666900/pictures/preview-5.jpeg"}, {"id": 4896797, "nr": 6, "picture": "https://images.pexels.com/videos/6666900/pictures/preview-6.jpeg"}, {"id": 4896810, "nr": 7, "picture": "https://images.pexels.com/videos/6666900/pictures/preview-7.jpeg"}, {"id": 4896821, "nr": 8, "picture": "https://images.pexels.com/videos/6666900/pictures/preview-8.jpeg"}, {"id": 4896827, "nr": 9, "picture": "https://images.pexels.com/videos/6666900/pictures/preview-9.jpeg"}, {"id": 4896836, "nr": 10, "picture": "https://images.pexels.com/videos/6666900/pictures/preview-10.jpeg"}, {"id": 4896845, "nr": 11, "picture": "https://images.pexels.com/videos/6666900/pictures/preview-11.jpeg"}, {"id": 4896859, "nr": 12, "picture": "https://images.pexels.com/videos/6666900/pictures/preview-12.jpeg"}, {"id": 4896874, "nr": 13, "picture": "https://images.pexels.com/videos/6666900/pictures/preview-13.jpeg"}, {"id": 4896886, "nr": 14, "picture": "https://images.pexels.com/videos/6666900/pictures/preview-14.jpeg"}]}, {"id": 7681543, "width": 2160, "height": 3840, "duration": 13, "full_res": null, "tags": [], "url": "https://www.pexels.com/video/water-droplets-on-a-glass-panel-7681543/", "image": "https://images.pexels.com/videos/7681543/abstract-bubble-cold-dark-7681543.jpeg?auto=compress&cs=tinysrgb&fit=crop&h=1200&w=630", "avg_color": null, "user": {"id": 3754792, "name": "Jill Burrow", "url": "https://www.pexels.com/@jill-burrow"}, "video_files": [{"id": 10538294, "quality": "uhd", "file_type": "video/mp4", "width": 2160, "height": 3840, "fps": 24.0, "link": "https://videos.pexels.com/video-files/7681543/7681543-uhd_2160_3840_24fps.mp4", "size": 31076848}, {"id": 10538333, "quality": "uhd", "file_type": "video/mp4", "width": 1440, "height": 2560, "fps": 24.0, "link": "https://videos.pexels.com/video-files/7681543/7681543-uhd_1440_2560_24fps.mp4", "size": 15873428}, {"id": 10538370, "quality": "hd", "file_type": "video/mp4", "width": 1080, "height": 1920, "fps": 24.0, "link": "https://videos.pexels.com/video-files/7681543/7681543-hd_1080_1920_24fps.mp4", "size": 7774302}, {"id": 10538429, "quality": "sd", "file_type": "video/mp4", "width": 540, "height": 960, "fps": 24.0, "link": "https://videos.pexels.com/video-files/7681543/7681543-sd_540_960_24fps.mp4", "size": 2400863}, {"id": 10538508, "quality": "sd", "file_type": "video/mp4", "width": 360, "height": 640, "fps": 24.0, "link": "https://videos.pexels.com/video-files/7681543/7681543-sd_360_640_24fps.mp4", "size": 958513}, {"id": 10538574, "quality": "hd", "file_type": "video/mp4", "width": 720, "height": 1280, "fps": 24.0, "link": "https://videos.pexels.com/video-files/7681543/7681543-hd_720_1280_24fps.mp4", "size": 4201638}], "video_pictures": [{"id": 6876529, "nr": 0, "picture": "https://images.pexels.com/videos/7681543/pictures/preview-0.jpeg"}, {"id": 6876555, "nr": 1, "picture": "https://images.pexels.com/videos/7681543/pictures/preview-1.jpeg"}, {"id": 6876595, "nr": 2, "picture": "https://images.pexels.com/videos/7681543/pictures/preview-2.jpeg"}, {"id": 6876643, "nr": 3, "picture": "https://images.pexels.com/videos/7681543/pictures/preview-3.jpeg"}, {"id": 6876692, "nr": 4, "picture": "https://images.pexels.com/videos/7681543/pictures/preview-4.jpeg"}, {"id": 6876727, "nr": 5, "picture": "https://images.pexels.com/videos/7681543/pictures/preview-5.jpeg"}, {"id": 6876768, "nr": 6, "picture": "https://images.pexels.com/videos/7681543/pictures/preview-6.jpeg"}, {"id": 6876802, "nr": 7, "picture": "https://images.pexels.com/videos/7681543/pictures/preview-7.jpeg"}, {"id": 6876846, "nr": 8, "picture": "https://images.pexels.com/videos/7681543/pictures/preview-8.jpeg"}, {"id": 6876882, "nr": 9, "picture": "https://images.pexels.com/videos/7681543/pictures/preview-9.jpeg"}, {"id": 6876919, "nr": 10, "picture": "https://images.pexels.com/videos/7681543/pictures/preview-10.jpeg"}, {"id": 6876944, "nr": 11, "picture": "https://images.pexels.com/videos/7681543/pictures/preview-11.jpeg"}, {"id": 6876970, "nr": 12, "picture": "https://images.pexels.com/videos/7681543/pictures/preview-12.jpeg"}, {"id": 6876988, "nr": 13, "picture": "https://images.pexels.com/videos/7681543/pictures/preview-13.jpeg"}, {"id": 6877009, "nr": 14, "picture": "https://images.pexels.com/videos/7681543/pictures/preview-14.jpeg"}]}], "total_results": 8000, "next_page": "https://api.pexels.com/v1/videos/search?orientation=portrait&page=2&per_page=8&query=water+droplets", "url": "https://api-server.pexels.com/search/videos/water%20droplets/"}, "timestamp": "2025-02-10T17:23:38.907001"}
