{"query": "seed counting", "response": {"page": 1, "per_page": 8, "videos": [{"id": 30353172, "width": 1080, "height": 1920, "duration": 7, "full_res": null, "tags": [], "url": "https://www.pexels.com/video/hands-holding-coffee-beans-on-vibrant-red-background-30353172/", "image": "https://images.pexels.com/videos/30353172/4k-video-bean-cafe-coffee-bean-30353172.jpeg?auto=compress&cs=tinysrgb&fit=crop&h=1200&w=630", "avg_color": null, "user": {"id": 282933044, "name": "Cemrecan Yurtman", "url": "https://www.pexels.com/@cmrcn"}, "video_files": [{"id": 13012970, "quality": null, "file_type": "video/mp4", "width": 360, "height": 640, "fps": 29.969999313354492, "link": "https://videos.pexels.com/video-files/30353172/13012970_360_640_30fps.mp4", "size": 552188}, {"id": 13012971, "quality": null, "file_type": "video/mp4", "width": 540, "height": 960, "fps": 29.969999313354492, "link": "https://videos.pexels.com/video-files/30353172/13012971_540_960_30fps.mp4", "size": 1042314}, {"id": 13012973, "quality": null, "file_type": "video/mp4", "width": 720, "height": 1280, "fps": 29.969999313354492, "link": "https://videos.pexels.com/video-files/30353172/13012973_720_1280_30fps.mp4", "size": 1694629}, {"id": 13012975, "quality": null, "file_type": "video/mp4", "width": 1080, "height": 1920, "fps": 29.969999313354492, "link": "https://videos.pexels.com/video-files/30353172/13012975_1080_1920_30fps.mp4", "size": 3875551}], "video_pictures": [{"id": 24727067, "nr": 0, "picture": "https://images.pexels.com/videos/30353172/pictures/preview-0.jpg"}, {"id": 24727068, "nr": 1, "picture": "https://images.pexels.com/videos/30353172/pictures/preview-1.jpg"}, {"id": 24727069, "nr": 2, "picture": "https://images.pexels.com/videos/30353172/pictures/preview-2.jpg"}, {"id": 24727070, "nr": 3, "picture": "https://images.pexels.com/videos/30353172/pictures/preview-3.jpg"}, {"id": 24727071, "nr": 4, "picture": "https://images.pexels.com/videos/30353172/pictures/preview-4.jpg"}, {"id": 24727072, "nr": 5, "picture": "https://images.pexels.com/videos/30353172/pictures/preview-5.jpg"}]}, {"id": 6266251, "width": 2160, "height": 3840, "duration": 11, "full_res": null, "tags": [], "url": "https://www.pexels.com/video/a-person-counting-dollar-bills-6266251/", "image": "https://images.pexels.com/videos/6266251/pexels-photo-6266251.jpeg?auto=compress&cs=tinysrgb&fit=crop&h=1200&w=630", "avg_color": null, "user": {"id": 3088726, "name": "Tima Miroshnichenko", "url": "https://www.pexels.com/@tima-miroshnichenko"}, "video_files": [{"id": 9983244, "quality": "hd", "file_type": "video/mp4", "width": 1080, "height": 1920, "fps": 25.0, "link": "https://videos.pexels.com/video-files/6266251/6266251-hd_1080_1920_25fps.mp4", "size": 8140188}, {"id": 9983275, "quality": "uhd", "file_type": "video/mp4", "width": 1440, "height": 2560, "fps": 25.0, "link": "https://videos.pexels.com/video-files/6266251/6266251-uhd_1440_2560_25fps.mp4", "size": 15140487}, {"id": 9983324, "quality": "sd", "file_type": "video/mp4", "width": 240, "height": 426, "fps": 25.0, "link": "https://videos.pexels.com/video-files/6266251/6266251-sd_240_426_25fps.mp4", "size": 464328}, {"id": 9983380, "quality": "hd", "file_type": "video/mp4", "width": 720, "height": 1280, "fps": 25.0, "link": "https://videos.pexels.com/video-files/6266251/6266251-hd_720_1280_25fps.mp4", "size": 4080772}, {"id": 9983422, "quality": "sd", "file_type": "video/mp4", "width": 540, "height": 960, "fps": 25.0, "link": "https://videos.pexels.com/video-files/6266251/6266251-sd_540_960_25fps.mp4", "size": 2146471}, {"id": 9983505, "quality": "sd", "file_type": "video/mp4", "width": 360, "height": 640, "fps": 25.0, "link": "https://videos.pexels.com/video-files/6266251/6266251-sd_360_640_25fps.mp4", "size": 762420}, {"id": 9983651, "quality": "uhd", "file_type": "video/mp4", "width": 2160, "height": 3840, "fps": 25.0, "link": "https://videos.pexels.com/video-files/6266251/6266251-uhd_2160_3840_25fps.mp4", "size": 32737536}], "video_pictures": [{"id": 4188388, "nr": 0, "picture": "https://images.pexels.com/videos/6266251/pictures/preview-0.jpeg"}, {"id": 4188394, "nr": 1, "picture": "https://images.pexels.com/videos/6266251/pictures/preview-1.jpeg"}, {"id": 4188402, "nr": 2, "picture": "https://images.pexels.com/videos/6266251/pictures/preview-2.jpeg"}, {"id": 4188411, "nr": 3, "picture": "https://images.pexels.com/videos/6266251/pictures/preview-3.jpeg"}, {"id": 4188417, "nr": 4, "picture": "https://images.pexels.com/videos/6266251/pictures/preview-4.jpeg"}, {"id": 4188423, "nr": 5, "picture": "https://images.pexels.com/videos/6266251/pictures/preview-5.jpeg"}, {"id": 4188426, "nr": 6, "picture": "https://images.pexels.com/videos/6266251/pictures/preview-6.jpeg"}, {"id": 4188432, "nr": 7, "picture": "https://images.pexels.com/videos/6266251/pictures/preview-7.jpeg"}, {"id": 4188439, "nr": 8, "picture": "https://images.pexels.com/videos/6266251/pictures/preview-8.jpeg"}, {"id": 4188446, "nr": 9, "picture": "https://images.pexels.com/videos/6266251/pictures/preview-9.jpeg"}, {"id": 4188454, "nr": 10, "picture": "https://images.pexels.com/videos/6266251/pictures/preview-10.jpeg"}, {"id": 4188467, "nr": 11, "picture": "https://images.pexels.com/videos/6266251/pictures/preview-11.jpeg"}, {"id": 4188478, "nr": 12, "picture": "https://images.pexels.com/videos/6266251/pictures/preview-12.jpeg"}, {"id": 4188486, "nr": 13, "picture": "https://images.pexels.com/videos/6266251/pictures/preview-13.jpeg"}, {"id": 4188494, "nr": 14, "picture": "https://images.pexels.com/videos/6266251/pictures/preview-14.jpeg"}]}, {"id": 5876044, "width": 2160, "height": 4096, "duration": 32, "full_res": null, "tags": [], "url": "https://www.pexels.com/video/vertical-video-of-falling-lemon-slices-5876044/", "image": "https://images.pexels.com/videos/5876044/pexels-photo-5876044.jpeg?auto=compress&cs=tinysrgb&fit=crop&h=1200&w=630", "avg_color": null, "user": {"id": 1437723, "name": "cottonbro studio", "url": "https://www.pexels.com/@cottonbro"}, "video_files": [{"id": 9834865, "quality": "hd", "file_type": "video/mp4", "width": 720, "height": 1366, "fps": 25.0, "link": "https://videos.pexels.com/video-files/5876044/5876044-hd_720_1366_25fps.mp4", "size": 4528963}, {"id": 9834978, "quality": "uhd", "file_type": "video/mp4", "width": 2160, "height": 4096, "fps": 25.0, "link": "https://videos.pexels.com/video-files/5876044/5876044-uhd_2160_4096_25fps.mp4", "size": 52922584}, {"id": 9835053, "quality": "sd", "file_type": "video/mp4", "width": 338, "height": 640, "fps": 25.0, "link": "https://videos.pexels.com/video-files/5876044/5876044-sd_338_640_25fps.mp4", "size": 1068428}, {"id": 9835157, "quality": "uhd", "file_type": "video/mp4", "width": 1440, "height": 2732, "fps": 25.0, "link": "https://videos.pexels.com/video-files/5876044/5876044-uhd_1440_2732_25fps.mp4", "size": 16962474}, {"id": 9835254, "quality": "hd", "file_type": "video/mp4", "width": 1080, "height": 2048, "fps": 25.0, "link": "https://videos.pexels.com/video-files/5876044/5876044-hd_1080_2048_25fps.mp4", "size": 10354144}, {"id": 9835360, "quality": "sd", "file_type": "video/mp4", "width": 226, "height": 426, "fps": 25.0, "link": "https://videos.pexels.com/video-files/5876044/5876044-sd_226_426_25fps.mp4", "size": 563683}, {"id": 9835461, "quality": "sd", "file_type": "video/mp4", "width": 506, "height": 960, "fps": 25.0, "link": "https://videos.pexels.com/video-files/5876044/5876044-sd_506_960_25fps.mp4", "size": 2368531}], "video_pictures": [{"id": 3505859, "nr": 0, "picture": "https://images.pexels.com/videos/5876044/pictures/preview-0.jpeg"}, {"id": 3505866, "nr": 1, "picture": "https://images.pexels.com/videos/5876044/pictures/preview-1.jpeg"}, {"id": 3505882, "nr": 2, "picture": "https://images.pexels.com/videos/5876044/pictures/preview-2.jpeg"}, {"id": 3505908, "nr": 3, "picture": "https://images.pexels.com/videos/5876044/pictures/preview-3.jpeg"}, {"id": 3505925, "nr": 4, "picture": "https://images.pexels.com/videos/5876044/pictures/preview-4.jpeg"}, {"id": 3505941, "nr": 5, "picture": "https://images.pexels.com/videos/5876044/pictures/preview-5.jpeg"}, {"id": 3505952, "nr": 6, "picture": "https://images.pexels.com/videos/5876044/pictures/preview-6.jpeg"}, {"id": 3505965, "nr": 7, "picture": "https://images.pexels.com/videos/5876044/pictures/preview-7.jpeg"}, {"id": 3505977, "nr": 8, "picture": "https://images.pexels.com/videos/5876044/pictures/preview-8.jpeg"}, {"id": 3505989, "nr": 9, "picture": "https://images.pexels.com/videos/5876044/pictures/preview-9.jpeg"}, {"id": 3505998, "nr": 10, "picture": "https://images.pexels.com/videos/5876044/pictures/preview-10.jpeg"}, {"id": 3506009, "nr": 11, "picture": "https://images.pexels.com/videos/5876044/pictures/preview-11.jpeg"}, {"id": 3506020, "nr": 12, "picture": "https://images.pexels.com/videos/5876044/pictures/preview-12.jpeg"}, {"id": 3506027, "nr": 13, "picture": "https://images.pexels.com/videos/5876044/pictures/preview-13.jpeg"}, {"id": 3506036, "nr": 14, "picture": "https://images.pexels.com/videos/5876044/pictures/preview-14.jpeg"}]}, {"id": 7735919, "width": 1080, "height": 1920, "duration": 21, "full_res": null, "tags": [], "url": "https://www.pexels.com/video/woman-counting-money-7735919/", "image": "https://images.pexels.com/videos/7735919/pexels-photo-7735919.jpeg?auto=compress&cs=tinysrgb&fit=crop&h=1200&w=630", "avg_color": null, "user": {"id": 11437196, "name": "Mikhail Nilov", "url": "https://www.pexels.com/@mikhail-nilov"}, "video_files": [{"id": 10567329, "quality": "hd", "file_type": "video/mp4", "width": 1080, "height": 1920, "fps": 25.0, "link": "https://videos.pexels.com/video-files/7735919/7735919-hd_1080_1920_25fps.mp4", "size": 10643654}, {"id": 10567403, "quality": "sd", "file_type": "video/mp4", "width": 360, "height": 640, "fps": 25.0, "link": "https://videos.pexels.com/video-files/7735919/7735919-sd_360_640_25fps.mp4", "size": 1223527}, {"id": 10567433, "quality": "sd", "file_type": "video/mp4", "width": 240, "height": 426, "fps": 25.0, "link": "https://videos.pexels.com/video-files/7735919/7735919-sd_240_426_25fps.mp4", "size": 834823}, {"id": 10567480, "quality": "hd", "file_type": "video/mp4", "width": 720, "height": 1280, "fps": 25.0, "link": "https://videos.pexels.com/video-files/7735919/7735919-hd_720_1280_25fps.mp4", "size": 4570293}, {"id": 10567534, "quality": "sd", "file_type": "video/mp4", "width": 540, "height": 960, "fps": 25.0, "link": "https://videos.pexels.com/video-files/7735919/7735919-sd_540_960_25fps.mp4", "size": 2700446}], "video_pictures": [{"id": 6992873, "nr": 0, "picture": "https://images.pexels.com/videos/7735919/pictures/preview-0.jpeg"}, {"id": 6992884, "nr": 1, "picture": "https://images.pexels.com/videos/7735919/pictures/preview-1.jpeg"}, {"id": 6992894, "nr": 2, "picture": "https://images.pexels.com/videos/7735919/pictures/preview-2.jpeg"}, {"id": 6992903, "nr": 3, "picture": "https://images.pexels.com/videos/7735919/pictures/preview-3.jpeg"}, {"id": 6992911, "nr": 4, "picture": "https://images.pexels.com/videos/7735919/pictures/preview-4.jpeg"}, {"id": 6992922, "nr": 5, "picture": "https://images.pexels.com/videos/7735919/pictures/preview-5.jpeg"}, {"id": 6992931, "nr": 6, "picture": "https://images.pexels.com/videos/7735919/pictures/preview-6.jpeg"}, {"id": 6992940, "nr": 7, "picture": "https://images.pexels.com/videos/7735919/pictures/preview-7.jpeg"}, {"id": 6992950, "nr": 8, "picture": "https://images.pexels.com/videos/7735919/pictures/preview-8.jpeg"}, {"id": 6992957, "nr": 9, "picture": "https://images.pexels.com/videos/7735919/pictures/preview-9.jpeg"}, {"id": 6992965, "nr": 10, "picture": "https://images.pexels.com/videos/7735919/pictures/preview-10.jpeg"}, {"id": 6992973, "nr": 11, "picture": "https://images.pexels.com/videos/7735919/pictures/preview-11.jpeg"}, {"id": 6992982, "nr": 12, "picture": "https://images.pexels.com/videos/7735919/pictures/preview-12.jpeg"}, {"id": 6992988, "nr": 13, "picture": "https://images.pexels.com/videos/7735919/pictures/preview-13.jpeg"}, {"id": 6992993, "nr": 14, "picture": "https://images.pexels.com/videos/7735919/pictures/preview-14.jpeg"}]}, {"id": 6698945, "width": 2160, "height": 3840, "duration": 39, "full_res": null, "tags": [], "url": "https://www.pexels.com/video/a-person-counting-money-and-using-calculator-6698945/", "image": "https://images.pexels.com/videos/6698945/pexels-photo-6698945.jpeg?auto=compress&cs=tinysrgb&fit=crop&h=1200&w=630", "avg_color": null, "user": {"id": 3088726, "name": "Tima Miroshnichenko", "url": "https://www.pexels.com/@tima-miroshnichenko"}, "video_files": [{"id": 10146666, "quality": "hd", "file_type": "video/mp4", "width": 720, "height": 1280, "fps": 25.0, "link": "https://videos.pexels.com/video-files/6698945/6698945-hd_720_1280_25fps.mp4", "size": 7781415}, {"id": 10146754, "quality": "sd", "file_type": "video/mp4", "width": 240, "height": 426, "fps": 25.0, "link": "https://videos.pexels.com/video-files/6698945/6698945-sd_240_426_25fps.mp4", "size": 1283677}, {"id": 10146864, "quality": "uhd", "file_type": "video/mp4", "width": 1440, "height": 2560, "fps": 25.0, "link": "https://videos.pexels.com/video-files/6698945/6698945-uhd_1440_2560_25fps.mp4", "size": 27127073}, {"id": 10147019, "quality": "hd", "file_type": "video/mp4", "width": 1080, "height": 1920, "fps": 25.0, "link": "https://videos.pexels.com/video-files/6698945/6698945-hd_1080_1920_25fps.mp4", "size": 15862347}, {"id": 10147130, "quality": "sd", "file_type": "video/mp4", "width": 540, "height": 960, "fps": 25.0, "link": "https://videos.pexels.com/video-files/6698945/6698945-sd_540_960_25fps.mp4", "size": 4400657}, {"id": 10147392, "quality": "uhd", "file_type": "video/mp4", "width": 2160, "height": 3840, "fps": 25.0, "link": "https://videos.pexels.com/video-files/6698945/6698945-uhd_2160_3840_25fps.mp4", "size": 66524827}, {"id": 10147502, "quality": "sd", "file_type": "video/mp4", "width": 360, "height": 640, "fps": 25.0, "link": "https://videos.pexels.com/video-files/6698945/6698945-sd_360_640_25fps.mp4", "size": 2340578}], "video_pictures": [{"id": 4962393, "nr": 0, "picture": "https://images.pexels.com/videos/6698945/pictures/preview-0.jpeg"}, {"id": 4962395, "nr": 1, "picture": "https://images.pexels.com/videos/6698945/pictures/preview-1.jpeg"}, {"id": 4962399, "nr": 2, "picture": "https://images.pexels.com/videos/6698945/pictures/preview-2.jpeg"}, {"id": 4962402, "nr": 3, "picture": "https://images.pexels.com/videos/6698945/pictures/preview-3.jpeg"}, {"id": 4962405, "nr": 4, "picture": "https://images.pexels.com/videos/6698945/pictures/preview-4.jpeg"}, {"id": 4962408, "nr": 5, "picture": "https://images.pexels.com/videos/6698945/pictures/preview-5.jpeg"}, {"id": 4962410, "nr": 6, "picture": "https://images.pexels.com/videos/6698945/pictures/preview-6.jpeg"}, {"id": 4962412, "nr": 7, "picture": "https://images.pexels.com/videos/6698945/pictures/preview-7.jpeg"}, {"id": 4962414, "nr": 8, "picture": "https://images.pexels.com/videos/6698945/pictures/preview-8.jpeg"}, {"id": 4962416, "nr": 9, "picture": "https://images.pexels.com/videos/6698945/pictures/preview-9.jpeg"}, {"id": 4962417, "nr": 10, "picture": "https://images.pexels.com/videos/6698945/pictures/preview-10.jpeg"}, {"id": 4962418, "nr": 11, "picture": "https://images.pexels.com/videos/6698945/pictures/preview-11.jpeg"}, {"id": 4962419, "nr": 12, "picture": "https://images.pexels.com/videos/6698945/pictures/preview-12.jpeg"}, {"id": 4962420, "nr": 13, "picture": "https://images.pexels.com/videos/6698945/pictures/preview-13.jpeg"}, {"id": 4962421, "nr": 14, "picture": "https://images.pexels.com/videos/6698945/pictures/preview-14.jpeg"}]}, {"id": 6693624, "width": 2160, "height": 3840, "duration": 8, "full_res": null, "tags": [], "url": "https://www.pexels.com/video/man-calculating-his-money-6693624/", "image": "https://images.pexels.com/videos/6693624/pexels-photo-6693624.jpeg?auto=compress&cs=tinysrgb&fit=crop&h=1200&w=630", "avg_color": null, "user": {"id": 3088726, "name": "Tima Miroshnichenko", "url": "https://www.pexels.com/@tima-miroshnichenko"}, "video_files": [{"id": 10145439, "quality": "uhd", "file_type": "video/mp4", "width": 2160, "height": 3840, "fps": 25.0, "link": "https://videos.pexels.com/video-files/6693624/6693624-uhd_2160_3840_25fps.mp4", "size": 22946150}, {"id": 10145611, "quality": "sd", "file_type": "video/mp4", "width": 240, "height": 426, "fps": 25.0, "link": "https://videos.pexels.com/video-files/6693624/6693624-sd_240_426_25fps.mp4", "size": 301984}, {"id": 10145722, "quality": "uhd", "file_type": "video/mp4", "width": 1440, "height": 2560, "fps": 25.0, "link": "https://videos.pexels.com/video-files/6693624/6693624-uhd_1440_2560_25fps.mp4", "size": 12173425}, {"id": 10145908, "quality": "hd", "file_type": "video/mp4", "width": 1080, "height": 1920, "fps": 25.0, "link": "https://videos.pexels.com/video-files/6693624/6693624-hd_1080_1920_25fps.mp4", "size": 5171220}, {"id": 10145930, "quality": "sd", "file_type": "video/mp4", "width": 540, "height": 960, "fps": 25.0, "link": "https://videos.pexels.com/video-files/6693624/6693624-sd_540_960_25fps.mp4", "size": 1471716}, {"id": 10146104, "quality": "hd", "file_type": "video/mp4", "width": 720, "height": 1280, "fps": 25.0, "link": "https://videos.pexels.com/video-files/6693624/6693624-hd_720_1280_25fps.mp4", "size": 2512129}, {"id": 10146181, "quality": "sd", "file_type": "video/mp4", "width": 360, "height": 640, "fps": 25.0, "link": "https://videos.pexels.com/video-files/6693624/6693624-sd_360_640_25fps.mp4", "size": 483948}], "video_pictures": [{"id": 4954255, "nr": 0, "picture": "https://images.pexels.com/videos/6693624/pictures/preview-0.jpeg"}, {"id": 4954256, "nr": 1, "picture": "https://images.pexels.com/videos/6693624/pictures/preview-1.jpeg"}, {"id": 4954258, "nr": 2, "picture": "https://images.pexels.com/videos/6693624/pictures/preview-2.jpeg"}, {"id": 4954260, "nr": 3, "picture": "https://images.pexels.com/videos/6693624/pictures/preview-3.jpeg"}, {"id": 4954264, "nr": 4, "picture": "https://images.pexels.com/videos/6693624/pictures/preview-4.jpeg"}, {"id": 4954268, "nr": 5, "picture": "https://images.pexels.com/videos/6693624/pictures/preview-5.jpeg"}, {"id": 4954271, "nr": 6, "picture": "https://images.pexels.com/videos/6693624/pictures/preview-6.jpeg"}, {"id": 4954275, "nr": 7, "picture": "https://images.pexels.com/videos/6693624/pictures/preview-7.jpeg"}, {"id": 4954278, "nr": 8, "picture": "https://images.pexels.com/videos/6693624/pictures/preview-8.jpeg"}, {"id": 4954282, "nr": 9, "picture": "https://images.pexels.com/videos/6693624/pictures/preview-9.jpeg"}, {"id": 4954287, "nr": 10, "picture": "https://images.pexels.com/videos/6693624/pictures/preview-10.jpeg"}, {"id": 4954292, "nr": 11, "picture": "https://images.pexels.com/videos/6693624/pictures/preview-11.jpeg"}, {"id": 4954297, "nr": 12, "picture": "https://images.pexels.com/videos/6693624/pictures/preview-12.jpeg"}, {"id": 4954303, "nr": 13, "picture": "https://images.pexels.com/videos/6693624/pictures/preview-13.jpeg"}, {"id": 4954309, "nr": 14, "picture": "https://images.pexels.com/videos/6693624/pictures/preview-14.jpeg"}]}, {"id": 7884420, "width": 2160, "height": 4096, "duration": 14, "full_res": null, "tags": [], "url": "https://www.pexels.com/video/rich-person-throwing-american-dollars-7884420/", "image": "https://images.pexels.com/videos/7884420/pexels-photo-7884420.jpeg?auto=compress&cs=tinysrgb&fit=crop&h=1200&w=630", "avg_color": null, "user": {"id": 22992178, "name": "Ron Lach", "url": "https://www.pexels.com/@ron-lach"}, "video_files": [{"id": 10606509, "quality": "sd", "file_type": "video/mp4", "width": 338, "height": 640, "fps": 25.0, "link": "https://videos.pexels.com/video-files/7884420/7884420-sd_338_640_25fps.mp4", "size": 783832}, {"id": 10606561, "quality": "sd", "file_type": "video/mp4", "width": 226, "height": 426, "fps": 25.0, "link": "https://videos.pexels.com/video-files/7884420/7884420-sd_226_426_25fps.mp4", "size": 553374}, {"id": 10606617, "quality": "uhd", "file_type": "video/mp4", "width": 2160, "height": 4096, "fps": 25.0, "link": "https://videos.pexels.com/video-files/7884420/7884420-uhd_2160_4096_25fps.mp4", "size": 33748705}, {"id": 10606644, "quality": "hd", "file_type": "video/mp4", "width": 1080, "height": 2048, "fps": 25.0, "link": "https://videos.pexels.com/video-files/7884420/7884420-hd_1080_2048_25fps.mp4", "size": 6496129}, {"id": 10606727, "quality": "hd", "file_type": "video/mp4", "width": 720, "height": 1366, "fps": 25.0, "link": "https://videos.pexels.com/video-files/7884420/7884420-hd_720_1366_25fps.mp4", "size": 2818752}, {"id": 10606771, "quality": "uhd", "file_type": "video/mp4", "width": 1440, "height": 2732, "fps": 25.0, "link": "https://videos.pexels.com/video-files/7884420/7884420-uhd_1440_2732_25fps.mp4", "size": 11440371}, {"id": 10606848, "quality": "sd", "file_type": "video/mp4", "width": 506, "height": 960, "fps": 25.0, "link": "https://videos.pexels.com/video-files/7884420/7884420-sd_506_960_25fps.mp4", "size": 1517448}], "video_pictures": [{"id": 7214665, "nr": 0, "picture": "https://images.pexels.com/videos/7884420/pictures/preview-0.jpeg"}, {"id": 7214675, "nr": 1, "picture": "https://images.pexels.com/videos/7884420/pictures/preview-1.jpeg"}, {"id": 7214688, "nr": 2, "picture": "https://images.pexels.com/videos/7884420/pictures/preview-2.jpeg"}, {"id": 7214699, "nr": 3, "picture": "https://images.pexels.com/videos/7884420/pictures/preview-3.jpeg"}, {"id": 7214713, "nr": 4, "picture": "https://images.pexels.com/videos/7884420/pictures/preview-4.jpeg"}, {"id": 7214724, "nr": 5, "picture": "https://images.pexels.com/videos/7884420/pictures/preview-5.jpeg"}, {"id": 7214737, "nr": 6, "picture": "https://images.pexels.com/videos/7884420/pictures/preview-6.jpeg"}, {"id": 7214754, "nr": 7, "picture": "https://images.pexels.com/videos/7884420/pictures/preview-7.jpeg"}, {"id": 7214768, "nr": 8, "picture": "https://images.pexels.com/videos/7884420/pictures/preview-8.jpeg"}, {"id": 7214784, "nr": 9, "picture": "https://images.pexels.com/videos/7884420/pictures/preview-9.jpeg"}, {"id": 7214796, "nr": 10, "picture": "https://images.pexels.com/videos/7884420/pictures/preview-10.jpeg"}, {"id": 7214812, "nr": 11, "picture": "https://images.pexels.com/videos/7884420/pictures/preview-11.jpeg"}, {"id": 7214821, "nr": 12, "picture": "https://images.pexels.com/videos/7884420/pictures/preview-12.jpeg"}, {"id": 7214833, "nr": 13, "picture": "https://images.pexels.com/videos/7884420/pictures/preview-13.jpeg"}, {"id": 7214841, "nr": 14, "picture": "https://images.pexels.com/videos/7884420/pictures/preview-14.jpeg"}]}, {"id": 6700265, "width": 2160, "height": 3840, "duration": 17, "full_res": null, "tags": [], "url": "https://www.pexels.com/video/a-person-counting-cash-6700265/", "image": "https://images.pexels.com/videos/6700265/pexels-photo-6700265.jpeg?auto=compress&cs=tinysrgb&fit=crop&h=1200&w=630", "avg_color": null, "user": {"id": 3088726, "name": "Tima Miroshnichenko", "url": "https://www.pexels.com/@tima-miroshnichenko"}, "video_files": [{"id": 10146818, "quality": "hd", "file_type": "video/mp4", "width": 720, "height": 1280, "fps": 25.0, "link": "https://videos.pexels.com/video-files/6700265/6700265-hd_720_1280_25fps.mp4", "size": 3008335}, {"id": 10146873, "quality": "uhd", "file_type": "video/mp4", "width": 2160, "height": 3840, "fps": 25.0, "link": "https://videos.pexels.com/video-files/6700265/6700265-uhd_2160_3840_25fps.mp4", "size": 21046963}, {"id": 10146914, "quality": "sd", "file_type": "video/mp4", "width": 540, "height": 960, "fps": 25.0, "link": "https://videos.pexels.com/video-files/6700265/6700265-sd_540_960_25fps.mp4", "size": 1807349}, {"id": 10147011, "quality": "sd", "file_type": "video/mp4", "width": 360, "height": 640, "fps": 25.0, "link": "https://videos.pexels.com/video-files/6700265/6700265-sd_360_640_25fps.mp4", "size": 927023}, {"id": 10147083, "quality": "sd", "file_type": "video/mp4", "width": 240, "height": 426, "fps": 25.0, "link": "https://videos.pexels.com/video-files/6700265/6700265-sd_240_426_25fps.mp4", "size": 561872}, {"id": 10147180, "quality": "uhd", "file_type": "video/mp4", "width": 1440, "height": 2560, "fps": 25.0, "link": "https://videos.pexels.com/video-files/6700265/6700265-uhd_1440_2560_25fps.mp4", "size": 9480446}, {"id": 10147320, "quality": "hd", "file_type": "video/mp4", "width": 1080, "height": 1920, "fps": 25.0, "link": "https://videos.pexels.com/video-files/6700265/6700265-hd_1080_1920_25fps.mp4", "size": 5855908}], "video_pictures": [{"id": 4964785, "nr": 0, "picture": "https://images.pexels.com/videos/6700265/pictures/preview-0.jpeg"}, {"id": 4964791, "nr": 1, "picture": "https://images.pexels.com/videos/6700265/pictures/preview-1.jpeg"}, {"id": 4964797, "nr": 2, "picture": "https://images.pexels.com/videos/6700265/pictures/preview-2.jpeg"}, {"id": 4964800, "nr": 3, "picture": "https://images.pexels.com/videos/6700265/pictures/preview-3.jpeg"}, {"id": 4964805, "nr": 4, "picture": "https://images.pexels.com/videos/6700265/pictures/preview-4.jpeg"}, {"id": 4964809, "nr": 5, "picture": "https://images.pexels.com/videos/6700265/pictures/preview-5.jpeg"}, {"id": 4964813, "nr": 6, "picture": "https://images.pexels.com/videos/6700265/pictures/preview-6.jpeg"}, {"id": 4964815, "nr": 7, "picture": "https://images.pexels.com/videos/6700265/pictures/preview-7.jpeg"}, {"id": 4964819, "nr": 8, "picture": "https://images.pexels.com/videos/6700265/pictures/preview-8.jpeg"}, {"id": 4964822, "nr": 9, "picture": "https://images.pexels.com/videos/6700265/pictures/preview-9.jpeg"}, {"id": 4964825, "nr": 10, "picture": "https://images.pexels.com/videos/6700265/pictures/preview-10.jpeg"}, {"id": 4964827, "nr": 11, "picture": "https://images.pexels.com/videos/6700265/pictures/preview-11.jpeg"}, {"id": 4964829, "nr": 12, "picture": "https://images.pexels.com/videos/6700265/pictures/preview-12.jpeg"}, {"id": 4964831, "nr": 13, "picture": "https://images.pexels.com/videos/6700265/pictures/preview-13.jpeg"}, {"id": 4964833, "nr": 14, "picture": "https://images.pexels.com/videos/6700265/pictures/preview-14.jpeg"}]}], "total_results": 465, "next_page": "https://api.pexels.com/v1/videos/search?orientation=portrait&page=2&per_page=8&query=seed+counting", "url": "https://api-server.pexels.com/search/videos/seed%20counting/"}, "timestamp": "2025-01-24T18:07:46.799995"}
