{"query": "spooky atmosphere", "response": {"page": 1, "per_page": 8, "videos": [{"id": 5856114, "width": 2160, "height": 3840, "duration": 12, "full_res": null, "tags": [], "url": "https://www.pexels.com/video/halloween-decoration-in-a-tree-5856114/", "image": "https://images.pexels.com/videos/5856114/pexels-photo-5856114.jpeg?auto=compress&cs=tinysrgb&fit=crop&h=1200&w=630", "avg_color": null, "user": {"id": 3660475, "name": "Charles Parker", "url": "https://www.pexels.com/@charles-parker"}, "video_files": [{"id": 9824241, "quality": "hd", "file_type": "video/mp4", "width": 720, "height": 1280, "fps": 23.97599983215332, "link": "https://videos.pexels.com/video-files/5856114/5856114-hd_720_1280_24fps.mp4", "size": 3116496}, {"id": 9824262, "quality": "uhd", "file_type": "video/mp4", "width": 1440, "height": 2560, "fps": 23.97599983215332, "link": "https://videos.pexels.com/video-files/5856114/5856114-uhd_1440_2560_24fps.mp4", "size": 11644407}, {"id": 9824291, "quality": "hd", "file_type": "video/mp4", "width": 1080, "height": 1920, "fps": 23.97599983215332, "link": "https://videos.pexels.com/video-files/5856114/5856114-hd_1080_1920_24fps.mp4", "size": 6336232}, {"id": 9824321, "quality": "sd", "file_type": "video/mp4", "width": 360, "height": 640, "fps": 23.97599983215332, "link": "https://videos.pexels.com/video-files/5856114/5856114-sd_360_640_24fps.mp4", "size": 798422}, {"id": 9824349, "quality": "uhd", "file_type": "video/mp4", "width": 2160, "height": 3840, "fps": 23.97599983215332, "link": "https://videos.pexels.com/video-files/5856114/5856114-uhd_2160_3840_24fps.mp4", "size": 25892400}, {"id": 9824379, "quality": "sd", "file_type": "video/mp4", "width": 240, "height": 426, "fps": 23.97599983215332, "link": "https://videos.pexels.com/video-files/5856114/5856114-sd_240_426_24fps.mp4", "size": 468986}, {"id": 9824408, "quality": "sd", "file_type": "video/mp4", "width": 540, "height": 960, "fps": 23.97599983215332, "link": "https://videos.pexels.com/video-files/5856114/5856114-sd_540_960_24fps.mp4", "size": 1770356}], "video_pictures": [{"id": 3471507, "nr": 0, "picture": "https://images.pexels.com/videos/5856114/pictures/preview-0.jpeg"}, {"id": 3471538, "nr": 1, "picture": "https://images.pexels.com/videos/5856114/pictures/preview-1.jpeg"}, {"id": 3471569, "nr": 2, "picture": "https://images.pexels.com/videos/5856114/pictures/preview-2.jpeg"}, {"id": 3471630, "nr": 3, "picture": "https://images.pexels.com/videos/5856114/pictures/preview-3.jpeg"}, {"id": 3471664, "nr": 4, "picture": "https://images.pexels.com/videos/5856114/pictures/preview-4.jpeg"}, {"id": 3471677, "nr": 5, "picture": "https://images.pexels.com/videos/5856114/pictures/preview-5.jpeg"}, {"id": 3471696, "nr": 6, "picture": "https://images.pexels.com/videos/5856114/pictures/preview-6.jpeg"}, {"id": 3471713, "nr": 7, "picture": "https://images.pexels.com/videos/5856114/pictures/preview-7.jpeg"}, {"id": 3471731, "nr": 8, "picture": "https://images.pexels.com/videos/5856114/pictures/preview-8.jpeg"}, {"id": 3471746, "nr": 9, "picture": "https://images.pexels.com/videos/5856114/pictures/preview-9.jpeg"}, {"id": 3471757, "nr": 10, "picture": "https://images.pexels.com/videos/5856114/pictures/preview-10.jpeg"}, {"id": 3471769, "nr": 11, "picture": "https://images.pexels.com/videos/5856114/pictures/preview-11.jpeg"}, {"id": 3471777, "nr": 12, "picture": "https://images.pexels.com/videos/5856114/pictures/preview-12.jpeg"}, {"id": 3471783, "nr": 13, "picture": "https://images.pexels.com/videos/5856114/pictures/preview-13.jpeg"}, {"id": 3471789, "nr": 14, "picture": "https://images.pexels.com/videos/5856114/pictures/preview-14.jpeg"}]}, {"id": 5482278, "width": 1080, "height": 1920, "duration": 16, "full_res": null, "tags": [], "url": "https://www.pexels.com/video/high-angle-view-of-candle-and-pumpkins-5482278/", "image": "https://images.pexels.com/videos/5482278/candle-halloween-pumpkin-5482278.jpeg?auto=compress&cs=tinysrgb&fit=crop&h=1200&w=630", "avg_color": null, "user": {"id": 2638647, "name": "olia danilevich", "url": "https://www.pexels.com/@olia-danilevich"}, "video_files": [{"id": 9711931, "quality": "hd", "file_type": "video/mp4", "width": 720, "height": 1280, "fps": 25.0, "link": "https://videos.pexels.com/video-files/5482278/5482278-hd_720_1280_25fps.mp4", "size": 2799731}, {"id": 9712045, "quality": "sd", "file_type": "video/mp4", "width": 540, "height": 960, "fps": 25.0, "link": "https://videos.pexels.com/video-files/5482278/5482278-sd_540_960_25fps.mp4", "size": 1816042}, {"id": 9712194, "quality": "sd", "file_type": "video/mp4", "width": 360, "height": 640, "fps": 25.0, "link": "https://videos.pexels.com/video-files/5482278/5482278-sd_360_640_25fps.mp4", "size": 834922}, {"id": 9712394, "quality": "sd", "file_type": "video/mp4", "width": 240, "height": 426, "fps": 25.0, "link": "https://videos.pexels.com/video-files/5482278/5482278-sd_240_426_25fps.mp4", "size": 370368}, {"id": 9712515, "quality": "hd", "file_type": "video/mp4", "width": 1080, "height": 1920, "fps": 25.0, "link": "https://videos.pexels.com/video-files/5482278/5482278-hd_1080_1920_25fps.mp4", "size": 8116921}], "video_pictures": [{"id": 2891452, "nr": 0, "picture": "https://images.pexels.com/videos/5482278/pictures/preview-0.jpeg"}, {"id": 2891456, "nr": 1, "picture": "https://images.pexels.com/videos/5482278/pictures/preview-1.jpeg"}, {"id": 2891461, "nr": 2, "picture": "https://images.pexels.com/videos/5482278/pictures/preview-2.jpeg"}, {"id": 2891468, "nr": 3, "picture": "https://images.pexels.com/videos/5482278/pictures/preview-3.jpeg"}, {"id": 2891473, "nr": 4, "picture": "https://images.pexels.com/videos/5482278/pictures/preview-4.jpeg"}, {"id": 2891478, "nr": 5, "picture": "https://images.pexels.com/videos/5482278/pictures/preview-5.jpeg"}, {"id": 2891484, "nr": 6, "picture": "https://images.pexels.com/videos/5482278/pictures/preview-6.jpeg"}, {"id": 2891490, "nr": 7, "picture": "https://images.pexels.com/videos/5482278/pictures/preview-7.jpeg"}, {"id": 2891496, "nr": 8, "picture": "https://images.pexels.com/videos/5482278/pictures/preview-8.jpeg"}, {"id": 2891500, "nr": 9, "picture": "https://images.pexels.com/videos/5482278/pictures/preview-9.jpeg"}, {"id": 2891506, "nr": 10, "picture": "https://images.pexels.com/videos/5482278/pictures/preview-10.jpeg"}, {"id": 2891511, "nr": 11, "picture": "https://images.pexels.com/videos/5482278/pictures/preview-11.jpeg"}, {"id": 2891516, "nr": 12, "picture": "https://images.pexels.com/videos/5482278/pictures/preview-12.jpeg"}, {"id": 2891520, "nr": 13, "picture": "https://images.pexels.com/videos/5482278/pictures/preview-13.jpeg"}, {"id": 2891525, "nr": 14, "picture": "https://images.pexels.com/videos/5482278/pictures/preview-14.jpeg"}]}, {"id": 5554447, "width": 2160, "height": 4096, "duration": 70, "full_res": null, "tags": [], "url": "https://www.pexels.com/video/a-woman-drinking-from-a-test-tube-5554447/", "image": "https://images.pexels.com/videos/5554447/pexels-photo-5554447.jpeg?auto=compress&cs=tinysrgb&fit=crop&h=1200&w=630", "avg_color": null, "user": {"id": 1437723, "name": "cottonbro studio", "url": "https://www.pexels.com/@cottonbro"}, "video_files": [{"id": 9730465, "quality": "uhd", "file_type": "video/mp4", "width": 2160, "height": 4096, "fps": 25.0, "link": "https://videos.pexels.com/video-files/5554447/5554447-uhd_2160_4096_25fps.mp4", "size": 162290818}, {"id": 9730521, "quality": "hd", "file_type": "video/mp4", "width": 720, "height": 1366, "fps": 25.0, "link": "https://videos.pexels.com/video-files/5554447/5554447-hd_720_1366_25fps.mp4", "size": 23189557}, {"id": 9730577, "quality": "sd", "file_type": "video/mp4", "width": 506, "height": 960, "fps": 25.0, "link": "https://videos.pexels.com/video-files/5554447/5554447-sd_506_960_25fps.mp4", "size": 13011646}, {"id": 9730638, "quality": "hd", "file_type": "video/mp4", "width": 1080, "height": 2048, "fps": 25.0, "link": "https://videos.pexels.com/video-files/5554447/5554447-hd_1080_2048_25fps.mp4", "size": 46317120}, {"id": 9730731, "quality": "sd", "file_type": "video/mp4", "width": 338, "height": 640, "fps": 25.0, "link": "https://videos.pexels.com/video-files/5554447/5554447-sd_338_640_25fps.mp4", "size": 4632660}, {"id": 9730803, "quality": "sd", "file_type": "video/mp4", "width": 226, "height": 426, "fps": 25.0, "link": "https://videos.pexels.com/video-files/5554447/5554447-sd_226_426_25fps.mp4", "size": 2847085}, {"id": 9730867, "quality": "uhd", "file_type": "video/mp4", "width": 1440, "height": 2732, "fps": 25.0, "link": "https://videos.pexels.com/video-files/5554447/5554447-uhd_1440_2732_25fps.mp4", "size": 82804389}], "video_pictures": [{"id": 2994690, "nr": 0, "picture": "https://images.pexels.com/videos/5554447/pictures/preview-0.jpeg"}, {"id": 2994698, "nr": 1, "picture": "https://images.pexels.com/videos/5554447/pictures/preview-1.jpeg"}, {"id": 2994710, "nr": 2, "picture": "https://images.pexels.com/videos/5554447/pictures/preview-2.jpeg"}, {"id": 2994717, "nr": 3, "picture": "https://images.pexels.com/videos/5554447/pictures/preview-3.jpeg"}, {"id": 2994728, "nr": 4, "picture": "https://images.pexels.com/videos/5554447/pictures/preview-4.jpeg"}, {"id": 2994733, "nr": 5, "picture": "https://images.pexels.com/videos/5554447/pictures/preview-5.jpeg"}, {"id": 2994745, "nr": 6, "picture": "https://images.pexels.com/videos/5554447/pictures/preview-6.jpeg"}, {"id": 2994751, "nr": 7, "picture": "https://images.pexels.com/videos/5554447/pictures/preview-7.jpeg"}, {"id": 2994761, "nr": 8, "picture": "https://images.pexels.com/videos/5554447/pictures/preview-8.jpeg"}, {"id": 2994769, "nr": 9, "picture": "https://images.pexels.com/videos/5554447/pictures/preview-9.jpeg"}, {"id": 2994780, "nr": 10, "picture": "https://images.pexels.com/videos/5554447/pictures/preview-10.jpeg"}, {"id": 2994787, "nr": 11, "picture": "https://images.pexels.com/videos/5554447/pictures/preview-11.jpeg"}, {"id": 2994795, "nr": 12, "picture": "https://images.pexels.com/videos/5554447/pictures/preview-12.jpeg"}, {"id": 2994799, "nr": 13, "picture": "https://images.pexels.com/videos/5554447/pictures/preview-13.jpeg"}, {"id": 2994802, "nr": 14, "picture": "https://images.pexels.com/videos/5554447/pictures/preview-14.jpeg"}]}, {"id": 5435289, "width": 2160, "height": 4096, "duration": 43, "full_res": null, "tags": [], "url": "https://www.pexels.com/video/a-girl-holding-a-lighted-candle-5435289/", "image": "https://images.pexels.com/videos/5435289/boo-candle-candlelight-celebration-5435289.jpeg?auto=compress&cs=tinysrgb&fit=crop&h=1200&w=630", "avg_color": null, "user": {"id": 1437723, "name": "cottonbro studio", "url": "https://www.pexels.com/@cottonbro"}, "video_files": [{"id": 9700454, "quality": "sd", "file_type": "video/mp4", "width": 506, "height": 960, "fps": 25.0, "link": "https://videos.pexels.com/video-files/5435289/5435289-sd_506_960_25fps.mp4", "size": 4108364}, {"id": 9700533, "quality": "sd", "file_type": "video/mp4", "width": 226, "height": 426, "fps": 25.0, "link": "https://videos.pexels.com/video-files/5435289/5435289-sd_226_426_25fps.mp4", "size": 1094119}, {"id": 9700603, "quality": "sd", "file_type": "video/mp4", "width": 338, "height": 640, "fps": 25.0, "link": "https://videos.pexels.com/video-files/5435289/5435289-sd_338_640_25fps.mp4", "size": 2137625}, {"id": 9700664, "quality": "hd", "file_type": "video/mp4", "width": 1080, "height": 2048, "fps": 25.0, "link": "https://videos.pexels.com/video-files/5435289/5435289-hd_1080_2048_25fps.mp4", "size": 23657447}, {"id": 9700719, "quality": "hd", "file_type": "video/mp4", "width": 720, "height": 1366, "fps": 25.0, "link": "https://videos.pexels.com/video-files/5435289/5435289-hd_720_1366_25fps.mp4", "size": 8764151}, {"id": 9700744, "quality": "uhd", "file_type": "video/mp4", "width": 1440, "height": 2732, "fps": 25.0, "link": "https://videos.pexels.com/video-files/5435289/5435289-uhd_1440_2732_25fps.mp4", "size": 50630363}, {"id": 9700765, "quality": "uhd", "file_type": "video/mp4", "width": 2160, "height": 4096, "fps": 25.0, "link": "https://videos.pexels.com/video-files/5435289/5435289-uhd_2160_4096_25fps.mp4", "size": 124145253}], "video_pictures": [{"id": 2827821, "nr": 0, "picture": "https://images.pexels.com/videos/5435289/pictures/preview-0.jpeg"}, {"id": 2827824, "nr": 1, "picture": "https://images.pexels.com/videos/5435289/pictures/preview-1.jpeg"}, {"id": 2827826, "nr": 2, "picture": "https://images.pexels.com/videos/5435289/pictures/preview-2.jpeg"}, {"id": 2827829, "nr": 3, "picture": "https://images.pexels.com/videos/5435289/pictures/preview-3.jpeg"}, {"id": 2827832, "nr": 4, "picture": "https://images.pexels.com/videos/5435289/pictures/preview-4.jpeg"}, {"id": 2827834, "nr": 5, "picture": "https://images.pexels.com/videos/5435289/pictures/preview-5.jpeg"}, {"id": 2827837, "nr": 6, "picture": "https://images.pexels.com/videos/5435289/pictures/preview-6.jpeg"}, {"id": 2827839, "nr": 7, "picture": "https://images.pexels.com/videos/5435289/pictures/preview-7.jpeg"}, {"id": 2827841, "nr": 8, "picture": "https://images.pexels.com/videos/5435289/pictures/preview-8.jpeg"}, {"id": 2827844, "nr": 9, "picture": "https://images.pexels.com/videos/5435289/pictures/preview-9.jpeg"}, {"id": 2827846, "nr": 10, "picture": "https://images.pexels.com/videos/5435289/pictures/preview-10.jpeg"}, {"id": 2827849, "nr": 11, "picture": "https://images.pexels.com/videos/5435289/pictures/preview-11.jpeg"}, {"id": 2827850, "nr": 12, "picture": "https://images.pexels.com/videos/5435289/pictures/preview-12.jpeg"}, {"id": 2827854, "nr": 13, "picture": "https://images.pexels.com/videos/5435289/pictures/preview-13.jpeg"}, {"id": 2827856, "nr": 14, "picture": "https://images.pexels.com/videos/5435289/pictures/preview-14.jpeg"}]}, {"id": 5604107, "width": 2160, "height": 3840, "duration": 16, "full_res": null, "tags": [], "url": "https://www.pexels.com/video/halloween-decorations-at-the-garden-5604107/", "image": "https://images.pexels.com/videos/5604107/african-american-child-african-child-asian-child-asian-children-5604107.jpeg?auto=compress&cs=tinysrgb&fit=crop&h=1200&w=630", "avg_color": null, "user": {"id": 649765, "name": "Yaroslav Shuraev", "url": "https://www.pexels.com/@yaroslav-shuraev"}, "video_files": [{"id": 9742262, "quality": "hd", "file_type": "video/mp4", "width": 1080, "height": 1920, "fps": 24.0, "link": "https://videos.pexels.com/video-files/5604107/5604107-hd_1080_1920_24fps.mp4", "size": 6621221}, {"id": 9742316, "quality": "uhd", "file_type": "video/mp4", "width": 2160, "height": 3840, "fps": 24.0, "link": "https://videos.pexels.com/video-files/5604107/5604107-uhd_2160_3840_24fps.mp4", "size": 29271330}, {"id": 9742429, "quality": "sd", "file_type": "video/mp4", "width": 540, "height": 960, "fps": 24.0, "link": "https://videos.pexels.com/video-files/5604107/5604107-sd_540_960_24fps.mp4", "size": 1896556}, {"id": 9742486, "quality": "sd", "file_type": "video/mp4", "width": 240, "height": 426, "fps": 24.0, "link": "https://videos.pexels.com/video-files/5604107/5604107-sd_240_426_24fps.mp4", "size": 568728}, {"id": 9742527, "quality": "hd", "file_type": "video/mp4", "width": 720, "height": 1280, "fps": 24.0, "link": "https://videos.pexels.com/video-files/5604107/5604107-hd_720_1280_24fps.mp4", "size": 3223358}, {"id": 9742586, "quality": "uhd", "file_type": "video/mp4", "width": 1440, "height": 2560, "fps": 24.0, "link": "https://videos.pexels.com/video-files/5604107/5604107-uhd_1440_2560_24fps.mp4", "size": 11607535}, {"id": 9742656, "quality": "sd", "file_type": "video/mp4", "width": 360, "height": 640, "fps": 24.0, "link": "https://videos.pexels.com/video-files/5604107/5604107-sd_360_640_24fps.mp4", "size": 872510}], "video_pictures": [{"id": 3069323, "nr": 0, "picture": "https://images.pexels.com/videos/5604107/pictures/preview-0.jpeg"}, {"id": 3069332, "nr": 1, "picture": "https://images.pexels.com/videos/5604107/pictures/preview-1.jpeg"}, {"id": 3069346, "nr": 2, "picture": "https://images.pexels.com/videos/5604107/pictures/preview-2.jpeg"}, {"id": 3069362, "nr": 3, "picture": "https://images.pexels.com/videos/5604107/pictures/preview-3.jpeg"}, {"id": 3069380, "nr": 4, "picture": "https://images.pexels.com/videos/5604107/pictures/preview-4.jpeg"}, {"id": 3069392, "nr": 5, "picture": "https://images.pexels.com/videos/5604107/pictures/preview-5.jpeg"}, {"id": 3069402, "nr": 6, "picture": "https://images.pexels.com/videos/5604107/pictures/preview-6.jpeg"}, {"id": 3069407, "nr": 7, "picture": "https://images.pexels.com/videos/5604107/pictures/preview-7.jpeg"}, {"id": 3069412, "nr": 8, "picture": "https://images.pexels.com/videos/5604107/pictures/preview-8.jpeg"}, {"id": 3069418, "nr": 9, "picture": "https://images.pexels.com/videos/5604107/pictures/preview-9.jpeg"}, {"id": 3069424, "nr": 10, "picture": "https://images.pexels.com/videos/5604107/pictures/preview-10.jpeg"}, {"id": 3069428, "nr": 11, "picture": "https://images.pexels.com/videos/5604107/pictures/preview-11.jpeg"}, {"id": 3069439, "nr": 12, "picture": "https://images.pexels.com/videos/5604107/pictures/preview-12.jpeg"}, {"id": 3069447, "nr": 13, "picture": "https://images.pexels.com/videos/5604107/pictures/preview-13.jpeg"}, {"id": 3069453, "nr": 14, "picture": "https://images.pexels.com/videos/5604107/pictures/preview-14.jpeg"}]}, {"id": 5605052, "width": 2160, "height": 3840, "duration": 11, "full_res": null, "tags": [], "url": "https://www.pexels.com/video/high-angle-view-of-halloween-cookies-and-decorations-5605052/", "image": "https://images.pexels.com/videos/5605052/pexels-photo-5605052.jpeg?auto=compress&cs=tinysrgb&fit=crop&h=1200&w=630", "avg_color": null, "user": {"id": 649765, "name": "Yaroslav Shuraev", "url": "https://www.pexels.com/@yaroslav-shuraev"}, "video_files": [{"id": 9745450, "quality": "uhd", "file_type": "video/mp4", "width": 2160, "height": 3840, "fps": 24.0, "link": "https://videos.pexels.com/video-files/5605052/5605052-uhd_2160_3840_24fps.mp4", "size": 17620240}, {"id": 9745557, "quality": "hd", "file_type": "video/mp4", "width": 720, "height": 1280, "fps": 24.0, "link": "https://videos.pexels.com/video-files/5605052/5605052-hd_720_1280_24fps.mp4", "size": 2114361}, {"id": 9745620, "quality": "sd", "file_type": "video/mp4", "width": 360, "height": 640, "fps": 24.0, "link": "https://videos.pexels.com/video-files/5605052/5605052-sd_360_640_24fps.mp4", "size": 551914}, {"id": 9745679, "quality": "sd", "file_type": "video/mp4", "width": 240, "height": 426, "fps": 24.0, "link": "https://videos.pexels.com/video-files/5605052/5605052-sd_240_426_24fps.mp4", "size": 357798}, {"id": 9745724, "quality": "hd", "file_type": "video/mp4", "width": 1080, "height": 1920, "fps": 24.0, "link": "https://videos.pexels.com/video-files/5605052/5605052-hd_1080_1920_24fps.mp4", "size": 4190002}, {"id": 9745778, "quality": "uhd", "file_type": "video/mp4", "width": 1440, "height": 2560, "fps": 24.0, "link": "https://videos.pexels.com/video-files/5605052/5605052-uhd_1440_2560_24fps.mp4", "size": 7331307}, {"id": 9745818, "quality": "sd", "file_type": "video/mp4", "width": 540, "height": 960, "fps": 24.0, "link": "https://videos.pexels.com/video-files/5605052/5605052-sd_540_960_24fps.mp4", "size": 1170563}], "video_pictures": [{"id": 3071166, "nr": 0, "picture": "https://images.pexels.com/videos/5605052/pictures/preview-0.jpeg"}, {"id": 3071170, "nr": 1, "picture": "https://images.pexels.com/videos/5605052/pictures/preview-1.jpeg"}, {"id": 3071174, "nr": 2, "picture": "https://images.pexels.com/videos/5605052/pictures/preview-2.jpeg"}, {"id": 3071177, "nr": 3, "picture": "https://images.pexels.com/videos/5605052/pictures/preview-3.jpeg"}, {"id": 3071179, "nr": 4, "picture": "https://images.pexels.com/videos/5605052/pictures/preview-4.jpeg"}, {"id": 3071181, "nr": 5, "picture": "https://images.pexels.com/videos/5605052/pictures/preview-5.jpeg"}, {"id": 3071185, "nr": 6, "picture": "https://images.pexels.com/videos/5605052/pictures/preview-6.jpeg"}, {"id": 3071190, "nr": 7, "picture": "https://images.pexels.com/videos/5605052/pictures/preview-7.jpeg"}, {"id": 3071196, "nr": 8, "picture": "https://images.pexels.com/videos/5605052/pictures/preview-8.jpeg"}, {"id": 3071205, "nr": 9, "picture": "https://images.pexels.com/videos/5605052/pictures/preview-9.jpeg"}, {"id": 3071214, "nr": 10, "picture": "https://images.pexels.com/videos/5605052/pictures/preview-10.jpeg"}, {"id": 3071219, "nr": 11, "picture": "https://images.pexels.com/videos/5605052/pictures/preview-11.jpeg"}, {"id": 3071228, "nr": 12, "picture": "https://images.pexels.com/videos/5605052/pictures/preview-12.jpeg"}, {"id": 3071237, "nr": 13, "picture": "https://images.pexels.com/videos/5605052/pictures/preview-13.jpeg"}, {"id": 3071249, "nr": 14, "picture": "https://images.pexels.com/videos/5605052/pictures/preview-14.jpeg"}]}, {"id": 5388575, "width": 1080, "height": 1920, "duration": 6, "full_res": null, "tags": [], "url": "https://www.pexels.com/video/lightning-bolts-in-night-sky-5388575/", "image": "https://images.pexels.com/videos/5388575/pexels-photo-5388575.jpeg?auto=compress&cs=tinysrgb&fit=crop&h=1200&w=630", "avg_color": null, "user": {"id": 3077086, "name": "Meow Meow", "url": "https://www.pexels.com/@meow-meow-3077086"}, "video_files": [{"id": 9686823, "quality": "sd", "file_type": "video/mp4", "width": 360, "height": 640, "fps": 25.0, "link": "https://videos.pexels.com/video-files/5388575/5388575-sd_360_640_25fps.mp4", "size": 453993}, {"id": 9686847, "quality": "sd", "file_type": "video/mp4", "width": 240, "height": 426, "fps": 25.0, "link": "https://videos.pexels.com/video-files/5388575/5388575-sd_240_426_25fps.mp4", "size": 273435}, {"id": 9686895, "quality": "hd", "file_type": "video/mp4", "width": 720, "height": 1280, "fps": 25.0, "link": "https://videos.pexels.com/video-files/5388575/5388575-hd_720_1280_25fps.mp4", "size": 2210107}, {"id": 9686970, "quality": "hd", "file_type": "video/mp4", "width": 1080, "height": 1920, "fps": 25.0, "link": "https://videos.pexels.com/video-files/5388575/5388575-hd_1080_1920_25fps.mp4", "size": 4175663}, {"id": 9686999, "quality": "sd", "file_type": "video/mp4", "width": 540, "height": 960, "fps": 25.0, "link": "https://videos.pexels.com/video-files/5388575/5388575-sd_540_960_25fps.mp4", "size": 1346176}], "video_pictures": [{"id": 2752587, "nr": 0, "picture": "https://images.pexels.com/videos/5388575/pictures/preview-0.jpeg"}, {"id": 2752588, "nr": 1, "picture": "https://images.pexels.com/videos/5388575/pictures/preview-1.jpeg"}, {"id": 2752589, "nr": 2, "picture": "https://images.pexels.com/videos/5388575/pictures/preview-2.jpeg"}, {"id": 2752590, "nr": 3, "picture": "https://images.pexels.com/videos/5388575/pictures/preview-3.jpeg"}, {"id": 2752591, "nr": 4, "picture": "https://images.pexels.com/videos/5388575/pictures/preview-4.jpeg"}, {"id": 2752592, "nr": 5, "picture": "https://images.pexels.com/videos/5388575/pictures/preview-5.jpeg"}, {"id": 2752593, "nr": 6, "picture": "https://images.pexels.com/videos/5388575/pictures/preview-6.jpeg"}, {"id": 2752594, "nr": 7, "picture": "https://images.pexels.com/videos/5388575/pictures/preview-7.jpeg"}, {"id": 2752595, "nr": 8, "picture": "https://images.pexels.com/videos/5388575/pictures/preview-8.jpeg"}, {"id": 2752596, "nr": 9, "picture": "https://images.pexels.com/videos/5388575/pictures/preview-9.jpeg"}, {"id": 2752597, "nr": 10, "picture": "https://images.pexels.com/videos/5388575/pictures/preview-10.jpeg"}, {"id": 2752598, "nr": 11, "picture": "https://images.pexels.com/videos/5388575/pictures/preview-11.jpeg"}, {"id": 2752599, "nr": 12, "picture": "https://images.pexels.com/videos/5388575/pictures/preview-12.jpeg"}, {"id": 2752600, "nr": 13, "picture": "https://images.pexels.com/videos/5388575/pictures/preview-13.jpeg"}, {"id": 2752601, "nr": 14, "picture": "https://images.pexels.com/videos/5388575/pictures/preview-14.jpeg"}]}, {"id": 9708962, "width": 2160, "height": 3840, "duration": 9, "full_res": null, "tags": [], "url": "https://www.pexels.com/video/girls-in-skeleton-costumes-holding-plastic-pumpkins-9708962/", "image": "https://images.pexels.com/videos/9708962/pexels-photo-9708962.jpeg?auto=compress&cs=tinysrgb&fit=crop&h=1200&w=630", "avg_color": null, "user": {"id": 80197256, "name": "Mike Jones", "url": "https://www.pexels.com/@mike-jones"}, "video_files": [{"id": 11160656, "quality": "uhd", "file_type": "video/mp4", "width": 2160, "height": 3840, "fps": 23.97599983215332, "link": "https://videos.pexels.com/video-files/9708962/9708962-uhd_2160_3840_24fps.mp4", "size": 24381113}, {"id": 11160728, "quality": "hd", "file_type": "video/mp4", "width": 720, "height": 1280, "fps": 23.97599983215332, "link": "https://videos.pexels.com/video-files/9708962/9708962-hd_720_1280_24fps.mp4", "size": 2755971}, {"id": 11160753, "quality": "hd", "file_type": "video/mp4", "width": 1080, "height": 1920, "fps": 23.97599983215332, "link": "https://videos.pexels.com/video-files/9708962/9708962-hd_1080_1920_24fps.mp4", "size": 5553862}, {"id": 11160817, "quality": "sd", "file_type": "video/mp4", "width": 240, "height": 426, "fps": 23.97599983215332, "link": "https://videos.pexels.com/video-files/9708962/9708962-sd_240_426_24fps.mp4", "size": 392436}, {"id": 11160855, "quality": "sd", "file_type": "video/mp4", "width": 540, "height": 960, "fps": 23.97599983215332, "link": "https://videos.pexels.com/video-files/9708962/9708962-sd_540_960_24fps.mp4", "size": 1604199}, {"id": 11160929, "quality": "sd", "file_type": "video/mp4", "width": 360, "height": 640, "fps": 23.97599983215332, "link": "https://videos.pexels.com/video-files/9708962/9708962-sd_360_640_24fps.mp4", "size": 531506}, {"id": 11160948, "quality": "uhd", "file_type": "video/mp4", "width": 1440, "height": 2560, "fps": 23.97599983215332, "link": "https://videos.pexels.com/video-files/9708962/9708962-uhd_1440_2560_24fps.mp4", "size": 13337016}], "video_pictures": [{"id": 10059448, "nr": 0, "picture": "https://images.pexels.com/videos/9708962/pictures/preview-0.jpeg"}, {"id": 10059459, "nr": 1, "picture": "https://images.pexels.com/videos/9708962/pictures/preview-1.jpeg"}, {"id": 10059471, "nr": 2, "picture": "https://images.pexels.com/videos/9708962/pictures/preview-2.jpeg"}, {"id": 10059485, "nr": 3, "picture": "https://images.pexels.com/videos/9708962/pictures/preview-3.jpeg"}, {"id": 10059501, "nr": 4, "picture": "https://images.pexels.com/videos/9708962/pictures/preview-4.jpeg"}, {"id": 10059521, "nr": 5, "picture": "https://images.pexels.com/videos/9708962/pictures/preview-5.jpeg"}, {"id": 10059539, "nr": 6, "picture": "https://images.pexels.com/videos/9708962/pictures/preview-6.jpeg"}, {"id": 10059555, "nr": 7, "picture": "https://images.pexels.com/videos/9708962/pictures/preview-7.jpeg"}, {"id": 10059577, "nr": 8, "picture": "https://images.pexels.com/videos/9708962/pictures/preview-8.jpeg"}, {"id": 10059599, "nr": 9, "picture": "https://images.pexels.com/videos/9708962/pictures/preview-9.jpeg"}, {"id": 10059628, "nr": 10, "picture": "https://images.pexels.com/videos/9708962/pictures/preview-10.jpeg"}, {"id": 10059653, "nr": 11, "picture": "https://images.pexels.com/videos/9708962/pictures/preview-11.jpeg"}, {"id": 10059678, "nr": 12, "picture": "https://images.pexels.com/videos/9708962/pictures/preview-12.jpeg"}, {"id": 10059700, "nr": 13, "picture": "https://images.pexels.com/videos/9708962/pictures/preview-13.jpeg"}, {"id": 10059721, "nr": 14, "picture": "https://images.pexels.com/videos/9708962/pictures/preview-14.jpeg"}]}], "total_results": 8000, "next_page": "https://api.pexels.com/v1/videos/search?orientation=portrait&page=2&per_page=8&query=spooky+atmosphere", "url": "https://api-server.pexels.com/search/videos/spooky%20atmosphere/"}, "timestamp": "2025-02-10T17:23:36.979105"}
