{"query": "carved pumpkin", "response": {"page": 1, "per_page": 8, "videos": [{"id": 5491915, "width": 1080, "height": 1920, "duration": 15, "full_res": null, "tags": [], "url": "https://www.pexels.com/video/a-lighted-candle-blown-out-near-a-carved-pumpkin-5491915/", "image": "https://images.pexels.com/videos/5491915/pexels-photo-5491915.jpeg?auto=compress&cs=tinysrgb&fit=crop&h=1200&w=630", "avg_color": null, "user": {"id": 2638647, "name": "olia danilevich", "url": "https://www.pexels.com/@olia-danilevich"}, "video_files": [{"id": 9714354, "quality": "sd", "file_type": "video/mp4", "width": 360, "height": 640, "fps": 25.0, "link": "https://videos.pexels.com/video-files/5491915/5491915-sd_360_640_25fps.mp4", "size": 783399}, {"id": 9714389, "quality": "sd", "file_type": "video/mp4", "width": 240, "height": 426, "fps": 25.0, "link": "https://videos.pexels.com/video-files/5491915/5491915-sd_240_426_25fps.mp4", "size": 344984}, {"id": 9714418, "quality": "hd", "file_type": "video/mp4", "width": 720, "height": 1280, "fps": 25.0, "link": "https://videos.pexels.com/video-files/5491915/5491915-hd_720_1280_25fps.mp4", "size": 2551650}, {"id": 9714458, "quality": "sd", "file_type": "video/mp4", "width": 540, "height": 960, "fps": 25.0, "link": "https://videos.pexels.com/video-files/5491915/5491915-sd_540_960_25fps.mp4", "size": 1674358}, {"id": 9714497, "quality": "hd", "file_type": "video/mp4", "width": 1080, "height": 1920, "fps": 25.0, "link": "https://videos.pexels.com/video-files/5491915/5491915-hd_1080_1920_25fps.mp4", "size": 7443038}], "video_pictures": [{"id": 2902264, "nr": 0, "picture": "https://images.pexels.com/videos/5491915/pictures/preview-0.jpeg"}, {"id": 2902265, "nr": 1, "picture": "https://images.pexels.com/videos/5491915/pictures/preview-1.jpeg"}, {"id": 2902266, "nr": 2, "picture": "https://images.pexels.com/videos/5491915/pictures/preview-2.jpeg"}, {"id": 2902267, "nr": 3, "picture": "https://images.pexels.com/videos/5491915/pictures/preview-3.jpeg"}, {"id": 2902268, "nr": 4, "picture": "https://images.pexels.com/videos/5491915/pictures/preview-4.jpeg"}, {"id": 2902269, "nr": 5, "picture": "https://images.pexels.com/videos/5491915/pictures/preview-5.jpeg"}, {"id": 2902270, "nr": 6, "picture": "https://images.pexels.com/videos/5491915/pictures/preview-6.jpeg"}, {"id": 2902271, "nr": 7, "picture": "https://images.pexels.com/videos/5491915/pictures/preview-7.jpeg"}, {"id": 2902272, "nr": 8, "picture": "https://images.pexels.com/videos/5491915/pictures/preview-8.jpeg"}, {"id": 2902273, "nr": 9, "picture": "https://images.pexels.com/videos/5491915/pictures/preview-9.jpeg"}, {"id": 2902274, "nr": 10, "picture": "https://images.pexels.com/videos/5491915/pictures/preview-10.jpeg"}, {"id": 2902275, "nr": 11, "picture": "https://images.pexels.com/videos/5491915/pictures/preview-11.jpeg"}, {"id": 2902276, "nr": 12, "picture": "https://images.pexels.com/videos/5491915/pictures/preview-12.jpeg"}, {"id": 2902277, "nr": 13, "picture": "https://images.pexels.com/videos/5491915/pictures/preview-13.jpeg"}, {"id": 2902278, "nr": 14, "picture": "https://images.pexels.com/videos/5491915/pictures/preview-14.jpeg"}]}, {"id": 5614409, "width": 2160, "height": 3840, "duration": 37, "full_res": null, "tags": [], "url": "https://www.pexels.com/video/smoke-coming-out-of-a-carved-pumpkin-5614409/", "image": "https://images.pexels.com/videos/5614409/pexels-photo-5614409.jpeg?auto=compress&cs=tinysrgb&fit=crop&h=1200&w=630", "avg_color": null, "user": {"id": 649765, "name": "Yaroslav Shuraev", "url": "https://www.pexels.com/@yaroslav-shuraev"}, "video_files": [{"id": 9743980, "quality": "uhd", "file_type": "video/mp4", "width": 1440, "height": 2560, "fps": 24.0, "link": "https://videos.pexels.com/video-files/5614409/5614409-uhd_1440_2560_24fps.mp4", "size": 29309123}, {"id": 9744015, "quality": "uhd", "file_type": "video/mp4", "width": 2160, "height": 3840, "fps": 24.0, "link": "https://videos.pexels.com/video-files/5614409/5614409-uhd_2160_3840_24fps.mp4", "size": 66713553}, {"id": 9744094, "quality": "sd", "file_type": "video/mp4", "width": 240, "height": 426, "fps": 24.0, "link": "https://videos.pexels.com/video-files/5614409/5614409-sd_240_426_24fps.mp4", "size": 1363218}, {"id": 9744162, "quality": "hd", "file_type": "video/mp4", "width": 1080, "height": 1920, "fps": 24.0, "link": "https://videos.pexels.com/video-files/5614409/5614409-hd_1080_1920_24fps.mp4", "size": 17981177}, {"id": 9744208, "quality": "hd", "file_type": "video/mp4", "width": 720, "height": 1280, "fps": 24.0, "link": "https://videos.pexels.com/video-files/5614409/5614409-hd_720_1280_24fps.mp4", "size": 8970855}, {"id": 9744266, "quality": "sd", "file_type": "video/mp4", "width": 360, "height": 640, "fps": 24.0, "link": "https://videos.pexels.com/video-files/5614409/5614409-sd_360_640_24fps.mp4", "size": 2120115}, {"id": 9744325, "quality": "sd", "file_type": "video/mp4", "width": 540, "height": 960, "fps": 24.0, "link": "https://videos.pexels.com/video-files/5614409/5614409-sd_540_960_24fps.mp4", "size": 5745081}], "video_pictures": [{"id": 3085961, "nr": 0, "picture": "https://images.pexels.com/videos/5614409/pictures/preview-0.jpeg"}, {"id": 3085967, "nr": 1, "picture": "https://images.pexels.com/videos/5614409/pictures/preview-1.jpeg"}, {"id": 3085975, "nr": 2, "picture": "https://images.pexels.com/videos/5614409/pictures/preview-2.jpeg"}, {"id": 3085980, "nr": 3, "picture": "https://images.pexels.com/videos/5614409/pictures/preview-3.jpeg"}, {"id": 3085987, "nr": 4, "picture": "https://images.pexels.com/videos/5614409/pictures/preview-4.jpeg"}, {"id": 3085991, "nr": 5, "picture": "https://images.pexels.com/videos/5614409/pictures/preview-5.jpeg"}, {"id": 3085995, "nr": 6, "picture": "https://images.pexels.com/videos/5614409/pictures/preview-6.jpeg"}, {"id": 3086001, "nr": 7, "picture": "https://images.pexels.com/videos/5614409/pictures/preview-7.jpeg"}, {"id": 3086007, "nr": 8, "picture": "https://images.pexels.com/videos/5614409/pictures/preview-8.jpeg"}, {"id": 3086012, "nr": 9, "picture": "https://images.pexels.com/videos/5614409/pictures/preview-9.jpeg"}, {"id": 3086016, "nr": 10, "picture": "https://images.pexels.com/videos/5614409/pictures/preview-10.jpeg"}, {"id": 3086020, "nr": 11, "picture": "https://images.pexels.com/videos/5614409/pictures/preview-11.jpeg"}, {"id": 3086024, "nr": 12, "picture": "https://images.pexels.com/videos/5614409/pictures/preview-12.jpeg"}, {"id": 3086027, "nr": 13, "picture": "https://images.pexels.com/videos/5614409/pictures/preview-13.jpeg"}, {"id": 3086030, "nr": 14, "picture": "https://images.pexels.com/videos/5614409/pictures/preview-14.jpeg"}]}, {"id": 5435215, "width": 2160, "height": 4096, "duration": 42, "full_res": null, "tags": [], "url": "https://www.pexels.com/video/young-boy-lighting-a-pumpkin-lamp-5435215/", "image": "https://images.pexels.com/videos/5435215/boo-boy-celebration-costume-5435215.jpeg?auto=compress&cs=tinysrgb&fit=crop&h=1200&w=630", "avg_color": null, "user": {"id": 1437723, "name": "cottonbro studio", "url": "https://www.pexels.com/@cottonbro"}, "video_files": [{"id": 9699786, "quality": "sd", "file_type": "video/mp4", "width": 338, "height": 640, "fps": 25.0, "link": "https://videos.pexels.com/video-files/5435215/5435215-sd_338_640_25fps.mp4", "size": 1929259}, {"id": 9699800, "quality": "sd", "file_type": "video/mp4", "width": 506, "height": 960, "fps": 25.0, "link": "https://videos.pexels.com/video-files/5435215/5435215-sd_506_960_25fps.mp4", "size": 3577159}, {"id": 9699951, "quality": "uhd", "file_type": "video/mp4", "width": 2160, "height": 4096, "fps": 25.0, "link": "https://videos.pexels.com/video-files/5435215/5435215-uhd_2160_4096_25fps.mp4", "size": 77005291}, {"id": 9700023, "quality": "hd", "file_type": "video/mp4", "width": 1080, "height": 2048, "fps": 25.0, "link": "https://videos.pexels.com/video-files/5435215/5435215-hd_1080_2048_25fps.mp4", "size": 15309872}, {"id": 9700081, "quality": "uhd", "file_type": "video/mp4", "width": 1440, "height": 2732, "fps": 25.0, "link": "https://videos.pexels.com/video-files/5435215/5435215-uhd_1440_2732_25fps.mp4", "size": 28048058}, {"id": 9700178, "quality": "hd", "file_type": "video/mp4", "width": 720, "height": 1366, "fps": 25.0, "link": "https://videos.pexels.com/video-files/5435215/5435215-hd_720_1366_25fps.mp4", "size": 6705450}, {"id": 9700283, "quality": "sd", "file_type": "video/mp4", "width": 226, "height": 426, "fps": 25.0, "link": "https://videos.pexels.com/video-files/5435215/5435215-sd_226_426_25fps.mp4", "size": 1085655}], "video_pictures": [{"id": 2827637, "nr": 0, "picture": "https://images.pexels.com/videos/5435215/pictures/preview-0.jpeg"}, {"id": 2827640, "nr": 1, "picture": "https://images.pexels.com/videos/5435215/pictures/preview-1.jpeg"}, {"id": 2827643, "nr": 2, "picture": "https://images.pexels.com/videos/5435215/pictures/preview-2.jpeg"}, {"id": 2827647, "nr": 3, "picture": "https://images.pexels.com/videos/5435215/pictures/preview-3.jpeg"}, {"id": 2827651, "nr": 4, "picture": "https://images.pexels.com/videos/5435215/pictures/preview-4.jpeg"}, {"id": 2827657, "nr": 5, "picture": "https://images.pexels.com/videos/5435215/pictures/preview-5.jpeg"}, {"id": 2827661, "nr": 6, "picture": "https://images.pexels.com/videos/5435215/pictures/preview-6.jpeg"}, {"id": 2827665, "nr": 7, "picture": "https://images.pexels.com/videos/5435215/pictures/preview-7.jpeg"}, {"id": 2827669, "nr": 8, "picture": "https://images.pexels.com/videos/5435215/pictures/preview-8.jpeg"}, {"id": 2827673, "nr": 9, "picture": "https://images.pexels.com/videos/5435215/pictures/preview-9.jpeg"}, {"id": 2827676, "nr": 10, "picture": "https://images.pexels.com/videos/5435215/pictures/preview-10.jpeg"}, {"id": 2827679, "nr": 11, "picture": "https://images.pexels.com/videos/5435215/pictures/preview-11.jpeg"}, {"id": 2827682, "nr": 12, "picture": "https://images.pexels.com/videos/5435215/pictures/preview-12.jpeg"}, {"id": 2827688, "nr": 13, "picture": "https://images.pexels.com/videos/5435215/pictures/preview-13.jpeg"}, {"id": 2827692, "nr": 14, "picture": "https://images.pexels.com/videos/5435215/pictures/preview-14.jpeg"}]}, {"id": 5605040, "width": 2160, "height": 3840, "duration": 17, "full_res": null, "tags": [], "url": "https://www.pexels.com/video/video-of-a-carved-pumpkin-5605040/", "image": "https://images.pexels.com/videos/5605040/pexels-photo-5605040.jpeg?auto=compress&cs=tinysrgb&fit=crop&h=1200&w=630", "avg_color": null, "user": {"id": 649765, "name": "Yaroslav Shuraev", "url": "https://www.pexels.com/@yaroslav-shuraev"}, "video_files": [{"id": 9742497, "quality": "sd", "file_type": "video/mp4", "width": 240, "height": 426, "fps": 24.0, "link": "https://videos.pexels.com/video-files/5605040/5605040-sd_240_426_24fps.mp4", "size": 493477}, {"id": 9742594, "quality": "sd", "file_type": "video/mp4", "width": 360, "height": 640, "fps": 24.0, "link": "https://videos.pexels.com/video-files/5605040/5605040-sd_360_640_24fps.mp4", "size": 812256}, {"id": 9742712, "quality": "uhd", "file_type": "video/mp4", "width": 2160, "height": 3840, "fps": 24.0, "link": "https://videos.pexels.com/video-files/5605040/5605040-uhd_2160_3840_24fps.mp4", "size": 24222398}, {"id": 9742813, "quality": "hd", "file_type": "video/mp4", "width": 1080, "height": 1920, "fps": 24.0, "link": "https://videos.pexels.com/video-files/5605040/5605040-hd_1080_1920_24fps.mp4", "size": 5403805}, {"id": 9742946, "quality": "hd", "file_type": "video/mp4", "width": 720, "height": 1280, "fps": 24.0, "link": "https://videos.pexels.com/video-files/5605040/5605040-hd_720_1280_24fps.mp4", "size": 2659787}, {"id": 9743207, "quality": "uhd", "file_type": "video/mp4", "width": 1440, "height": 2560, "fps": 24.0, "link": "https://videos.pexels.com/video-files/5605040/5605040-uhd_1440_2560_24fps.mp4", "size": 9459282}, {"id": 9743302, "quality": "sd", "file_type": "video/mp4", "width": 540, "height": 960, "fps": 24.0, "link": "https://videos.pexels.com/video-files/5605040/5605040-sd_540_960_24fps.mp4", "size": 1573856}], "video_pictures": [{"id": 3071182, "nr": 0, "picture": "https://images.pexels.com/videos/5605040/pictures/preview-0.jpeg"}, {"id": 3071184, "nr": 1, "picture": "https://images.pexels.com/videos/5605040/pictures/preview-1.jpeg"}, {"id": 3071189, "nr": 2, "picture": "https://images.pexels.com/videos/5605040/pictures/preview-2.jpeg"}, {"id": 3071197, "nr": 3, "picture": "https://images.pexels.com/videos/5605040/pictures/preview-3.jpeg"}, {"id": 3071204, "nr": 4, "picture": "https://images.pexels.com/videos/5605040/pictures/preview-4.jpeg"}, {"id": 3071216, "nr": 5, "picture": "https://images.pexels.com/videos/5605040/pictures/preview-5.jpeg"}, {"id": 3071224, "nr": 6, "picture": "https://images.pexels.com/videos/5605040/pictures/preview-6.jpeg"}, {"id": 3071231, "nr": 7, "picture": "https://images.pexels.com/videos/5605040/pictures/preview-7.jpeg"}, {"id": 3071240, "nr": 8, "picture": "https://images.pexels.com/videos/5605040/pictures/preview-8.jpeg"}, {"id": 3071250, "nr": 9, "picture": "https://images.pexels.com/videos/5605040/pictures/preview-9.jpeg"}, {"id": 3071255, "nr": 10, "picture": "https://images.pexels.com/videos/5605040/pictures/preview-10.jpeg"}, {"id": 3071261, "nr": 11, "picture": "https://images.pexels.com/videos/5605040/pictures/preview-11.jpeg"}, {"id": 3071268, "nr": 12, "picture": "https://images.pexels.com/videos/5605040/pictures/preview-12.jpeg"}, {"id": 3071275, "nr": 13, "picture": "https://images.pexels.com/videos/5605040/pictures/preview-13.jpeg"}, {"id": 3071282, "nr": 14, "picture": "https://images.pexels.com/videos/5605040/pictures/preview-14.jpeg"}]}, {"id": 5491908, "width": 1080, "height": 1920, "duration": 8, "full_res": null, "tags": [], "url": "https://www.pexels.com/video/carved-pumpkin-decoration-5491908/", "image": "https://images.pexels.com/videos/5491908/pexels-photo-5491908.jpeg?auto=compress&cs=tinysrgb&fit=crop&h=1200&w=630", "avg_color": null, "user": {"id": 2638647, "name": "olia danilevich", "url": "https://www.pexels.com/@olia-danilevich"}, "video_files": [{"id": 9714440, "quality": "sd", "file_type": "video/mp4", "width": 360, "height": 640, "fps": 25.0, "link": "https://videos.pexels.com/video-files/5491908/5491908-sd_360_640_25fps.mp4", "size": 601869}, {"id": 9714494, "quality": "hd", "file_type": "video/mp4", "width": 720, "height": 1280, "fps": 25.0, "link": "https://videos.pexels.com/video-files/5491908/5491908-hd_720_1280_25fps.mp4", "size": 2675185}, {"id": 9714533, "quality": "sd", "file_type": "video/mp4", "width": 540, "height": 960, "fps": 25.0, "link": "https://videos.pexels.com/video-files/5491908/5491908-sd_540_960_25fps.mp4", "size": 1690258}, {"id": 9714576, "quality": "hd", "file_type": "video/mp4", "width": 1080, "height": 1920, "fps": 25.0, "link": "https://videos.pexels.com/video-files/5491908/5491908-hd_1080_1920_25fps.mp4", "size": 5114133}, {"id": 9714623, "quality": "sd", "file_type": "video/mp4", "width": 240, "height": 426, "fps": 25.0, "link": "https://videos.pexels.com/video-files/5491908/5491908-sd_240_426_25fps.mp4", "size": 352488}], "video_pictures": [{"id": 2902239, "nr": 0, "picture": "https://images.pexels.com/videos/5491908/pictures/preview-0.jpeg"}, {"id": 2902240, "nr": 1, "picture": "https://images.pexels.com/videos/5491908/pictures/preview-1.jpeg"}, {"id": 2902242, "nr": 2, "picture": "https://images.pexels.com/videos/5491908/pictures/preview-2.jpeg"}, {"id": 2902244, "nr": 3, "picture": "https://images.pexels.com/videos/5491908/pictures/preview-3.jpeg"}, {"id": 2902246, "nr": 4, "picture": "https://images.pexels.com/videos/5491908/pictures/preview-4.jpeg"}, {"id": 2902248, "nr": 5, "picture": "https://images.pexels.com/videos/5491908/pictures/preview-5.jpeg"}, {"id": 2902252, "nr": 6, "picture": "https://images.pexels.com/videos/5491908/pictures/preview-6.jpeg"}, {"id": 2902255, "nr": 7, "picture": "https://images.pexels.com/videos/5491908/pictures/preview-7.jpeg"}, {"id": 2902257, "nr": 8, "picture": "https://images.pexels.com/videos/5491908/pictures/preview-8.jpeg"}, {"id": 2902258, "nr": 9, "picture": "https://images.pexels.com/videos/5491908/pictures/preview-9.jpeg"}, {"id": 2902259, "nr": 10, "picture": "https://images.pexels.com/videos/5491908/pictures/preview-10.jpeg"}, {"id": 2902260, "nr": 11, "picture": "https://images.pexels.com/videos/5491908/pictures/preview-11.jpeg"}, {"id": 2902261, "nr": 12, "picture": "https://images.pexels.com/videos/5491908/pictures/preview-12.jpeg"}, {"id": 2902262, "nr": 13, "picture": "https://images.pexels.com/videos/5491908/pictures/preview-13.jpeg"}, {"id": 2902263, "nr": 14, "picture": "https://images.pexels.com/videos/5491908/pictures/preview-14.jpeg"}]}, {"id": 5559357, "width": 2160, "height": 3840, "duration": 9, "full_res": null, "tags": [], "url": "https://www.pexels.com/video/a-carved-pumpkin-5559357/", "image": "https://images.pexels.com/videos/5559357/at-home-creative-decor-diy-5559357.jpeg?auto=compress&cs=tinysrgb&fit=crop&h=1200&w=630", "avg_color": null, "user": {"id": 3674631, "name": "Daisy Anderson", "url": "https://www.pexels.com/@daisy-anderson"}, "video_files": [{"id": 9731561, "quality": "uhd", "file_type": "video/mp4", "width": 1440, "height": 2560, "fps": 25.0, "link": "https://videos.pexels.com/video-files/5559357/5559357-uhd_1440_2560_25fps.mp4", "size": 13577338}, {"id": 9731644, "quality": "hd", "file_type": "video/mp4", "width": 1080, "height": 1920, "fps": 25.0, "link": "https://videos.pexels.com/video-files/5559357/5559357-hd_1080_1920_25fps.mp4", "size": 5666759}, {"id": 9731760, "quality": "uhd", "file_type": "video/mp4", "width": 2160, "height": 3840, "fps": 25.0, "link": "https://videos.pexels.com/video-files/5559357/5559357-uhd_2160_3840_25fps.mp4", "size": 25881820}, {"id": 9731837, "quality": "sd", "file_type": "video/mp4", "width": 240, "height": 426, "fps": 25.0, "link": "https://videos.pexels.com/video-files/5559357/5559357-sd_240_426_25fps.mp4", "size": 319034}, {"id": 9731881, "quality": "sd", "file_type": "video/mp4", "width": 360, "height": 640, "fps": 25.0, "link": "https://videos.pexels.com/video-files/5559357/5559357-sd_360_640_25fps.mp4", "size": 523969}, {"id": 9731922, "quality": "sd", "file_type": "video/mp4", "width": 540, "height": 960, "fps": 25.0, "link": "https://videos.pexels.com/video-files/5559357/5559357-sd_540_960_25fps.mp4", "size": 1556586}, {"id": 9732024, "quality": "hd", "file_type": "video/mp4", "width": 720, "height": 1280, "fps": 25.0, "link": "https://videos.pexels.com/video-files/5559357/5559357-hd_720_1280_25fps.mp4", "size": 2709201}], "video_pictures": [{"id": 3002212, "nr": 0, "picture": "https://images.pexels.com/videos/5559357/pictures/preview-0.jpeg"}, {"id": 3002213, "nr": 1, "picture": "https://images.pexels.com/videos/5559357/pictures/preview-1.jpeg"}, {"id": 3002214, "nr": 2, "picture": "https://images.pexels.com/videos/5559357/pictures/preview-2.jpeg"}, {"id": 3002215, "nr": 3, "picture": "https://images.pexels.com/videos/5559357/pictures/preview-3.jpeg"}, {"id": 3002216, "nr": 4, "picture": "https://images.pexels.com/videos/5559357/pictures/preview-4.jpeg"}, {"id": 3002217, "nr": 5, "picture": "https://images.pexels.com/videos/5559357/pictures/preview-5.jpeg"}, {"id": 3002221, "nr": 6, "picture": "https://images.pexels.com/videos/5559357/pictures/preview-6.jpeg"}, {"id": 3002224, "nr": 7, "picture": "https://images.pexels.com/videos/5559357/pictures/preview-7.jpeg"}, {"id": 3002227, "nr": 8, "picture": "https://images.pexels.com/videos/5559357/pictures/preview-8.jpeg"}, {"id": 3002231, "nr": 9, "picture": "https://images.pexels.com/videos/5559357/pictures/preview-9.jpeg"}, {"id": 3002235, "nr": 10, "picture": "https://images.pexels.com/videos/5559357/pictures/preview-10.jpeg"}, {"id": 3002239, "nr": 11, "picture": "https://images.pexels.com/videos/5559357/pictures/preview-11.jpeg"}, {"id": 3002241, "nr": 12, "picture": "https://images.pexels.com/videos/5559357/pictures/preview-12.jpeg"}, {"id": 3002244, "nr": 13, "picture": "https://images.pexels.com/videos/5559357/pictures/preview-13.jpeg"}, {"id": 3002246, "nr": 14, "picture": "https://images.pexels.com/videos/5559357/pictures/preview-14.jpeg"}]}, {"id": 5856442, "width": 2160, "height": 3840, "duration": 15, "full_res": null, "tags": [], "url": "https://www.pexels.com/video/jack-o-lantern-hanging-on-a-tree-5856442/", "image": "https://images.pexels.com/videos/5856442/pexels-photo-5856442.jpeg?auto=compress&cs=tinysrgb&fit=crop&h=1200&w=630", "avg_color": null, "user": {"id": 3660475, "name": "Charles Parker", "url": "https://www.pexels.com/@charles-parker"}, "video_files": [{"id": 9825008, "quality": "sd", "file_type": "video/mp4", "width": 240, "height": 426, "fps": 23.97599983215332, "link": "https://videos.pexels.com/video-files/5856442/5856442-sd_240_426_24fps.mp4", "size": 669488}, {"id": 9825215, "quality": "sd", "file_type": "video/mp4", "width": 360, "height": 640, "fps": 23.97599983215332, "link": "https://videos.pexels.com/video-files/5856442/5856442-sd_360_640_24fps.mp4", "size": 1082803}, {"id": 9825388, "quality": "hd", "file_type": "video/mp4", "width": 1080, "height": 1920, "fps": 23.97599983215332, "link": "https://videos.pexels.com/video-files/5856442/5856442-hd_1080_1920_24fps.mp4", "size": 9022423}, {"id": 9825492, "quality": "uhd", "file_type": "video/mp4", "width": 2160, "height": 3840, "fps": 23.97599983215332, "link": "https://videos.pexels.com/video-files/5856442/5856442-uhd_2160_3840_24fps.mp4", "size": 39996428}, {"id": 9825614, "quality": "hd", "file_type": "video/mp4", "width": 720, "height": 1280, "fps": 23.97599983215332, "link": "https://videos.pexels.com/video-files/5856442/5856442-hd_720_1280_24fps.mp4", "size": 4775995}, {"id": 9825733, "quality": "sd", "file_type": "video/mp4", "width": 540, "height": 960, "fps": 23.97599983215332, "link": "https://videos.pexels.com/video-files/5856442/5856442-sd_540_960_24fps.mp4", "size": 2748143}, {"id": 9825835, "quality": "uhd", "file_type": "video/mp4", "width": 1440, "height": 2560, "fps": 23.97599983215332, "link": "https://videos.pexels.com/video-files/5856442/5856442-uhd_1440_2560_24fps.mp4", "size": 18385336}], "video_pictures": [{"id": 3472568, "nr": 0, "picture": "https://images.pexels.com/videos/5856442/pictures/preview-0.jpeg"}, {"id": 3472570, "nr": 1, "picture": "https://images.pexels.com/videos/5856442/pictures/preview-1.jpeg"}, {"id": 3472572, "nr": 2, "picture": "https://images.pexels.com/videos/5856442/pictures/preview-2.jpeg"}, {"id": 3472575, "nr": 3, "picture": "https://images.pexels.com/videos/5856442/pictures/preview-3.jpeg"}, {"id": 3472578, "nr": 4, "picture": "https://images.pexels.com/videos/5856442/pictures/preview-4.jpeg"}, {"id": 3472581, "nr": 5, "picture": "https://images.pexels.com/videos/5856442/pictures/preview-5.jpeg"}, {"id": 3472584, "nr": 6, "picture": "https://images.pexels.com/videos/5856442/pictures/preview-6.jpeg"}, {"id": 3472588, "nr": 7, "picture": "https://images.pexels.com/videos/5856442/pictures/preview-7.jpeg"}, {"id": 3472591, "nr": 8, "picture": "https://images.pexels.com/videos/5856442/pictures/preview-8.jpeg"}, {"id": 3472596, "nr": 9, "picture": "https://images.pexels.com/videos/5856442/pictures/preview-9.jpeg"}, {"id": 3472602, "nr": 10, "picture": "https://images.pexels.com/videos/5856442/pictures/preview-10.jpeg"}, {"id": 3472607, "nr": 11, "picture": "https://images.pexels.com/videos/5856442/pictures/preview-11.jpeg"}, {"id": 3472613, "nr": 12, "picture": "https://images.pexels.com/videos/5856442/pictures/preview-12.jpeg"}, {"id": 3472623, "nr": 13, "picture": "https://images.pexels.com/videos/5856442/pictures/preview-13.jpeg"}, {"id": 3472633, "nr": 14, "picture": "https://images.pexels.com/videos/5856442/pictures/preview-14.jpeg"}]}, {"id": 5435222, "width": 2160, "height": 4096, "duration": 7, "full_res": null, "tags": [], "url": "https://www.pexels.com/video/young-boy-holding-a-curved-pumpkin-5435222/", "image": "https://images.pexels.com/videos/5435222/boo-boy-celebration-costume-5435222.jpeg?auto=compress&cs=tinysrgb&fit=crop&h=1200&w=630", "avg_color": null, "user": {"id": 1437723, "name": "cottonbro studio", "url": "https://www.pexels.com/@cottonbro"}, "video_files": [{"id": 9700745, "quality": "uhd", "file_type": "video/mp4", "width": 1440, "height": 2732, "fps": 25.0, "link": "https://videos.pexels.com/video-files/5435222/5435222-uhd_1440_2732_25fps.mp4", "size": 9815695}, {"id": 9700787, "quality": "hd", "file_type": "video/mp4", "width": 1080, "height": 2048, "fps": 25.0, "link": "https://videos.pexels.com/video-files/5435222/5435222-hd_1080_2048_25fps.mp4", "size": 4024602}, {"id": 9700865, "quality": "sd", "file_type": "video/mp4", "width": 506, "height": 960, "fps": 25.0, "link": "https://videos.pexels.com/video-files/5435222/5435222-sd_506_960_25fps.mp4", "size": 1189406}, {"id": 9700895, "quality": "sd", "file_type": "video/mp4", "width": 226, "height": 426, "fps": 25.0, "link": "https://videos.pexels.com/video-files/5435222/5435222-sd_226_426_25fps.mp4", "size": 246813}, {"id": 9700940, "quality": "sd", "file_type": "video/mp4", "width": 338, "height": 640, "fps": 25.0, "link": "https://videos.pexels.com/video-files/5435222/5435222-sd_338_640_25fps.mp4", "size": 402834}, {"id": 9700973, "quality": "hd", "file_type": "video/mp4", "width": 720, "height": 1366, "fps": 25.0, "link": "https://videos.pexels.com/video-files/5435222/5435222-hd_720_1366_25fps.mp4", "size": 1969695}, {"id": 9701032, "quality": "uhd", "file_type": "video/mp4", "width": 2160, "height": 4096, "fps": 25.0, "link": "https://videos.pexels.com/video-files/5435222/5435222-uhd_2160_4096_25fps.mp4", "size": 19232988}], "video_pictures": [{"id": 2827577, "nr": 0, "picture": "https://images.pexels.com/videos/5435222/pictures/preview-0.jpeg"}, {"id": 2827579, "nr": 1, "picture": "https://images.pexels.com/videos/5435222/pictures/preview-1.jpeg"}, {"id": 2827580, "nr": 2, "picture": "https://images.pexels.com/videos/5435222/pictures/preview-2.jpeg"}, {"id": 2827581, "nr": 3, "picture": "https://images.pexels.com/videos/5435222/pictures/preview-3.jpeg"}, {"id": 2827582, "nr": 4, "picture": "https://images.pexels.com/videos/5435222/pictures/preview-4.jpeg"}, {"id": 2827584, "nr": 5, "picture": "https://images.pexels.com/videos/5435222/pictures/preview-5.jpeg"}, {"id": 2827588, "nr": 6, "picture": "https://images.pexels.com/videos/5435222/pictures/preview-6.jpeg"}, {"id": 2827593, "nr": 7, "picture": "https://images.pexels.com/videos/5435222/pictures/preview-7.jpeg"}, {"id": 2827598, "nr": 8, "picture": "https://images.pexels.com/videos/5435222/pictures/preview-8.jpeg"}, {"id": 2827603, "nr": 9, "picture": "https://images.pexels.com/videos/5435222/pictures/preview-9.jpeg"}, {"id": 2827607, "nr": 10, "picture": "https://images.pexels.com/videos/5435222/pictures/preview-10.jpeg"}, {"id": 2827608, "nr": 11, "picture": "https://images.pexels.com/videos/5435222/pictures/preview-11.jpeg"}, {"id": 2827610, "nr": 12, "picture": "https://images.pexels.com/videos/5435222/pictures/preview-12.jpeg"}, {"id": 2827612, "nr": 13, "picture": "https://images.pexels.com/videos/5435222/pictures/preview-13.jpeg"}, {"id": 2827614, "nr": 14, "picture": "https://images.pexels.com/videos/5435222/pictures/preview-14.jpeg"}]}], "total_results": 598, "next_page": "https://api.pexels.com/v1/videos/search?orientation=portrait&page=2&per_page=8&query=carved+pumpkin", "url": "https://api-server.pexels.com/search/videos/carved%20pumpkin/"}, "timestamp": "2025-01-24T18:07:44.910902"}
