{"query": "measurement tape", "response": {"page": 1, "per_page": 8, "videos": [{"id": 6525425, "width": 1080, "height": 1920, "duration": 6, "full_res": null, "tags": [], "url": "https://www.pexels.com/video/a-girl-measuring-her-waist-6525425/", "image": "https://images.pexels.com/videos/6525425/bulimia-eating-eating-disorder-girl-6525425.jpeg?auto=compress&cs=tinysrgb&fit=crop&h=1200&w=630", "avg_color": null, "user": {"id": 2104565, "name": "Polina Tankilevitch", "url": "https://www.pexels.com/@polina-tankilevitch"}, "video_files": [{"id": 10065971, "quality": "hd", "file_type": "video/mp4", "width": 720, "height": 1280, "fps": 30.0, "link": "https://videos.pexels.com/video-files/6525425/6525425-hd_720_1280_30fps.mp4", "size": 1930475}, {"id": 10066045, "quality": "sd", "file_type": "video/mp4", "width": 360, "height": 640, "fps": 30.0, "link": "https://videos.pexels.com/video-files/6525425/6525425-sd_360_640_30fps.mp4", "size": 432586}, {"id": 10066093, "quality": "sd", "file_type": "video/mp4", "width": 540, "height": 960, "fps": 30.0, "link": "https://videos.pexels.com/video-files/6525425/6525425-sd_540_960_30fps.mp4", "size": 1213280}, {"id": 10066135, "quality": "hd", "file_type": "video/mp4", "width": 1080, "height": 1920, "fps": 30.0, "link": "https://videos.pexels.com/video-files/6525425/6525425-hd_1080_1920_30fps.mp4", "size": 3717216}, {"id": 10066177, "quality": "sd", "file_type": "video/mp4", "width": 240, "height": 426, "fps": 30.0, "link": "https://videos.pexels.com/video-files/6525425/6525425-sd_240_426_30fps.mp4", "size": 254147}], "video_pictures": [{"id": 4583984, "nr": 0, "picture": "https://images.pexels.com/videos/6525425/pictures/preview-0.jpeg"}, {"id": 4583993, "nr": 1, "picture": "https://images.pexels.com/videos/6525425/pictures/preview-1.jpeg"}, {"id": 4584003, "nr": 2, "picture": "https://images.pexels.com/videos/6525425/pictures/preview-2.jpeg"}, {"id": 4584013, "nr": 3, "picture": "https://images.pexels.com/videos/6525425/pictures/preview-3.jpeg"}, {"id": 4584027, "nr": 4, "picture": "https://images.pexels.com/videos/6525425/pictures/preview-4.jpeg"}, {"id": 4584041, "nr": 5, "picture": "https://images.pexels.com/videos/6525425/pictures/preview-5.jpeg"}, {"id": 4584055, "nr": 6, "picture": "https://images.pexels.com/videos/6525425/pictures/preview-6.jpeg"}, {"id": 4584068, "nr": 7, "picture": "https://images.pexels.com/videos/6525425/pictures/preview-7.jpeg"}, {"id": 4584081, "nr": 8, "picture": "https://images.pexels.com/videos/6525425/pictures/preview-8.jpeg"}, {"id": 4584090, "nr": 9, "picture": "https://images.pexels.com/videos/6525425/pictures/preview-9.jpeg"}, {"id": 4584097, "nr": 10, "picture": "https://images.pexels.com/videos/6525425/pictures/preview-10.jpeg"}, {"id": 4584105, "nr": 11, "picture": "https://images.pexels.com/videos/6525425/pictures/preview-11.jpeg"}, {"id": 4584111, "nr": 12, "picture": "https://images.pexels.com/videos/6525425/pictures/preview-12.jpeg"}, {"id": 4584118, "nr": 13, "picture": "https://images.pexels.com/videos/6525425/pictures/preview-13.jpeg"}, {"id": 4584125, "nr": 14, "picture": "https://images.pexels.com/videos/6525425/pictures/preview-14.jpeg"}]}, {"id": 6967496, "width": 2160, "height": 3840, "duration": 10, "full_res": null, "tags": [], "url": "https://www.pexels.com/video/women-wrapped-with-measuring-tape-6967496/", "image": "https://images.pexels.com/videos/6967496/pexels-photo-6967496.jpeg?auto=compress&cs=tinysrgb&fit=crop&h=1200&w=630", "avg_color": null, "user": {"id": 30353109, "name": "SHVETS production", "url": "https://www.pexels.com/@shvets-production"}, "video_files": [{"id": 10255737, "quality": "hd", "file_type": "video/mp4", "width": 1080, "height": 1920, "fps": 25.0, "link": "https://videos.pexels.com/video-files/6967496/6967496-hd_1080_1920_25fps.mp4", "size": 2742572}, {"id": 10255752, "quality": "sd", "file_type": "video/mp4", "width": 240, "height": 426, "fps": 25.0, "link": "https://videos.pexels.com/video-files/6967496/6967496-sd_240_426_25fps.mp4", "size": 234013}, {"id": 10255774, "quality": "hd", "file_type": "video/mp4", "width": 720, "height": 1280, "fps": 25.0, "link": "https://videos.pexels.com/video-files/6967496/6967496-hd_720_1280_25fps.mp4", "size": 1265475}, {"id": 10255797, "quality": "uhd", "file_type": "video/mp4", "width": 1440, "height": 2560, "fps": 25.0, "link": "https://videos.pexels.com/video-files/6967496/6967496-uhd_1440_2560_25fps.mp4", "size": 5369980}, {"id": 10255815, "quality": "sd", "file_type": "video/mp4", "width": 360, "height": 640, "fps": 25.0, "link": "https://videos.pexels.com/video-files/6967496/6967496-sd_360_640_25fps.mp4", "size": 385123}, {"id": 10255850, "quality": "uhd", "file_type": "video/mp4", "width": 2160, "height": 3840, "fps": 25.0, "link": "https://videos.pexels.com/video-files/6967496/6967496-uhd_2160_3840_25fps.mp4", "size": 13067040}, {"id": 10255897, "quality": "sd", "file_type": "video/mp4", "width": 540, "height": 960, "fps": 25.0, "link": "https://videos.pexels.com/video-files/6967496/6967496-sd_540_960_25fps.mp4", "size": 775477}], "video_pictures": [{"id": 5489321, "nr": 0, "picture": "https://images.pexels.com/videos/6967496/pictures/preview-0.jpeg"}, {"id": 5489332, "nr": 1, "picture": "https://images.pexels.com/videos/6967496/pictures/preview-1.jpeg"}, {"id": 5489347, "nr": 2, "picture": "https://images.pexels.com/videos/6967496/pictures/preview-2.jpeg"}, {"id": 5489366, "nr": 3, "picture": "https://images.pexels.com/videos/6967496/pictures/preview-3.jpeg"}, {"id": 5489394, "nr": 4, "picture": "https://images.pexels.com/videos/6967496/pictures/preview-4.jpeg"}, {"id": 5489417, "nr": 5, "picture": "https://images.pexels.com/videos/6967496/pictures/preview-5.jpeg"}, {"id": 5489435, "nr": 6, "picture": "https://images.pexels.com/videos/6967496/pictures/preview-6.jpeg"}, {"id": 5489450, "nr": 7, "picture": "https://images.pexels.com/videos/6967496/pictures/preview-7.jpeg"}, {"id": 5489485, "nr": 8, "picture": "https://images.pexels.com/videos/6967496/pictures/preview-8.jpeg"}, {"id": 5489490, "nr": 9, "picture": "https://images.pexels.com/videos/6967496/pictures/preview-9.jpeg"}, {"id": 5489515, "nr": 10, "picture": "https://images.pexels.com/videos/6967496/pictures/preview-10.jpeg"}, {"id": 5489542, "nr": 11, "picture": "https://images.pexels.com/videos/6967496/pictures/preview-11.jpeg"}, {"id": 5489554, "nr": 12, "picture": "https://images.pexels.com/videos/6967496/pictures/preview-12.jpeg"}, {"id": 5489568, "nr": 13, "picture": "https://images.pexels.com/videos/6967496/pictures/preview-13.jpeg"}, {"id": 5489584, "nr": 14, "picture": "https://images.pexels.com/videos/6967496/pictures/preview-14.jpeg"}]}, {"id": 8670904, "width": 1080, "height": 1920, "duration": 10, "full_res": null, "tags": [], "url": "https://www.pexels.com/video/woman-measuring-her-waist-with-a-tape-measure-8670904/", "image": "https://images.pexels.com/videos/8670904/pexels-photo-8670904.jpeg?auto=compress&cs=tinysrgb&fit=crop&h=1200&w=630", "avg_color": null, "user": {"id": 11437196, "name": "Mikhail Nilov", "url": "https://www.pexels.com/@mikhail-nilov"}, "video_files": [{"id": 10915185, "quality": "sd", "file_type": "video/mp4", "width": 540, "height": 960, "fps": 25.0, "link": "https://videos.pexels.com/video-files/8670904/8670904-sd_540_960_25fps.mp4", "size": 1397909}, {"id": 10915225, "quality": "sd", "file_type": "video/mp4", "width": 360, "height": 640, "fps": 25.0, "link": "https://videos.pexels.com/video-files/8670904/8670904-sd_360_640_25fps.mp4", "size": 591054}, {"id": 10915374, "quality": "hd", "file_type": "video/mp4", "width": 720, "height": 1280, "fps": 25.0, "link": "https://videos.pexels.com/video-files/8670904/8670904-hd_720_1280_25fps.mp4", "size": 2405248}, {"id": 10915447, "quality": "hd", "file_type": "video/mp4", "width": 1080, "height": 1920, "fps": 25.0, "link": "https://videos.pexels.com/video-files/8670904/8670904-hd_1080_1920_25fps.mp4", "size": 5646687}, {"id": 10915548, "quality": "sd", "file_type": "video/mp4", "width": 240, "height": 426, "fps": 25.0, "link": "https://videos.pexels.com/video-files/8670904/8670904-sd_240_426_25fps.mp4", "size": 407834}], "video_pictures": [{"id": 8638218, "nr": 0, "picture": "https://images.pexels.com/videos/8670904/pictures/preview-0.jpeg"}, {"id": 8638222, "nr": 1, "picture": "https://images.pexels.com/videos/8670904/pictures/preview-1.jpeg"}, {"id": 8638225, "nr": 2, "picture": "https://images.pexels.com/videos/8670904/pictures/preview-2.jpeg"}, {"id": 8638227, "nr": 3, "picture": "https://images.pexels.com/videos/8670904/pictures/preview-3.jpeg"}, {"id": 8638229, "nr": 4, "picture": "https://images.pexels.com/videos/8670904/pictures/preview-4.jpeg"}, {"id": 8638231, "nr": 5, "picture": "https://images.pexels.com/videos/8670904/pictures/preview-5.jpeg"}, {"id": 8638233, "nr": 6, "picture": "https://images.pexels.com/videos/8670904/pictures/preview-6.jpeg"}, {"id": 8638234, "nr": 7, "picture": "https://images.pexels.com/videos/8670904/pictures/preview-7.jpeg"}, {"id": 8638236, "nr": 8, "picture": "https://images.pexels.com/videos/8670904/pictures/preview-8.jpeg"}, {"id": 8638238, "nr": 9, "picture": "https://images.pexels.com/videos/8670904/pictures/preview-9.jpeg"}, {"id": 8638240, "nr": 10, "picture": "https://images.pexels.com/videos/8670904/pictures/preview-10.jpeg"}, {"id": 8638243, "nr": 11, "picture": "https://images.pexels.com/videos/8670904/pictures/preview-11.jpeg"}, {"id": 8638246, "nr": 12, "picture": "https://images.pexels.com/videos/8670904/pictures/preview-12.jpeg"}, {"id": 8638249, "nr": 13, "picture": "https://images.pexels.com/videos/8670904/pictures/preview-13.jpeg"}, {"id": 8638252, "nr": 14, "picture": "https://images.pexels.com/videos/8670904/pictures/preview-14.jpeg"}]}, {"id": 5726648, "width": 2160, "height": 4096, "duration": 13, "full_res": null, "tags": [], "url": "https://www.pexels.com/video/man-taking-his-measures-5726648/", "image": "https://images.pexels.com/videos/5726648/weight-loss-woman-5726648.jpeg?auto=compress&cs=tinysrgb&fit=crop&h=1200&w=630", "avg_color": null, "user": {"id": 2332540, "name": "Photo By: Kaboompics.com", "url": "https://www.pexels.com/@karolina-grabowska"}, "video_files": [{"id": 9784603, "quality": "uhd", "file_type": "video/mp4", "width": 1440, "height": 2732, "fps": 25.0, "link": "https://videos.pexels.com/video-files/5726648/5726648-uhd_1440_2732_25fps.mp4", "size": 12550930}, {"id": 9784733, "quality": "sd", "file_type": "video/mp4", "width": 506, "height": 960, "fps": 25.0, "link": "https://videos.pexels.com/video-files/5726648/5726648-sd_506_960_25fps.mp4", "size": 1848518}, {"id": 9784832, "quality": "sd", "file_type": "video/mp4", "width": 226, "height": 426, "fps": 25.0, "link": "https://videos.pexels.com/video-files/5726648/5726648-sd_226_426_25fps.mp4", "size": 454461}, {"id": 9784862, "quality": "hd", "file_type": "video/mp4", "width": 1080, "height": 2048, "fps": 25.0, "link": "https://videos.pexels.com/video-files/5726648/5726648-hd_1080_2048_25fps.mp4", "size": 7027662}, {"id": 9784920, "quality": "uhd", "file_type": "video/mp4", "width": 2160, "height": 4096, "fps": 25.0, "link": "https://videos.pexels.com/video-files/5726648/5726648-uhd_2160_4096_25fps.mp4", "size": 25238773}, {"id": 9785002, "quality": "sd", "file_type": "video/mp4", "width": 338, "height": 640, "fps": 25.0, "link": "https://videos.pexels.com/video-files/5726648/5726648-sd_338_640_25fps.mp4", "size": 792030}, {"id": 9785040, "quality": "hd", "file_type": "video/mp4", "width": 720, "height": 1366, "fps": 25.0, "link": "https://videos.pexels.com/video-files/5726648/5726648-hd_720_1366_25fps.mp4", "size": 3413871}], "video_pictures": [{"id": 3270370, "nr": 0, "picture": "https://images.pexels.com/videos/5726648/pictures/preview-0.jpeg"}, {"id": 3270371, "nr": 1, "picture": "https://images.pexels.com/videos/5726648/pictures/preview-1.jpeg"}, {"id": 3270372, "nr": 2, "picture": "https://images.pexels.com/videos/5726648/pictures/preview-2.jpeg"}, {"id": 3270373, "nr": 3, "picture": "https://images.pexels.com/videos/5726648/pictures/preview-3.jpeg"}, {"id": 3270377, "nr": 4, "picture": "https://images.pexels.com/videos/5726648/pictures/preview-4.jpeg"}, {"id": 3270381, "nr": 5, "picture": "https://images.pexels.com/videos/5726648/pictures/preview-5.jpeg"}, {"id": 3270386, "nr": 6, "picture": "https://images.pexels.com/videos/5726648/pictures/preview-6.jpeg"}, {"id": 3270391, "nr": 7, "picture": "https://images.pexels.com/videos/5726648/pictures/preview-7.jpeg"}, {"id": 3270393, "nr": 8, "picture": "https://images.pexels.com/videos/5726648/pictures/preview-8.jpeg"}, {"id": 3270394, "nr": 9, "picture": "https://images.pexels.com/videos/5726648/pictures/preview-9.jpeg"}, {"id": 3270395, "nr": 10, "picture": "https://images.pexels.com/videos/5726648/pictures/preview-10.jpeg"}, {"id": 3270396, "nr": 11, "picture": "https://images.pexels.com/videos/5726648/pictures/preview-11.jpeg"}, {"id": 3270397, "nr": 12, "picture": "https://images.pexels.com/videos/5726648/pictures/preview-12.jpeg"}, {"id": 3270398, "nr": 13, "picture": "https://images.pexels.com/videos/5726648/pictures/preview-13.jpeg"}, {"id": 3270399, "nr": 14, "picture": "https://images.pexels.com/videos/5726648/pictures/preview-14.jpeg"}]}, {"id": 5726623, "width": 2160, "height": 4096, "duration": 10, "full_res": null, "tags": [], "url": "https://www.pexels.com/video/woman-taking-her-measures-5726623/", "image": "https://images.pexels.com/videos/5726623/weight-loss-woman-5726623.jpeg?auto=compress&cs=tinysrgb&fit=crop&h=1200&w=630", "avg_color": null, "user": {"id": 2332540, "name": "Photo By: Kaboompics.com", "url": "https://www.pexels.com/@karolina-grabowska"}, "video_files": [{"id": 9784476, "quality": "hd", "file_type": "video/mp4", "width": 720, "height": 1366, "fps": 25.0, "link": "https://videos.pexels.com/video-files/5726623/5726623-hd_720_1366_25fps.mp4", "size": 2927020}, {"id": 9784544, "quality": "sd", "file_type": "video/mp4", "width": 506, "height": 960, "fps": 25.0, "link": "https://videos.pexels.com/video-files/5726623/5726623-sd_506_960_25fps.mp4", "size": 1757153}, {"id": 9784635, "quality": "sd", "file_type": "video/mp4", "width": 338, "height": 640, "fps": 25.0, "link": "https://videos.pexels.com/video-files/5726623/5726623-sd_338_640_25fps.mp4", "size": 589100}, {"id": 9784721, "quality": "uhd", "file_type": "video/mp4", "width": 1440, "height": 2732, "fps": 25.0, "link": "https://videos.pexels.com/video-files/5726623/5726623-uhd_1440_2732_25fps.mp4", "size": 14420290}, {"id": 9784846, "quality": "hd", "file_type": "video/mp4", "width": 1080, "height": 2048, "fps": 25.0, "link": "https://videos.pexels.com/video-files/5726623/5726623-hd_1080_2048_25fps.mp4", "size": 5968596}, {"id": 9784890, "quality": "sd", "file_type": "video/mp4", "width": 226, "height": 426, "fps": 25.0, "link": "https://videos.pexels.com/video-files/5726623/5726623-sd_226_426_25fps.mp4", "size": 357406}, {"id": 9784992, "quality": "uhd", "file_type": "video/mp4", "width": 2160, "height": 4096, "fps": 25.0, "link": "https://videos.pexels.com/video-files/5726623/5726623-uhd_2160_4096_25fps.mp4", "size": 26795351}], "video_pictures": [{"id": 3270298, "nr": 0, "picture": "https://images.pexels.com/videos/5726623/pictures/preview-0.jpeg"}, {"id": 3270299, "nr": 1, "picture": "https://images.pexels.com/videos/5726623/pictures/preview-1.jpeg"}, {"id": 3270301, "nr": 2, "picture": "https://images.pexels.com/videos/5726623/pictures/preview-2.jpeg"}, {"id": 3270303, "nr": 3, "picture": "https://images.pexels.com/videos/5726623/pictures/preview-3.jpeg"}, {"id": 3270305, "nr": 4, "picture": "https://images.pexels.com/videos/5726623/pictures/preview-4.jpeg"}, {"id": 3270306, "nr": 5, "picture": "https://images.pexels.com/videos/5726623/pictures/preview-5.jpeg"}, {"id": 3270307, "nr": 6, "picture": "https://images.pexels.com/videos/5726623/pictures/preview-6.jpeg"}, {"id": 3270308, "nr": 7, "picture": "https://images.pexels.com/videos/5726623/pictures/preview-7.jpeg"}, {"id": 3270309, "nr": 8, "picture": "https://images.pexels.com/videos/5726623/pictures/preview-8.jpeg"}, {"id": 3270310, "nr": 9, "picture": "https://images.pexels.com/videos/5726623/pictures/preview-9.jpeg"}, {"id": 3270311, "nr": 10, "picture": "https://images.pexels.com/videos/5726623/pictures/preview-10.jpeg"}, {"id": 3270312, "nr": 11, "picture": "https://images.pexels.com/videos/5726623/pictures/preview-11.jpeg"}, {"id": 3270313, "nr": 12, "picture": "https://images.pexels.com/videos/5726623/pictures/preview-12.jpeg"}, {"id": 3270314, "nr": 13, "picture": "https://images.pexels.com/videos/5726623/pictures/preview-13.jpeg"}, {"id": 3270315, "nr": 14, "picture": "https://images.pexels.com/videos/5726623/pictures/preview-14.jpeg"}]}, {"id": 6547810, "width": 2160, "height": 3840, "duration": 10, "full_res": null, "tags": [], "url": "https://www.pexels.com/video/woman-measuring-her-waist-6547810/", "image": "https://images.pexels.com/videos/6547810/pexels-photo-6547810.jpeg?auto=compress&cs=tinysrgb&fit=crop&h=1200&w=630", "avg_color": null, "user": {"id": 19162559, "name": "Andres  Ayrton", "url": "https://www.pexels.com/@andres-ayrton"}, "video_files": [{"id": 10075772, "quality": "hd", "file_type": "video/mp4", "width": 1080, "height": 1920, "fps": 23.97599983215332, "link": "https://videos.pexels.com/video-files/6547810/6547810-hd_1080_1920_24fps.mp4", "size": 4251666}, {"id": 10075788, "quality": "sd", "file_type": "video/mp4", "width": 540, "height": 960, "fps": 23.97599983215332, "link": "https://videos.pexels.com/video-files/6547810/6547810-sd_540_960_24fps.mp4", "size": 1270220}, {"id": 10075805, "quality": "hd", "file_type": "video/mp4", "width": 720, "height": 1280, "fps": 23.97599983215332, "link": "https://videos.pexels.com/video-files/6547810/6547810-hd_720_1280_24fps.mp4", "size": 2071147}, {"id": 10075830, "quality": "uhd", "file_type": "video/mp4", "width": 2160, "height": 3840, "fps": 23.97599983215332, "link": "https://videos.pexels.com/video-files/6547810/6547810-uhd_2160_3840_24fps.mp4", "size": 19214567}, {"id": 10075853, "quality": "sd", "file_type": "video/mp4", "width": 240, "height": 426, "fps": 23.97599983215332, "link": "https://videos.pexels.com/video-files/6547810/6547810-sd_240_426_24fps.mp4", "size": 379758}, {"id": 10075875, "quality": "sd", "file_type": "video/mp4", "width": 360, "height": 640, "fps": 23.97599983215332, "link": "https://videos.pexels.com/video-files/6547810/6547810-sd_360_640_24fps.mp4", "size": 609253}, {"id": 10075900, "quality": "uhd", "file_type": "video/mp4", "width": 1440, "height": 2560, "fps": 23.97599983215332, "link": "https://videos.pexels.com/video-files/6547810/6547810-uhd_1440_2560_24fps.mp4", "size": 7508778}], "video_pictures": [{"id": 4627763, "nr": 0, "picture": "https://images.pexels.com/videos/6547810/pictures/preview-0.jpeg"}, {"id": 4627767, "nr": 1, "picture": "https://images.pexels.com/videos/6547810/pictures/preview-1.jpeg"}, {"id": 4627771, "nr": 2, "picture": "https://images.pexels.com/videos/6547810/pictures/preview-2.jpeg"}, {"id": 4627776, "nr": 3, "picture": "https://images.pexels.com/videos/6547810/pictures/preview-3.jpeg"}, {"id": 4627782, "nr": 4, "picture": "https://images.pexels.com/videos/6547810/pictures/preview-4.jpeg"}, {"id": 4627788, "nr": 5, "picture": "https://images.pexels.com/videos/6547810/pictures/preview-5.jpeg"}, {"id": 4627795, "nr": 6, "picture": "https://images.pexels.com/videos/6547810/pictures/preview-6.jpeg"}, {"id": 4627803, "nr": 7, "picture": "https://images.pexels.com/videos/6547810/pictures/preview-7.jpeg"}, {"id": 4627811, "nr": 8, "picture": "https://images.pexels.com/videos/6547810/pictures/preview-8.jpeg"}, {"id": 4627820, "nr": 9, "picture": "https://images.pexels.com/videos/6547810/pictures/preview-9.jpeg"}, {"id": 4627830, "nr": 10, "picture": "https://images.pexels.com/videos/6547810/pictures/preview-10.jpeg"}, {"id": 4627838, "nr": 11, "picture": "https://images.pexels.com/videos/6547810/pictures/preview-11.jpeg"}, {"id": 4627845, "nr": 12, "picture": "https://images.pexels.com/videos/6547810/pictures/preview-12.jpeg"}, {"id": 4627851, "nr": 13, "picture": "https://images.pexels.com/videos/6547810/pictures/preview-13.jpeg"}, {"id": 4627865, "nr": 14, "picture": "https://images.pexels.com/videos/6547810/pictures/preview-14.jpeg"}]}, {"id": 5726624, "width": 2160, "height": 4096, "duration": 16, "full_res": null, "tags": [], "url": "https://www.pexels.com/video/a-man-measuring-a-woman-s-waistline-5726624/", "image": "https://images.pexels.com/videos/5726624/weight-loss-woman-5726624.jpeg?auto=compress&cs=tinysrgb&fit=crop&h=1200&w=630", "avg_color": null, "user": {"id": 2332540, "name": "Photo By: Kaboompics.com", "url": "https://www.pexels.com/@karolina-grabowska"}, "video_files": [{"id": 9784335, "quality": "uhd", "file_type": "video/mp4", "width": 1440, "height": 2732, "fps": 25.0, "link": "https://videos.pexels.com/video-files/5726624/5726624-uhd_1440_2732_25fps.mp4", "size": 14423345}, {"id": 9784368, "quality": "sd", "file_type": "video/mp4", "width": 338, "height": 640, "fps": 25.0, "link": "https://videos.pexels.com/video-files/5726624/5726624-sd_338_640_25fps.mp4", "size": 938037}, {"id": 9784506, "quality": "sd", "file_type": "video/mp4", "width": 226, "height": 426, "fps": 25.0, "link": "https://videos.pexels.com/video-files/5726624/5726624-sd_226_426_25fps.mp4", "size": 586773}, {"id": 9784614, "quality": "hd", "file_type": "video/mp4", "width": 720, "height": 1366, "fps": 25.0, "link": "https://videos.pexels.com/video-files/5726624/5726624-hd_720_1366_25fps.mp4", "size": 3605916}, {"id": 9784739, "quality": "sd", "file_type": "video/mp4", "width": 506, "height": 960, "fps": 25.0, "link": "https://videos.pexels.com/video-files/5726624/5726624-sd_506_960_25fps.mp4", "size": 1965803}, {"id": 9784891, "quality": "hd", "file_type": "video/mp4", "width": 1080, "height": 2048, "fps": 25.0, "link": "https://videos.pexels.com/video-files/5726624/5726624-hd_1080_2048_25fps.mp4", "size": 7534547}, {"id": 9785063, "quality": "uhd", "file_type": "video/mp4", "width": 2160, "height": 4096, "fps": 25.0, "link": "https://videos.pexels.com/video-files/5726624/5726624-uhd_2160_4096_25fps.mp4", "size": 28534716}], "video_pictures": [{"id": 3269901, "nr": 0, "picture": "https://images.pexels.com/videos/5726624/pictures/preview-0.jpeg"}, {"id": 3269906, "nr": 1, "picture": "https://images.pexels.com/videos/5726624/pictures/preview-1.jpeg"}, {"id": 3269918, "nr": 2, "picture": "https://images.pexels.com/videos/5726624/pictures/preview-2.jpeg"}, {"id": 3269927, "nr": 3, "picture": "https://images.pexels.com/videos/5726624/pictures/preview-3.jpeg"}, {"id": 3269932, "nr": 4, "picture": "https://images.pexels.com/videos/5726624/pictures/preview-4.jpeg"}, {"id": 3269938, "nr": 5, "picture": "https://images.pexels.com/videos/5726624/pictures/preview-5.jpeg"}, {"id": 3269945, "nr": 6, "picture": "https://images.pexels.com/videos/5726624/pictures/preview-6.jpeg"}, {"id": 3269952, "nr": 7, "picture": "https://images.pexels.com/videos/5726624/pictures/preview-7.jpeg"}, {"id": 3269957, "nr": 8, "picture": "https://images.pexels.com/videos/5726624/pictures/preview-8.jpeg"}, {"id": 3269963, "nr": 9, "picture": "https://images.pexels.com/videos/5726624/pictures/preview-9.jpeg"}, {"id": 3269970, "nr": 10, "picture": "https://images.pexels.com/videos/5726624/pictures/preview-10.jpeg"}, {"id": 3269973, "nr": 11, "picture": "https://images.pexels.com/videos/5726624/pictures/preview-11.jpeg"}, {"id": 3269977, "nr": 12, "picture": "https://images.pexels.com/videos/5726624/pictures/preview-12.jpeg"}, {"id": 3269982, "nr": 13, "picture": "https://images.pexels.com/videos/5726624/pictures/preview-13.jpeg"}, {"id": 3269984, "nr": 14, "picture": "https://images.pexels.com/videos/5726624/pictures/preview-14.jpeg"}]}, {"id": 6967536, "width": 2160, "height": 3840, "duration": 8, "full_res": null, "tags": [], "url": "https://www.pexels.com/video/person-holding-a-tape-measure-6967536/", "image": "https://images.pexels.com/videos/6967536/pexels-photo-6967536.jpeg?auto=compress&cs=tinysrgb&fit=crop&h=1200&w=630", "avg_color": null, "user": {"id": 30353109, "name": "SHVETS production", "url": "https://www.pexels.com/@shvets-production"}, "video_files": [{"id": 10256131, "quality": "uhd", "file_type": "video/mp4", "width": 1440, "height": 2560, "fps": 25.0, "link": "https://videos.pexels.com/video-files/6967536/uhd_25fps.mp4", "size": 12228278}, {"id": 10256184, "quality": "hd", "file_type": "video/mp4", "width": 1080, "height": 1920, "fps": 25.0, "link": "https://videos.pexels.com/video-files/6967536/6967536-hd_1080_1920_25fps.mp4", "size": 5140765}, {"id": 10256228, "quality": "uhd", "file_type": "video/mp4", "width": 2160, "height": 3840, "fps": 25.0, "link": "https://videos.pexels.com/video-files/6967536/uhd_25fps.mp4", "size": 22515214}, {"id": 10256276, "quality": "sd", "file_type": "video/mp4", "width": 240, "height": 426, "fps": 25.0, "link": "https://videos.pexels.com/video-files/6967536/6967536-sd_240_426_25fps.mp4", "size": 313126}, {"id": 10256294, "quality": "sd", "file_type": "video/mp4", "width": 540, "height": 960, "fps": 25.0, "link": "https://videos.pexels.com/video-files/6967536/6967536-sd_540_960_25fps.mp4", "size": 1494703}, {"id": 10256342, "quality": "sd", "file_type": "video/mp4", "width": 360, "height": 640, "fps": 25.0, "link": "https://videos.pexels.com/video-files/6967536/6967536-sd_360_640_25fps.mp4", "size": 508206}, {"id": 10256363, "quality": "hd", "file_type": "video/mp4", "width": 720, "height": 1280, "fps": 25.0, "link": "https://videos.pexels.com/video-files/6967536/6967536-hd_720_1280_25fps.mp4", "size": 2548623}], "video_pictures": [{"id": 5491172, "nr": 0, "picture": "https://images.pexels.com/videos/6967536/pictures/preview-0.jpeg"}, {"id": 5491186, "nr": 1, "picture": "https://images.pexels.com/videos/6967536/pictures/preview-1.jpeg"}, {"id": 5491199, "nr": 2, "picture": "https://images.pexels.com/videos/6967536/pictures/preview-2.jpeg"}, {"id": 5491215, "nr": 3, "picture": "https://images.pexels.com/videos/6967536/pictures/preview-3.jpeg"}, {"id": 5491250, "nr": 4, "picture": "https://images.pexels.com/videos/6967536/pictures/preview-4.jpeg"}, {"id": 5491259, "nr": 5, "picture": "https://images.pexels.com/videos/6967536/pictures/preview-5.jpeg"}, {"id": 5491268, "nr": 6, "picture": "https://images.pexels.com/videos/6967536/pictures/preview-6.jpeg"}, {"id": 5491278, "nr": 7, "picture": "https://images.pexels.com/videos/6967536/pictures/preview-7.jpeg"}, {"id": 5491284, "nr": 8, "picture": "https://images.pexels.com/videos/6967536/pictures/preview-8.jpeg"}, {"id": 5491297, "nr": 9, "picture": "https://images.pexels.com/videos/6967536/pictures/preview-9.jpeg"}, {"id": 5491303, "nr": 10, "picture": "https://images.pexels.com/videos/6967536/pictures/preview-10.jpeg"}, {"id": 5491310, "nr": 11, "picture": "https://images.pexels.com/videos/6967536/pictures/preview-11.jpeg"}, {"id": 5491317, "nr": 12, "picture": "https://images.pexels.com/videos/6967536/pictures/preview-12.jpeg"}, {"id": 5491324, "nr": 13, "picture": "https://images.pexels.com/videos/6967536/pictures/preview-13.jpeg"}, {"id": 5491332, "nr": 14, "picture": "https://images.pexels.com/videos/6967536/pictures/preview-14.jpeg"}]}], "total_results": 1202, "next_page": "https://api.pexels.com/v1/videos/search?orientation=portrait&page=2&per_page=8&query=measurement+tape", "url": "https://api-server.pexels.com/search/videos/measurement%20tape/"}, "timestamp": "2025-02-10T17:23:41.449412"}
