{"query": "money exchange", "response": {"page": 1, "per_page": 8, "videos": [{"id": 6624826, "width": 2160, "height": 3840, "duration": 6, "full_res": null, "tags": [], "url": "https://www.pexels.com/video/hand-holding-banknotes-6624826/", "image": "https://images.pexels.com/videos/6624826/pexels-photo-6624826.jpeg?auto=compress&cs=tinysrgb&fit=crop&h=1200&w=630", "avg_color": null, "user": {"id": 1984515, "name": "Anna Shvets", "url": "https://www.pexels.com/@shvetsa"}, "video_files": [{"id": 10110055, "quality": "sd", "file_type": "video/mp4", "width": 360, "height": 640, "fps": 29.969999313354492, "link": "https://videos.pexels.com/video-files/6624826/6624826-sd_360_640_30fps.mp4", "size": 343380}, {"id": 10110086, "quality": "hd", "file_type": "video/mp4", "width": 720, "height": 1280, "fps": 59.940101623535156, "link": "https://videos.pexels.com/video-files/6624826/6624826-hd_720_1280_60fps.mp4", "size": 2005686}, {"id": 10110098, "quality": "sd", "file_type": "video/mp4", "width": 540, "height": 960, "fps": 29.969999313354492, "link": "https://videos.pexels.com/video-files/6624826/6624826-sd_540_960_30fps.mp4", "size": 1055659}, {"id": 10110137, "quality": "sd", "file_type": "video/mp4", "width": 240, "height": 426, "fps": 29.969999313354492, "link": "https://videos.pexels.com/video-files/6624826/6624826-sd_240_426_30fps.mp4", "size": 219162}, {"id": 10110176, "quality": "uhd", "file_type": "video/mp4", "width": 1440, "height": 2560, "fps": 29.969999313354492, "link": "https://videos.pexels.com/video-files/6624826/6624826-uhd_1440_2560_30fps.mp4", "size": 9488549}, {"id": 10110206, "quality": "hd", "file_type": "video/mp4", "width": 1080, "height": 1920, "fps": 29.969999313354492, "link": "https://videos.pexels.com/video-files/6624826/6624826-hd_1080_1920_30fps.mp4", "size": 3800626}, {"id": 10110230, "quality": "uhd", "file_type": "video/mp4", "width": 2160, "height": 3840, "fps": 29.969999313354492, "link": "https://videos.pexels.com/video-files/6624826/6624826-uhd_2160_3840_30fps.mp4", "size": 16720401}], "video_pictures": [{"id": 4811960, "nr": 0, "picture": "https://images.pexels.com/videos/6624826/pictures/preview-0.jpeg"}, {"id": 4811962, "nr": 1, "picture": "https://images.pexels.com/videos/6624826/pictures/preview-1.jpeg"}, {"id": 4811966, "nr": 2, "picture": "https://images.pexels.com/videos/6624826/pictures/preview-2.jpeg"}, {"id": 4811968, "nr": 3, "picture": "https://images.pexels.com/videos/6624826/pictures/preview-3.jpeg"}, {"id": 4811971, "nr": 4, "picture": "https://images.pexels.com/videos/6624826/pictures/preview-4.jpeg"}, {"id": 4811974, "nr": 5, "picture": "https://images.pexels.com/videos/6624826/pictures/preview-5.jpeg"}, {"id": 4811979, "nr": 6, "picture": "https://images.pexels.com/videos/6624826/pictures/preview-6.jpeg"}, {"id": 4811988, "nr": 7, "picture": "https://images.pexels.com/videos/6624826/pictures/preview-7.jpeg"}, {"id": 4812001, "nr": 8, "picture": "https://images.pexels.com/videos/6624826/pictures/preview-8.jpeg"}, {"id": 4812022, "nr": 9, "picture": "https://images.pexels.com/videos/6624826/pictures/preview-9.jpeg"}, {"id": 4812037, "nr": 10, "picture": "https://images.pexels.com/videos/6624826/pictures/preview-10.jpeg"}, {"id": 4812051, "nr": 11, "picture": "https://images.pexels.com/videos/6624826/pictures/preview-11.jpeg"}, {"id": 4812061, "nr": 12, "picture": "https://images.pexels.com/videos/6624826/pictures/preview-12.jpeg"}, {"id": 4812072, "nr": 13, "picture": "https://images.pexels.com/videos/6624826/pictures/preview-13.jpeg"}, {"id": 4812089, "nr": 14, "picture": "https://images.pexels.com/videos/6624826/pictures/preview-14.jpeg"}]}, {"id": 6624829, "width": 2160, "height": 3840, "duration": 8, "full_res": null, "tags": [], "url": "https://www.pexels.com/video/person-holding-money-6624829/", "image": "https://images.pexels.com/videos/6624829/pexels-photo-6624829.jpeg?auto=compress&cs=tinysrgb&fit=crop&h=1200&w=630", "avg_color": null, "user": {"id": 1984515, "name": "Anna Shvets", "url": "https://www.pexels.com/@shvetsa"}, "video_files": [{"id": 10111008, "quality": "sd", "file_type": "video/mp4", "width": 360, "height": 640, "fps": 29.969999313354492, "link": "https://videos.pexels.com/video-files/6624829/6624829-sd_360_640_30fps.mp4", "size": 471084}, {"id": 10111088, "quality": "hd", "file_type": "video/mp4", "width": 720, "height": 1280, "fps": 59.940101623535156, "link": "https://videos.pexels.com/video-files/6624829/6624829-hd_720_1280_60fps.mp4", "size": 2451646}, {"id": 10111199, "quality": "uhd", "file_type": "video/mp4", "width": 1440, "height": 2560, "fps": 29.969999313354492, "link": "https://videos.pexels.com/video-files/6624829/6624829-uhd_1440_2560_30fps.mp4", "size": 12332490}, {"id": 10111275, "quality": "uhd", "file_type": "video/mp4", "width": 2160, "height": 3840, "fps": 29.969999313354492, "link": "https://videos.pexels.com/video-files/6624829/6624829-uhd_2160_3840_30fps.mp4", "size": 21735951}, {"id": 10111294, "quality": "sd", "file_type": "video/mp4", "width": 240, "height": 426, "fps": 29.969999313354492, "link": "https://videos.pexels.com/video-files/6624829/6624829-sd_240_426_30fps.mp4", "size": 287567}, {"id": 10111380, "quality": "sd", "file_type": "video/mp4", "width": 540, "height": 960, "fps": 29.969999313354492, "link": "https://videos.pexels.com/video-files/6624829/6624829-sd_540_960_30fps.mp4", "size": 1397296}, {"id": 10111467, "quality": "hd", "file_type": "video/mp4", "width": 1080, "height": 1920, "fps": 29.969999313354492, "link": "https://videos.pexels.com/video-files/6624829/6624829-hd_1080_1920_30fps.mp4", "size": 4990740}], "video_pictures": [{"id": 4811721, "nr": 0, "picture": "https://images.pexels.com/videos/6624829/pictures/preview-0.jpeg"}, {"id": 4811723, "nr": 1, "picture": "https://images.pexels.com/videos/6624829/pictures/preview-1.jpeg"}, {"id": 4811728, "nr": 2, "picture": "https://images.pexels.com/videos/6624829/pictures/preview-2.jpeg"}, {"id": 4811737, "nr": 3, "picture": "https://images.pexels.com/videos/6624829/pictures/preview-3.jpeg"}, {"id": 4811749, "nr": 4, "picture": "https://images.pexels.com/videos/6624829/pictures/preview-4.jpeg"}, {"id": 4811764, "nr": 5, "picture": "https://images.pexels.com/videos/6624829/pictures/preview-5.jpeg"}, {"id": 4811787, "nr": 6, "picture": "https://images.pexels.com/videos/6624829/pictures/preview-6.jpeg"}, {"id": 4811805, "nr": 7, "picture": "https://images.pexels.com/videos/6624829/pictures/preview-7.jpeg"}, {"id": 4811823, "nr": 8, "picture": "https://images.pexels.com/videos/6624829/pictures/preview-8.jpeg"}, {"id": 4811841, "nr": 9, "picture": "https://images.pexels.com/videos/6624829/pictures/preview-9.jpeg"}, {"id": 4811861, "nr": 10, "picture": "https://images.pexels.com/videos/6624829/pictures/preview-10.jpeg"}, {"id": 4811881, "nr": 11, "picture": "https://images.pexels.com/videos/6624829/pictures/preview-11.jpeg"}, {"id": 4811904, "nr": 12, "picture": "https://images.pexels.com/videos/6624829/pictures/preview-12.jpeg"}, {"id": 4811927, "nr": 13, "picture": "https://images.pexels.com/videos/6624829/pictures/preview-13.jpeg"}, {"id": 4811940, "nr": 14, "picture": "https://images.pexels.com/videos/6624829/pictures/preview-14.jpeg"}]}, {"id": 8369956, "width": 1080, "height": 1920, "duration": 11, "full_res": null, "tags": [], "url": "https://www.pexels.com/video/person-tossing-a-bitcoin-8369956/", "image": "https://images.pexels.com/videos/8369956/pexels-photo-8369956.jpeg?auto=compress&cs=tinysrgb&fit=crop&h=1200&w=630", "avg_color": null, "user": {"id": 3149039, "name": "RDNE Stock project", "url": "https://www.pexels.com/@rdne"}, "video_files": [{"id": 10799997, "quality": "sd", "file_type": "video/mp4", "width": 240, "height": 426, "fps": 30.0, "link": "https://videos.pexels.com/video-files/8369956/8369956-sd_240_426_30fps.mp4", "size": 170165}, {"id": 10800075, "quality": "sd", "file_type": "video/mp4", "width": 360, "height": 640, "fps": 30.0, "link": "https://videos.pexels.com/video-files/8369956/8369956-sd_360_640_30fps.mp4", "size": 414703}, {"id": 10800211, "quality": "hd", "file_type": "video/mp4", "width": 1080, "height": 1920, "fps": 30.0, "link": "https://videos.pexels.com/video-files/8369956/8369956-hd_1080_1920_30fps.mp4", "size": 4111941}, {"id": 10800290, "quality": "sd", "file_type": "video/mp4", "width": 540, "height": 960, "fps": 30.0, "link": "https://videos.pexels.com/video-files/8369956/8369956-sd_540_960_30fps.mp4", "size": 920426}, {"id": 10800377, "quality": "hd", "file_type": "video/mp4", "width": 720, "height": 1280, "fps": 30.0, "link": "https://videos.pexels.com/video-files/8369956/8369956-hd_720_1280_30fps.mp4", "size": 1479939}], "video_pictures": [{"id": 8108145, "nr": 0, "picture": "https://images.pexels.com/videos/8369956/pictures/preview-0.jpeg"}, {"id": 8108151, "nr": 1, "picture": "https://images.pexels.com/videos/8369956/pictures/preview-1.jpeg"}, {"id": 8108159, "nr": 2, "picture": "https://images.pexels.com/videos/8369956/pictures/preview-2.jpeg"}, {"id": 8108166, "nr": 3, "picture": "https://images.pexels.com/videos/8369956/pictures/preview-3.jpeg"}, {"id": 8108174, "nr": 4, "picture": "https://images.pexels.com/videos/8369956/pictures/preview-4.jpeg"}, {"id": 8108183, "nr": 5, "picture": "https://images.pexels.com/videos/8369956/pictures/preview-5.jpeg"}, {"id": 8108190, "nr": 6, "picture": "https://images.pexels.com/videos/8369956/pictures/preview-6.jpeg"}, {"id": 8108197, "nr": 7, "picture": "https://images.pexels.com/videos/8369956/pictures/preview-7.jpeg"}, {"id": 8108206, "nr": 8, "picture": "https://images.pexels.com/videos/8369956/pictures/preview-8.jpeg"}, {"id": 8108215, "nr": 9, "picture": "https://images.pexels.com/videos/8369956/pictures/preview-9.jpeg"}, {"id": 8108221, "nr": 10, "picture": "https://images.pexels.com/videos/8369956/pictures/preview-10.jpeg"}, {"id": 8108227, "nr": 11, "picture": "https://images.pexels.com/videos/8369956/pictures/preview-11.jpeg"}, {"id": 8108231, "nr": 12, "picture": "https://images.pexels.com/videos/8369956/pictures/preview-12.jpeg"}, {"id": 8108235, "nr": 13, "picture": "https://images.pexels.com/videos/8369956/pictures/preview-13.jpeg"}, {"id": 8108239, "nr": 14, "picture": "https://images.pexels.com/videos/8369956/pictures/preview-14.jpeg"}]}, {"id": 4836559, "width": 1080, "height": 1920, "duration": 5, "full_res": null, "tags": [], "url": "https://www.pexels.com/video/a-person-laying-money-on-a-glass-table-4836559/", "image": "https://images.pexels.com/videos/4836559/50-bank-note-bill-cash-4836559.jpeg?auto=compress&cs=tinysrgb&fit=crop&h=1200&w=630", "avg_color": null, "user": {"id": 2071672, "name": "Peggy Anke", "url": "https://www.pexels.com/@reisefreiheit"}, "video_files": [{"id": 9568978, "quality": "hd", "file_type": "video/mp4", "width": 720, "height": 1280, "fps": 30.0, "link": "https://videos.pexels.com/video-files/4836559/4836559-hd_720_1280_30fps.mp4", "size": 1761566}, {"id": 9569115, "quality": "sd", "file_type": "video/mp4", "width": 240, "height": 426, "fps": 30.0, "link": "https://videos.pexels.com/video-files/4836559/4836559-sd_240_426_30fps.mp4", "size": 228657}, {"id": 9569290, "quality": "sd", "file_type": "video/mp4", "width": 360, "height": 640, "fps": 30.0, "link": "https://videos.pexels.com/video-files/4836559/4836559-sd_360_640_30fps.mp4", "size": 393114}, {"id": 9569426, "quality": "hd", "file_type": "video/mp4", "width": 1080, "height": 1920, "fps": 30.0, "link": "https://videos.pexels.com/video-files/4836559/4836559-hd_1080_1920_30fps.mp4", "size": 3390338}, {"id": 9569499, "quality": "sd", "file_type": "video/mp4", "width": 540, "height": 960, "fps": 30.0, "link": "https://videos.pexels.com/video-files/4836559/4836559-sd_540_960_30fps.mp4", "size": 1064100}], "video_pictures": [{"id": 2021126, "nr": 0, "picture": "https://images.pexels.com/videos/4836559/pictures/preview-0.jpeg"}, {"id": 2021130, "nr": 1, "picture": "https://images.pexels.com/videos/4836559/pictures/preview-1.jpeg"}, {"id": 2021133, "nr": 2, "picture": "https://images.pexels.com/videos/4836559/pictures/preview-2.jpeg"}, {"id": 2021136, "nr": 3, "picture": "https://images.pexels.com/videos/4836559/pictures/preview-3.jpeg"}, {"id": 2021139, "nr": 4, "picture": "https://images.pexels.com/videos/4836559/pictures/preview-4.jpeg"}, {"id": 2021141, "nr": 5, "picture": "https://images.pexels.com/videos/4836559/pictures/preview-5.jpeg"}, {"id": 2021142, "nr": 6, "picture": "https://images.pexels.com/videos/4836559/pictures/preview-6.jpeg"}, {"id": 2021144, "nr": 7, "picture": "https://images.pexels.com/videos/4836559/pictures/preview-7.jpeg"}, {"id": 2021147, "nr": 8, "picture": "https://images.pexels.com/videos/4836559/pictures/preview-8.jpeg"}, {"id": 2021148, "nr": 9, "picture": "https://images.pexels.com/videos/4836559/pictures/preview-9.jpeg"}, {"id": 2021150, "nr": 10, "picture": "https://images.pexels.com/videos/4836559/pictures/preview-10.jpeg"}, {"id": 2021151, "nr": 11, "picture": "https://images.pexels.com/videos/4836559/pictures/preview-11.jpeg"}, {"id": 2021154, "nr": 12, "picture": "https://images.pexels.com/videos/4836559/pictures/preview-12.jpeg"}, {"id": 2021156, "nr": 13, "picture": "https://images.pexels.com/videos/4836559/pictures/preview-13.jpeg"}, {"id": 2021157, "nr": 14, "picture": "https://images.pexels.com/videos/4836559/pictures/preview-14.jpeg"}]}, {"id": 4836836, "width": 1080, "height": 1920, "duration": 33, "full_res": null, "tags": [], "url": "https://www.pexels.com/video/a-person-spreading-money-4836836/", "image": "https://images.pexels.com/videos/4836836/baht-bank-note-bill-cash-4836836.jpeg?auto=compress&cs=tinysrgb&fit=crop&h=1200&w=630", "avg_color": null, "user": {"id": 2071672, "name": "Peggy Anke", "url": "https://www.pexels.com/@reisefreiheit"}, "video_files": [{"id": 9568926, "quality": "sd", "file_type": "video/mp4", "width": 240, "height": 426, "fps": 29.969999313354492, "link": "https://videos.pexels.com/video-files/4836836/4836836-sd_240_426_30fps.mp4", "size": 1098329}, {"id": 9568985, "quality": "sd", "file_type": "video/mp4", "width": 360, "height": 640, "fps": 29.969999313354492, "link": "https://videos.pexels.com/video-files/4836836/4836836-sd_360_640_30fps.mp4", "size": 2161689}, {"id": 9569040, "quality": "hd", "file_type": "video/mp4", "width": 1080, "height": 1920, "fps": 29.969999313354492, "link": "https://videos.pexels.com/video-files/4836836/4836836-hd_1080_1920_30fps.mp4", "size": 22636474}, {"id": 9569119, "quality": "sd", "file_type": "video/mp4", "width": 540, "height": 960, "fps": 29.969999313354492, "link": "https://videos.pexels.com/video-files/4836836/4836836-sd_540_960_30fps.mp4", "size": 5419055}, {"id": 9569179, "quality": "hd", "file_type": "video/mp4", "width": 720, "height": 1280, "fps": 29.969999313354492, "link": "https://videos.pexels.com/video-files/4836836/4836836-hd_720_1280_30fps.mp4", "size": 10681723}], "video_pictures": [{"id": 2021655, "nr": 0, "picture": "https://images.pexels.com/videos/4836836/pictures/preview-0.jpeg"}, {"id": 2021656, "nr": 1, "picture": "https://images.pexels.com/videos/4836836/pictures/preview-1.jpeg"}, {"id": 2021657, "nr": 2, "picture": "https://images.pexels.com/videos/4836836/pictures/preview-2.jpeg"}, {"id": 2021658, "nr": 3, "picture": "https://images.pexels.com/videos/4836836/pictures/preview-3.jpeg"}, {"id": 2021659, "nr": 4, "picture": "https://images.pexels.com/videos/4836836/pictures/preview-4.jpeg"}, {"id": 2021660, "nr": 5, "picture": "https://images.pexels.com/videos/4836836/pictures/preview-5.jpeg"}, {"id": 2021661, "nr": 6, "picture": "https://images.pexels.com/videos/4836836/pictures/preview-6.jpeg"}, {"id": 2021662, "nr": 7, "picture": "https://images.pexels.com/videos/4836836/pictures/preview-7.jpeg"}, {"id": 2021663, "nr": 8, "picture": "https://images.pexels.com/videos/4836836/pictures/preview-8.jpeg"}, {"id": 2021664, "nr": 9, "picture": "https://images.pexels.com/videos/4836836/pictures/preview-9.jpeg"}, {"id": 2021665, "nr": 10, "picture": "https://images.pexels.com/videos/4836836/pictures/preview-10.jpeg"}, {"id": 2021666, "nr": 11, "picture": "https://images.pexels.com/videos/4836836/pictures/preview-11.jpeg"}, {"id": 2021667, "nr": 12, "picture": "https://images.pexels.com/videos/4836836/pictures/preview-12.jpeg"}, {"id": 2021668, "nr": 13, "picture": "https://images.pexels.com/videos/4836836/pictures/preview-13.jpeg"}, {"id": 2021669, "nr": 14, "picture": "https://images.pexels.com/videos/4836836/pictures/preview-14.jpeg"}]}, {"id": 7362801, "width": 1080, "height": 1920, "duration": 16, "full_res": null, "tags": [], "url": "https://www.pexels.com/video/a-man-accepting-a-delivery-7362801/", "image": "https://images.pexels.com/videos/7362801/pexels-photo-7362801.jpeg?auto=compress&cs=tinysrgb&fit=crop&h=1200&w=630", "avg_color": null, "user": {"id": 3149039, "name": "RDNE Stock project", "url": "https://www.pexels.com/@rdne"}, "video_files": [{"id": 10414375, "quality": "sd", "file_type": "video/mp4", "width": 540, "height": 960, "fps": 24.0, "link": "https://videos.pexels.com/video-files/7362801/7362801-sd_540_960_24fps.mp4", "size": 3701190}, {"id": 10414436, "quality": "hd", "file_type": "video/mp4", "width": 720, "height": 1280, "fps": 24.0, "link": "https://videos.pexels.com/video-files/7362801/7362801-hd_720_1280_24fps.mp4", "size": 5526242}, {"id": 10414684, "quality": "hd", "file_type": "video/mp4", "width": 1080, "height": 1920, "fps": 24.0, "link": "https://videos.pexels.com/video-files/7362801/7362801-hd_1080_1920_24fps.mp4", "size": 10505312}, {"id": 10414799, "quality": "sd", "file_type": "video/mp4", "width": 360, "height": 640, "fps": 24.0, "link": "https://videos.pexels.com/video-files/7362801/7362801-sd_360_640_24fps.mp4", "size": 1367272}], "video_pictures": [{"id": 6289453, "nr": 0, "picture": "https://images.pexels.com/videos/7362801/pictures/preview-0.jpeg"}, {"id": 6289460, "nr": 1, "picture": "https://images.pexels.com/videos/7362801/pictures/preview-1.jpeg"}, {"id": 6289469, "nr": 2, "picture": "https://images.pexels.com/videos/7362801/pictures/preview-2.jpeg"}, {"id": 6289478, "nr": 3, "picture": "https://images.pexels.com/videos/7362801/pictures/preview-3.jpeg"}, {"id": 6289486, "nr": 4, "picture": "https://images.pexels.com/videos/7362801/pictures/preview-4.jpeg"}, {"id": 6289495, "nr": 5, "picture": "https://images.pexels.com/videos/7362801/pictures/preview-5.jpeg"}, {"id": 6289504, "nr": 6, "picture": "https://images.pexels.com/videos/7362801/pictures/preview-6.jpeg"}, {"id": 6289512, "nr": 7, "picture": "https://images.pexels.com/videos/7362801/pictures/preview-7.jpeg"}, {"id": 6289519, "nr": 8, "picture": "https://images.pexels.com/videos/7362801/pictures/preview-8.jpeg"}, {"id": 6289527, "nr": 9, "picture": "https://images.pexels.com/videos/7362801/pictures/preview-9.jpeg"}, {"id": 6289535, "nr": 10, "picture": "https://images.pexels.com/videos/7362801/pictures/preview-10.jpeg"}, {"id": 6289541, "nr": 11, "picture": "https://images.pexels.com/videos/7362801/pictures/preview-11.jpeg"}, {"id": 6289552, "nr": 12, "picture": "https://images.pexels.com/videos/7362801/pictures/preview-12.jpeg"}, {"id": 6289563, "nr": 13, "picture": "https://images.pexels.com/videos/7362801/pictures/preview-13.jpeg"}, {"id": 6289574, "nr": 14, "picture": "https://images.pexels.com/videos/7362801/pictures/preview-14.jpeg"}]}, {"id": 8103460, "width": 2160, "height": 4096, "duration": 23, "full_res": null, "tags": [], "url": "https://www.pexels.com/video/man-removing-money-from-his-guitar-case-8103460/", "image": "https://images.pexels.com/videos/8103460/pexels-photo-8103460.jpeg?auto=compress&cs=tinysrgb&fit=crop&h=1200&w=630", "avg_color": null, "user": {"id": 30039676, "name": "MART  PRODUCTION", "url": "https://www.pexels.com/@mart-production"}, "video_files": [{"id": 10699352, "quality": "hd", "file_type": "video/mp4", "width": 720, "height": 1366, "fps": 25.0, "link": "https://videos.pexels.com/video-files/8103460/8103460-hd_720_1366_25fps.mp4", "size": 6630725}, {"id": 10699381, "quality": "sd", "file_type": "video/mp4", "width": 338, "height": 640, "fps": 25.0, "link": "https://videos.pexels.com/video-files/8103460/8103460-sd_338_640_25fps.mp4", "size": 1398078}, {"id": 10699404, "quality": "uhd", "file_type": "video/mp4", "width": 1440, "height": 2732, "fps": 25.0, "link": "https://videos.pexels.com/video-files/8103460/8103460-uhd_1440_2732_25fps.mp4", "size": 24088805}, {"id": 10699425, "quality": "uhd", "file_type": "video/mp4", "width": 2160, "height": 4096, "fps": 25.0, "link": "https://videos.pexels.com/video-files/8103460/8103460-uhd_2160_4096_25fps.mp4", "size": 57017307}, {"id": 10699463, "quality": "sd", "file_type": "video/mp4", "width": 226, "height": 426, "fps": 25.0, "link": "https://videos.pexels.com/video-files/8103460/8103460-sd_226_426_25fps.mp4", "size": 949327}, {"id": 10699488, "quality": "hd", "file_type": "video/mp4", "width": 1080, "height": 2048, "fps": 25.0, "link": "https://videos.pexels.com/video-files/8103460/8103460-hd_1080_2048_25fps.mp4", "size": 13102240}, {"id": 10699512, "quality": "sd", "file_type": "video/mp4", "width": 506, "height": 960, "fps": 25.0, "link": "https://videos.pexels.com/video-files/8103460/8103460-sd_506_960_25fps.mp4", "size": 3537954}], "video_pictures": [{"id": 7621961, "nr": 0, "picture": "https://images.pexels.com/videos/8103460/pictures/preview-0.jpeg"}, {"id": 7621969, "nr": 1, "picture": "https://images.pexels.com/videos/8103460/pictures/preview-1.jpeg"}, {"id": 7621977, "nr": 2, "picture": "https://images.pexels.com/videos/8103460/pictures/preview-2.jpeg"}, {"id": 7621985, "nr": 3, "picture": "https://images.pexels.com/videos/8103460/pictures/preview-3.jpeg"}, {"id": 7621993, "nr": 4, "picture": "https://images.pexels.com/videos/8103460/pictures/preview-4.jpeg"}, {"id": 7622000, "nr": 5, "picture": "https://images.pexels.com/videos/8103460/pictures/preview-5.jpeg"}, {"id": 7622007, "nr": 6, "picture": "https://images.pexels.com/videos/8103460/pictures/preview-6.jpeg"}, {"id": 7622015, "nr": 7, "picture": "https://images.pexels.com/videos/8103460/pictures/preview-7.jpeg"}, {"id": 7622022, "nr": 8, "picture": "https://images.pexels.com/videos/8103460/pictures/preview-8.jpeg"}, {"id": 7622030, "nr": 9, "picture": "https://images.pexels.com/videos/8103460/pictures/preview-9.jpeg"}, {"id": 7622035, "nr": 10, "picture": "https://images.pexels.com/videos/8103460/pictures/preview-10.jpeg"}, {"id": 7622044, "nr": 11, "picture": "https://images.pexels.com/videos/8103460/pictures/preview-11.jpeg"}, {"id": 7622051, "nr": 12, "picture": "https://images.pexels.com/videos/8103460/pictures/preview-12.jpeg"}, {"id": 7622058, "nr": 13, "picture": "https://images.pexels.com/videos/8103460/pictures/preview-13.jpeg"}, {"id": 7622065, "nr": 14, "picture": "https://images.pexels.com/videos/8103460/pictures/preview-14.jpeg"}]}, {"id": 7579667, "width": 2160, "height": 4096, "duration": 9, "full_res": null, "tags": [], "url": "https://www.pexels.com/video/person-using-smartphone-while-looking-bitcoin-7579667/", "image": "https://images.pexels.com/videos/7579667/pexels-photo-7579667.jpeg?auto=compress&cs=tinysrgb&fit=crop&h=1200&w=630", "avg_color": null, "user": {"id": 3088726, "name": "Tima Miroshnichenko", "url": "https://www.pexels.com/@tima-miroshnichenko"}, "video_files": [{"id": 10487315, "quality": "uhd", "file_type": "video/mp4", "width": 2160, "height": 4096, "fps": 25.0, "link": "https://videos.pexels.com/video-files/7579667/7579667-uhd_2160_4096_25fps.mp4", "size": 24784755}, {"id": 10487356, "quality": "sd", "file_type": "video/mp4", "width": 506, "height": 960, "fps": 25.0, "link": "https://videos.pexels.com/video-files/7579667/7579667-sd_506_960_25fps.mp4", "size": 1561612}, {"id": 10487434, "quality": "uhd", "file_type": "video/mp4", "width": 1440, "height": 2732, "fps": 25.0, "link": "https://videos.pexels.com/video-files/7579667/7579667-uhd_1440_2732_25fps.mp4", "size": 13470265}, {"id": 10487547, "quality": "hd", "file_type": "video/mp4", "width": 720, "height": 1366, "fps": 25.0, "link": "https://videos.pexels.com/video-files/7579667/7579667-hd_720_1366_25fps.mp4", "size": 2629003}, {"id": 10487614, "quality": "hd", "file_type": "video/mp4", "width": 1080, "height": 2048, "fps": 25.0, "link": "https://videos.pexels.com/video-files/7579667/7579667-hd_1080_2048_25fps.mp4", "size": 5377641}, {"id": 10487760, "quality": "sd", "file_type": "video/mp4", "width": 338, "height": 640, "fps": 25.0, "link": "https://videos.pexels.com/video-files/7579667/7579667-sd_338_640_25fps.mp4", "size": 515932}, {"id": 10487800, "quality": "sd", "file_type": "video/mp4", "width": 226, "height": 426, "fps": 25.0, "link": "https://videos.pexels.com/video-files/7579667/7579667-sd_226_426_25fps.mp4", "size": 285191}], "video_pictures": [{"id": 6664855, "nr": 0, "picture": "https://images.pexels.com/videos/7579667/pictures/preview-0.jpeg"}, {"id": 6664874, "nr": 1, "picture": "https://images.pexels.com/videos/7579667/pictures/preview-1.jpeg"}, {"id": 6664891, "nr": 2, "picture": "https://images.pexels.com/videos/7579667/pictures/preview-2.jpeg"}, {"id": 6664916, "nr": 3, "picture": "https://images.pexels.com/videos/7579667/pictures/preview-3.jpeg"}, {"id": 6664936, "nr": 4, "picture": "https://images.pexels.com/videos/7579667/pictures/preview-4.jpeg"}, {"id": 6664950, "nr": 5, "picture": "https://images.pexels.com/videos/7579667/pictures/preview-5.jpeg"}, {"id": 6664971, "nr": 6, "picture": "https://images.pexels.com/videos/7579667/pictures/preview-6.jpeg"}, {"id": 6664983, "nr": 7, "picture": "https://images.pexels.com/videos/7579667/pictures/preview-7.jpeg"}, {"id": 6664996, "nr": 8, "picture": "https://images.pexels.com/videos/7579667/pictures/preview-8.jpeg"}, {"id": 6665016, "nr": 9, "picture": "https://images.pexels.com/videos/7579667/pictures/preview-9.jpeg"}, {"id": 6665035, "nr": 10, "picture": "https://images.pexels.com/videos/7579667/pictures/preview-10.jpeg"}, {"id": 6665059, "nr": 11, "picture": "https://images.pexels.com/videos/7579667/pictures/preview-11.jpeg"}, {"id": 6665095, "nr": 12, "picture": "https://images.pexels.com/videos/7579667/pictures/preview-12.jpeg"}, {"id": 6665120, "nr": 13, "picture": "https://images.pexels.com/videos/7579667/pictures/preview-13.jpeg"}, {"id": 6665147, "nr": 14, "picture": "https://images.pexels.com/videos/7579667/pictures/preview-14.jpeg"}]}], "total_results": 1129, "next_page": "https://api.pexels.com/v1/videos/search?orientation=portrait&page=2&per_page=8&query=money+exchange", "url": "https://api-server.pexels.com/search/videos/money%20exchange/"}, "timestamp": "2025-02-10T17:23:39.980540"}
