{"query": "2003 calendar", "response": {"page": 1, "per_page": 8, "videos": [{"id": 5387029, "width": 1080, "height": 1920, "duration": 9, "full_res": null, "tags": [], "url": "https://www.pexels.com/video/a-person-browsing-the-pages-of-a-book-5387029/", "image": "https://images.pexels.com/videos/5387029/apple-keyboard-calendar-camera-coffee-5387029.jpeg?auto=compress&cs=tinysrgb&fit=crop&h=1200&w=630", "avg_color": null, "user": {"id": 2946790, "name": "Leeloo The First", "url": "https://www.pexels.com/@leeloothefirst"}, "video_files": [{"id": 9686717, "quality": "sd", "file_type": "video/mp4", "width": 240, "height": 426, "fps": 29.969999313354492, "link": "https://videos.pexels.com/video-files/5387029/5387029-sd_240_426_30fps.mp4", "size": 402725}, {"id": 9686790, "quality": "hd", "file_type": "video/mp4", "width": 720, "height": 1280, "fps": 29.969999313354492, "link": "https://videos.pexels.com/video-files/5387029/5387029-hd_720_1280_30fps.mp4", "size": 3088892}, {"id": 9686841, "quality": "sd", "file_type": "video/mp4", "width": 360, "height": 640, "fps": 29.969999313354492, "link": "https://videos.pexels.com/video-files/5387029/5387029-sd_360_640_30fps.mp4", "size": 681218}, {"id": 9686912, "quality": "sd", "file_type": "video/mp4", "width": 540, "height": 960, "fps": 29.969999313354492, "link": "https://videos.pexels.com/video-files/5387029/5387029-sd_540_960_30fps.mp4", "size": 1876179}, {"id": 9687032, "quality": "hd", "file_type": "video/mp4", "width": 1080, "height": 1920, "fps": 29.969999313354492, "link": "https://videos.pexels.com/video-files/5387029/5387029-hd_1080_1920_30fps.mp4", "size": 5896308}], "video_pictures": [{"id": 2748925, "nr": 0, "picture": "https://images.pexels.com/videos/5387029/pictures/preview-0.jpeg"}, {"id": 2748929, "nr": 1, "picture": "https://images.pexels.com/videos/5387029/pictures/preview-1.jpeg"}, {"id": 2748934, "nr": 2, "picture": "https://images.pexels.com/videos/5387029/pictures/preview-2.jpeg"}, {"id": 2748938, "nr": 3, "picture": "https://images.pexels.com/videos/5387029/pictures/preview-3.jpeg"}, {"id": 2748942, "nr": 4, "picture": "https://images.pexels.com/videos/5387029/pictures/preview-4.jpeg"}, {"id": 2748948, "nr": 5, "picture": "https://images.pexels.com/videos/5387029/pictures/preview-5.jpeg"}, {"id": 2748952, "nr": 6, "picture": "https://images.pexels.com/videos/5387029/pictures/preview-6.jpeg"}, {"id": 2748956, "nr": 7, "picture": "https://images.pexels.com/videos/5387029/pictures/preview-7.jpeg"}, {"id": 2748960, "nr": 8, "picture": "https://images.pexels.com/videos/5387029/pictures/preview-8.jpeg"}, {"id": 2748965, "nr": 9, "picture": "https://images.pexels.com/videos/5387029/pictures/preview-9.jpeg"}, {"id": 2748969, "nr": 10, "picture": "https://images.pexels.com/videos/5387029/pictures/preview-10.jpeg"}, {"id": 2748974, "nr": 11, "picture": "https://images.pexels.com/videos/5387029/pictures/preview-11.jpeg"}, {"id": 2748978, "nr": 12, "picture": "https://images.pexels.com/videos/5387029/pictures/preview-12.jpeg"}, {"id": 2748982, "nr": 13, "picture": "https://images.pexels.com/videos/5387029/pictures/preview-13.jpeg"}, {"id": 2748986, "nr": 14, "picture": "https://images.pexels.com/videos/5387029/pictures/preview-14.jpeg"}]}, {"id": 19798255, "width": 2160, "height": 3840, "duration": 14, "full_res": null, "tags": [], "url": "https://www.pexels.com/video/a-2024-calendar-on-a-desk-19798255/", "image": "https://images.pexels.com/videos/19798255/2024-agenda-book-color-19798255.jpeg?auto=compress&cs=tinysrgb&fit=crop&h=1200&w=630", "avg_color": null, "user": {"id": 177885845, "name": "Ali  Alc\u00e1ntara", "url": "https://www.pexels.com/@alialcantara"}, "video_files": [{"id": 8684537, "quality": "sd", "file_type": "video/mp4", "width": 240, "height": 426, "fps": 24.0, "link": "https://videos.pexels.com/video-files/19798255/19798255-sd_240_426_24fps.mp4", "size": 593403}, {"id": 8684538, "quality": "hd", "file_type": "video/mp4", "width": 720, "height": 1280, "fps": 24.0, "link": "https://videos.pexels.com/video-files/19798255/19798255-hd_720_1280_24fps.mp4", "size": 1717264}, {"id": 8684541, "quality": "uhd", "file_type": "video/mp4", "width": 2160, "height": 3840, "fps": 24.0, "link": "https://videos.pexels.com/video-files/19798255/19798255-uhd_2160_3840_24fps.mp4", "size": 20835621}, {"id": 8684544, "quality": "sd", "file_type": "video/mp4", "width": 360, "height": 640, "fps": 24.0, "link": "https://videos.pexels.com/video-files/19798255/19798255-sd_360_640_24fps.mp4", "size": 805219}, {"id": 8684546, "quality": "uhd", "file_type": "video/mp4", "width": 1440, "height": 2560, "fps": 24.0, "link": "https://videos.pexels.com/video-files/19798255/19798255-uhd_1440_2560_24fps.mp4", "size": 6343782}, {"id": 8684549, "quality": "sd", "file_type": "video/mp4", "width": 540, "height": 960, "fps": 24.0, "link": "https://videos.pexels.com/video-files/19798255/19798255-sd_540_960_24fps.mp4", "size": 1233997}, {"id": 8684551, "quality": "hd", "file_type": "video/mp4", "width": 1080, "height": 1920, "fps": 24.0, "link": "https://videos.pexels.com/video-files/19798255/19798255-hd_1080_1920_24fps.mp4", "size": 3631657}], "video_pictures": [{"id": 20663679, "nr": 0, "picture": "https://images.pexels.com/videos/19798255/pictures/preview-0.jpeg"}, {"id": 20663704, "nr": 1, "picture": "https://images.pexels.com/videos/19798255/pictures/preview-1.jpeg"}, {"id": 20663738, "nr": 2, "picture": "https://images.pexels.com/videos/19798255/pictures/preview-2.jpeg"}, {"id": 20663776, "nr": 3, "picture": "https://images.pexels.com/videos/19798255/pictures/preview-3.jpeg"}, {"id": 20663813, "nr": 4, "picture": "https://images.pexels.com/videos/19798255/pictures/preview-4.jpeg"}, {"id": 20663838, "nr": 5, "picture": "https://images.pexels.com/videos/19798255/pictures/preview-5.jpeg"}, {"id": 20663861, "nr": 6, "picture": "https://images.pexels.com/videos/19798255/pictures/preview-6.jpeg"}, {"id": 20663891, "nr": 7, "picture": "https://images.pexels.com/videos/19798255/pictures/preview-7.jpeg"}, {"id": 20663911, "nr": 8, "picture": "https://images.pexels.com/videos/19798255/pictures/preview-8.jpeg"}, {"id": 20663938, "nr": 9, "picture": "https://images.pexels.com/videos/19798255/pictures/preview-9.jpeg"}, {"id": 20663962, "nr": 10, "picture": "https://images.pexels.com/videos/19798255/pictures/preview-10.jpeg"}, {"id": 20663990, "nr": 11, "picture": "https://images.pexels.com/videos/19798255/pictures/preview-11.jpeg"}, {"id": 20664005, "nr": 12, "picture": "https://images.pexels.com/videos/19798255/pictures/preview-12.jpeg"}, {"id": 20664021, "nr": 13, "picture": "https://images.pexels.com/videos/19798255/pictures/preview-13.jpeg"}, {"id": 20664034, "nr": 14, "picture": "https://images.pexels.com/videos/19798255/pictures/preview-14.jpeg"}]}, {"id": 19798271, "width": 2160, "height": 3840, "duration": 15, "full_res": null, "tags": [], "url": "https://www.pexels.com/video/2024-digital-planner-close-up-19798271/", "image": "https://images.pexels.com/videos/19798271/2024-agenda-book-color-19798271.jpeg?auto=compress&cs=tinysrgb&fit=crop&h=1200&w=630", "avg_color": null, "user": {"id": 177885845, "name": "Ali  Alc\u00e1ntara", "url": "https://www.pexels.com/@alialcantara"}, "video_files": [{"id": 8684640, "quality": "hd", "file_type": "video/mp4", "width": 720, "height": 1280, "fps": 24.0, "link": "https://videos.pexels.com/video-files/19798271/19798271-hd_720_1280_24fps.mp4", "size": 1884464}, {"id": 8684641, "quality": "uhd", "file_type": "video/mp4", "width": 2160, "height": 3840, "fps": 24.0, "link": "https://videos.pexels.com/video-files/19798271/19798271-uhd_2160_3840_24fps.mp4", "size": 27503563}, {"id": 8684642, "quality": "uhd", "file_type": "video/mp4", "width": 1440, "height": 2560, "fps": 24.0, "link": "https://videos.pexels.com/video-files/19798271/19798271-uhd_1440_2560_24fps.mp4", "size": 7927340}, {"id": 8684643, "quality": "sd", "file_type": "video/mp4", "width": 240, "height": 426, "fps": 24.0, "link": "https://videos.pexels.com/video-files/19798271/19798271-sd_240_426_24fps.mp4", "size": 619778}, {"id": 8684644, "quality": "hd", "file_type": "video/mp4", "width": 1080, "height": 1920, "fps": 24.0, "link": "https://videos.pexels.com/video-files/19798271/19798271-hd_1080_1920_24fps.mp4", "size": 4550848}, {"id": 8684645, "quality": "sd", "file_type": "video/mp4", "width": 360, "height": 640, "fps": 24.0, "link": "https://videos.pexels.com/video-files/19798271/19798271-sd_360_640_24fps.mp4", "size": 813282}, {"id": 8684646, "quality": "sd", "file_type": "video/mp4", "width": 540, "height": 960, "fps": 24.0, "link": "https://videos.pexels.com/video-files/19798271/19798271-sd_540_960_24fps.mp4", "size": 1271356}], "video_pictures": [{"id": 20663690, "nr": 0, "picture": "https://images.pexels.com/videos/19798271/pictures/preview-0.jpeg"}, {"id": 20663721, "nr": 1, "picture": "https://images.pexels.com/videos/19798271/pictures/preview-1.jpeg"}, {"id": 20663754, "nr": 2, "picture": "https://images.pexels.com/videos/19798271/pictures/preview-2.jpeg"}, {"id": 20663788, "nr": 3, "picture": "https://images.pexels.com/videos/19798271/pictures/preview-3.jpeg"}, {"id": 20663823, "nr": 4, "picture": "https://images.pexels.com/videos/19798271/pictures/preview-4.jpeg"}, {"id": 20663845, "nr": 5, "picture": "https://images.pexels.com/videos/19798271/pictures/preview-5.jpeg"}, {"id": 20663871, "nr": 6, "picture": "https://images.pexels.com/videos/19798271/pictures/preview-6.jpeg"}, {"id": 20663896, "nr": 7, "picture": "https://images.pexels.com/videos/19798271/pictures/preview-7.jpeg"}, {"id": 20663923, "nr": 8, "picture": "https://images.pexels.com/videos/19798271/pictures/preview-8.jpeg"}, {"id": 20663955, "nr": 9, "picture": "https://images.pexels.com/videos/19798271/pictures/preview-9.jpeg"}, {"id": 20663984, "nr": 10, "picture": "https://images.pexels.com/videos/19798271/pictures/preview-10.jpeg"}, {"id": 20664004, "nr": 11, "picture": "https://images.pexels.com/videos/19798271/pictures/preview-11.jpeg"}, {"id": 20664020, "nr": 12, "picture": "https://images.pexels.com/videos/19798271/pictures/preview-12.jpeg"}, {"id": 20664035, "nr": 13, "picture": "https://images.pexels.com/videos/19798271/pictures/preview-13.jpeg"}, {"id": 20664038, "nr": 14, "picture": "https://images.pexels.com/videos/19798271/pictures/preview-14.jpeg"}]}, {"id": 19798266, "width": 2160, "height": 3840, "duration": 8, "full_res": null, "tags": [], "url": "https://www.pexels.com/video/a-person-flipping-a-page-of-a-2024-planner-19798266/", "image": "https://images.pexels.com/videos/19798266/2024-agenda-book-color-19798266.jpeg?auto=compress&cs=tinysrgb&fit=crop&h=1200&w=630", "avg_color": null, "user": {"id": 177885845, "name": "Ali  Alc\u00e1ntara", "url": "https://www.pexels.com/@alialcantara"}, "video_files": [{"id": 8684602, "quality": "uhd", "file_type": "video/mp4", "width": 1440, "height": 2560, "fps": 24.0, "link": "https://videos.pexels.com/video-files/19798266/19798266-uhd_1440_2560_24fps.mp4", "size": 5570462}, {"id": 8684605, "quality": "sd", "file_type": "video/mp4", "width": 240, "height": 426, "fps": 24.0, "link": "https://videos.pexels.com/video-files/19798266/19798266-sd_240_426_24fps.mp4", "size": 454322}, {"id": 8684606, "quality": "hd", "file_type": "video/mp4", "width": 1080, "height": 1920, "fps": 24.0, "link": "https://videos.pexels.com/video-files/19798266/19798266-hd_1080_1920_24fps.mp4", "size": 3489442}, {"id": 8684608, "quality": "hd", "file_type": "video/mp4", "width": 720, "height": 1280, "fps": 24.0, "link": "https://videos.pexels.com/video-files/19798266/19798266-hd_720_1280_24fps.mp4", "size": 1635955}, {"id": 8684609, "quality": "uhd", "file_type": "video/mp4", "width": 2160, "height": 3840, "fps": 24.0, "link": "https://videos.pexels.com/video-files/19798266/19798266-uhd_2160_3840_24fps.mp4", "size": 14753435}, {"id": 8684610, "quality": "sd", "file_type": "video/mp4", "width": 540, "height": 960, "fps": 24.0, "link": "https://videos.pexels.com/video-files/19798266/19798266-sd_540_960_24fps.mp4", "size": 1027787}, {"id": 8684611, "quality": "sd", "file_type": "video/mp4", "width": 360, "height": 640, "fps": 24.0, "link": "https://videos.pexels.com/video-files/19798266/19798266-sd_360_640_24fps.mp4", "size": 661394}], "video_pictures": [{"id": 20663681, "nr": 0, "picture": "https://images.pexels.com/videos/19798266/pictures/preview-0.jpeg"}, {"id": 20663708, "nr": 1, "picture": "https://images.pexels.com/videos/19798266/pictures/preview-1.jpeg"}, {"id": 20663727, "nr": 2, "picture": "https://images.pexels.com/videos/19798266/pictures/preview-2.jpeg"}, {"id": 20663756, "nr": 3, "picture": "https://images.pexels.com/videos/19798266/pictures/preview-3.jpeg"}, {"id": 20663795, "nr": 4, "picture": "https://images.pexels.com/videos/19798266/pictures/preview-4.jpeg"}, {"id": 20663834, "nr": 5, "picture": "https://images.pexels.com/videos/19798266/pictures/preview-5.jpeg"}, {"id": 20663858, "nr": 6, "picture": "https://images.pexels.com/videos/19798266/pictures/preview-6.jpeg"}, {"id": 20663887, "nr": 7, "picture": "https://images.pexels.com/videos/19798266/pictures/preview-7.jpeg"}, {"id": 20663903, "nr": 8, "picture": "https://images.pexels.com/videos/19798266/pictures/preview-8.jpeg"}, {"id": 20663926, "nr": 9, "picture": "https://images.pexels.com/videos/19798266/pictures/preview-9.jpeg"}, {"id": 20663954, "nr": 10, "picture": "https://images.pexels.com/videos/19798266/pictures/preview-10.jpeg"}, {"id": 20663979, "nr": 11, "picture": "https://images.pexels.com/videos/19798266/pictures/preview-11.jpeg"}, {"id": 20663999, "nr": 12, "picture": "https://images.pexels.com/videos/19798266/pictures/preview-12.jpeg"}, {"id": 20664019, "nr": 13, "picture": "https://images.pexels.com/videos/19798266/pictures/preview-13.jpeg"}, {"id": 20664032, "nr": 14, "picture": "https://images.pexels.com/videos/19798266/pictures/preview-14.jpeg"}]}, {"id": 19798269, "width": 2160, "height": 3840, "duration": 4, "full_res": null, "tags": [], "url": "https://www.pexels.com/video/a-person-using-a-wireless-mouse-19798269/", "image": "https://images.pexels.com/videos/19798269/2024-agenda-book-color-19798269.jpeg?auto=compress&cs=tinysrgb&fit=crop&h=1200&w=630", "avg_color": null, "user": {"id": 177885845, "name": "Ali  Alc\u00e1ntara", "url": "https://www.pexels.com/@alialcantara"}, "video_files": [{"id": 8684571, "quality": "hd", "file_type": "video/mp4", "width": 1080, "height": 1920, "fps": 24.0, "link": "https://videos.pexels.com/video-files/19798269/19798269-hd_1080_1920_24fps.mp4", "size": 1322342}, {"id": 8684573, "quality": "sd", "file_type": "video/mp4", "width": 360, "height": 640, "fps": 24.0, "link": "https://videos.pexels.com/video-files/19798269/19798269-sd_360_640_24fps.mp4", "size": 296386}, {"id": 8684576, "quality": "uhd", "file_type": "video/mp4", "width": 2160, "height": 3840, "fps": 24.0, "link": "https://videos.pexels.com/video-files/19798269/19798269-uhd_2160_3840_24fps.mp4", "size": 6381295}, {"id": 8684579, "quality": "hd", "file_type": "video/mp4", "width": 720, "height": 1280, "fps": 24.0, "link": "https://videos.pexels.com/video-files/19798269/19798269-hd_720_1280_24fps.mp4", "size": 647048}, {"id": 8684581, "quality": "uhd", "file_type": "video/mp4", "width": 1440, "height": 2560, "fps": 24.0, "link": "https://videos.pexels.com/video-files/19798269/19798269-uhd_1440_2560_24fps.mp4", "size": 2183768}, {"id": 8684583, "quality": "sd", "file_type": "video/mp4", "width": 540, "height": 960, "fps": 24.0, "link": "https://videos.pexels.com/video-files/19798269/19798269-sd_540_960_24fps.mp4", "size": 459336}, {"id": 8684585, "quality": "sd", "file_type": "video/mp4", "width": 240, "height": 426, "fps": 24.0, "link": "https://videos.pexels.com/video-files/19798269/19798269-sd_240_426_24fps.mp4", "size": 201497}], "video_pictures": [{"id": 20663677, "nr": 0, "picture": "https://images.pexels.com/videos/19798269/pictures/preview-0.jpeg"}, {"id": 20663698, "nr": 1, "picture": "https://images.pexels.com/videos/19798269/pictures/preview-1.jpeg"}, {"id": 20663722, "nr": 2, "picture": "https://images.pexels.com/videos/19798269/pictures/preview-2.jpeg"}, {"id": 20663744, "nr": 3, "picture": "https://images.pexels.com/videos/19798269/pictures/preview-3.jpeg"}, {"id": 20663766, "nr": 4, "picture": "https://images.pexels.com/videos/19798269/pictures/preview-4.jpeg"}, {"id": 20663802, "nr": 5, "picture": "https://images.pexels.com/videos/19798269/pictures/preview-5.jpeg"}, {"id": 20663826, "nr": 6, "picture": "https://images.pexels.com/videos/19798269/pictures/preview-6.jpeg"}, {"id": 20663843, "nr": 7, "picture": "https://images.pexels.com/videos/19798269/pictures/preview-7.jpeg"}, {"id": 20663865, "nr": 8, "picture": "https://images.pexels.com/videos/19798269/pictures/preview-8.jpeg"}, {"id": 20663883, "nr": 9, "picture": "https://images.pexels.com/videos/19798269/pictures/preview-9.jpeg"}, {"id": 20663900, "nr": 10, "picture": "https://images.pexels.com/videos/19798269/pictures/preview-10.jpeg"}, {"id": 20663922, "nr": 11, "picture": "https://images.pexels.com/videos/19798269/pictures/preview-11.jpeg"}, {"id": 20663947, "nr": 12, "picture": "https://images.pexels.com/videos/19798269/pictures/preview-12.jpeg"}, {"id": 20663972, "nr": 13, "picture": "https://images.pexels.com/videos/19798269/pictures/preview-13.jpeg"}, {"id": 20663992, "nr": 14, "picture": "https://images.pexels.com/videos/19798269/pictures/preview-14.jpeg"}]}, {"id": 19798256, "width": 2160, "height": 3840, "duration": 7, "full_res": null, "tags": [], "url": "https://www.pexels.com/video/digital-planner-for-2024-19798256/", "image": "https://images.pexels.com/videos/19798256/2024-agenda-book-color-19798256.jpeg?auto=compress&cs=tinysrgb&fit=crop&h=1200&w=630", "avg_color": null, "user": {"id": 177885845, "name": "Ali  Alc\u00e1ntara", "url": "https://www.pexels.com/@alialcantara"}, "video_files": [{"id": 8684572, "quality": "hd", "file_type": "video/mp4", "width": 1080, "height": 1920, "fps": 24.0, "link": "https://videos.pexels.com/video-files/19798256/19798256-hd_1080_1920_24fps.mp4", "size": 2118627}, {"id": 8684574, "quality": "sd", "file_type": "video/mp4", "width": 540, "height": 960, "fps": 24.0, "link": "https://videos.pexels.com/video-files/19798256/19798256-sd_540_960_24fps.mp4", "size": 666065}, {"id": 8684575, "quality": "hd", "file_type": "video/mp4", "width": 720, "height": 1280, "fps": 24.0, "link": "https://videos.pexels.com/video-files/19798256/19798256-hd_720_1280_24fps.mp4", "size": 933952}, {"id": 8684577, "quality": "sd", "file_type": "video/mp4", "width": 360, "height": 640, "fps": 24.0, "link": "https://videos.pexels.com/video-files/19798256/19798256-sd_360_640_24fps.mp4", "size": 438580}, {"id": 8684578, "quality": "uhd", "file_type": "video/mp4", "width": 1440, "height": 2560, "fps": 24.0, "link": "https://videos.pexels.com/video-files/19798256/19798256-uhd_1440_2560_24fps.mp4", "size": 3605653}, {"id": 8684580, "quality": "sd", "file_type": "video/mp4", "width": 240, "height": 426, "fps": 24.0, "link": "https://videos.pexels.com/video-files/19798256/19798256-sd_240_426_24fps.mp4", "size": 325012}, {"id": 8684582, "quality": "uhd", "file_type": "video/mp4", "width": 2160, "height": 3840, "fps": 24.0, "link": "https://videos.pexels.com/video-files/19798256/19798256-uhd_2160_3840_24fps.mp4", "size": 12024239}], "video_pictures": [{"id": 20663676, "nr": 0, "picture": "https://images.pexels.com/videos/19798256/pictures/preview-0.jpeg"}, {"id": 20663696, "nr": 1, "picture": "https://images.pexels.com/videos/19798256/pictures/preview-1.jpeg"}, {"id": 20663724, "nr": 2, "picture": "https://images.pexels.com/videos/19798256/pictures/preview-2.jpeg"}, {"id": 20663758, "nr": 3, "picture": "https://images.pexels.com/videos/19798256/pictures/preview-3.jpeg"}, {"id": 20663789, "nr": 4, "picture": "https://images.pexels.com/videos/19798256/pictures/preview-4.jpeg"}, {"id": 20663819, "nr": 5, "picture": "https://images.pexels.com/videos/19798256/pictures/preview-5.jpeg"}, {"id": 20663854, "nr": 6, "picture": "https://images.pexels.com/videos/19798256/pictures/preview-6.jpeg"}, {"id": 20663879, "nr": 7, "picture": "https://images.pexels.com/videos/19798256/pictures/preview-7.jpeg"}, {"id": 20663908, "nr": 8, "picture": "https://images.pexels.com/videos/19798256/pictures/preview-8.jpeg"}, {"id": 20663932, "nr": 9, "picture": "https://images.pexels.com/videos/19798256/pictures/preview-9.jpeg"}, {"id": 20663957, "nr": 10, "picture": "https://images.pexels.com/videos/19798256/pictures/preview-10.jpeg"}, {"id": 20663976, "nr": 11, "picture": "https://images.pexels.com/videos/19798256/pictures/preview-11.jpeg"}, {"id": 20663998, "nr": 12, "picture": "https://images.pexels.com/videos/19798256/pictures/preview-12.jpeg"}, {"id": 20664014, "nr": 13, "picture": "https://images.pexels.com/videos/19798256/pictures/preview-13.jpeg"}, {"id": 20664031, "nr": 14, "picture": "https://images.pexels.com/videos/19798256/pictures/preview-14.jpeg"}]}, {"id": 19798258, "width": 2160, "height": 3840, "duration": 8, "full_res": null, "tags": [], "url": "https://www.pexels.com/video/2024-digital-planner-19798258/", "image": "https://images.pexels.com/videos/19798258/2024-agenda-book-color-19798258.jpeg?auto=compress&cs=tinysrgb&fit=crop&h=1200&w=630", "avg_color": null, "user": {"id": 177885845, "name": "Ali  Alc\u00e1ntara", "url": "https://www.pexels.com/@alialcantara"}, "video_files": [{"id": 8684627, "quality": "hd", "file_type": "video/mp4", "width": 1080, "height": 1920, "fps": 24.0, "link": "https://videos.pexels.com/video-files/19798258/19798258-hd_1080_1920_24fps.mp4", "size": 2006154}, {"id": 8684630, "quality": "sd", "file_type": "video/mp4", "width": 240, "height": 426, "fps": 24.0, "link": "https://videos.pexels.com/video-files/19798258/19798258-sd_240_426_24fps.mp4", "size": 330563}, {"id": 8684634, "quality": "hd", "file_type": "video/mp4", "width": 720, "height": 1280, "fps": 24.0, "link": "https://videos.pexels.com/video-files/19798258/19798258-hd_720_1280_24fps.mp4", "size": 891793}, {"id": 8684636, "quality": "uhd", "file_type": "video/mp4", "width": 2160, "height": 3840, "fps": 24.0, "link": "https://videos.pexels.com/video-files/19798258/19798258-uhd_2160_3840_24fps.mp4", "size": 12115714}, {"id": 8684637, "quality": "sd", "file_type": "video/mp4", "width": 540, "height": 960, "fps": 24.0, "link": "https://videos.pexels.com/video-files/19798258/19798258-sd_540_960_24fps.mp4", "size": 641967}, {"id": 8684638, "quality": "sd", "file_type": "video/mp4", "width": 360, "height": 640, "fps": 24.0, "link": "https://videos.pexels.com/video-files/19798258/19798258-sd_360_640_24fps.mp4", "size": 424038}, {"id": 8684639, "quality": "uhd", "file_type": "video/mp4", "width": 1440, "height": 2560, "fps": 24.0, "link": "https://videos.pexels.com/video-files/19798258/19798258-uhd_1440_2560_24fps.mp4", "size": 3540363}], "video_pictures": [{"id": 20663678, "nr": 0, "picture": "https://images.pexels.com/videos/19798258/pictures/preview-0.jpeg"}, {"id": 20663703, "nr": 1, "picture": "https://images.pexels.com/videos/19798258/pictures/preview-1.jpeg"}, {"id": 20663728, "nr": 2, "picture": "https://images.pexels.com/videos/19798258/pictures/preview-2.jpeg"}, {"id": 20663760, "nr": 3, "picture": "https://images.pexels.com/videos/19798258/pictures/preview-3.jpeg"}, {"id": 20663796, "nr": 4, "picture": "https://images.pexels.com/videos/19798258/pictures/preview-4.jpeg"}, {"id": 20663829, "nr": 5, "picture": "https://images.pexels.com/videos/19798258/pictures/preview-5.jpeg"}, {"id": 20663856, "nr": 6, "picture": "https://images.pexels.com/videos/19798258/pictures/preview-6.jpeg"}, {"id": 20663878, "nr": 7, "picture": "https://images.pexels.com/videos/19798258/pictures/preview-7.jpeg"}, {"id": 20663894, "nr": 8, "picture": "https://images.pexels.com/videos/19798258/pictures/preview-8.jpeg"}, {"id": 20663916, "nr": 9, "picture": "https://images.pexels.com/videos/19798258/pictures/preview-9.jpeg"}, {"id": 20663943, "nr": 10, "picture": "https://images.pexels.com/videos/19798258/pictures/preview-10.jpeg"}, {"id": 20663994, "nr": 11, "picture": "https://images.pexels.com/videos/19798258/pictures/preview-11.jpeg"}, {"id": 20664009, "nr": 12, "picture": "https://images.pexels.com/videos/19798258/pictures/preview-12.jpeg"}, {"id": 20664028, "nr": 13, "picture": "https://images.pexels.com/videos/19798258/pictures/preview-13.jpeg"}, {"id": 20664037, "nr": 14, "picture": "https://images.pexels.com/videos/19798258/pictures/preview-14.jpeg"}]}, {"id": 7679831, "width": 2160, "height": 4096, "duration": 23, "full_res": null, "tags": [], "url": "https://www.pexels.com/video/close-up-shot-of-a-person-using-laptop-7679831/", "image": "https://images.pexels.com/videos/7679831/pexels-photo-7679831.jpeg?auto=compress&cs=tinysrgb&fit=crop&h=1200&w=630", "avg_color": null, "user": {"id": 30039676, "name": "MART  PRODUCTION", "url": "https://www.pexels.com/@mart-production"}, "video_files": [{"id": 10536717, "quality": "sd", "file_type": "video/mp4", "width": 506, "height": 960, "fps": 25.0, "link": "https://videos.pexels.com/video-files/7679831/7679831-sd_506_960_25fps.mp4", "size": 2031485}, {"id": 10536820, "quality": "sd", "file_type": "video/mp4", "width": 338, "height": 640, "fps": 25.0, "link": "https://videos.pexels.com/video-files/7679831/7679831-sd_338_640_25fps.mp4", "size": 1195930}, {"id": 10536913, "quality": "uhd", "file_type": "video/mp4", "width": 1440, "height": 2732, "fps": 25.0, "link": "https://videos.pexels.com/video-files/7679831/uhd_25fps.mp4", "size": 10835950}, {"id": 10536951, "quality": "hd", "file_type": "video/mp4", "width": 1080, "height": 2048, "fps": 25.0, "link": "https://videos.pexels.com/video-files/7679831/7679831-hd_1080_2048_25fps.mp4", "size": 6685601}, {"id": 10537097, "quality": "sd", "file_type": "video/mp4", "width": 226, "height": 426, "fps": 25.0, "link": "https://videos.pexels.com/video-files/7679831/7679831-sd_226_426_25fps.mp4", "size": 731683}, {"id": 10537228, "quality": "uhd", "file_type": "video/mp4", "width": 2160, "height": 4096, "fps": 25.0, "link": "https://videos.pexels.com/video-files/7679831/7679831-uhd_2160_4096_25fps.mp4", "size": 23079458}, {"id": 10537290, "quality": "hd", "file_type": "video/mp4", "width": 720, "height": 1366, "fps": 25.0, "link": "https://videos.pexels.com/video-files/7679831/7679831-hd_720_1366_25fps.mp4", "size": 3568042}], "video_pictures": [{"id": 6873179, "nr": 0, "picture": "https://images.pexels.com/videos/7679831/pictures/preview-0.jpeg"}, {"id": 6873182, "nr": 1, "picture": "https://images.pexels.com/videos/7679831/pictures/preview-1.jpeg"}, {"id": 6873184, "nr": 2, "picture": "https://images.pexels.com/videos/7679831/pictures/preview-2.jpeg"}, {"id": 6873186, "nr": 3, "picture": "https://images.pexels.com/videos/7679831/pictures/preview-3.jpeg"}, {"id": 6873189, "nr": 4, "picture": "https://images.pexels.com/videos/7679831/pictures/preview-4.jpeg"}, {"id": 6873192, "nr": 5, "picture": "https://images.pexels.com/videos/7679831/pictures/preview-5.jpeg"}, {"id": 6873193, "nr": 6, "picture": "https://images.pexels.com/videos/7679831/pictures/preview-6.jpeg"}, {"id": 6873196, "nr": 7, "picture": "https://images.pexels.com/videos/7679831/pictures/preview-7.jpeg"}, {"id": 6873199, "nr": 8, "picture": "https://images.pexels.com/videos/7679831/pictures/preview-8.jpeg"}, {"id": 6873202, "nr": 9, "picture": "https://images.pexels.com/videos/7679831/pictures/preview-9.jpeg"}, {"id": 6873203, "nr": 10, "picture": "https://images.pexels.com/videos/7679831/pictures/preview-10.jpeg"}, {"id": 6873207, "nr": 11, "picture": "https://images.pexels.com/videos/7679831/pictures/preview-11.jpeg"}, {"id": 6873211, "nr": 12, "picture": "https://images.pexels.com/videos/7679831/pictures/preview-12.jpeg"}, {"id": 6873213, "nr": 13, "picture": "https://images.pexels.com/videos/7679831/pictures/preview-13.jpeg"}, {"id": 6873218, "nr": 14, "picture": "https://images.pexels.com/videos/7679831/pictures/preview-14.jpeg"}]}], "total_results": 115, "next_page": "https://api.pexels.com/v1/videos/search?orientation=portrait&page=2&per_page=8&query=2003+calendar", "url": "https://api-server.pexels.com/search/videos/2003%20calendar/"}, "timestamp": "2025-01-24T18:07:42.768866"}
