{"query": "long vine", "response": {"page": 1, "per_page": 8, "videos": [{"id": 6144277, "width": 2160, "height": 4096, "duration": 10, "full_res": null, "tags": [], "url": "https://www.pexels.com/video/combing-dark-hair-6144277/", "image": "https://images.pexels.com/videos/6144277/pexels-photo-6144277.jpeg?auto=compress&cs=tinysrgb&fit=crop&h=1200&w=630", "avg_color": null, "user": {"id": 1437723, "name": "cottonbro studio", "url": "https://www.pexels.com/@cottonbro"}, "video_files": [{"id": 9933809, "quality": "sd", "file_type": "video/mp4", "width": 226, "height": 426, "fps": 25.0, "link": "https://videos.pexels.com/video-files/6144277/6144277-sd_226_426_25fps.mp4", "size": 519062}, {"id": 9933915, "quality": "uhd", "file_type": "video/mp4", "width": 1440, "height": 2732, "fps": 25.0, "link": "https://videos.pexels.com/video-files/6144277/6144277-uhd_1440_2732_25fps.mp4", "size": 15928985}, {"id": 9933965, "quality": "hd", "file_type": "video/mp4", "width": 720, "height": 1366, "fps": 25.0, "link": "https://videos.pexels.com/video-files/6144277/6144277-hd_720_1366_25fps.mp4", "size": 3546862}, {"id": 9934026, "quality": "uhd", "file_type": "video/mp4", "width": 2160, "height": 4096, "fps": 25.0, "link": "https://videos.pexels.com/video-files/6144277/6144277-uhd_2160_4096_25fps.mp4", "size": 28985559}, {"id": 9934107, "quality": "sd", "file_type": "video/mp4", "width": 506, "height": 960, "fps": 25.0, "link": "https://videos.pexels.com/video-files/6144277/6144277-sd_506_960_25fps.mp4", "size": 2397628}, {"id": 9934164, "quality": "sd", "file_type": "video/mp4", "width": 338, "height": 640, "fps": 25.0, "link": "https://videos.pexels.com/video-files/6144277/6144277-sd_338_640_25fps.mp4", "size": 860673}, {"id": 9934221, "quality": "hd", "file_type": "video/mp4", "width": 1080, "height": 2048, "fps": 25.0, "link": "https://videos.pexels.com/video-files/6144277/6144277-hd_1080_2048_25fps.mp4", "size": 6791171}], "video_pictures": [{"id": 3955603, "nr": 0, "picture": "https://images.pexels.com/videos/6144277/pictures/preview-0.jpeg"}, {"id": 3955609, "nr": 1, "picture": "https://images.pexels.com/videos/6144277/pictures/preview-1.jpeg"}, {"id": 3955619, "nr": 2, "picture": "https://images.pexels.com/videos/6144277/pictures/preview-2.jpeg"}, {"id": 3955629, "nr": 3, "picture": "https://images.pexels.com/videos/6144277/pictures/preview-3.jpeg"}, {"id": 3955639, "nr": 4, "picture": "https://images.pexels.com/videos/6144277/pictures/preview-4.jpeg"}, {"id": 3955654, "nr": 5, "picture": "https://images.pexels.com/videos/6144277/pictures/preview-5.jpeg"}, {"id": 3955662, "nr": 6, "picture": "https://images.pexels.com/videos/6144277/pictures/preview-6.jpeg"}, {"id": 3955672, "nr": 7, "picture": "https://images.pexels.com/videos/6144277/pictures/preview-7.jpeg"}, {"id": 3955682, "nr": 8, "picture": "https://images.pexels.com/videos/6144277/pictures/preview-8.jpeg"}, {"id": 3955694, "nr": 9, "picture": "https://images.pexels.com/videos/6144277/pictures/preview-9.jpeg"}, {"id": 3955709, "nr": 10, "picture": "https://images.pexels.com/videos/6144277/pictures/preview-10.jpeg"}, {"id": 3955719, "nr": 11, "picture": "https://images.pexels.com/videos/6144277/pictures/preview-11.jpeg"}, {"id": 3955724, "nr": 12, "picture": "https://images.pexels.com/videos/6144277/pictures/preview-12.jpeg"}, {"id": 3955729, "nr": 13, "picture": "https://images.pexels.com/videos/6144277/pictures/preview-13.jpeg"}, {"id": 3955738, "nr": 14, "picture": "https://images.pexels.com/videos/6144277/pictures/preview-14.jpeg"}]}, {"id": 28368573, "width": 1080, "height": 1920, "duration": 9, "full_res": null, "tags": [], "url": "https://www.pexels.com/video/a-person-pouring-wine-into-a-glass-28368573/", "image": "https://images.pexels.com/videos/28368573/gourmet-snack-kabobs-saucer-serving-wine-28368573.jpeg?auto=compress&cs=tinysrgb&fit=crop&h=1200&w=630", "avg_color": null, "user": {"id": 2247381, "name": "Amar  Preciado", "url": "https://www.pexels.com/@amar"}, "video_files": [{"id": 12367950, "quality": null, "file_type": "video/mp4", "width": 360, "height": 640, "fps": 30.0, "link": "https://videos.pexels.com/video-files/28368573/12367950_360_640_30fps.mp4", "size": 996324}, {"id": 12367952, "quality": null, "file_type": "video/mp4", "width": 540, "height": 960, "fps": 30.0, "link": "https://videos.pexels.com/video-files/28368573/12367952_540_960_30fps.mp4", "size": 1900000}, {"id": 12367954, "quality": null, "file_type": "video/mp4", "width": 720, "height": 1280, "fps": 30.0, "link": "https://videos.pexels.com/video-files/28368573/12367954_720_1280_30fps.mp4", "size": 2997207}, {"id": 12367955, "quality": null, "file_type": "video/mp4", "width": 1080, "height": 1920, "fps": 30.0, "link": "https://videos.pexels.com/video-files/28368573/12367955_1080_1920_30fps.mp4", "size": 6417797}], "video_pictures": [{"id": 23020675, "nr": 0, "picture": "https://images.pexels.com/videos/28368573/pictures/preview-0.jpg"}, {"id": 23020676, "nr": 1, "picture": "https://images.pexels.com/videos/28368573/pictures/preview-1.jpg"}, {"id": 23020677, "nr": 2, "picture": "https://images.pexels.com/videos/28368573/pictures/preview-2.jpg"}, {"id": 23020678, "nr": 3, "picture": "https://images.pexels.com/videos/28368573/pictures/preview-3.jpg"}, {"id": 23020679, "nr": 4, "picture": "https://images.pexels.com/videos/28368573/pictures/preview-4.jpg"}, {"id": 23020680, "nr": 5, "picture": "https://images.pexels.com/videos/28368573/pictures/preview-5.jpg"}, {"id": 23020681, "nr": 6, "picture": "https://images.pexels.com/videos/28368573/pictures/preview-6.jpg"}, {"id": 23020682, "nr": 7, "picture": "https://images.pexels.com/videos/28368573/pictures/preview-7.jpg"}]}, {"id": 8516676, "width": 2160, "height": 3840, "duration": 9, "full_res": null, "tags": [], "url": "https://www.pexels.com/video/shadow-of-a-ponytail-palm-8516676/", "image": "https://images.pexels.com/videos/8516676/abstract-art-artistic-backdrop-8516676.jpeg?auto=compress&cs=tinysrgb&fit=crop&h=1200&w=630", "avg_color": null, "user": {"id": 10955896, "name": "Anna Nekrashevich", "url": "https://www.pexels.com/@anna-nekrashevich"}, "video_files": [{"id": 10872593, "quality": "sd", "file_type": "video/mp4", "width": 540, "height": 960, "fps": 30.0, "link": "https://videos.pexels.com/video-files/8516676/8516676-sd_540_960_30fps.mp4", "size": 1643572}, {"id": 10872612, "quality": "uhd", "file_type": "video/mp4", "width": 1440, "height": 2560, "fps": 30.0, "link": "https://videos.pexels.com/video-files/8516676/8516676-uhd_1440_2560_30fps.mp4", "size": 14672323}, {"id": 10872653, "quality": "sd", "file_type": "video/mp4", "width": 240, "height": 426, "fps": 30.0, "link": "https://videos.pexels.com/video-files/8516676/8516676-sd_240_426_30fps.mp4", "size": 175255}, {"id": 10872685, "quality": "sd", "file_type": "video/mp4", "width": 360, "height": 640, "fps": 30.0, "link": "https://videos.pexels.com/video-files/8516676/8516676-sd_360_640_30fps.mp4", "size": 528851}, {"id": 10872716, "quality": "hd", "file_type": "video/mp4", "width": 720, "height": 1280, "fps": 30.0, "link": "https://videos.pexels.com/video-files/8516676/8516676-hd_720_1280_30fps.mp4", "size": 2980086}, {"id": 10872783, "quality": "uhd", "file_type": "video/mp4", "width": 2160, "height": 3840, "fps": 30.0, "link": "https://videos.pexels.com/video-files/8516676/8516676-uhd_2160_3840_30fps.mp4", "size": 27019452}, {"id": 10872811, "quality": "hd", "file_type": "video/mp4", "width": 1080, "height": 1920, "fps": 30.0, "link": "https://videos.pexels.com/video-files/8516676/8516676-hd_1080_1920_30fps.mp4", "size": 5924448}], "video_pictures": [{"id": 8417565, "nr": 0, "picture": "https://images.pexels.com/videos/8516676/pictures/preview-0.jpeg"}, {"id": 8417578, "nr": 1, "picture": "https://images.pexels.com/videos/8516676/pictures/preview-1.jpeg"}, {"id": 8417590, "nr": 2, "picture": "https://images.pexels.com/videos/8516676/pictures/preview-2.jpeg"}, {"id": 8417609, "nr": 3, "picture": "https://images.pexels.com/videos/8516676/pictures/preview-3.jpeg"}, {"id": 8417621, "nr": 4, "picture": "https://images.pexels.com/videos/8516676/pictures/preview-4.jpeg"}, {"id": 8417642, "nr": 5, "picture": "https://images.pexels.com/videos/8516676/pictures/preview-5.jpeg"}, {"id": 8417664, "nr": 6, "picture": "https://images.pexels.com/videos/8516676/pictures/preview-6.jpeg"}, {"id": 8417675, "nr": 7, "picture": "https://images.pexels.com/videos/8516676/pictures/preview-7.jpeg"}, {"id": 8417687, "nr": 8, "picture": "https://images.pexels.com/videos/8516676/pictures/preview-8.jpeg"}, {"id": 8417704, "nr": 9, "picture": "https://images.pexels.com/videos/8516676/pictures/preview-9.jpeg"}, {"id": 8417719, "nr": 10, "picture": "https://images.pexels.com/videos/8516676/pictures/preview-10.jpeg"}, {"id": 8417735, "nr": 11, "picture": "https://images.pexels.com/videos/8516676/pictures/preview-11.jpeg"}, {"id": 8417753, "nr": 12, "picture": "https://images.pexels.com/videos/8516676/pictures/preview-12.jpeg"}, {"id": 8417762, "nr": 13, "picture": "https://images.pexels.com/videos/8516676/pictures/preview-13.jpeg"}, {"id": 8417772, "nr": 14, "picture": "https://images.pexels.com/videos/8516676/pictures/preview-14.jpeg"}]}, {"id": 5527337, "width": 2160, "height": 3840, "duration": 13, "full_res": null, "tags": [], "url": "https://www.pexels.com/video/close-up-footage-of-grapes-growing-in-the-vineyard-5527337/", "image": "https://images.pexels.com/videos/5527337/pexels-photo-5527337.jpeg?auto=compress&cs=tinysrgb&fit=crop&h=1200&w=630", "avg_color": null, "user": {"id": 3651179, "name": "Zen Chung", "url": "https://www.pexels.com/@zen-chung"}, "video_files": [{"id": 9719475, "quality": "hd", "file_type": "video/mp4", "width": 1080, "height": 1920, "fps": 23.97599983215332, "link": "https://videos.pexels.com/video-files/5527337/5527337-hd_1080_1920_24fps.mp4", "size": 7068306}, {"id": 9719521, "quality": "hd", "file_type": "video/mp4", "width": 720, "height": 1280, "fps": 23.97599983215332, "link": "https://videos.pexels.com/video-files/5527337/5527337-hd_720_1280_24fps.mp4", "size": 3565006}, {"id": 9719552, "quality": "uhd", "file_type": "video/mp4", "width": 2160, "height": 3840, "fps": 23.97599983215332, "link": "https://videos.pexels.com/video-files/5527337/5527337-uhd_2160_3840_24fps.mp4", "size": 26785624}, {"id": 9719618, "quality": "sd", "file_type": "video/mp4", "width": 240, "height": 426, "fps": 23.97599983215332, "link": "https://videos.pexels.com/video-files/5527337/5527337-sd_240_426_24fps.mp4", "size": 571147}, {"id": 9719667, "quality": "sd", "file_type": "video/mp4", "width": 360, "height": 640, "fps": 23.97599983215332, "link": "https://videos.pexels.com/video-files/5527337/5527337-sd_360_640_24fps.mp4", "size": 977558}, {"id": 9719698, "quality": "uhd", "file_type": "video/mp4", "width": 1440, "height": 2560, "fps": 23.97599983215332, "link": "https://videos.pexels.com/video-files/5527337/5527337-uhd_1440_2560_24fps.mp4", "size": 12361989}, {"id": 9719754, "quality": "sd", "file_type": "video/mp4", "width": 540, "height": 960, "fps": 23.97599983215332, "link": "https://videos.pexels.com/video-files/5527337/5527337-sd_540_960_24fps.mp4", "size": 2151517}], "video_pictures": [{"id": 2945351, "nr": 0, "picture": "https://images.pexels.com/videos/5527337/pictures/preview-0.jpeg"}, {"id": 2945359, "nr": 1, "picture": "https://images.pexels.com/videos/5527337/pictures/preview-1.jpeg"}, {"id": 2945371, "nr": 2, "picture": "https://images.pexels.com/videos/5527337/pictures/preview-2.jpeg"}, {"id": 2945388, "nr": 3, "picture": "https://images.pexels.com/videos/5527337/pictures/preview-3.jpeg"}, {"id": 2945409, "nr": 4, "picture": "https://images.pexels.com/videos/5527337/pictures/preview-4.jpeg"}, {"id": 2945424, "nr": 5, "picture": "https://images.pexels.com/videos/5527337/pictures/preview-5.jpeg"}, {"id": 2945438, "nr": 6, "picture": "https://images.pexels.com/videos/5527337/pictures/preview-6.jpeg"}, {"id": 2945458, "nr": 7, "picture": "https://images.pexels.com/videos/5527337/pictures/preview-7.jpeg"}, {"id": 2945479, "nr": 8, "picture": "https://images.pexels.com/videos/5527337/pictures/preview-8.jpeg"}, {"id": 2945494, "nr": 9, "picture": "https://images.pexels.com/videos/5527337/pictures/preview-9.jpeg"}, {"id": 2945513, "nr": 10, "picture": "https://images.pexels.com/videos/5527337/pictures/preview-10.jpeg"}, {"id": 2945526, "nr": 11, "picture": "https://images.pexels.com/videos/5527337/pictures/preview-11.jpeg"}, {"id": 2945544, "nr": 12, "picture": "https://images.pexels.com/videos/5527337/pictures/preview-12.jpeg"}, {"id": 2945561, "nr": 13, "picture": "https://images.pexels.com/videos/5527337/pictures/preview-13.jpeg"}, {"id": 2945593, "nr": 14, "picture": "https://images.pexels.com/videos/5527337/pictures/preview-14.jpeg"}]}, {"id": 7895815, "width": 1080, "height": 1920, "duration": 5, "full_res": null, "tags": [], "url": "https://www.pexels.com/video/a-car-travelling-on-a-long-road-7895815/", "image": "https://images.pexels.com/videos/7895815/adventure-asphalt-background-blue-sky-7895815.jpeg?auto=compress&cs=tinysrgb&fit=crop&h=1200&w=630", "avg_color": null, "user": {"id": 3149039, "name": "RDNE Stock project", "url": "https://www.pexels.com/@rdne"}, "video_files": [{"id": 10612971, "quality": "sd", "file_type": "video/mp4", "width": 540, "height": 960, "fps": 30.0, "link": "https://videos.pexels.com/video-files/7895815/7895815-sd_540_960_30fps.mp4", "size": 799114}, {"id": 10613006, "quality": "hd", "file_type": "video/mp4", "width": 720, "height": 1280, "fps": 30.0, "link": "https://videos.pexels.com/video-files/7895815/7895815-hd_720_1280_30fps.mp4", "size": 1442056}, {"id": 10613039, "quality": "sd", "file_type": "video/mp4", "width": 240, "height": 426, "fps": 30.0, "link": "https://videos.pexels.com/video-files/7895815/7895815-sd_240_426_30fps.mp4", "size": 209337}, {"id": 10613074, "quality": "sd", "file_type": "video/mp4", "width": 360, "height": 640, "fps": 30.0, "link": "https://videos.pexels.com/video-files/7895815/7895815-sd_360_640_30fps.mp4", "size": 271735}, {"id": 10613116, "quality": "hd", "file_type": "video/mp4", "width": 1080, "height": 1920, "fps": 30.0, "link": "https://videos.pexels.com/video-files/7895815/7895815-hd_1080_1920_30fps.mp4", "size": 2865668}], "video_pictures": [{"id": 7236726, "nr": 0, "picture": "https://images.pexels.com/videos/7895815/pictures/preview-0.jpeg"}, {"id": 7236728, "nr": 1, "picture": "https://images.pexels.com/videos/7895815/pictures/preview-1.jpeg"}, {"id": 7236734, "nr": 2, "picture": "https://images.pexels.com/videos/7895815/pictures/preview-2.jpeg"}, {"id": 7236738, "nr": 3, "picture": "https://images.pexels.com/videos/7895815/pictures/preview-3.jpeg"}, {"id": 7236743, "nr": 4, "picture": "https://images.pexels.com/videos/7895815/pictures/preview-4.jpeg"}, {"id": 7236749, "nr": 5, "picture": "https://images.pexels.com/videos/7895815/pictures/preview-5.jpeg"}, {"id": 7236752, "nr": 6, "picture": "https://images.pexels.com/videos/7895815/pictures/preview-6.jpeg"}, {"id": 7236761, "nr": 7, "picture": "https://images.pexels.com/videos/7895815/pictures/preview-7.jpeg"}, {"id": 7236772, "nr": 8, "picture": "https://images.pexels.com/videos/7895815/pictures/preview-8.jpeg"}, {"id": 7236792, "nr": 9, "picture": "https://images.pexels.com/videos/7895815/pictures/preview-9.jpeg"}, {"id": 7236807, "nr": 10, "picture": "https://images.pexels.com/videos/7895815/pictures/preview-10.jpeg"}, {"id": 7236841, "nr": 11, "picture": "https://images.pexels.com/videos/7895815/pictures/preview-11.jpeg"}, {"id": 7236858, "nr": 12, "picture": "https://images.pexels.com/videos/7895815/pictures/preview-12.jpeg"}, {"id": 7236879, "nr": 13, "picture": "https://images.pexels.com/videos/7895815/pictures/preview-13.jpeg"}, {"id": 7236893, "nr": 14, "picture": "https://images.pexels.com/videos/7895815/pictures/preview-14.jpeg"}]}, {"id": 6666665, "width": 2363, "height": 4096, "duration": 8, "full_res": null, "tags": [], "url": "https://www.pexels.com/video/video-of-orange-leaves-with-shadows-6666665/", "image": "https://images.pexels.com/videos/6666665/pexels-photo-6666665.jpeg?auto=compress&cs=tinysrgb&fit=crop&h=1200&w=630", "avg_color": null, "user": {"id": 2678846, "name": "ROMAN ODINTSOV", "url": "https://www.pexels.com/@roman-odintsov"}, "video_files": [{"id": 10130895, "quality": "uhd", "file_type": "video/mp4", "width": 1440, "height": 2496, "fps": 29.969999313354492, "link": "https://videos.pexels.com/video-files/6666665/6666665-uhd_1440_2496_30fps.mp4", "size": 12809229}, {"id": 10130917, "quality": "sd", "file_type": "video/mp4", "width": 540, "height": 936, "fps": 29.969999313354492, "link": "https://videos.pexels.com/video-files/6666665/6666665-sd_540_936_30fps.mp4", "size": 1778340}, {"id": 10130935, "quality": "hd", "file_type": "video/mp4", "width": 1080, "height": 1872, "fps": 29.969999313354492, "link": "https://videos.pexels.com/video-files/6666665/6666665-hd_1080_1872_30fps.mp4", "size": 5428974}, {"id": 10130980, "quality": "hd", "file_type": "video/mp4", "width": 720, "height": 1248, "fps": 29.969999313354492, "link": "https://videos.pexels.com/video-files/6666665/6666665-hd_720_1248_30fps.mp4", "size": 2848462}, {"id": 10131025, "quality": "sd", "file_type": "video/mp4", "width": 240, "height": 416, "fps": 29.969999313354492, "link": "https://videos.pexels.com/video-files/6666665/6666665-sd_240_416_30fps.mp4", "size": 378326}, {"id": 10131056, "quality": "uhd", "file_type": "video/mp4", "width": 2160, "height": 3744, "fps": 29.969999313354492, "link": "https://videos.pexels.com/video-files/6666665/6666665-uhd_2160_3744_30fps.mp4", "size": 23812155}, {"id": 10131089, "quality": "sd", "file_type": "video/mp4", "width": 360, "height": 624, "fps": 29.969999313354492, "link": "https://videos.pexels.com/video-files/6666665/6666665-sd_360_624_30fps.mp4", "size": 636435}], "video_pictures": [{"id": 4895996, "nr": 0, "picture": "https://images.pexels.com/videos/6666665/pictures/preview-0.jpeg"}, {"id": 4896009, "nr": 1, "picture": "https://images.pexels.com/videos/6666665/pictures/preview-1.jpeg"}, {"id": 4896020, "nr": 2, "picture": "https://images.pexels.com/videos/6666665/pictures/preview-2.jpeg"}, {"id": 4896035, "nr": 3, "picture": "https://images.pexels.com/videos/6666665/pictures/preview-3.jpeg"}, {"id": 4896047, "nr": 4, "picture": "https://images.pexels.com/videos/6666665/pictures/preview-4.jpeg"}, {"id": 4896065, "nr": 5, "picture": "https://images.pexels.com/videos/6666665/pictures/preview-5.jpeg"}, {"id": 4896080, "nr": 6, "picture": "https://images.pexels.com/videos/6666665/pictures/preview-6.jpeg"}, {"id": 4896092, "nr": 7, "picture": "https://images.pexels.com/videos/6666665/pictures/preview-7.jpeg"}, {"id": 4896100, "nr": 8, "picture": "https://images.pexels.com/videos/6666665/pictures/preview-8.jpeg"}, {"id": 4896109, "nr": 9, "picture": "https://images.pexels.com/videos/6666665/pictures/preview-9.jpeg"}, {"id": 4896122, "nr": 10, "picture": "https://images.pexels.com/videos/6666665/pictures/preview-10.jpeg"}, {"id": 4896133, "nr": 11, "picture": "https://images.pexels.com/videos/6666665/pictures/preview-11.jpeg"}, {"id": 4896140, "nr": 12, "picture": "https://images.pexels.com/videos/6666665/pictures/preview-12.jpeg"}, {"id": 4896154, "nr": 13, "picture": "https://images.pexels.com/videos/6666665/pictures/preview-13.jpeg"}, {"id": 4896166, "nr": 14, "picture": "https://images.pexels.com/videos/6666665/pictures/preview-14.jpeg"}]}, {"id": 5352609, "width": 1080, "height": 1920, "duration": 14, "full_res": null, "tags": [], "url": "https://www.pexels.com/video/a-beautiful-flowering-vine-5352609/", "image": "https://images.pexels.com/videos/5352609/background-beautiful-blossom-color-5352609.jpeg?auto=compress&cs=tinysrgb&fit=crop&h=1200&w=630", "avg_color": null, "user": {"id": 2906295, "name": "Nataliya Vaitkevich", "url": "https://www.pexels.com/@n-voitkevich"}, "video_files": [{"id": 9674078, "quality": "sd", "file_type": "video/mp4", "width": 240, "height": 426, "fps": 25.0, "link": "https://videos.pexels.com/video-files/5352609/5352609-sd_240_426_25fps.mp4", "size": 593653}, {"id": 9674183, "quality": "hd", "file_type": "video/mp4", "width": 1080, "height": 1920, "fps": 25.0, "link": "https://videos.pexels.com/video-files/5352609/5352609-hd_1080_1920_25fps.mp4", "size": 10026701}, {"id": 9674318, "quality": "sd", "file_type": "video/mp4", "width": 360, "height": 640, "fps": 25.0, "link": "https://videos.pexels.com/video-files/5352609/5352609-sd_360_640_25fps.mp4", "size": 959637}, {"id": 9674394, "quality": "hd", "file_type": "video/mp4", "width": 720, "height": 1280, "fps": 25.0, "link": "https://videos.pexels.com/video-files/5352609/5352609-hd_720_1280_25fps.mp4", "size": 5022446}, {"id": 9674416, "quality": "sd", "file_type": "video/mp4", "width": 540, "height": 960, "fps": 25.0, "link": "https://videos.pexels.com/video-files/5352609/5352609-sd_540_960_25fps.mp4", "size": 2894919}], "video_pictures": [{"id": 2684085, "nr": 0, "picture": "https://images.pexels.com/videos/5352609/pictures/preview-0.jpeg"}, {"id": 2684089, "nr": 1, "picture": "https://images.pexels.com/videos/5352609/pictures/preview-1.jpeg"}, {"id": 2684094, "nr": 2, "picture": "https://images.pexels.com/videos/5352609/pictures/preview-2.jpeg"}, {"id": 2684098, "nr": 3, "picture": "https://images.pexels.com/videos/5352609/pictures/preview-3.jpeg"}, {"id": 2684103, "nr": 4, "picture": "https://images.pexels.com/videos/5352609/pictures/preview-4.jpeg"}, {"id": 2684107, "nr": 5, "picture": "https://images.pexels.com/videos/5352609/pictures/preview-5.jpeg"}, {"id": 2684111, "nr": 6, "picture": "https://images.pexels.com/videos/5352609/pictures/preview-6.jpeg"}, {"id": 2684115, "nr": 7, "picture": "https://images.pexels.com/videos/5352609/pictures/preview-7.jpeg"}, {"id": 2684119, "nr": 8, "picture": "https://images.pexels.com/videos/5352609/pictures/preview-8.jpeg"}, {"id": 2684123, "nr": 9, "picture": "https://images.pexels.com/videos/5352609/pictures/preview-9.jpeg"}, {"id": 2684127, "nr": 10, "picture": "https://images.pexels.com/videos/5352609/pictures/preview-10.jpeg"}, {"id": 2684131, "nr": 11, "picture": "https://images.pexels.com/videos/5352609/pictures/preview-11.jpeg"}, {"id": 2684135, "nr": 12, "picture": "https://images.pexels.com/videos/5352609/pictures/preview-12.jpeg"}, {"id": 2684139, "nr": 13, "picture": "https://images.pexels.com/videos/5352609/pictures/preview-13.jpeg"}, {"id": 2684141, "nr": 14, "picture": "https://images.pexels.com/videos/5352609/pictures/preview-14.jpeg"}]}, {"id": 7213754, "width": 2160, "height": 3840, "duration": 15, "full_res": null, "tags": [], "url": "https://www.pexels.com/video/person-holding-a-bunch-of-grapes-7213754/", "image": "https://images.pexels.com/videos/7213754/pexels-photo-7213754.jpeg?auto=compress&cs=tinysrgb&fit=crop&h=1200&w=630", "avg_color": null, "user": {"id": 10955896, "name": "Anna Nekrashevich", "url": "https://www.pexels.com/@anna-nekrashevich"}, "video_files": [{"id": 10347013, "quality": "hd", "file_type": "video/mp4", "width": 1080, "height": 1920, "fps": 30.0, "link": "https://videos.pexels.com/video-files/7213754/7213754-hd_1080_1920_30fps.mp4", "size": 5047812}, {"id": 10347058, "quality": "sd", "file_type": "video/mp4", "width": 240, "height": 426, "fps": 30.0, "link": "https://videos.pexels.com/video-files/7213754/7213754-sd_240_426_30fps.mp4", "size": 444345}, {"id": 10347104, "quality": "uhd", "file_type": "video/mp4", "width": 2160, "height": 3840, "fps": 30.0, "link": "https://videos.pexels.com/video-files/7213754/7213754-uhd_2160_3840_30fps.mp4", "size": 21411059}, {"id": 10347123, "quality": "uhd", "file_type": "video/mp4", "width": 1440, "height": 2560, "fps": 30.0, "link": "https://videos.pexels.com/video-files/7213754/7213754-uhd_1440_2560_30fps.mp4", "size": 8502165}, {"id": 10347150, "quality": "sd", "file_type": "video/mp4", "width": 540, "height": 960, "fps": 30.0, "link": "https://videos.pexels.com/video-files/7213754/7213754-sd_540_960_30fps.mp4", "size": 1575107}, {"id": 10347167, "quality": "sd", "file_type": "video/mp4", "width": 360, "height": 640, "fps": 30.0, "link": "https://videos.pexels.com/video-files/7213754/7213754-sd_360_640_30fps.mp4", "size": 786899}, {"id": 10347192, "quality": "hd", "file_type": "video/mp4", "width": 720, "height": 1280, "fps": 30.0, "link": "https://videos.pexels.com/video-files/7213754/7213754-hd_720_1280_30fps.mp4", "size": 2425888}], "video_pictures": [{"id": 5970939, "nr": 0, "picture": "https://images.pexels.com/videos/7213754/pictures/preview-0.jpeg"}, {"id": 5970947, "nr": 1, "picture": "https://images.pexels.com/videos/7213754/pictures/preview-1.jpeg"}, {"id": 5970958, "nr": 2, "picture": "https://images.pexels.com/videos/7213754/pictures/preview-2.jpeg"}, {"id": 5970970, "nr": 3, "picture": "https://images.pexels.com/videos/7213754/pictures/preview-3.jpeg"}, {"id": 5970983, "nr": 4, "picture": "https://images.pexels.com/videos/7213754/pictures/preview-4.jpeg"}, {"id": 5970995, "nr": 5, "picture": "https://images.pexels.com/videos/7213754/pictures/preview-5.jpeg"}, {"id": 5971008, "nr": 6, "picture": "https://images.pexels.com/videos/7213754/pictures/preview-6.jpeg"}, {"id": 5971023, "nr": 7, "picture": "https://images.pexels.com/videos/7213754/pictures/preview-7.jpeg"}, {"id": 5971032, "nr": 8, "picture": "https://images.pexels.com/videos/7213754/pictures/preview-8.jpeg"}, {"id": 5971043, "nr": 9, "picture": "https://images.pexels.com/videos/7213754/pictures/preview-9.jpeg"}, {"id": 5971053, "nr": 10, "picture": "https://images.pexels.com/videos/7213754/pictures/preview-10.jpeg"}, {"id": 5971060, "nr": 11, "picture": "https://images.pexels.com/videos/7213754/pictures/preview-11.jpeg"}, {"id": 5971067, "nr": 12, "picture": "https://images.pexels.com/videos/7213754/pictures/preview-12.jpeg"}, {"id": 5971075, "nr": 13, "picture": "https://images.pexels.com/videos/7213754/pictures/preview-13.jpeg"}, {"id": 5971081, "nr": 14, "picture": "https://images.pexels.com/videos/7213754/pictures/preview-14.jpeg"}]}], "total_results": 4177, "next_page": "https://api.pexels.com/v1/videos/search?orientation=portrait&page=2&per_page=8&query=long+vine", "url": "https://api-server.pexels.com/search/videos/long%20vine/"}, "timestamp": "2025-02-10T17:23:40.884256"}
