{"query": "turnip patch", "response": {"page": 1, "per_page": 8, "videos": [{"id": 5678999, "width": 2160, "height": 4096, "duration": 28, "full_res": null, "tags": [], "url": "https://www.pexels.com/video/a-witch-walking-towards-a-house-5678999/", "image": "https://images.pexels.com/videos/5678999/pexels-photo-5678999.jpeg?auto=compress&cs=tinysrgb&fit=crop&h=1200&w=630", "avg_color": null, "user": {"id": 3372733, "name": "Monstera Production", "url": "https://www.pexels.com/@gabby-k"}, "video_files": [{"id": 9766697, "quality": "hd", "file_type": "video/mp4", "width": 1080, "height": 2048, "fps": 30.0, "link": "https://videos.pexels.com/video-files/5678999/5678999-hd_1080_2048_30fps.mp4", "size": 17297210}, {"id": 9766771, "quality": "uhd", "file_type": "video/mp4", "width": 2160, "height": 4096, "fps": 30.0, "link": "https://videos.pexels.com/video-files/5678999/5678999-uhd_2160_4096_30fps.mp4", "size": 77527713}, {"id": 9766918, "quality": "sd", "file_type": "video/mp4", "width": 226, "height": 426, "fps": 30.0, "link": "https://videos.pexels.com/video-files/5678999/5678999-sd_226_426_30fps.mp4", "size": 1078274}, {"id": 9767038, "quality": "sd", "file_type": "video/mp4", "width": 506, "height": 960, "fps": 30.0, "link": "https://videos.pexels.com/video-files/5678999/5678999-sd_506_960_30fps.mp4", "size": 4658534}, {"id": 9767144, "quality": "sd", "file_type": "video/mp4", "width": 338, "height": 640, "fps": 30.0, "link": "https://videos.pexels.com/video-files/5678999/5678999-sd_338_640_30fps.mp4", "size": 1668572}, {"id": 9767198, "quality": "hd", "file_type": "video/mp4", "width": 720, "height": 1366, "fps": 30.0, "link": "https://videos.pexels.com/video-files/5678999/5678999-hd_720_1366_30fps.mp4", "size": 9124249}, {"id": 9767291, "quality": "uhd", "file_type": "video/mp4", "width": 1440, "height": 2732, "fps": 30.0, "link": "https://videos.pexels.com/video-files/5678999/5678999-uhd_1440_2732_30fps.mp4", "size": 41935214}], "video_pictures": [{"id": 3186930, "nr": 0, "picture": "https://images.pexels.com/videos/5678999/pictures/preview-0.jpeg"}, {"id": 3186937, "nr": 1, "picture": "https://images.pexels.com/videos/5678999/pictures/preview-1.jpeg"}, {"id": 3186953, "nr": 2, "picture": "https://images.pexels.com/videos/5678999/pictures/preview-2.jpeg"}, {"id": 3186966, "nr": 3, "picture": "https://images.pexels.com/videos/5678999/pictures/preview-3.jpeg"}, {"id": 3186992, "nr": 4, "picture": "https://images.pexels.com/videos/5678999/pictures/preview-4.jpeg"}, {"id": 3187014, "nr": 5, "picture": "https://images.pexels.com/videos/5678999/pictures/preview-5.jpeg"}, {"id": 3187035, "nr": 6, "picture": "https://images.pexels.com/videos/5678999/pictures/preview-6.jpeg"}, {"id": 3187055, "nr": 7, "picture": "https://images.pexels.com/videos/5678999/pictures/preview-7.jpeg"}, {"id": 3187075, "nr": 8, "picture": "https://images.pexels.com/videos/5678999/pictures/preview-8.jpeg"}, {"id": 3187097, "nr": 9, "picture": "https://images.pexels.com/videos/5678999/pictures/preview-9.jpeg"}, {"id": 3187116, "nr": 10, "picture": "https://images.pexels.com/videos/5678999/pictures/preview-10.jpeg"}, {"id": 3187139, "nr": 11, "picture": "https://images.pexels.com/videos/5678999/pictures/preview-11.jpeg"}, {"id": 3187155, "nr": 12, "picture": "https://images.pexels.com/videos/5678999/pictures/preview-12.jpeg"}, {"id": 3187171, "nr": 13, "picture": "https://images.pexels.com/videos/5678999/pictures/preview-13.jpeg"}, {"id": 3187193, "nr": 14, "picture": "https://images.pexels.com/videos/5678999/pictures/preview-14.jpeg"}]}, {"id": 7579682, "width": 1080, "height": 1920, "duration": 8, "full_res": null, "tags": [], "url": "https://www.pexels.com/video/a-girl-looking-at-the-camera-7579682/", "image": "https://images.pexels.com/videos/7579682/pexels-photo-7579682.jpeg?auto=compress&cs=tinysrgb&fit=crop&h=1200&w=630", "avg_color": null, "user": {"id": 2297095, "name": "Pavel Danilyuk", "url": "https://www.pexels.com/@pavel-danilyuk"}, "video_files": [{"id": 10483973, "quality": "sd", "file_type": "video/mp4", "width": 360, "height": 640, "fps": 25.0, "link": "https://videos.pexels.com/video-files/7579682/7579682-sd_360_640_25fps.mp4", "size": 463374}, {"id": 10484038, "quality": "hd", "file_type": "video/mp4", "width": 1080, "height": 1920, "fps": 25.0, "link": "https://videos.pexels.com/video-files/7579682/7579682-hd_1080_1920_25fps.mp4", "size": 4605798}, {"id": 10484088, "quality": "sd", "file_type": "video/mp4", "width": 540, "height": 960, "fps": 25.0, "link": "https://videos.pexels.com/video-files/7579682/7579682-sd_540_960_25fps.mp4", "size": 1379688}, {"id": 10484155, "quality": "hd", "file_type": "video/mp4", "width": 720, "height": 1280, "fps": 25.0, "link": "https://videos.pexels.com/video-files/7579682/7579682-hd_720_1280_25fps.mp4", "size": 2327672}, {"id": 10484178, "quality": "sd", "file_type": "video/mp4", "width": 240, "height": 426, "fps": 25.0, "link": "https://videos.pexels.com/video-files/7579682/7579682-sd_240_426_25fps.mp4", "size": 139988}], "video_pictures": [{"id": 6662308, "nr": 0, "picture": "https://images.pexels.com/videos/7579682/pictures/preview-0.jpeg"}, {"id": 6662314, "nr": 1, "picture": "https://images.pexels.com/videos/7579682/pictures/preview-1.jpeg"}, {"id": 6662318, "nr": 2, "picture": "https://images.pexels.com/videos/7579682/pictures/preview-2.jpeg"}, {"id": 6662324, "nr": 3, "picture": "https://images.pexels.com/videos/7579682/pictures/preview-3.jpeg"}, {"id": 6662327, "nr": 4, "picture": "https://images.pexels.com/videos/7579682/pictures/preview-4.jpeg"}, {"id": 6662332, "nr": 5, "picture": "https://images.pexels.com/videos/7579682/pictures/preview-5.jpeg"}, {"id": 6662336, "nr": 6, "picture": "https://images.pexels.com/videos/7579682/pictures/preview-6.jpeg"}, {"id": 6662340, "nr": 7, "picture": "https://images.pexels.com/videos/7579682/pictures/preview-7.jpeg"}, {"id": 6662344, "nr": 8, "picture": "https://images.pexels.com/videos/7579682/pictures/preview-8.jpeg"}, {"id": 6662349, "nr": 9, "picture": "https://images.pexels.com/videos/7579682/pictures/preview-9.jpeg"}, {"id": 6662355, "nr": 10, "picture": "https://images.pexels.com/videos/7579682/pictures/preview-10.jpeg"}, {"id": 6662359, "nr": 11, "picture": "https://images.pexels.com/videos/7579682/pictures/preview-11.jpeg"}, {"id": 6662364, "nr": 12, "picture": "https://images.pexels.com/videos/7579682/pictures/preview-12.jpeg"}, {"id": 6662371, "nr": 13, "picture": "https://images.pexels.com/videos/7579682/pictures/preview-13.jpeg"}, {"id": 6662384, "nr": 14, "picture": "https://images.pexels.com/videos/7579682/pictures/preview-14.jpeg"}]}, {"id": 6707746, "width": 1080, "height": 1920, "duration": 18, "full_res": null, "tags": [], "url": "https://www.pexels.com/video/a-young-woman-wearing-a-facial-patch-6707746/", "image": "https://images.pexels.com/videos/6707746/african-african-american-afro-american-6707746.jpeg?auto=compress&cs=tinysrgb&fit=crop&h=1200&w=630", "avg_color": null, "user": {"id": 11437196, "name": "Mikhail Nilov", "url": "https://www.pexels.com/@mikhail-nilov"}, "video_files": [{"id": 10150939, "quality": "hd", "file_type": "video/mp4", "width": 1080, "height": 1920, "fps": 25.0, "link": "https://videos.pexels.com/video-files/6707746/6707746-hd_1080_1920_25fps.mp4", "size": 7989248}, {"id": 10151057, "quality": "sd", "file_type": "video/mp4", "width": 360, "height": 640, "fps": 25.0, "link": "https://videos.pexels.com/video-files/6707746/6707746-sd_360_640_25fps.mp4", "size": 761511}, {"id": 10151111, "quality": "hd", "file_type": "video/mp4", "width": 720, "height": 1280, "fps": 25.0, "link": "https://videos.pexels.com/video-files/6707746/6707746-hd_720_1280_25fps.mp4", "size": 2987672}, {"id": 10151171, "quality": "sd", "file_type": "video/mp4", "width": 540, "height": 960, "fps": 25.0, "link": "https://videos.pexels.com/video-files/6707746/6707746-sd_540_960_25fps.mp4", "size": 1668704}, {"id": 10151216, "quality": "sd", "file_type": "video/mp4", "width": 240, "height": 426, "fps": 25.0, "link": "https://videos.pexels.com/video-files/6707746/6707746-sd_240_426_25fps.mp4", "size": 423817}], "video_pictures": [{"id": 4974334, "nr": 0, "picture": "https://images.pexels.com/videos/6707746/pictures/preview-0.jpeg"}, {"id": 4974336, "nr": 1, "picture": "https://images.pexels.com/videos/6707746/pictures/preview-1.jpeg"}, {"id": 4974338, "nr": 2, "picture": "https://images.pexels.com/videos/6707746/pictures/preview-2.jpeg"}, {"id": 4974340, "nr": 3, "picture": "https://images.pexels.com/videos/6707746/pictures/preview-3.jpeg"}, {"id": 4974342, "nr": 4, "picture": "https://images.pexels.com/videos/6707746/pictures/preview-4.jpeg"}, {"id": 4974343, "nr": 5, "picture": "https://images.pexels.com/videos/6707746/pictures/preview-5.jpeg"}, {"id": 4974345, "nr": 6, "picture": "https://images.pexels.com/videos/6707746/pictures/preview-6.jpeg"}, {"id": 4974346, "nr": 7, "picture": "https://images.pexels.com/videos/6707746/pictures/preview-7.jpeg"}, {"id": 4974348, "nr": 8, "picture": "https://images.pexels.com/videos/6707746/pictures/preview-8.jpeg"}, {"id": 4974349, "nr": 9, "picture": "https://images.pexels.com/videos/6707746/pictures/preview-9.jpeg"}, {"id": 4974351, "nr": 10, "picture": "https://images.pexels.com/videos/6707746/pictures/preview-10.jpeg"}, {"id": 4974357, "nr": 11, "picture": "https://images.pexels.com/videos/6707746/pictures/preview-11.jpeg"}, {"id": 4974361, "nr": 12, "picture": "https://images.pexels.com/videos/6707746/pictures/preview-12.jpeg"}, {"id": 4974363, "nr": 13, "picture": "https://images.pexels.com/videos/6707746/pictures/preview-13.jpeg"}, {"id": 4974366, "nr": 14, "picture": "https://images.pexels.com/videos/6707746/pictures/preview-14.jpeg"}]}, {"id": 6446013, "width": 1080, "height": 1920, "duration": 16, "full_res": null, "tags": [], "url": "https://www.pexels.com/video/woman-appling-eye-mask-6446013/", "image": "https://images.pexels.com/videos/6446013/afro-bright-room-cosmetic-roller-cream-6446013.jpeg?auto=compress&cs=tinysrgb&fit=crop&h=1200&w=630", "avg_color": null, "user": {"id": 2297095, "name": "Pavel Danilyuk", "url": "https://www.pexels.com/@pavel-danilyuk"}, "video_files": [{"id": 10041487, "quality": "sd", "file_type": "video/mp4", "width": 240, "height": 426, "fps": 25.0, "link": "https://videos.pexels.com/video-files/6446013/6446013-sd_240_426_25fps.mp4", "size": 506839}, {"id": 10041547, "quality": "sd", "file_type": "video/mp4", "width": 360, "height": 640, "fps": 25.0, "link": "https://videos.pexels.com/video-files/6446013/6446013-sd_360_640_25fps.mp4", "size": 915896}, {"id": 10041642, "quality": "hd", "file_type": "video/mp4", "width": 720, "height": 1280, "fps": 25.0, "link": "https://videos.pexels.com/video-files/6446013/6446013-hd_720_1280_25fps.mp4", "size": 2865925}, {"id": 10041657, "quality": "hd", "file_type": "video/mp4", "width": 1080, "height": 1920, "fps": 25.0, "link": "https://videos.pexels.com/video-files/6446013/6446013-hd_1080_1920_25fps.mp4", "size": 7325394}, {"id": 10041712, "quality": "sd", "file_type": "video/mp4", "width": 540, "height": 960, "fps": 25.0, "link": "https://videos.pexels.com/video-files/6446013/6446013-sd_540_960_25fps.mp4", "size": 1724585}], "video_pictures": [{"id": 4459184, "nr": 0, "picture": "https://images.pexels.com/videos/6446013/pictures/preview-0.jpeg"}, {"id": 4459193, "nr": 1, "picture": "https://images.pexels.com/videos/6446013/pictures/preview-1.jpeg"}, {"id": 4459198, "nr": 2, "picture": "https://images.pexels.com/videos/6446013/pictures/preview-2.jpeg"}, {"id": 4459206, "nr": 3, "picture": "https://images.pexels.com/videos/6446013/pictures/preview-3.jpeg"}, {"id": 4459212, "nr": 4, "picture": "https://images.pexels.com/videos/6446013/pictures/preview-4.jpeg"}, {"id": 4459218, "nr": 5, "picture": "https://images.pexels.com/videos/6446013/pictures/preview-5.jpeg"}, {"id": 4459228, "nr": 6, "picture": "https://images.pexels.com/videos/6446013/pictures/preview-6.jpeg"}, {"id": 4459235, "nr": 7, "picture": "https://images.pexels.com/videos/6446013/pictures/preview-7.jpeg"}, {"id": 4459243, "nr": 8, "picture": "https://images.pexels.com/videos/6446013/pictures/preview-8.jpeg"}, {"id": 4459253, "nr": 9, "picture": "https://images.pexels.com/videos/6446013/pictures/preview-9.jpeg"}, {"id": 4459264, "nr": 10, "picture": "https://images.pexels.com/videos/6446013/pictures/preview-10.jpeg"}, {"id": 4459273, "nr": 11, "picture": "https://images.pexels.com/videos/6446013/pictures/preview-11.jpeg"}, {"id": 4459283, "nr": 12, "picture": "https://images.pexels.com/videos/6446013/pictures/preview-12.jpeg"}, {"id": 4459294, "nr": 13, "picture": "https://images.pexels.com/videos/6446013/pictures/preview-13.jpeg"}, {"id": 4459303, "nr": 14, "picture": "https://images.pexels.com/videos/6446013/pictures/preview-14.jpeg"}]}, {"id": 9255221, "width": 2160, "height": 4096, "duration": 69, "full_res": null, "tags": [], "url": "https://www.pexels.com/video/a-young-man-putting-adhesive-bandages-on-his-face-9255221/", "image": "https://images.pexels.com/videos/9255221/acne-bodypositive-conceptual-diversity-9255221.jpeg?auto=compress&cs=tinysrgb&fit=crop&h=1200&w=630", "avg_color": null, "user": {"id": 22992178, "name": "Ron Lach", "url": "https://www.pexels.com/@ron-lach"}, "video_files": [{"id": 11082989, "quality": "sd", "file_type": "video/mp4", "width": 506, "height": 960, "fps": 25.0, "link": "https://videos.pexels.com/video-files/9255221/9255221-sd_506_960_25fps.mp4", "size": 6999705}, {"id": 11083031, "quality": "sd", "file_type": "video/mp4", "width": 338, "height": 640, "fps": 25.0, "link": "https://videos.pexels.com/video-files/9255221/9255221-sd_338_640_25fps.mp4", "size": 3462622}, {"id": 11083047, "quality": "uhd", "file_type": "video/mp4", "width": 1440, "height": 2732, "fps": 25.0, "link": "https://videos.pexels.com/video-files/9255221/9255221-uhd_1440_2732_25fps.mp4", "size": 52408761}, {"id": 11083076, "quality": "sd", "file_type": "video/mp4", "width": 226, "height": 426, "fps": 25.0, "link": "https://videos.pexels.com/video-files/9255221/9255221-sd_226_426_25fps.mp4", "size": 2600155}, {"id": 11083097, "quality": "uhd", "file_type": "video/mp4", "width": 2160, "height": 4096, "fps": 25.0, "link": "https://videos.pexels.com/video-files/9255221/9255221-uhd_2160_4096_25fps.mp4", "size": 117485654}, {"id": 11083140, "quality": "hd", "file_type": "video/mp4", "width": 1080, "height": 2048, "fps": 25.0, "link": "https://videos.pexels.com/video-files/9255221/9255221-hd_1080_2048_25fps.mp4", "size": 28454215}, {"id": 11083195, "quality": "hd", "file_type": "video/mp4", "width": 720, "height": 1366, "fps": 25.0, "link": "https://videos.pexels.com/video-files/9255221/9255221-hd_720_1366_25fps.mp4", "size": 13488063}], "video_pictures": [{"id": 9480819, "nr": 0, "picture": "https://images.pexels.com/videos/9255221/pictures/preview-0.jpeg"}, {"id": 9480860, "nr": 1, "picture": "https://images.pexels.com/videos/9255221/pictures/preview-1.jpeg"}, {"id": 9480922, "nr": 2, "picture": "https://images.pexels.com/videos/9255221/pictures/preview-2.jpeg"}, {"id": 9480970, "nr": 3, "picture": "https://images.pexels.com/videos/9255221/pictures/preview-3.jpeg"}, {"id": 9481038, "nr": 4, "picture": "https://images.pexels.com/videos/9255221/pictures/preview-4.jpeg"}, {"id": 9481085, "nr": 5, "picture": "https://images.pexels.com/videos/9255221/pictures/preview-5.jpeg"}, {"id": 9481134, "nr": 6, "picture": "https://images.pexels.com/videos/9255221/pictures/preview-6.jpeg"}, {"id": 9481187, "nr": 7, "picture": "https://images.pexels.com/videos/9255221/pictures/preview-7.jpeg"}, {"id": 9481239, "nr": 8, "picture": "https://images.pexels.com/videos/9255221/pictures/preview-8.jpeg"}, {"id": 9481291, "nr": 9, "picture": "https://images.pexels.com/videos/9255221/pictures/preview-9.jpeg"}, {"id": 9481366, "nr": 10, "picture": "https://images.pexels.com/videos/9255221/pictures/preview-10.jpeg"}, {"id": 9481418, "nr": 11, "picture": "https://images.pexels.com/videos/9255221/pictures/preview-11.jpeg"}, {"id": 9481479, "nr": 12, "picture": "https://images.pexels.com/videos/9255221/pictures/preview-12.jpeg"}, {"id": 9481526, "nr": 13, "picture": "https://images.pexels.com/videos/9255221/pictures/preview-13.jpeg"}, {"id": 9481581, "nr": 14, "picture": "https://images.pexels.com/videos/9255221/pictures/preview-14.jpeg"}]}, {"id": 10474574, "width": 1080, "height": 1920, "duration": 11, "full_res": null, "tags": [], "url": "https://www.pexels.com/video/a-woman-holding-a-customized-denim-jacket-10474574/", "image": "https://images.pexels.com/videos/10474574/artist-craft-handmade-hobby-10474574.jpeg?auto=compress&cs=tinysrgb&fit=crop&h=1200&w=630", "avg_color": null, "user": {"id": 3149039, "name": "RDNE Stock project", "url": "https://www.pexels.com/@rdne"}, "video_files": [{"id": 11245687, "quality": "sd", "file_type": "video/mp4", "width": 360, "height": 640, "fps": 30.0, "link": "https://videos.pexels.com/video-files/10474574/10474574-sd_360_640_30fps.mp4", "size": 616448}, {"id": 11245770, "quality": "sd", "file_type": "video/mp4", "width": 240, "height": 426, "fps": 30.0, "link": "https://videos.pexels.com/video-files/10474574/10474574-sd_240_426_30fps.mp4", "size": 463549}, {"id": 11245912, "quality": "sd", "file_type": "video/mp4", "width": 540, "height": 960, "fps": 30.0, "link": "https://videos.pexels.com/video-files/10474574/10474574-sd_540_960_30fps.mp4", "size": 1504792}, {"id": 11246103, "quality": "hd", "file_type": "video/mp4", "width": 1080, "height": 1920, "fps": 30.0, "link": "https://videos.pexels.com/video-files/10474574/10474574-hd_1080_1920_30fps.mp4", "size": 5775094}, {"id": 11246220, "quality": "hd", "file_type": "video/mp4", "width": 720, "height": 1280, "fps": 30.0, "link": "https://videos.pexels.com/video-files/10474574/10474574-hd_720_1280_30fps.mp4", "size": 2839514}], "video_pictures": [{"id": 11035595, "nr": 0, "picture": "https://images.pexels.com/videos/10474574/pictures/preview-0.jpeg"}, {"id": 11035635, "nr": 1, "picture": "https://images.pexels.com/videos/10474574/pictures/preview-1.jpeg"}, {"id": 11035671, "nr": 2, "picture": "https://images.pexels.com/videos/10474574/pictures/preview-2.jpeg"}, {"id": 11035705, "nr": 3, "picture": "https://images.pexels.com/videos/10474574/pictures/preview-3.jpeg"}, {"id": 11035742, "nr": 4, "picture": "https://images.pexels.com/videos/10474574/pictures/preview-4.jpeg"}, {"id": 11035778, "nr": 5, "picture": "https://images.pexels.com/videos/10474574/pictures/preview-5.jpeg"}, {"id": 11035804, "nr": 6, "picture": "https://images.pexels.com/videos/10474574/pictures/preview-6.jpeg"}, {"id": 11035830, "nr": 7, "picture": "https://images.pexels.com/videos/10474574/pictures/preview-7.jpeg"}, {"id": 11035852, "nr": 8, "picture": "https://images.pexels.com/videos/10474574/pictures/preview-8.jpeg"}, {"id": 11035873, "nr": 9, "picture": "https://images.pexels.com/videos/10474574/pictures/preview-9.jpeg"}, {"id": 11035893, "nr": 10, "picture": "https://images.pexels.com/videos/10474574/pictures/preview-10.jpeg"}, {"id": 11035908, "nr": 11, "picture": "https://images.pexels.com/videos/10474574/pictures/preview-11.jpeg"}, {"id": 11035923, "nr": 12, "picture": "https://images.pexels.com/videos/10474574/pictures/preview-12.jpeg"}, {"id": 11035938, "nr": 13, "picture": "https://images.pexels.com/videos/10474574/pictures/preview-13.jpeg"}, {"id": 11035959, "nr": 14, "picture": "https://images.pexels.com/videos/10474574/pictures/preview-14.jpeg"}]}, {"id": 7714880, "width": 2160, "height": 3840, "duration": 10, "full_res": null, "tags": [], "url": "https://www.pexels.com/video/a-woman-making-a-soil-mixture-7714880/", "image": "https://images.pexels.com/videos/7714880/adult-agriculture-ball-shaped-bucket-7714880.jpeg?auto=compress&cs=tinysrgb&fit=crop&h=1200&w=630", "avg_color": null, "user": {"id": 48519361, "name": "Greta Hoffman", "url": "https://www.pexels.com/@greta-hoffman"}, "video_files": [{"id": 10564525, "quality": "hd", "file_type": "video/mp4", "width": 1080, "height": 1920, "fps": 23.97599983215332, "link": "https://videos.pexels.com/video-files/7714880/7714880-hd_1080_1920_24fps.mp4", "size": 6375727}, {"id": 10564650, "quality": "uhd", "file_type": "video/mp4", "width": 2160, "height": 3840, "fps": 23.97599983215332, "link": "https://videos.pexels.com/video-files/7714880/7714880-uhd_2160_3840_24fps.mp4", "size": 28503986}, {"id": 10564684, "quality": "sd", "file_type": "video/mp4", "width": 240, "height": 426, "fps": 23.97599983215332, "link": "https://videos.pexels.com/video-files/7714880/7714880-sd_240_426_24fps.mp4", "size": 432841}, {"id": 10564724, "quality": "hd", "file_type": "video/mp4", "width": 720, "height": 1280, "fps": 23.97599983215332, "link": "https://videos.pexels.com/video-files/7714880/7714880-hd_720_1280_24fps.mp4", "size": 3439037}, {"id": 10564745, "quality": "sd", "file_type": "video/mp4", "width": 360, "height": 640, "fps": 23.97599983215332, "link": "https://videos.pexels.com/video-files/7714880/7714880-sd_360_640_24fps.mp4", "size": 602294}, {"id": 10564834, "quality": "sd", "file_type": "video/mp4", "width": 540, "height": 960, "fps": 23.97599983215332, "link": "https://videos.pexels.com/video-files/7714880/7714880-sd_540_960_24fps.mp4", "size": 1718104}, {"id": 10564947, "quality": "uhd", "file_type": "video/mp4", "width": 1440, "height": 2560, "fps": 23.97599983215332, "link": "https://videos.pexels.com/video-files/7714880/7714880-uhd_1440_2560_24fps.mp4", "size": 15273366}], "video_pictures": [{"id": 6976517, "nr": 0, "picture": "https://images.pexels.com/videos/7714880/pictures/preview-0.jpeg"}, {"id": 6976531, "nr": 1, "picture": "https://images.pexels.com/videos/7714880/pictures/preview-1.jpeg"}, {"id": 6976548, "nr": 2, "picture": "https://images.pexels.com/videos/7714880/pictures/preview-2.jpeg"}, {"id": 6976571, "nr": 3, "picture": "https://images.pexels.com/videos/7714880/pictures/preview-3.jpeg"}, {"id": 6976590, "nr": 4, "picture": "https://images.pexels.com/videos/7714880/pictures/preview-4.jpeg"}, {"id": 6976608, "nr": 5, "picture": "https://images.pexels.com/videos/7714880/pictures/preview-5.jpeg"}, {"id": 6976623, "nr": 6, "picture": "https://images.pexels.com/videos/7714880/pictures/preview-6.jpeg"}, {"id": 6976633, "nr": 7, "picture": "https://images.pexels.com/videos/7714880/pictures/preview-7.jpeg"}, {"id": 6976647, "nr": 8, "picture": "https://images.pexels.com/videos/7714880/pictures/preview-8.jpeg"}, {"id": 6976659, "nr": 9, "picture": "https://images.pexels.com/videos/7714880/pictures/preview-9.jpeg"}, {"id": 6976672, "nr": 10, "picture": "https://images.pexels.com/videos/7714880/pictures/preview-10.jpeg"}, {"id": 6976682, "nr": 11, "picture": "https://images.pexels.com/videos/7714880/pictures/preview-11.jpeg"}, {"id": 6976688, "nr": 12, "picture": "https://images.pexels.com/videos/7714880/pictures/preview-12.jpeg"}, {"id": 6976697, "nr": 13, "picture": "https://images.pexels.com/videos/7714880/pictures/preview-13.jpeg"}, {"id": 6976708, "nr": 14, "picture": "https://images.pexels.com/videos/7714880/pictures/preview-14.jpeg"}]}, {"id": 7579901, "width": 1080, "height": 1920, "duration": 11, "full_res": null, "tags": [], "url": "https://www.pexels.com/video/a-woman-holding-a-sticker-7579901/", "image": "https://images.pexels.com/videos/7579901/pexels-photo-7579901.jpeg?auto=compress&cs=tinysrgb&fit=crop&h=1200&w=630", "avg_color": null, "user": {"id": 2297095, "name": "Pavel Danilyuk", "url": "https://www.pexels.com/@pavel-danilyuk"}, "video_files": [{"id": 10483919, "quality": "hd", "file_type": "video/mp4", "width": 1080, "height": 1920, "fps": 25.0, "link": "https://videos.pexels.com/video-files/7579901/7579901-hd_1080_1920_25fps.mp4", "size": 3435673}, {"id": 10483944, "quality": "sd", "file_type": "video/mp4", "width": 240, "height": 426, "fps": 25.0, "link": "https://videos.pexels.com/video-files/7579901/7579901-sd_240_426_25fps.mp4", "size": 213444}, {"id": 10483971, "quality": "sd", "file_type": "video/mp4", "width": 360, "height": 640, "fps": 25.0, "link": "https://videos.pexels.com/video-files/7579901/7579901-sd_360_640_25fps.mp4", "size": 421496}, {"id": 10484039, "quality": "sd", "file_type": "video/mp4", "width": 540, "height": 960, "fps": 25.0, "link": "https://videos.pexels.com/video-files/7579901/7579901-sd_540_960_25fps.mp4", "size": 763358}, {"id": 10484062, "quality": "hd", "file_type": "video/mp4", "width": 720, "height": 1280, "fps": 25.0, "link": "https://videos.pexels.com/video-files/7579901/7579901-hd_720_1280_25fps.mp4", "size": 1226518}], "video_pictures": [{"id": 6663006, "nr": 0, "picture": "https://images.pexels.com/videos/7579901/pictures/preview-0.jpeg"}, {"id": 6663012, "nr": 1, "picture": "https://images.pexels.com/videos/7579901/pictures/preview-1.jpeg"}, {"id": 6663017, "nr": 2, "picture": "https://images.pexels.com/videos/7579901/pictures/preview-2.jpeg"}, {"id": 6663021, "nr": 3, "picture": "https://images.pexels.com/videos/7579901/pictures/preview-3.jpeg"}, {"id": 6663024, "nr": 4, "picture": "https://images.pexels.com/videos/7579901/pictures/preview-4.jpeg"}, {"id": 6663027, "nr": 5, "picture": "https://images.pexels.com/videos/7579901/pictures/preview-5.jpeg"}, {"id": 6663034, "nr": 6, "picture": "https://images.pexels.com/videos/7579901/pictures/preview-6.jpeg"}, {"id": 6663041, "nr": 7, "picture": "https://images.pexels.com/videos/7579901/pictures/preview-7.jpeg"}, {"id": 6663049, "nr": 8, "picture": "https://images.pexels.com/videos/7579901/pictures/preview-8.jpeg"}, {"id": 6663054, "nr": 9, "picture": "https://images.pexels.com/videos/7579901/pictures/preview-9.jpeg"}, {"id": 6663058, "nr": 10, "picture": "https://images.pexels.com/videos/7579901/pictures/preview-10.jpeg"}, {"id": 6663063, "nr": 11, "picture": "https://images.pexels.com/videos/7579901/pictures/preview-11.jpeg"}, {"id": 6663070, "nr": 12, "picture": "https://images.pexels.com/videos/7579901/pictures/preview-12.jpeg"}, {"id": 6663076, "nr": 13, "picture": "https://images.pexels.com/videos/7579901/pictures/preview-13.jpeg"}, {"id": 6663081, "nr": 14, "picture": "https://images.pexels.com/videos/7579901/pictures/preview-14.jpeg"}]}], "total_results": 183, "next_page": "https://api.pexels.com/v1/videos/search?orientation=portrait&page=2&per_page=8&query=turnip+patch", "url": "https://api-server.pexels.com/search/videos/turnip%20patch/"}, "timestamp": "2025-01-24T18:07:45.785968"}
