{"query": "pumpkin water", "response": {"page": 1, "per_page": 8, "videos": [{"id": 30321490, "width": 2160, "height": 3840, "duration": 25, "full_res": null, "tags": [], "url": "https://www.pexels.com/video/serene-beach-sunset-with-calm-waves-30321490/", "image": "https://images.pexels.com/videos/30321490/beach-beach-sunset-calm-clouds-30321490.jpeg?auto=compress&cs=tinysrgb&fit=crop&h=1200&w=630", "avg_color": null, "user": {"id": 631997, "name": "Engin Akyurt", "url": "https://www.pexels.com/@enginakyurt"}, "video_files": [{"id": 12998117, "quality": null, "file_type": "video/mp4", "width": 360, "height": 640, "fps": 30.0, "link": "https://videos.pexels.com/video-files/30321490/12998117_360_640_30fps.mp4", "size": 2881923}, {"id": 12998118, "quality": null, "file_type": "video/mp4", "width": 540, "height": 960, "fps": 30.0, "link": "https://videos.pexels.com/video-files/30321490/12998118_540_960_30fps.mp4", "size": 6249310}, {"id": 12998119, "quality": null, "file_type": "video/mp4", "width": 720, "height": 1280, "fps": 30.0, "link": "https://videos.pexels.com/video-files/30321490/12998119_720_1280_30fps.mp4", "size": 11296877}, {"id": 12998120, "quality": null, "file_type": "video/mp4", "width": 1080, "height": 1920, "fps": 30.0, "link": "https://videos.pexels.com/video-files/30321490/12998120_1080_1920_30fps.mp4", "size": 28089005}, {"id": 12998121, "quality": null, "file_type": "video/mp4", "width": 1440, "height": 2560, "fps": 30.0, "link": "https://videos.pexels.com/video-files/30321490/12998121_1440_2560_30fps.mp4", "size": 52563667}, {"id": 12998122, "quality": null, "file_type": "video/mp4", "width": 2160, "height": 3840, "fps": 30.0, "link": "https://videos.pexels.com/video-files/30321490/12998122_2160_3840_30fps.mp4", "size": 132447139}], "video_pictures": [{"id": 24687746, "nr": 0, "picture": "https://images.pexels.com/videos/30321490/pictures/preview-0.jpg"}, {"id": 24687747, "nr": 1, "picture": "https://images.pexels.com/videos/30321490/pictures/preview-1.jpg"}, {"id": 24687748, "nr": 2, "picture": "https://images.pexels.com/videos/30321490/pictures/preview-2.jpg"}, {"id": 24687749, "nr": 3, "picture": "https://images.pexels.com/videos/30321490/pictures/preview-3.jpg"}, {"id": 24687750, "nr": 4, "picture": "https://images.pexels.com/videos/30321490/pictures/preview-4.jpg"}, {"id": 24687751, "nr": 5, "picture": "https://images.pexels.com/videos/30321490/pictures/preview-5.jpg"}, {"id": 24687752, "nr": 6, "picture": "https://images.pexels.com/videos/30321490/pictures/preview-6.jpg"}, {"id": 24687753, "nr": 7, "picture": "https://images.pexels.com/videos/30321490/pictures/preview-7.jpg"}, {"id": 24687754, "nr": 8, "picture": "https://images.pexels.com/videos/30321490/pictures/preview-8.jpg"}, {"id": 24687755, "nr": 9, "picture": "https://images.pexels.com/videos/30321490/pictures/preview-9.jpg"}, {"id": 24687756, "nr": 10, "picture": "https://images.pexels.com/videos/30321490/pictures/preview-10.jpg"}, {"id": 24687757, "nr": 11, "picture": "https://images.pexels.com/videos/30321490/pictures/preview-11.jpg"}, {"id": 24687758, "nr": 12, "picture": "https://images.pexels.com/videos/30321490/pictures/preview-12.jpg"}, {"id": 24687759, "nr": 13, "picture": "https://images.pexels.com/videos/30321490/pictures/preview-13.jpg"}, {"id": 24687760, "nr": 14, "picture": "https://images.pexels.com/videos/30321490/pictures/preview-14.jpg"}]}, {"id": 30306549, "width": 1080, "height": 1920, "duration": 13, "full_res": null, "tags": [], "url": "https://www.pexels.com/video/thrilling-off-road-river-crossing-adventure-30306549/", "image": "https://images.pexels.com/videos/30306549/4x4-off-roading-adrenaline-rush-adventure-vehicle-car-in-water-30306549.jpeg?auto=compress&cs=tinysrgb&fit=crop&h=1200&w=630", "avg_color": null, "user": {"id": 736226257, "name": "\u00c7a\u011fr\u0131 KANMAZ", "url": "https://www.pexels.com/@cagrikanmaz"}, "video_files": [{"id": 12992080, "quality": null, "file_type": "video/mp4", "width": 360, "height": 640, "fps": 29.969999313354492, "link": "https://videos.pexels.com/video-files/30306549/12992080_360_640_30fps.mp4", "size": 10311074}, {"id": 12992081, "quality": null, "file_type": "video/mp4", "width": 540, "height": 960, "fps": 29.969999313354492, "link": "https://videos.pexels.com/video-files/30306549/12992081_540_960_30fps.mp4", "size": 21219465}, {"id": 12992082, "quality": null, "file_type": "video/mp4", "width": 720, "height": 1280, "fps": 29.969999313354492, "link": "https://videos.pexels.com/video-files/30306549/12992082_720_1280_30fps.mp4", "size": 33631941}, {"id": 12992083, "quality": null, "file_type": "video/mp4", "width": 1080, "height": 1920, "fps": 29.969999313354492, "link": "https://videos.pexels.com/video-files/30306549/12992083_1080_1920_30fps.mp4", "size": 59658491}], "video_pictures": [{"id": 24672594, "nr": 0, "picture": "https://images.pexels.com/videos/30306549/pictures/preview-0.jpg"}, {"id": 24672595, "nr": 1, "picture": "https://images.pexels.com/videos/30306549/pictures/preview-1.jpg"}, {"id": 24672596, "nr": 2, "picture": "https://images.pexels.com/videos/30306549/pictures/preview-2.jpg"}, {"id": 24672597, "nr": 3, "picture": "https://images.pexels.com/videos/30306549/pictures/preview-3.jpg"}, {"id": 24672598, "nr": 4, "picture": "https://images.pexels.com/videos/30306549/pictures/preview-4.jpg"}, {"id": 24672599, "nr": 5, "picture": "https://images.pexels.com/videos/30306549/pictures/preview-5.jpg"}, {"id": 24672600, "nr": 6, "picture": "https://images.pexels.com/videos/30306549/pictures/preview-6.jpg"}, {"id": 24672601, "nr": 7, "picture": "https://images.pexels.com/videos/30306549/pictures/preview-7.jpg"}, {"id": 24672602, "nr": 8, "picture": "https://images.pexels.com/videos/30306549/pictures/preview-8.jpg"}, {"id": 24672603, "nr": 9, "picture": "https://images.pexels.com/videos/30306549/pictures/preview-9.jpg"}, {"id": 24672604, "nr": 10, "picture": "https://images.pexels.com/videos/30306549/pictures/preview-10.jpg"}, {"id": 24672605, "nr": 11, "picture": "https://images.pexels.com/videos/30306549/pictures/preview-11.jpg"}]}, {"id": 30256243, "width": 1080, "height": 1920, "duration": 17, "full_res": null, "tags": [], "url": "https://www.pexels.com/video/elegant-movement-of-jellyfish-in-black-water-30256243/", "image": "https://images.pexels.com/videos/30256243/-30256243.jpeg?auto=compress&cs=tinysrgb&fit=crop&h=1200&w=630", "avg_color": null, "user": {"id": 2148504350, "name": "lux werk", "url": "https://www.pexels.com/@lux-werk-2148504350"}, "video_files": [{"id": 12971330, "quality": null, "file_type": "video/mp4", "width": 360, "height": 640, "fps": 30.0, "link": "https://videos.pexels.com/video-files/30256243/12971330_360_640_30fps.mp4", "size": 597376}, {"id": 12971331, "quality": null, "file_type": "video/mp4", "width": 540, "height": 960, "fps": 30.0, "link": "https://videos.pexels.com/video-files/30256243/12971331_540_960_30fps.mp4", "size": 1129778}, {"id": 12971332, "quality": null, "file_type": "video/mp4", "width": 720, "height": 1280, "fps": 30.0, "link": "https://videos.pexels.com/video-files/30256243/12971332_720_1280_30fps.mp4", "size": 1772552}, {"id": 12971333, "quality": null, "file_type": "video/mp4", "width": 1080, "height": 1920, "fps": 30.0, "link": "https://videos.pexels.com/video-files/30256243/12971333_1080_1920_30fps.mp4", "size": 3334649}], "video_pictures": [{"id": 24618464, "nr": 0, "picture": "https://images.pexels.com/videos/30256243/pictures/preview-0.jpg"}, {"id": 24618465, "nr": 1, "picture": "https://images.pexels.com/videos/30256243/pictures/preview-1.jpg"}, {"id": 24618466, "nr": 2, "picture": "https://images.pexels.com/videos/30256243/pictures/preview-2.jpg"}, {"id": 24618467, "nr": 3, "picture": "https://images.pexels.com/videos/30256243/pictures/preview-3.jpg"}, {"id": 24618468, "nr": 4, "picture": "https://images.pexels.com/videos/30256243/pictures/preview-4.jpg"}, {"id": 24618469, "nr": 5, "picture": "https://images.pexels.com/videos/30256243/pictures/preview-5.jpg"}, {"id": 24618470, "nr": 6, "picture": "https://images.pexels.com/videos/30256243/pictures/preview-6.jpg"}, {"id": 24618471, "nr": 7, "picture": "https://images.pexels.com/videos/30256243/pictures/preview-7.jpg"}, {"id": 24618472, "nr": 8, "picture": "https://images.pexels.com/videos/30256243/pictures/preview-8.jpg"}, {"id": 24618473, "nr": 9, "picture": "https://images.pexels.com/videos/30256243/pictures/preview-9.jpg"}, {"id": 24618474, "nr": 10, "picture": "https://images.pexels.com/videos/30256243/pictures/preview-10.jpg"}, {"id": 24618475, "nr": 11, "picture": "https://images.pexels.com/videos/30256243/pictures/preview-11.jpg"}, {"id": 24618476, "nr": 12, "picture": "https://images.pexels.com/videos/30256243/pictures/preview-12.jpg"}, {"id": 24618477, "nr": 13, "picture": "https://images.pexels.com/videos/30256243/pictures/preview-13.jpg"}, {"id": 24618478, "nr": 14, "picture": "https://images.pexels.com/videos/30256243/pictures/preview-14.jpg"}]}, {"id": 14516678, "width": 1080, "height": 1920, "duration": 22, "full_res": null, "tags": [], "url": "https://www.pexels.com/video/tea-time-14516678/", "image": "https://images.pexels.com/videos/14516678/4k-video-afternoon-tea-autumn-autumn-aesthetic-14516678.jpeg?auto=compress&cs=tinysrgb&fit=crop&h=1200&w=630", "avg_color": null, "user": {"id": 53441892, "name": "hello aesthe", "url": "https://www.pexels.com/@helloaesthe"}, "video_files": [{"id": 6158821, "quality": "sd", "file_type": "video/mp4", "width": 240, "height": 426, "fps": 30.0, "link": "https://videos.pexels.com/video-files/14516678/14516678-sd_240_426_30fps.mp4", "size": 1228665}, {"id": 6158822, "quality": "hd", "file_type": "video/mp4", "width": 1080, "height": 1920, "fps": 30.0, "link": "https://videos.pexels.com/video-files/14516678/14516678-hd_1080_1920_30fps.mp4", "size": 11143599}, {"id": 6158823, "quality": "sd", "file_type": "video/mp4", "width": 540, "height": 960, "fps": 30.0, "link": "https://videos.pexels.com/video-files/14516678/14516678-sd_540_960_30fps.mp4", "size": 3276991}, {"id": 6158824, "quality": "sd", "file_type": "video/mp4", "width": 360, "height": 640, "fps": 30.0, "link": "https://videos.pexels.com/video-files/14516678/14516678-sd_360_640_30fps.mp4", "size": 1872129}, {"id": 6158825, "quality": "hd", "file_type": "video/mp4", "width": 720, "height": 1280, "fps": 30.0, "link": "https://videos.pexels.com/video-files/14516678/14516678-hd_720_1280_30fps.mp4", "size": 4816667}], "video_pictures": [{"id": 15542409, "nr": 0, "picture": "https://images.pexels.com/videos/14516678/pictures/preview-0.jpeg"}, {"id": 15542411, "nr": 1, "picture": "https://images.pexels.com/videos/14516678/pictures/preview-1.jpeg"}, {"id": 15542413, "nr": 2, "picture": "https://images.pexels.com/videos/14516678/pictures/preview-2.jpeg"}, {"id": 15542415, "nr": 3, "picture": "https://images.pexels.com/videos/14516678/pictures/preview-3.jpeg"}, {"id": 15542416, "nr": 4, "picture": "https://images.pexels.com/videos/14516678/pictures/preview-4.jpeg"}, {"id": 15542419, "nr": 5, "picture": "https://images.pexels.com/videos/14516678/pictures/preview-5.jpeg"}, {"id": 15542421, "nr": 6, "picture": "https://images.pexels.com/videos/14516678/pictures/preview-6.jpeg"}, {"id": 15542423, "nr": 7, "picture": "https://images.pexels.com/videos/14516678/pictures/preview-7.jpeg"}, {"id": 15542425, "nr": 8, "picture": "https://images.pexels.com/videos/14516678/pictures/preview-8.jpeg"}, {"id": 15542427, "nr": 9, "picture": "https://images.pexels.com/videos/14516678/pictures/preview-9.jpeg"}, {"id": 15542429, "nr": 10, "picture": "https://images.pexels.com/videos/14516678/pictures/preview-10.jpeg"}, {"id": 15542430, "nr": 11, "picture": "https://images.pexels.com/videos/14516678/pictures/preview-11.jpeg"}, {"id": 15542431, "nr": 12, "picture": "https://images.pexels.com/videos/14516678/pictures/preview-12.jpeg"}, {"id": 15542432, "nr": 13, "picture": "https://images.pexels.com/videos/14516678/pictures/preview-13.jpeg"}, {"id": 15542433, "nr": 14, "picture": "https://images.pexels.com/videos/14516678/pictures/preview-14.jpeg"}]}, {"id": 30349712, "width": 2160, "height": 3840, "duration": 15, "full_res": null, "tags": [], "url": "https://www.pexels.com/video/serene-lakeside-view-with-mountain-backdrop-30349712/", "image": "https://images.pexels.com/videos/30349712/nature-30349712.jpeg?auto=compress&cs=tinysrgb&fit=crop&h=1200&w=630", "avg_color": null, "user": {"id": 1151932823, "name": "Khrystyna Ivanova", "url": "https://www.pexels.com/@khrystyna-ivanova-1151932823"}, "video_files": [{"id": 13008977, "quality": null, "file_type": "video/mp4", "width": 360, "height": 640, "fps": 31.579999923706055, "link": "https://videos.pexels.com/video-files/30349712/13008977_360_640_32fps.mp4", "size": 7465492}, {"id": 13008978, "quality": null, "file_type": "video/mp4", "width": 540, "height": 960, "fps": 31.579999923706055, "link": "https://videos.pexels.com/video-files/30349712/13008978_540_960_32fps.mp4", "size": 15509073}, {"id": 13008979, "quality": null, "file_type": "video/mp4", "width": 720, "height": 1280, "fps": 31.579999923706055, "link": "https://videos.pexels.com/video-files/30349712/13008979_720_1280_32fps.mp4", "size": 25695592}, {"id": 13008980, "quality": null, "file_type": "video/mp4", "width": 1080, "height": 1920, "fps": 31.579999923706055, "link": "https://videos.pexels.com/video-files/30349712/13008980_1080_1920_32fps.mp4", "size": 48242346}, {"id": 13008981, "quality": null, "file_type": "video/mp4", "width": 1440, "height": 2560, "fps": 31.579999923706055, "link": "https://videos.pexels.com/video-files/30349712/13008981_1440_2560_32fps.mp4", "size": 74653108}, {"id": 13008982, "quality": null, "file_type": "video/mp4", "width": 2160, "height": 3840, "fps": 31.579999923706055, "link": "https://videos.pexels.com/video-files/30349712/13008982_2160_3840_32fps.mp4", "size": 106040067}], "video_pictures": [{"id": 24716874, "nr": 0, "picture": "https://images.pexels.com/videos/30349712/pictures/preview-0.jpg"}, {"id": 24716875, "nr": 1, "picture": "https://images.pexels.com/videos/30349712/pictures/preview-1.jpg"}, {"id": 24716876, "nr": 2, "picture": "https://images.pexels.com/videos/30349712/pictures/preview-2.jpg"}, {"id": 24716877, "nr": 3, "picture": "https://images.pexels.com/videos/30349712/pictures/preview-3.jpg"}, {"id": 24716878, "nr": 4, "picture": "https://images.pexels.com/videos/30349712/pictures/preview-4.jpg"}, {"id": 24716879, "nr": 5, "picture": "https://images.pexels.com/videos/30349712/pictures/preview-5.jpg"}, {"id": 24716880, "nr": 6, "picture": "https://images.pexels.com/videos/30349712/pictures/preview-6.jpg"}, {"id": 24716881, "nr": 7, "picture": "https://images.pexels.com/videos/30349712/pictures/preview-7.jpg"}, {"id": 24716882, "nr": 8, "picture": "https://images.pexels.com/videos/30349712/pictures/preview-8.jpg"}, {"id": 24716883, "nr": 9, "picture": "https://images.pexels.com/videos/30349712/pictures/preview-9.jpg"}, {"id": 24716884, "nr": 10, "picture": "https://images.pexels.com/videos/30349712/pictures/preview-10.jpg"}, {"id": 24716885, "nr": 11, "picture": "https://images.pexels.com/videos/30349712/pictures/preview-11.jpg"}, {"id": 24716886, "nr": 12, "picture": "https://images.pexels.com/videos/30349712/pictures/preview-12.jpg"}, {"id": 24716887, "nr": 13, "picture": "https://images.pexels.com/videos/30349712/pictures/preview-13.jpg"}]}, {"id": 30358215, "width": 2160, "height": 3840, "duration": 12, "full_res": null, "tags": [], "url": "https://www.pexels.com/video/stunning-aerial-view-of-st-maximilian-church-munich-30358215/", "image": "https://images.pexels.com/videos/30358215/4k-drone-shot-aerial-perspective-autumn-tree-beautiful-architecture-30358215.jpeg?auto=compress&cs=tinysrgb&fit=crop&h=1200&w=630", "avg_color": null, "user": {"id": 2094527, "name": "Nirjhar Basak", "url": "https://www.pexels.com/@nbasak"}, "video_files": [{"id": 13012790, "quality": null, "file_type": "video/mp4", "width": 360, "height": 640, "fps": 29.969999313354492, "link": "https://videos.pexels.com/video-files/30358215/13012790_360_640_30fps.mp4", "size": 2627215}, {"id": 13012791, "quality": null, "file_type": "video/mp4", "width": 540, "height": 960, "fps": 29.969999313354492, "link": "https://videos.pexels.com/video-files/30358215/13012791_540_960_30fps.mp4", "size": 6847002}, {"id": 13012792, "quality": null, "file_type": "video/mp4", "width": 720, "height": 1280, "fps": 29.969999313354492, "link": "https://videos.pexels.com/video-files/30358215/13012792_720_1280_30fps.mp4", "size": 13734462}, {"id": 13012793, "quality": null, "file_type": "video/mp4", "width": 1080, "height": 1920, "fps": 29.969999313354492, "link": "https://videos.pexels.com/video-files/30358215/13012793_1080_1920_30fps.mp4", "size": 35225661}, {"id": 13012794, "quality": null, "file_type": "video/mp4", "width": 1440, "height": 2560, "fps": 29.969999313354492, "link": "https://videos.pexels.com/video-files/30358215/13012794_1440_2560_30fps.mp4", "size": 61541103}, {"id": 13012795, "quality": null, "file_type": "video/mp4", "width": 2160, "height": 3840, "fps": 29.969999313354492, "link": "https://videos.pexels.com/video-files/30358215/13012795_2160_3840_30fps.mp4", "size": 128860340}], "video_pictures": [{"id": 24726756, "nr": 0, "picture": "https://images.pexels.com/videos/30358215/pictures/preview-0.jpg"}, {"id": 24726757, "nr": 1, "picture": "https://images.pexels.com/videos/30358215/pictures/preview-1.jpg"}, {"id": 24726758, "nr": 2, "picture": "https://images.pexels.com/videos/30358215/pictures/preview-2.jpg"}, {"id": 24726759, "nr": 3, "picture": "https://images.pexels.com/videos/30358215/pictures/preview-3.jpg"}, {"id": 24726760, "nr": 4, "picture": "https://images.pexels.com/videos/30358215/pictures/preview-4.jpg"}, {"id": 24726761, "nr": 5, "picture": "https://images.pexels.com/videos/30358215/pictures/preview-5.jpg"}, {"id": 24726762, "nr": 6, "picture": "https://images.pexels.com/videos/30358215/pictures/preview-6.jpg"}, {"id": 24726763, "nr": 7, "picture": "https://images.pexels.com/videos/30358215/pictures/preview-7.jpg"}, {"id": 24726764, "nr": 8, "picture": "https://images.pexels.com/videos/30358215/pictures/preview-8.jpg"}, {"id": 24726765, "nr": 9, "picture": "https://images.pexels.com/videos/30358215/pictures/preview-9.jpg"}, {"id": 24726766, "nr": 10, "picture": "https://images.pexels.com/videos/30358215/pictures/preview-10.jpg"}]}, {"id": 30358179, "width": 2160, "height": 3840, "duration": 22, "full_res": null, "tags": [], "url": "https://www.pexels.com/video/aerial-view-of-coastal-construction-site-30358179/", "image": "https://images.pexels.com/videos/30358179/pexels-photo-30358179.jpeg?auto=compress&cs=tinysrgb&fit=crop&h=1200&w=630", "avg_color": null, "user": {"id": 1076477, "name": "Soumyadeep Das", "url": "https://www.pexels.com/@soumyadeep-das-1076477"}, "video_files": [{"id": 13012778, "quality": null, "file_type": "video/mp4", "width": 360, "height": 640, "fps": 59.939998626708984, "link": "https://videos.pexels.com/video-files/30358179/13012778_360_640_60fps.mp4", "size": 2740340}, {"id": 13012779, "quality": null, "file_type": "video/mp4", "width": 540, "height": 960, "fps": 59.939998626708984, "link": "https://videos.pexels.com/video-files/30358179/13012779_540_960_60fps.mp4", "size": 5650937}, {"id": 13012780, "quality": null, "file_type": "video/mp4", "width": 720, "height": 1280, "fps": 59.939998626708984, "link": "https://videos.pexels.com/video-files/30358179/13012780_720_1280_60fps.mp4", "size": 9423342}, {"id": 13012781, "quality": null, "file_type": "video/mp4", "width": 1080, "height": 1920, "fps": 59.939998626708984, "link": "https://videos.pexels.com/video-files/30358179/13012781_1080_1920_60fps.mp4", "size": 20947260}, {"id": 13012782, "quality": null, "file_type": "video/mp4", "width": 1440, "height": 2560, "fps": 59.939998626708984, "link": "https://videos.pexels.com/video-files/30358179/13012782_1440_2560_60fps.mp4", "size": 35932534}, {"id": 13012783, "quality": null, "file_type": "video/mp4", "width": 2160, "height": 3840, "fps": 59.939998626708984, "link": "https://videos.pexels.com/video-files/30358179/13012783_2160_3840_60fps.mp4", "size": 95424342}], "video_pictures": [{"id": 24726487, "nr": 0, "picture": "https://images.pexels.com/videos/30358179/pictures/preview-0.jpg"}, {"id": 24726488, "nr": 1, "picture": "https://images.pexels.com/videos/30358179/pictures/preview-1.jpg"}, {"id": 24726489, "nr": 2, "picture": "https://images.pexels.com/videos/30358179/pictures/preview-2.jpg"}, {"id": 24726490, "nr": 3, "picture": "https://images.pexels.com/videos/30358179/pictures/preview-3.jpg"}, {"id": 24726491, "nr": 4, "picture": "https://images.pexels.com/videos/30358179/pictures/preview-4.jpg"}, {"id": 24726492, "nr": 5, "picture": "https://images.pexels.com/videos/30358179/pictures/preview-5.jpg"}, {"id": 24726493, "nr": 6, "picture": "https://images.pexels.com/videos/30358179/pictures/preview-6.jpg"}, {"id": 24726494, "nr": 7, "picture": "https://images.pexels.com/videos/30358179/pictures/preview-7.jpg"}, {"id": 24726495, "nr": 8, "picture": "https://images.pexels.com/videos/30358179/pictures/preview-8.jpg"}, {"id": 24726496, "nr": 9, "picture": "https://images.pexels.com/videos/30358179/pictures/preview-9.jpg"}, {"id": 24726497, "nr": 10, "picture": "https://images.pexels.com/videos/30358179/pictures/preview-10.jpg"}, {"id": 24726498, "nr": 11, "picture": "https://images.pexels.com/videos/30358179/pictures/preview-11.jpg"}, {"id": 24726499, "nr": 12, "picture": "https://images.pexels.com/videos/30358179/pictures/preview-12.jpg"}, {"id": 24726500, "nr": 13, "picture": "https://images.pexels.com/videos/30358179/pictures/preview-13.jpg"}, {"id": 24726501, "nr": 14, "picture": "https://images.pexels.com/videos/30358179/pictures/preview-14.jpg"}]}, {"id": 30355280, "width": 2160, "height": 3840, "duration": 42, "full_res": null, "tags": [], "url": "https://www.pexels.com/video/lush-green-forest-and-clear-coastal-waters-30355280/", "image": "https://images.pexels.com/videos/30355280/background-greenery-coastal-coconut-potrait-photography-30355280.jpeg?auto=compress&cs=tinysrgb&fit=crop&h=1200&w=630", "avg_color": null, "user": {"id": 265550790, "name": "Simeon Pitukolo", "url": "https://www.pexels.com/@simeon-pitukolo-265550790"}, "video_files": [{"id": 13011528, "quality": null, "file_type": "video/mp4", "width": 360, "height": 640, "fps": 29.969999313354492, "link": "https://videos.pexels.com/video-files/30355280/13011528_360_640_30fps.mp4", "size": 8432122}, {"id": 13011529, "quality": null, "file_type": "video/mp4", "width": 540, "height": 960, "fps": 29.969999313354492, "link": "https://videos.pexels.com/video-files/30355280/13011529_540_960_30fps.mp4", "size": 18045849}, {"id": 13011530, "quality": null, "file_type": "video/mp4", "width": 720, "height": 1280, "fps": 29.969999313354492, "link": "https://videos.pexels.com/video-files/30355280/13011530_720_1280_30fps.mp4", "size": 30767576}, {"id": 13011531, "quality": null, "file_type": "video/mp4", "width": 1080, "height": 1920, "fps": 29.969999313354492, "link": "https://videos.pexels.com/video-files/30355280/13011531_1080_1920_30fps.mp4", "size": 65064022}, {"id": 13011532, "quality": null, "file_type": "video/mp4", "width": 1440, "height": 2560, "fps": 29.969999313354492, "link": "https://videos.pexels.com/video-files/30355280/13011532_1440_2560_30fps.mp4", "size": 102010554}, {"id": 13011533, "quality": null, "file_type": "video/mp4", "width": 2160, "height": 3840, "fps": 29.969999313354492, "link": "https://videos.pexels.com/video-files/30355280/13011533_2160_3840_30fps.mp4", "size": 200545076}], "video_pictures": [{"id": 24723480, "nr": 0, "picture": "https://images.pexels.com/videos/30355280/pictures/preview-0.jpg"}, {"id": 24723481, "nr": 1, "picture": "https://images.pexels.com/videos/30355280/pictures/preview-1.jpg"}, {"id": 24723482, "nr": 2, "picture": "https://images.pexels.com/videos/30355280/pictures/preview-2.jpg"}, {"id": 24723483, "nr": 3, "picture": "https://images.pexels.com/videos/30355280/pictures/preview-3.jpg"}, {"id": 24723484, "nr": 4, "picture": "https://images.pexels.com/videos/30355280/pictures/preview-4.jpg"}, {"id": 24723485, "nr": 5, "picture": "https://images.pexels.com/videos/30355280/pictures/preview-5.jpg"}, {"id": 24723486, "nr": 6, "picture": "https://images.pexels.com/videos/30355280/pictures/preview-6.jpg"}, {"id": 24723487, "nr": 7, "picture": "https://images.pexels.com/videos/30355280/pictures/preview-7.jpg"}, {"id": 24723488, "nr": 8, "picture": "https://images.pexels.com/videos/30355280/pictures/preview-8.jpg"}, {"id": 24723489, "nr": 9, "picture": "https://images.pexels.com/videos/30355280/pictures/preview-9.jpg"}, {"id": 24723490, "nr": 10, "picture": "https://images.pexels.com/videos/30355280/pictures/preview-10.jpg"}, {"id": 24723491, "nr": 11, "picture": "https://images.pexels.com/videos/30355280/pictures/preview-11.jpg"}, {"id": 24723492, "nr": 12, "picture": "https://images.pexels.com/videos/30355280/pictures/preview-12.jpg"}, {"id": 24723493, "nr": 13, "picture": "https://images.pexels.com/videos/30355280/pictures/preview-13.jpg"}, {"id": 24723494, "nr": 14, "picture": "https://images.pexels.com/videos/30355280/pictures/preview-14.jpg"}]}], "total_results": 8000, "next_page": "https://api.pexels.com/v1/videos/search?orientation=portrait&page=2&per_page=8&query=pumpkin+water", "url": "https://api-server.pexels.com/search/videos/pumpkin%20water/"}, "timestamp": "2025-01-24T18:12:56.757014"}
